2
363
1e-11
0,0.0,0.0,-66.64683120798566,0,124.54427884195329,-456.07261124732685,-1116.575634423712
1,0.0,0.5,-133.09946220315496,0,72.21720546969337,786.0854844168726,-155.24574053800794
2,0.5,0.0,59.632945896712016,0,-28.47555692043942,244.49651662201234,5468.3427431373375
3,0.5,0.5,-13.61164255667385,0,501.5039381315941,195.16518873638344,4308.53150491733
4,0.5,1.0,64.71333130941771,0,276.5478847077336,448.1277756979432,232.40844215978902
5,1.0,0.0,47.517050102259624,0,-89.06289022355276,-14.939486315090507,866.2842490579317
6,1.0,0.5,-31.144052623206615,0,374.03169208609165,209.34024150503194,-3052.815196559691
7,1.0,1.0,145.34026327961183,0,-282.4316060536247,98.8311329006102,1923.138519739409
8,0.25,0.25,8.105252207772192,1,-31.26926297207854,-1854.409839928771,147630.2538515246
9,0.75,0.25,14.056077184567735,1,-974.2563672688208,1157.7246401880507,-649003.5686731676
10,0.75,0.75,47.945549128726746,1,-40.60671357413856,782.5504146034692,25416.762446159635
11,0.25,0.0,4.97718608329879,0,84.96691168218429,-14.319020335287382,3327.6929562001883
12,0.0,0.25,-162.9581282283728,0,-490.381235357807,-349.9005752249747,-9666.999484534032
13,0.25,0.5,16.26064180718019,0,-1285.4880807254124,-360.1634666971023,-53466.089629038426
14,0.5,0.25,15.785405807712966,1,-116.22080819135019,-401.12143937805337,324096.38834016287
15,0.75,0.0,45.02596341909942,0,-70.9211739994802,0.8182770630579674,1583.3023810912591
16,0.5,0.75,-16.308607037867276,0,-255.40117647203357,452.92770311548475,-5239.750342422966
17,0.75,0.5,2.792015588240581,1,-418.5240418297877,21.771702433306306,-62571.454287466935
18,0.75,1.0,117.09670658501169,0,149.214289323234,80.93924873687821,2020.853263725265
19,1.0,0.25,15.861718869995503,0,90.43142611647157,-60.42988691856247,-7474.67686757907
20,1.0,0.75,63.18966896326192,0,33.834651029101394,426.76181797016494,282.36825349402716
21,0.875,0.125,31.45059134586078,1,-19.463494275412497,-319.0516327901801,1233.6255849534193
22,0.625,0.625,-7.838414685471349,1,246.20894232530756,-407.7445356759341,-31204.66077038938
23,0.625,0.375,0.3959102974795336,1,-438.81530310573805,-41.87825524241046,123887.90584669387
24,0.375,0.125,25.214415127905696,1,-496.8704035705556,272.03214832805736,17213.615989541297
25,0.875,0.375,-9.210628493506645,1,8.27565681215341,-705.3101854254428,-40534.43578424212
26,0.75,0.375,4.32602551858189,1,198.39347233872593,2.653140959882739,-355971.34202870436
27,0.625,0.125,29.72064099294484,1,184.26491965991138,-231.06849747076308,-10355.612303435484
28,0.75,0.125,29.444087162918347,1,-37.68301223064833,-182.02540779775734,9168.707071629877
29,0.625,0.25,15.524441848423415,1,973.277396626706,444.4648084412319,-495853.028931931
30,0.6875,0.1875,24.884609836447638,1,178.14571935207914,-225.81504450113198,-140322.75332750526
31,0.875,0.25,13.117344357214296,1,-236.7217691834133,246.68032988579427,-36334.9352950687
32,0.8125,0.1875,18.204417321196075,1,446.5174806598567,120.67564365858522,-66076.64993228632
33,0.875,0.0,46.27982877633995,0,-36.42204889555,-59.40127024286177,1050.5005370940587
34,0.8125,0.0625,42.20393761733335,1,-27.223254794471572,-152.53294706191411,1369.8238918469642
35,0.8125,0.125,32.002517575933155,1,111.31901064614134,-295.62932455381883,1301.4947407221937
36,0.75,0.1875,16.293479763662273,1,255.826096911428,758.6658892707329,8669.759559893915
37,1.0,0.125,38.036210129345775,0,-83.34979691721107,9.658839865803309,1206.141600698998
38,0.9375,0.0625,43.258327107539074,1,-24.004658271188845,-90.0256527591253,735.265839138635
39,0.875,0.0625,42.84755199800178,1,-16.98140125219409,-141.14321631082268,1016.069772567752
40,0.84375,0.09375,38.4221267742295,1,10.814737802245233,-226.70066908215065,1230.2534975225824
41,0.625,0.0,49.30134364882986,0,-147.30838500743232,67.64894548330022,1947.994064544582
42,0.6875,0.0625,41.937199699380514,1,-83.77936603585516,-40.17243552819514,2292.8126530799823
43,0.75,0.0625,41.031987464497526,1,-57.65259421854859,-95.77021201154932,1455.9504962362832
44,0.78125,0.09375,36.57304376589738,1,-24.4355928792105,-216.26324290135537,1649.3400716570584
45,0.875,0.625,13.27409363528803,1,-160.77077941001838,281.74397244955037,5325.318512081331
46,0.125,0.125,-49.54775617717328,1,422.22876488962066,-163.8638330587701,794.962596713438
47,0.25,0.125,9.368669596131006,1,-162.3688867122648,22.530913950186335,-4651.87272518075
48,0.75,0.625,2.333223542139478,1,-270.0861275370801,-223.57278992853924,381.0516338169479
49,0.375,0.375,1.7665891315263342,1,-66.72484311823824,-14.38777619587767,-66193.07316966975
50,0.375,0.25,16.11698872936662,1,-419.1396956113381,-109.08481997410792,291820.60804970225
51,0.5,0.375,3.765494343988505,1,96.21970695282282,600.7217865826229,112639.14720248252
52,0.5625,0.3125,3.261059538668456,1,-256.12162738305216,523.2413469929365,-152712.17592272843
53,0.625,0.875,61.41469675033947,1,326.7630852552499,471.10035867844755,864.3642970509676
54,0.5,0.125,33.66062447582086,1,-425.13221914863334,-910.5405123647984,38566.200713401915
55,0.5625,0.1875,21.166874837108125,1,-45.88450177715236,63.065683105053516,-6362.469165848162
56,0.625,0.1875,20.72340849287312,1,215.09201117230174,492.7755346286005,-177138.53459249827
57,0.625,0.5,-13.698087764087877,1,848.8402635041795,605.1479100568754,-79881.87208557063
58,0.6875,0.4375,4.235022495093887,1,-440.02796773429185,-65.98235526335861,-311869.2126147465
59,0.6875,0.125,32.79287595845678,1,-355.689787798639,-99.44991681499802,2073.7581834004327
60,0.71875,0.15625,21.737628882316997,1,-223.90625253480366,42.726144329348884,-69704.68116848539
61,0.6875,0.3125,7.433219439618187,1,772.9968121397965,-553.0638570276695,278644.6352912759
62,0.8125,0.3125,2.5852444186946526,1,366.09787715740987,109.55525898497085,153303.7420717028
63,0.9375,0.1875,25.17380260296368,1,62.07678648652788,8.4961045152662,11256.083419069657
64,0.875,0.1875,18.05329412341558,1,95.47404691271532,30.634499131698668,-45136.501224085136
65,1.0,0.375,-17.223024360894694,0,214.62682662138087,-274.2053786931411,-253.5348541371441
66,0.9375,0.3125,8.07641109070872,1,-16.470757635432964,-169.53058937979878,14499.442465620576
67,0.8125,0.25,10.971550448812973,1,75.07149494561111,306.95617753889314,-227716.005765593
68,0.78125,0.21875,16.522987313498945,1,81.40755587782547,-913.1598236469972,46252.765686651794
69,0.875,0.5,-21.903472694522716,1,109.20915909395038,-83.4804282938478,-1280.2931142066275
70,0.8125,0.4375,0.8112600075162357,1,781.9429507257438,434.61348958822185,115777.38883764022
71,0.6875,0.25,4.628625588095121,1,86.492285141997,-576.4983100322956,-1167169.295478896
72,0.71875,0.21875,15.778741228218,1,-69.99713079844204,-110.91387297553536,-568051.126865346
73,0.78125,0.15625,17.13891376567995,1,8.364637450279826,-633.521899453763,-25097.626512169074
74,0.78125,0.125,29.676934375032864,1,33.162758864441315,-387.774649590145,-1463.5150076310497
75,0.8125,0.0,45.44235684820236,0,-44.25148550112201,-48.14717500721068,1323.0334871334153
76,0.4375,0.1875,17.477459344761588,1,-359.44123787144736,-342.46245015531787,128535.71829279768
77,0.5,0.1875,18.813511253801124,1,-235.4003930348037,-349.66502408124165,248740.37056339558
78,0.875,0.875,118.04625444195409,1,-96.021513902996,343.08364611551485,2234.262447623903
79,0.9375,0.125,34.90539117661761,1,70.50628239416376,-74.23874039027648,-61.040436013548536
80,0.90625,0.09375,38.46776947171608,1,-1.5886041907308222,-157.62197322605593,730.9801901615645
81,0.6875,0.5625,3.130648284647009,1,-22.556517254589988,100.16519354669595,-42342.07558089292
82,0.6875,0.5,4.332945243533528,1,-318.003417059979,-60.110630428503036,-133139.2313021038
83,0.4375,0.3125,6.069116989015915,1,-136.28111482708636,350.7424275417882,209401.20592155674
84,0.4375,0.25,14.355966358451376,1,-140.33307333498976,-653.6260659174953,523306.87103055057
85,0.8125,0.5625,-7.016965907070877,1,-120.74530456833804,479.8720121757106,-39213.74754888641
86,0.75,0.5625,3.1933955039164474,1,70.70062576245006,-324.2851884736996,66363.44936683492
87,0.75,0.4375,3.7049615334969452,1,-593.6250711804506,-228.3355444705049,77678.6088296398
88,0.71875,0.46875,4.183576172438107,1,120.52771330501218,50.80869199342427,-124187.29374333512
89,0.46875,0.21875,14.73664956562793,1,-53.15551360426127,-78.55925929076712,132157.38808832833
90,0.5625,0.25,17.114983751750547,1,-982.3159262316383,-236.68688393289455,35007.506442489226
91,0.53125,0.21875,20.252827485280836,1,104.32131919200388,493.3284789183759,-79339.7286867693
92,0.65625,0.21875,14.25847443398021,1,-339.4372554565633,476.26755704496077,-396890.2275098579
93,0.6875,0.21875,19.621795680024825,1,722.203806774528,976.4797187826537,9413.46482967167
94,1.0,0.625,6.888290417295394,0,138.54142493123342,366.99080639222063,-302.6786629823979
95,0.9375,0.5625,-13.810837015416153,1,176.09715572177228,327.11766326657977,-1412.8282371051653
96,0.875,0.5625,-11.957168083965506,1,271.52284306087716,454.88782457827244,-4314.766891178337
97,0.5625,0.0625,50.0342171093104,1,-284.2492072335267,-119.75488471618918,4384.425906817161
98,0.5625,0.125,30.82027047264886,1,-264.2194671524015,-149.23781526796998,-13761.64670827242
99,0.53125,0.15625,19.54686064689364,1,195.7820785687162,157.35096873582455,-93615.87983583253
100,0.125,0.375,-84.5192420961216,1,924.5185411673936,685.7183930437961,-13975.232684369314
101,0.125,0.25,-89.75592389670932,1,793.9597641432912,-656.5700468532784,-19441.17125793797
102,0.1875,0.1875,-2.4324779773540843,1,677.3147894522191,386.625841107119,18643.017001311055
103,0.9375,0.4375,-31.167536938465748,1,187.3190852651247,73.64596408996275,-6347.09689607689
104,0.875,0.4375,-14.129881360828687,1,-387.7326067221116,333.2093113203973,-2689.876815900019
105,0.9375,0.0,46.19574114818015,0,-44.33302374889113,-37.13460564069764,846.829116107315
106,0.375,0.0,24.155828568259235,0,-155.33389990493333,-53.57066037194612,-3639.279609017466
107,0.4375,0.0625,36.09919643533526,1,141.60140719340504,-137.66051687757,1194.4257595608958
108,0.4375,0.125,20.953168515953916,1,201.52749280976897,-383.4307146816929,-36379.370408310206
109,0.8125,0.5,-12.927793001629185,1,-117.83176558250102,-310.57907569610364,-56234.77271265652
110,0.875,0.75,55.595184920138124,1,149.9326436661628,614.9683545036678,-374.71583572304917
111,0.65625,0.15625,31.56713451720795,1,214.28878457830874,387.2622210292031,76772.10735310845
112,1.0,0.0625,43.793894480853346,0,-82.78485660855209,-44.56289761875444,885.73938200855
113,0.3125,0.1875,18.22579814800295,1,-526.7608187970702,169.18831658462574,-67779.37237715581
114,0.375,0.1875,19.2507755504372,1,-48.365289180281835,-606.6333077208304,108701.1526196758
115,0.40625,0.21875,13.093972416057621,1,-63.926241323155466,101.2183949942099,-159017.87339981084
116,0.8125,0.375,2.5740680188709435,1,-345.5023584295747,-240.41127675812237,-199037.91219683434
117,0.78125,0.40625,2.038668948755459,1,398.2239692072695,-463.12213871430026,440109.5504689024
118,0.5,0.3125,5.849213838661813,1,-208.28736608808651,446.33771324504164,319771.67397670215
119,0.46875,0.15625,20.822511633337136,1,-402.45706252369456,-334.1465194764099,87715.07228110451
120,0.46875,0.1875,17.492193334528608,1,-130.06837091896216,268.1526110093843,-97713.52016754902
121,1.0,0.875,120.72373169564862,0,-189.16297685162186,354.3477528756433,1404.9241349075014
122,0.625,0.75,3.367856616591441,1,246.51824816410667,645.9292634740584,-4503.004893184654
123,0.6875,0.6875,3.68243424329809,1,416.50261701871426,181.87554260115087,-17692.308460529555
124,0.125,0.0,-39.92879269274345,0,192.8227633499542,-267.26974194273697,-578.8340601055603
125,0.1875,0.0625,-15.136099276396893,1,130.41682084617935,-130.57822057335432,-512.9331303989832
126,0.75,0.15625,16.74796852633276,1,70.22302241956984,-464.9902250158934,75797.69402703049
127,0.8125,0.6875,9.507084083032701,1,390.70564313221433,521.020321108661,-39070.69050211366
128,0.8125,0.625,9.740952429404595,1,506.96704519053543,-261.4151086095436,80625.31632849674
129,0.78125,0.59375,2.9056767915563424,1,161.20840199076605,879.3072476642736,48804.102165240016
130,0.625,0.0625,43.23522511060452,1,-97.19951928908347,-94.4187334168051,910.0637111250213
131,0.65625,0.09375,38.82806680197247,1,-38.42611058063411,3.3218900129947264,5009.131371527649
132,0.46875,0.28125,4.444121942160247,1,345.4970321923278,651.6205377009396,-4249.140398713488
133,0.46875,0.25,11.36813621178375,1,176.47494547746675,568.9020634167398,-136178.10563362314
134,0.9375,0.25,14.336292426459073,1,-85.5383889718404,1.891295579205484,-24229.528914375827
135,0.90625,0.21875,16.96414857226779,1,137.20285376893455,2.435853099790251,65672.11916298077
136,0.875,1.0,140.07876984141492,0,-72.69692843193336,58.254363610867166,2130.2289766868216
137,0.75,0.3125,0.9094670872292955,1,-395.9181518785068,-306.7333092842251,-851933.4891764098
138,0.71875,0.09375,35.328645863524,1,-81.08517141568603,-151.7622305428518,678.7943410822816
139,0.71875,0.125,27.985077133528044,1,-43.35813311808212,-275.08863135327215,-6320.001211040349
140,0.25,0.375,3.00767541844004,1,-359.5511437461484,945.4607355253909,164873.1990723462
141,0.3125,0.3125,5.36984137834221,1,390.9185707011627,20.843292008003612,152189.0639145118
142,0.71875,0.28125,6.645316782591731,1,720.0582757618148,-541.9930469920588,-232186.702909852
143,0.71875,0.25,15.668110639825453,1,844.3495666739534,-420.0343899806093,1026036.3019611144
144,0.71875,0.1875,21.056690371309713,1,-1220.0438382685727,-114.69028315099376,215642.21539973572
145,0.5625,0.4375,0.1422262943260004,1,-614.9842398002435,-299.08681272979527,-8879.740777047635
146,0.625,0.4375,-12.151310419329656,1,171.68415086684814,-546.8228699625324,-73096.84429247947
147,0.625,0.3125,3.077513566728048,1,455.62238251135926,-533.9055312187265,-773067.7228116977
148,0.65625,0.28125,4.208744034844386,1,-473.863084307479,163.95091645364522,-686854.3691218079
149,0.78125,0.1875,15.686884592429395,1,68.7200099216914,249.19663036581142,-98333.57741654408
150,0.375,0.5,-12.685667127378052,0,-60.51873199308581,-383.2414284545806,43861.940166492604
151,0.4375,0.4375,-7.876764224173835,1,-481.24852402735485,-700.6751492638057,-156613.91400708942
152,0.4375,0.375,0.3314141249216305,1,-664.4511920408443,182.72256414505082,43578.10390726487
153,0.84375,0.15625,25.589116347643547,1,-61.99399725186156,-241.8461676077194,11150.226816148435
154,0.78125,0.46875,-3.2415631010650383,1,-113.71173723477096,556.7648680684944,223297.66200938966
155,0.75,0.46875,1.9645443712598671,1,653.5754547043849,-264.98210986128606,160976.2617223247
156,0.90625,0.15625,26.26846846668939,1,195.63256845811347,-179.82380424263198,-8176.958164018902
157,0.78125,0.28125,10.972450791557451,1,-539.4866561229314,-628.7797265197603,198617.7930385009
158,0.78125,0.25,9.06979427367635,1,1039.069709612017,-20.575247071385586,-13291.864436068094
159,0.84375,0.21875,15.869026271072219,1,-68.13336229590372,-234.25072703719223,65070.10855415144
160,0.8125,0.21875,16.991511555407644,1,-156.80606205852112,-325.7606665991985,111753.27962421476
161,0.78125,0.03125,43.88908196682058,1,-50.154689616457695,-74.85520206381916,1430.1503683576439
162,0.5,0.625,-17.34113028306386,0,-62.81519974403317,-57.03767693797129,6533.506334360163
163,0.5625,0.5625,-3.7398334654450505,1,153.36823084688072,304.5956215408703,21043.03143428719
164,0.375,0.3125,2.6207059469388057,1,-125.81236906262494,306.42202781448935,8308.054168058079
165,0.40625,0.28125,5.712460261407168,1,-756.2455760214716,-438.48433075724716,-41531.8333079871
166,0.0,0.125,-93.09186183030369,0,15.319317962281097,-555.8870249072373,-3565.8554398790125
167,0.5,0.875,37.35641467414023,0,133.4562019547424,578.2230236667369,-1135.5367385596433
168,0.71875,0.53125,4.278967402689367,1,71.81908080659176,-100.51987232719739,-78431.13369970357
169,0.6875,0.0,45.669191687073486,0,-102.67128947543347,56.63266217712323,1925.5516805992258
170,1.0,0.1875,28.345452396949433,0,-94.0945711073883,-53.65730569450553,4060.9078928148097
171,0.75,0.875,104.44342251475445,1,151.34335077828015,203.02469917588238,2963.9330465009475
172,0.71875,0.5,4.638555401948571,1,129.6872945417546,97.87086172914817,104530.41222280308
173,0.6875,0.375,5.195304457432969,1,102.4929159621128,-156.58151384507048,-520464.7278109491
174,0.71875,0.40625,4.089842337647076,1,451.74210129759473,64.02903103350556,177066.10601708016
175,0.875,0.3125,8.334247650592653,1,685.5463435502546,160.42869798831492,59215.34818164873
176,0.84375,0.28125,11.71800373095931,1,-232.69358212358233,-616.1171938387714,246727.64800731896
177,0.8125,0.15625,23.142883471647295,1,389.02882979106295,-372.20022476948276,6163.481626730555
178,0.796875,0.140625,25.45869414438477,1,179.7736501870086,-446.72439518884653,-4774.041288086845
179,0.65625,0.46875,1.818721695760526,1,595.7303601899824,99.22125507418471,15239.126110666568
180,0.6875,0.46875,4.297345369324381,1,269.2015211914884,-179.6106457349836,27093.897375405722
181,0.71875,0.34375,4.1415147753037385,1,-5.864020104010699,-163.30308004230614,-307449.2905491404
182,0.71875,0.3125,1.8756165459118033,1,-99.38176752630737,1253.9827388469103,663710.06569916
183,0.59375,0.28125,13.276168713332568,1,770.2225833586607,279.23722522467585,-16663.401139976067
184,0.625,0.28125,14.955482102590684,1,-1313.9741595720354,-633.4764105866582,1217224.7416112712
185,0.53125,0.28125,4.648496262510003,1,1201.362380946971,-804.7526862619255,-216157.77699883116
186,0.5,0.21875,17.267122900214417,1,-625.8875905114227,112.23531866907625,-523325.3870922273
187,0.59375,0.21875,18.872439367600574,1,-215.89966056988584,-818.8306986814524,173907.2628023481
188,0.75,0.21875,14.222429128727914,1,886.9981642088115,-986.156068504021,560587.3446964496
189,0.65625,0.1875,22.868955601881567,1,162.89674528911954,-950.8730966552322,447920.1451469856
190,0.75,0.28125,15.385704674367348,1,824.4859833217208,-608.4086952958623,1149742.6053320093
191,0.65625,0.40625,2.358971082809966,1,706.7861356141162,270.3183704244462,185720.05208435058
192,0.6875,0.40625,4.544146166485588,1,182.71197840136847,571.1633705774918,205648.1112010719
193,0.71875,0.375,4.078584918322182,1,-261.2921477578698,414.42111768972916,326544.1777376927
194,0.5,0.28125,3.3921877831035943,1,-246.25759809784617,-38.24124566167858,-519104.37440204556
195,0.65625,0.34375,4.417073308732693,1,-165.93260304284723,497.9238808367123,638205.1535870832
196,0.65625,0.3125,2.8354363216813274,1,-483.93755889399273,134.7433013649396,1586781.260441824
197,0.734375,0.234375,13.810336941203138,1,-539.686596838422,410.8015816830685,-200253.45384952505
198,0.65625,0.25,14.89173468789222,1,-1062.9838798023463,-1119.473706862731,1358327.3201557463
199,0.625,0.21875,17.938331914529872,1,-1328.193674744891,-681.316361983937,451407.4516700122
200,0.6875,0.28125,6.267901236123572,1,430.31445766115564,1135.5999719594208,1484517.7863829536
201,0.8125,0.8125,86.39493471137138,1,-120.49649489065138,492.9340327916783,3789.882087046368
202,0.8125,0.75,49.160697686188485,1,-39.44684646807549,826.1004296537443,-2559.6904511576768
203,0.78125,0.34375,4.433887079452554,1,259.5278863388894,392.37671870753684,350712.4367409455
204,0.6875,0.15625,29.930385677238487,1,-287.8773698792686,-164.90214936744152,-6603.775062813365
205,0.3125,0.0625,18.263909742312205,1,-80.57570001811912,-5.570360304083099,6696.47839818794
206,0.3125,0.125,17.4811906179779,1,40.50057433748121,-287.7143996850984,5218.753886338296
207,0.34375,0.15625,21.441086435194507,1,232.94733627040003,-65.13230446018544,-3367.600359854345
208,0.84375,0.46875,-7.738344169167373,1,-394.2424732337879,-464.8300300882012,25736.32204426094
209,0.8125,0.46875,-2.956836426314091,1,-475.4434124905163,-393.9560244024626,77144.15004465857
210,0.84375,0.53125,-18.37848178810018,1,269.53211908474253,171.5983940941285,-25260.895066731973
211,0.5,0.4375,-1.4402381928534773,1,644.8215392206699,-615.1907034268005,96576.06454272107
212,0.3125,0.25,15.607292201128129,1,-707.4647520752087,224.04829679212386,-92148.994462241
213,0.34375,0.21875,13.834114644232908,1,-73.93522850641862,536.6054121456579,-32350.745093605332
214,0.703125,0.171875,26.569994467438402,1,-7.087020460807862,81.76185211849867,-247.24853976702445
215,0.9375,0.8125,92.41784082432864,1,-26.251456428897168,454.2254666410413,886.7097500755956
216,0.84375,0.59375,4.2550468368372645,1,19.03246888413038,575.9574597335052,10605.530100128333
217,0.8125,0.28125,8.923056152047172,1,42.53336411209024,785.1425557009588,47764.156013174135
218,0.53125,0.1875,18.72266536553394,1,-659.625686057712,128.1975036201881,32609.741960329917
219,0.59375,0.15625,20.751526321487933,1,-596.5761374169062,-516.429914343163,-8786.741703841586
220,0.625,0.15625,21.840158889187354,1,227.07689725087738,-401.1956908334649,-51253.00032721519
221,0.125,0.5,-43.3075564873573,0,611.7712108273506,38.2680644655759,9881.55998701769
222,0.1875,0.4375,-0.2518161964354099,1,574.3792055300635,-685.6087352384899,26828.359186489044
223,0.9375,0.6875,31.067123269943824,1,121.12659003325757,356.32974446370457,-321.97324308754145
224,0.875,0.6875,26.808498128810733,1,262.7545592154448,204.2266997764327,-1559.8370637895075
225,0.84375,0.65625,15.215158443773166,1,151.50488688076476,-143.24447258560397,11330.02681866873
226,0.375,0.21875,14.398317786740241,1,-481.20392695270743,457.40000171025883,-201458.90385935333
227,0.5625,0.15625,24.72806143933099,1,43.18470694095649,-92.04407792583416,124376.47710371442
228,0.703125,0.203125,21.763244271855225,1,-385.8338281410598,-694.1998758100857,498207.5607503259
229,0.5625,0.375,1.7286682188044644,1,474.1129532142568,131.34151142841347,-290441.40756932984
230,0.53125,0.34375,4.93616798096597,1,-406.37049533765855,-603.0243219084848,-101500.44102270385
231,0.703125,0.234375,17.63455718235481,1,-540.7949162219286,130.5621616046548,-225891.9442920239
232,0.5625,0.0,55.915596526733914,0,-204.4057384664014,144.60570927226584,4046.297155329061
233,0.4375,0.21875,13.957091059774605,1,-288.7129334768773,437.587347344001,-282940.35862893553
234,0.3125,0.4375,-3.6731727040228446,1,-153.7156265367788,-495.53922663597035,-133760.53844456593
235,0.3125,0.375,2.9282078175853083,1,-1250.7384286021654,-1375.2265894448083,-36006.416956852365
236,0.78125,0.4375,-5.263713080688145,1,217.42310081694887,-489.6341242453382,-873898.4695414365
237,0.453125,0.234375,13.609156377877282,1,-394.64418272803806,768.9819275567837,-256547.1463697953
238,0.4375,0.28125,2.3068712698319156,1,-74.75033687990451,-839.8995274126734,-726609.6961574766
239,0.796875,0.234375,13.114390539343049,1,65.77470142761695,-757.6842591016089,127686.72006547748
240,0.78125,0.53125,0.48093630690784256,1,-250.28205270929334,617.5339201262115,277774.3306315832
241,0.78125,0.5,-4.019287385000525,1,-208.58562440468597,363.23917826992994,-428577.6721664751
242,0.78125,0.5625,-0.1462643803862967,1,-309.720199349127,-183.16963875797606,-305488.84162735357
243,0.65625,0.125,33.779586215644315,1,33.477603774205434,201.89917414114214,18374.84615115026
244,0.453125,0.203125,14.892347465175959,1,38.051981158307974,-165.28550114017483,39261.6481445285
245,0.5625,0.6875,-24.274081621168783,1,-163.6601959245008,285.3538396566091,-7976.018765566857
246,0.625,0.6875,-14.628997840326202,1,135.78672740130966,315.42465187441235,-15343.998222417611
247,0.46875,0.34375,2.3920413833024035,1,239.06956930743848,-576.1074937581222,-455038.15907482884
248,0.84375,0.40625,-7.180297916614272,1,118.50687611491769,873.9103867719307,-18850.101188482575
249,0.5625,0.8125,18.24072652425049,1,127.08745683410473,586.3762476196137,-2503.481919279075
250,0.5625,0.5,-15.101479681923424,1,-324.0654927479738,314.8408845588591,-15865.028741567745
251,0.59375,0.46875,-19.757795308998805,1,-313.5738994907423,-17.340419304594622,-44430.87147416637
252,0.40625,0.25,13.14538308680066,1,257.91766327322074,30.959023992131208,-174793.26038427607
253,0.78125,0.0,45.03503893004792,0,-54.54829326139414,-26.73390127990158,1441.6591512349908
254,0.34375,0.28125,9.656140515813762,1,-419.430616621043,-230.16218451154697,-136785.57599508992
255,0.375,0.28125,8.467766280050935,1,-182.10044274812174,-856.1412692572197,-177057.84341901258
256,0.6875,0.8125,61.24075045762861,1,415.88463057057356,460.86061726721135,4024.143571506871
257,0.6875,0.75,29.247662066075723,1,415.4068171038993,630.9104804866622,1811.3981659880744
258,0.1875,0.3125,-66.91657577774376,1,-453.99114443967346,-22.51837520936196,-69255.1804596945
259,0.25,0.3125,-31.44556316413273,1,1039.8821943348014,-137.84904054273903,-399856.0443584062
260,0.0625,0.0625,-64.651334114889,1,214.24211256777863,-366.37477752149886,-1116.5756344237118
261,0.734375,0.171875,15.41204169819415,1,-359.51441037372757,339.5671549274152,-181707.19583790828
262,0.25,0.1875,24.509889922402834,1,-460.8876561034794,474.1198838486306,13910.563498996593
263,0.375,0.0625,21.859434541837476,1,-225.52952216809265,49.20493177876843,-11154.037748784125
264,0.40625,0.09375,23.462605561253426,1,-202.2253681252914,-73.9378671067181,-7281.341601998034
265,0.5,0.0625,55.24132447290986,1,-55.284125004042934,64.01196848844167,8386.297576954934
266,0.46875,0.09375,41.996418863648806,1,231.67162503540573,-163.97708007561988,12388.436062845627
267,0.46875,0.125,31.579375996534942,1,96.57321717267412,-251.86059149791546,38879.60576232099
268,0.65625,0.4375,2.118901651674829,1,-190.3051929984374,-135.85495939999393,181367.8661419447
269,0.671875,0.453125,3.855809316648556,1,-568.1501993846247,154.48807621957968,108546.41877144878
270,0.9375,0.9375,135.58515549822297,1,-165.47632281870943,215.7864161355275,1923.1385197394086
271,0.53125,0.09375,45.14988959391465,1,-408.17064547239625,-217.92543601899092,12898.985668647749
272,0.53125,0.125,31.04420457762718,1,-361.7054992951216,-557.4706609802367,26422.94218825434
273,0.75,0.40625,4.4268969645940714,1,798.6925878424032,973.1028692290853,14402.867073900006
274,0.9375,0.375,-16.044713653172455,1,284.8150369750168,-285.7007017741421,-5756.72296072822
275,0.90625,0.40625,-23.350032451000786,1,104.21224293498642,-49.02279609055284,-13832.033114236814
276,0.375,0.4375,3.297651245760962,1,-167.31836340652248,-50.0057652492187,232911.1065588128
277,0.40625,0.40625,4.293217330953666,1,-1073.4613647340923,111.99722308332908,19974.51704488822
278,0.9375,0.625,8.02682798783924,1,63.17542150391026,364.4329753702047,328.273087298027
279,0.90625,0.59375,-0.9516203408358039,1,82.05015300374458,386.68411601944035,-18.500882226035834
280,0.71875,0.4375,4.205870266007997,1,193.36265872381668,39.62170221987574,-161829.07710546543
281,0.703125,0.453125,3.8788182044984403,1,34.15002354668917,451.5803031895246,361208.1176880829
282,0.0625,0.1875,-104.13247443656279,1,209.3183300709802,-554.2790319603547,-6015.135245334314
283,0.125,0.1875,-61.19234227503389,1,654.1332884236393,-352.4182981842975,-1504.5817263119472
284,0.4375,0.0,40.1857490988282,0,72.28387247449938,11.853663852181503,1054.4786633104154
285,0.625,0.5625,0.7575754491279295,1,-218.63633497047087,463.1076062651777,106951.71277709235
286,0.65625,0.53125,0.6796658779476098,1,435.946207331284,-213.87331236618473,-138169.97677984706
287,0.6875,0.53125,4.058292576423948,1,187.23737123795019,282.63257705230785,221380.53631553496
288,0.703125,0.515625,3.8527040339920235,1,-63.22901461103946,278.3513351719744,-125061.72095952157
289,0.40625,0.15625,21.796944755017627,1,-768.1792190010915,570.0718385253182,-50726.20964050653
290,0.734375,0.140625,23.68906177845126,1,150.94271274622994,-215.62017188913916,2235.429679783654
291,0.4375,0.15625,19.349550633583778,1,28.38666502424655,306.97441537877563,-157946.85900473336
292,0.0,0.375,-166.87106846123572,0,-290.2985316425639,520.4641588264625,-10192.051468093707
293,0.0625,0.3125,-150.42065503553155,1,163.83842108966437,75.66176677096455,-13318.863723733757
294,0.40625,0.34375,4.483541809523536,1,705.344702024893,-639.383816207542,-93888.48559233213
295,0.40625,0.3125,5.418013563189991,1,445.4314932198314,-241.52137155926602,138571.76794701652
296,0.90625,0.28125,11.368396393689814,1,79.07162594233478,434.99580798844846,33070.823048777595
297,0.875,0.28125,10.693342304522252,1,-482.59732711646745,305.32577372656567,-86112.43916177227
298,0.84375,0.34375,1.7719135747052068,1,218.48044059649496,662.7592665645695,266067.3159801844
299,0.84375,0.3125,2.0861670562197565,1,14.335910706462862,129.5202261041063,-665727.5401974557
300,0.84375,0.25,14.871505960660024,1,382.76889968600005,398.88365562980584,-35441.78983486469
301,0.75,0.6875,8.429206691040996,1,-367.4446193890423,790.3717275602562,15768.203964278291
302,0.78125,0.65625,-1.0272624960608223,1,131.19530365199014,-65.03660439476364,-172157.28182621006
303,1.0,0.5625,-14.418893774028387,0,264.48209409765866,321.9652213866509,-1545.2875834381048
304,0.65625,0.5,2.28343632681379,1,251.93731386497913,-291.9065665266147,330670.59702354396
305,0.6875,0.34375,6.333864566946287,1,-27.05528903627768,-274.1668840962549,404580.27869857656
306,0.703125,0.328125,5.6704354551144185,1,-659.5385166251386,-175.55762384279234,-793167.1950166895
307,0.6875,0.625,2.86260380990555,1,193.40858340720825,191.1373193742227,85296.49793752769
308,0.71875,0.59375,2.3825928463583566,1,-14.381927684010622,152.17560303204922,-58075.83844294451
309,0.75,0.59375,2.1303030256001043,1,265.1934218001777,-50.92294268954631,-28230.351132637134
310,0.703125,0.359375,4.294683334840089,1,28.60503969115443,189.60563566411614,255296.70362374038
311,0.703125,0.34375,4.144248534335303,1,379.4982417815478,14.146523108787296,151233.0534092316
312,0.5,0.15625,19.45108688128924,1,-278.27635480846556,-46.91923839880677,-225135.77663128357
313,0.484375,0.171875,18.876359007998992,1,-217.79658462023576,259.9382108387851,-127804.4292907696
314,0.75,0.53125,4.886608148615672,1,627.8196996283777,163.057225376439,-2174.576844140432
315,0.734375,0.515625,4.359369293500329,1,-15.587655326164759,-114.0444327793415,88987.96529974691
316,0.796875,0.203125,18.91060184178819,1,237.24808128487527,202.55080097019666,24902.76954628846
317,0.9375,0.5,-27.842010179431178,1,219.03945191177897,177.71434687358942,-3332.9186210440016
318,0.90625,0.53125,-20.56083657238241,1,196.17890543468812,216.15781152012508,-2585.201715883533
319,1.0,0.4375,-31.761238316519282,0,365.8284210817019,6.027112631169468,-4000.1359607126547
320,0.65625,0.375,4.445349253461956,1,821.3944360176464,500.4554903416541,497385.47112446866
321,0.671875,0.359375,5.6930470440090035,1,-496.52434165259785,-74.69837583441678,-400915.1005657496
322,0.625,1.0,83.2615989251145,0,280.65603446374604,296.16433942528835,968.3977679880422
323,0.6875,0.9375,94.84544909747297,1,243.41098289881108,258.43712862996443,1704.3870938162959
324,0.59375,0.34375,2.468089925428062,1,126.43889710583832,-91.43441256234969,-127825.58195253552
325,0.59375,0.3125,3.0849763884791583,1,-581.6915369393569,43.739285980289466,469886.6248108395
326,0.8125,0.9375,124.62590138523534,1,29.729096910836603,165.87177454669808,2337.319433634234
327,0.703125,0.484375,3.9030019843384074,1,162.83824206509755,66.41219606767326,79162.74136061581
328,0.1875,0.0,-15.36495531442513,0,155.0023240577172,-122.22542089292862,430.7481588241654
329,0.765625,0.171875,14.19442804305633,1,-169.91793529774293,-205.42787695243385,-86698.50637538181
330,0.5625,0.9375,62.39313084371148,1,268.60523056119564,456.07042984448134,232.40844215978902
331,0.671875,0.328125,5.484643121925946,1,570.42260650874,351.17732382141185,-187594.8874162024
332,0.59375,0.09375,37.77499436047503,1,-118.08023757027374,-226.1300613760072,-4055.7598407481746
333,0.625,0.09375,37.68427716403442,1,6.246250586948464,-166.4115485172301,-2123.0442653827467
334,0.84375,0.1875,20.39736501810351,1,54.71495239123013,-120.78036871603543,-13172.40226168925
335,0.828125,0.171875,22.27759038440047,1,282.44571335071646,-279.2705406045676,68789.24523880154
336,0.75,0.34375,3.9012045889712117,1,604.1673554928517,356.35617594080355,509055.588430569
337,0.734375,0.328125,4.873865110129729,1,-150.18971189508045,645.1631373953663,293144.9233708064
338,0.71875,0.328125,5.1966379390680135,1,638.5365625982948,-44.673278553866325,-253183.31808511133
339,0.7109375,0.3359375,4.293841951187002,1,141.08875244210475,487.1676377468099,472109.1796290684
340,0.671875,0.34375,6.001972034397829,1,-333.97146265015937,-152.70170802327587,-470966.3238873715
341,0.625,0.34375,2.0782175112504744,1,-473.01776167527004,779.1351499372547,718762.2426084555
342,0.640625,0.328125,0.5866351375478551,1,357.46157847960416,640.4923672585439,-520293.48511050595
343,0.65625,0.328125,2.7268817970520223,1,502.7048048440033,-829.0409208133716,-923060.0691299997
344,0.6875,0.328125,7.615024634157536,1,-624.2992056080267,1.0759420669290414,619363.2584611675
345,0.6875,0.359375,4.949866233036277,1,-147.94647409431155,-434.37654757924156,753112.8769778437
346,0.5625,0.34375,3.4683885402158348,1,-327.4420703718081,-194.13823312206193,529670.6931083343
347,0.578125,0.328125,4.159771532461804,1,-305.1435040941021,180.60025498325527,-281063.5641431424
348,0.6953125,0.3515625,4.687231169816286,1,-430.7632914063033,168.4611977208191,-893307.2821872788
349,0.671875,0.234375,16.294338535612223,1,39.96253063753609,312.30253212771674,-335046.48478614003
350,0.6875,0.234375,17.469249856486318,1,219.0942345180807,-1321.2972768644347,1720570.1716183932
351,0.703125,0.296875,6.7477581564804145,1,-1318.2755817213872,-267.3870989256261,-1046841.9677541347
352,0.703125,0.3125,6.594216588554209,1,175.33751574367778,394.799233431253,318738.2459358219
353,0.640625,0.359375,2.0052397420766237,1,317.34010384063714,-524.0258543967723,-1216882.0527035003
354,0.671875,0.296875,2.951472454346272,1,828.9511879587395,-1073.812367701989,-749030.9983955186
355,0.671875,0.3125,1.330223420618476,1,-1281.1946354031338,445.7977029518215,-1254685.5851989777
356,0.5625,0.28125,8.792400495030515,1,60.63921527319183,-1346.192401925807,415845.90547022625
357,0.578125,0.296875,4.622232383584541,1,245.7745207171594,-231.77495812226206,-575704.9419759451
358,0.59375,0.40625,1.6722026427936496,1,-357.6529121264183,55.34622183324216,339959.4216793278
359,0.625,0.40625,-7.14374183051576,1,-728.4013583495365,-197.52879723305944,-365782.9281587524
360,0.640625,0.390625,-2.847062718983766,1,1294.6687711910945,-910.5648774137563,-334725.12688462634
361,0.71875,0.03125,43.81155801328158,1,-83.83985761513257,-22.979884772208127,1730.7000023862013
362,0.71875,0.0625,40.94079919335459,1,-78.76857585475248,-80.41052837334699,1539.564373196187
34,33,1,1,0.805153524470384,6
35,21,1,1,1.2349952751897058,7
35,34,1,1,0.9832935186910216,7
38,5,1,1,0.6160903580921601,6
38,37,1,1,0.6099317173291623,6
38,33,1,1,0.5710265179750229,6
39,21,1,1,2.3303715112757724,7
39,33,1,2,0.0,6
39,38,1,3,0.6838298510474309,7
39,34,1,3,0.41561523295696035,7
40,21,1,2,0.0,7
40,34,1,2,0.0,7
40,39,1,2,0.0,7
40,35,1,2,0.0,7
42,41,1,1,0.2491209776284012,6
43,28,1,1,0.7745955980250268,7
43,15,1,1,1.1788493034157639,7
43,34,1,1,0.8216895803459496,7
44,28,1,3,0.22738258402506858,8
44,34,1,2,0.0,7
44,43,1,2,0.0,7
44,35,1,3,0.5809603551054724,8
47,11,1,1,3.1135274477886363,5
47,46,1,1,15.37142557584518,5
56,55,1,1,13.492241916986407,7
59,42,1,1,0.3396939087482137,7
60,59,1,1,0.9385776904767,8
63,19,1,1,2.0993085394161333,6
63,37,1,1,1.4748623115475283,6
64,21,1,1,0.3570164188921443,7
64,31,1,1,1.7140277986762258,7
64,63,1,1,2.865716634975245,7
65,19,2,1,0.6442654367151448,5
66,19,1,3,4.799659294370938,6
66,25,1,1,9.27341193964332,6
66,65,1,3,3.666502802094159,6
68,9,1,1,14.495498638741724,8
68,36,1,1,9.895482251243859,8
72,36,1,1,8.22524762612586,8
73,28,1,1,1.4552411461720183,8
73,32,1,1,1.898053319244487,8
74,28,1,2,0.0,8
74,35,1,3,0.5251004890475373,9
74,73,1,3,1.2576906378692028,9
74,44,1,2,0.0,8
75,33,2,2,0.0,6
75,34,1,3,0.8585347127527758,7
79,21,1,1,1.3273569053756626,7
79,37,1,2,0.0,6
79,38,1,3,0.9504394153845357,7
79,63,1,3,0.5022912959483998,7
80,21,1,2,0.0,7
80,38,1,2,0.0,7
80,79,1,2,0.0,7
80,39,1,2,0.0,7
81,22,1,1,6.705763007977218,6
86,81,1,1,3.164744970354663,7
88,17,1,1,2.936708322122299,8
88,87,1,1,7.413081982203148,8
89,14,1,1,7.445610160234313,8
89,77,1,1,6.325313279639337,8
90,14,1,1,18.529492738754954,7
90,29,1,1,21.906709560638195,7
90,55,1,1,3.9889821600390887,7
91,14,1,3,18.460104133594935,8
91,55,1,3,2.3620594491467304,8
91,90,1,2,0.0,7
91,77,1,1,10.891733988015941,8
92,30,1,1,9.65271266531554,8
92,29,1,1,17.99772503157738,8
92,56,1,1,5.513907467688488,8
93,30,1,3,7.105728784967022,9
93,92,1,3,15.875149450144345,9
93,72,1,1,12.966851236559803,9
94,20,2,1,8.62280749538185,5
95,6,1,1,1.3173575345635937,6
95,94,1,1,1.0512003987513894,6
96,45,1,1,1.795309047075415,7
96,69,1,1,5.402136396623565,7
96,95,1,1,1.830653959939075,7
96,85,1,1,1.4762050305903505,7
97,2,1,1,5.2877654558014875,6
97,41,1,1,0.8274509526886528,6
98,27,1,1,1.755092186034941,7
98,97,1,1,0.9306489323488273,7
99,54,1,1,5.322944633370191,8
99,55,1,1,2.1118894767256866,8
99,98,1,1,1.8073053053216321,8
99,77,1,1,7.099761970275571,8
100,1,1,1,10.43139038919966,4
101,8,1,1,31.875945592740646,5
101,12,1,1,20.78185762170039,5
101,100,1,1,32.96984335353132,5
102,8,1,3,21.469527702630685,6
102,46,1,3,13.853675375958652,6
102,101,1,3,13.628390690985924,6
102,47,1,3,3.5065013626881085,6
103,6,1,1,1.960078128460341,6
103,65,1,1,3.7950076668012946,6
103,69,1,1,4.006604189390648,6
104,25,1,1,5.533879263491487,7
104,69,1,3,1.1637551404440478,7
104,103,1,3,5.5596581199473025,7
104,70,1,1,6.5867303793017244,7
105,5,2,2,0.0,6
105,33,2,2,0.0,6
105,38,1,2,0.0,6
106,11,2,1,3.6563692102846534,5
107,2,1,1,3.198305232569793,6
107,106,1,1,1.9131713531180132,6
108,24,1,1,7.5920864503885515,7
108,107,1,1,3.9012794716683383,7
109,69,1,1,0.9669823195912484,7
109,85,1,1,15.187795772546067,7
110,20,1,1,2.6609089011523777,5
110,78,1,1,4.709729924821278,5
111,27,1,1,2.219089901652492,8
111,30,1,1,9.449011025489014,8
111,56,1,1,13.418241371655434,8
111,59,1,1,1.9836213176009216,8
112,5,2,2,0.0,6
112,37,2,2,0.0,6
112,38,1,2,0.0,6
113,8,1,1,25.38012526084128,6
113,47,1,1,6.86115838905353,6
114,24,1,1,7.162008316361604,7
114,113,1,1,10.425598888825206,7
114,76,1,1,4.670750764360332,7
115,50,1,1,8.019229181131697,8
115,76,1,3,7.140669402095822,8
115,114,1,3,8.733964960479375,8
115,84,1,1,10.084572042675022,8
116,25,1,1,11.02662484806342,7
116,26,1,1,16.514170784390167,7
116,62,1,1,12.752042068313743,7
116,70,1,1,28.202203352227023,7
117,26,1,3,27.30629715427229,8
117,70,1,3,8.927374553916543,8
117,87,1,1,14.279925861384447,8
117,116,1,2,0.0,7
118,51,1,1,10.564186566068704,7
118,52,1,1,10.279654507209683,7
118,83,1,1,18.552050360584964,7
119,76,1,1,2.272042385562459,8
119,54,1,1,5.172154372502398,8
119,108,1,1,5.852221479994,8
120,76,1,3,5.464262814171827,9
120,77,1,3,7.336247121679827,9
120,119,1,3,5.739345815952191,9
120,89,1,3,7.564668738665255,9
121,7,2,1,34.75882920242117,5
121,20,2,1,23.681114004824224,5
121,78,1,1,2.057809816432625,5
122,16,1,1,5.060441176992859,5
122,53,1,1,6.604947246187918,5
123,10,1,1,7.113405221867745,6
123,22,1,1,7.190623471064273,6
123,122,1,1,1.6230891532771043,6
123,48,1,1,3.273654694419945,6
124,0,2,1,14.96781469081344,5
124,46,1,1,4.625589745449066,5
125,11,1,3,2.8670515496041897,6
125,46,1,2,0.0,5
125,124,1,3,0.7888820096086946,6
125,47,1,2,0.0,5
126,28,1,3,2.3754895564361083,9
126,36,1,1,4.374096431322939,9
126,60,1,1,2.583868181914187,9
126,73,1,3,1.6394902922925094,9
127,10,1,1,8.44644804286768,6
127,110,1,1,2.5159896656211678,6
128,48,1,1,12.315447997545332,7
128,45,1,1,4.900695090867633,7
128,127,1,1,7.593575050214324,7
128,85,1,1,5.033040554832877,7
129,48,1,3,5.7499410840611045,8
129,85,1,3,11.176971736314432,8
129,128,1,2,0.0,7
129,86,1,1,5.153588493381195,8
130,41,1,2,0.0,6
130,42,1,3,0.14191498764005833,7
130,97,1,3,2.71032995861523,7
131,27,1,1,1.8237396637081014,8
131,42,1,2,0.0,7
131,130,1,3,0.9459358354393724,8
131,59,1,3,1.3461838869711884,8
132,14,1,1,10.95251543159365,8
132,83,1,3,17.843277187302874,8
132,84,1,1,12.258690506917166,8
132,118,1,3,14.855473099578298,8
133,14,1,2,0.0,8
133,84,1,3,13.58353054910026,9
133,132,1,2,0.0,8
133,89,1,3,10.57419667413878,9
134,31,1,1,2.6868497310816233,7
134,19,1,2,0.0,6
134,63,1,3,2.096752564111983,7
134,66,1,3,2.2341276248808954,7
135,31,1,2,0.0,7
135,63,1,2,0.0,7
135,134,1,2,0.0,7
135,64,1,2,0.0,7
136,7,2,1,35.51016399439389,5
136,18,2,1,31.974692320063266,5
136,78,1,1,6.1332087906551305,5
137,62,1,1,31.40905943983992,7
138,28,1,3,0.4942738237131414,8
138,42,1,3,0.2285497054218919,8
138,43,1,3,0.15833051875446244,8
138,59,1,3,2.2642706052373067,8
139,28,1,3,0.4362919739420393,9
139,59,1,2,0.0,8
139,138,1,2,0.0,8
139,60,1,3,1.4131120356890658,9
140,13,1,1,28.53225524093806,5
140,100,1,1,34.68599130147723,5
141,8,1,1,25.323366775905537,6
141,49,1,1,7.237905202643627,6
141,140,1,1,21.85976415897956,6
142,9,1,1,12.22486692664024,8
142,71,1,1,19.799530029619625,8
142,137,1,1,14.675971254370799,8
143,9,1,3,28.053981947725333,9
143,71,1,3,31.233568565555508,9
143,142,1,2,0.0,8
143,72,1,1,19.677139357866707,9
144,30,1,1,7.637884996273758,9
144,36,1,3,3.540699206511027,9
144,60,1,1,2.7758219574268774,9
144,72,1,3,12.660464448655535,9
145,3,1,1,3.308313880458173,6
145,51,1,1,20.71566923490697,6
146,57,1,1,6.297281695038162,7
146,145,1,1,20.011503062890235,7
148,29,1,1,14.187394524718227,8
148,71,1,1,18.198721498790828,8
148,147,1,1,13.381347732368313,8
149,32,1,3,0.8135018904160031,9
149,36,1,3,4.399631104167622,9
149,68,1,3,7.726210808408855,9
149,73,1,3,2.10552989256772,9
150,3,2,1,2.706144444516977,5
150,13,2,1,2.582668808552783,5
151,3,1,3,14.869532094535407,6
151,150,1,3,6.461221534171289,6
151,51,1,1,14.642095571386491,6
152,49,1,1,6.827236660872632,7
152,51,1,3,8.885992049241473,7
152,151,1,3,20.400287677601266,7
152,83,1,1,10.795344117220715,7
153,21,1,2,0.0,7
153,35,1,3,0.14247638987225977,8
153,64,1,3,0.9327663975223366,8
154,17,1,1,10.956462626004273,8
154,70,1,1,15.69879888811802,8
154,87,1,1,14.301071495196599,8
154,109,1,1,14.865635409551784,8
155,17,1,2,0.0,8
155,87,1,2,0.0,8
155,154,1,2,0.0,8
155,88,1,2,0.0,8
156,21,1,2,0.0,7
156,63,1,2,0.0,7
156,64,1,2,0.0,7
156,79,1,2,0.0,7
157,9,1,1,21.554104620663676,8
157,62,1,3,16.380942840965872,8
157,67,1,1,5.723128049476404,8
157,137,1,3,32.74619916890232,8
158,9,1,2,0.0,8
158,67,1,3,7.276551104775116,9
158,157,1,2,0.0,8
158,68,1,3,8.894749934254353,9
159,32,1,1,4.594306886048609,8
159,31,1,3,1.7433343119488796,8
159,64,1,3,2.427961586563287,8
159,67,1,1,4.683154652736958,8
160,32,1,3,2.451105597798834,9
160,67,1,3,4.461035929253296,9
160,159,1,2,0.0,8
160,68,1,1,2.617472618048632,9
161,15,1,3,0.23258685971867082,8
161,34,1,2,0.0,7
161,43,1,2,0.0,7
161,75,1,3,0.20874893940084221,8
162,3,2,1,2.6867972982329245,5
162,16,2,1,4.985500509403831,5
162,22,1,1,5.650973624154489,5
163,3,1,3,1.50697962795448,6
163,22,1,3,12.522094904783277,6
163,162,1,2,0.0,5
163,57,1,1,8.91918298620725,6
164,49,1,3,6.416667873810781,7
164,141,1,3,7.4888505452812355,7
165,50,1,1,5.528141686855372,8
165,83,1,1,12.924491413472424,8
165,164,1,1,4.257100607185592,8
165,84,1,1,12.134211217377162,8
166,0,2,1,19.338009815276195,5
166,12,2,1,32.97144434479124,5
166,46,1,1,15.84563949674823,5
167,4,2,1,13.953384665174656,5
167,16,2,1,2.4347732541838645,5
167,53,1,1,10.004235709372102,5
168,81,1,3,2.7044703081876613,8
168,86,1,3,4.132080048679717,8
169,15,2,1,11.613635547558395,7
169,41,2,2,0.0,6
169,42,1,3,1.2574719239731025,7
170,19,2,2,0.0,6
170,37,2,2,0.0,6
170,63,1,2,0.0,6
171,10,1,1,6.306492628031977,5
171,18,1,1,2.446350564592416,5
171,53,1,1,1.0319953328578744,5
171,78,1,1,0.5329509863798192,5
172,17,1,3,3.8525796336782343,9
172,82,1,1,3.6868578504516893,9
172,88,1,3,4.626656152426369,9
172,168,1,1,2.6276037399171797,9
174,26,1,1,13.04781269725331,8
174,58,1,1,9.595422207831723,8
174,173,1,1,11.235844472296058,8
174,87,1,1,5.458424665091807,8
175,25,1,3,11.462280314102932,7
175,66,1,3,9.446947238885489,7
176,31,1,1,7.0703397375933275,8
176,62,1,1,10.86701950846228,8
176,175,1,1,9.656507581768171,8
176,67,1,1,10.092808739234444,8
177,35,1,3,0.7424786815497869,9
177,32,1,3,3.072224700740614,9
177,73,1,3,0.64224411523551,9
177,153,1,3,1.7932020960271875,9
178,35,1,2,0.0,9
178,73,1,2,0.0,9
178,177,1,2,0.0,9
178,74,1,2,0.0,9
179,57,1,3,5.517215296377786,8
179,82,1,1,7.006348207270625,8
179,146,1,3,3.5797997129112087,8
180,58,1,1,4.373696194756071,9
180,82,1,3,2.8413485802194893,9
180,179,1,3,4.308049663900438,9
180,88,1,1,3.3166946040938923,9
181,26,1,1,6.5290910505203135,8
182,137,1,3,23.93836636731591,9
182,142,1,3,14.394007565676413,9
183,29,1,3,32.741141339702494,8
183,90,1,3,18.940763864473656,8
183,147,1,1,23.223148940773903,8
184,29,1,2,0.0,8
184,147,1,2,0.0,8
184,183,1,2,0.0,8
184,148,1,2,0.0,8
185,14,1,3,21.32067863314185,8
185,52,1,3,13.186440931796708,8
185,90,1,3,1.7690678362226242,8
185,118,1,3,22.084648637791453,8
186,14,1,2,0.0,8
186,77,1,2,0.0,8
186,89,1,2,0.0,8
186,91,1,2,0.0,8
187,29,1,3,27.350098798599028,8
187,55,1,2,0.0,7
187,56,1,3,15.922100546247954,8
187,90,1,2,0.0,7
188,9,1,3,17.041840551932438,9
188,36,1,2,0.0,8
188,68,1,2,0.0,8
188,72,1,3,14.586677587304738,9
189,30,1,2,0.0,8
189,56,1,2,0.0,8
189,92,1,2,0.0,8
189,111,1,2,0.0,8
190,9,1,2,0.0,8
190,137,1,2,0.0,8
190,142,1,2,0.0,8
190,157,1,2,0.0,8
191,58,1,1,8.88636138751249,8
191,146,1,1,9.259522057889436,8
191,173,1,1,11.951578327682437,8
192,58,1,2,0.0,8
192,173,1,2,0.0,8
192,191,1,2,0.0,8
192,174,1,2,0.0,8
193,26,1,2,0.0,8
193,173,1,3,12.210591353741775,9
193,174,1,2,0.0,8
193,181,1,3,11.594623874401215,9
194,14,1,2,0.0,8
194,118,1,2,0.0,8
194,132,1,2,0.0,8
194,185,1,2,0.0,8
196,147,1,3,33.14840562110915,9
196,148,1,3,34.74130089958438,9
197,9,1,2,0.0,9
197,72,1,2,0.0,9
197,143,1,2,0.0,9
197,188,1,2,0.0,9
198,29,1,2,0.0,8
198,71,1,3,33.7256682879395,9
198,92,1,3,29.666595279229092,9
198,148,1,2,0.0,8
199,29,1,2,0.0,8
199,56,1,2,0.0,8
199,92,1,2,0.0,8
199,187,1,2,0.0,8
200,61,1,1,14.388839044218559,9
200,71,1,2,0.0,8
200,142,1,3,28.891664456391794,9
200,148,1,3,37.54511700545993,9
201,10,1,3,1.2256175813432835,6
201,78,1,2,0.0,5
201,110,1,3,2.2929724390762263,6
201,171,1,2,0.0,5
202,10,1,2,0.0,6
202,110,1,2,0.0,6
202,201,1,2,0.0,6
202,127,1,2,0.0,6
203,26,1,3,26.929399779160956,8
203,62,1,2,0.0,7
203,116,1,2,0.0,7
203,137,1,3,30.352414925132294,8
204,30,1,3,9.434809416615787,9
204,59,1,2,0.0,8
204,60,1,3,1.1576908423198449,9
204,111,1,2,0.0,8
205,24,1,1,1.7868986309430421,6
205,11,1,2,0.0,5
205,47,1,3,0.6635357947330297,6
205,106,1,3,1.4607742576816272,6
206,24,1,3,4.76978554210703,7
206,47,1,2,0.0,6
206,205,1,2,0.0,6
206,113,1,3,4.7847045587936625,7
207,24,1,2,0.0,7
207,113,1,2,0.0,7
207,206,1,2,0.0,7
207,114,1,2,0.0,7
208,70,1,3,3.8155874453416483,8
208,69,1,2,0.0,7
208,104,1,2,0.0,7
208,109,1,3,1.802692390675929,8
209,70,1,2,0.0,8
209,109,1,2,0.0,8
209,208,1,2,0.0,8
209,154,1,2,0.0,8
210,69,1,2,0.0,7
210,85,1,2,0.0,7
210,96,1,2,0.0,7
210,109,1,2,0.0,7
211,3,1,2,0.0,6
211,51,1,2,0.0,6
211,145,1,2,0.0,6
211,151,1,2,0.0,6
212,50,1,1,11.66823476106171,7
212,8,1,2,0.0,6
212,113,1,3,12.026373353647699,7
212,141,1,3,15.071361265592648,7
213,50,1,3,8.957536245096904,8
213,113,1,2,0.0,7
213,212,1,2,0.0,7
213,114,1,3,7.293626097883869,8
214,30,1,2,0.0,9
214,60,1,2,0.0,9
214,144,1,2,0.0,9
214,204,1,2,0.0,9
215,20,1,2,0.0,5
215,78,1,2,0.0,5
215,110,1,2,0.0,5
215,121,1,2,0.0,5
216,45,1,2,0.0,7
216,85,1,2,0.0,7
216,96,1,2,0.0,7
216,128,1,2,0.0,7
217,62,1,2,0.0,8
217,67,1,2,0.0,8
217,157,1,2,0.0,8
217,176,1,2,0.0,8
218,55,1,2,0.0,8
218,77,1,2,0.0,8
218,91,1,2,0.0,8
218,99,1,2,0.0,8
219,27,1,3,0.7147928583632588,8
219,55,1,3,7.9449142968358295,8
219,56,1,3,9.351694743970445,8
219,98,1,3,3.925862284364089,8
220,27,1,2,0.0,8
220,56,1,2,0.0,8
220,219,1,2,0.0,8
220,111,1,2,0.0,8
221,13,2,1,2.2974904466065214,5
221,1,2,2,0.0,4
221,100,1,3,15.162440965412198,5
222,13,1,2,0.0,5
222,100,1,2,0.0,5
222,221,1,2,0.0,5
222,140,1,2,0.0,5
223,45,1,1,5.06096886226158,6
223,20,1,2,0.0,5
223,94,1,3,2.095829040946678,6
223,110,1,3,2.5259476048017215,6
224,45,1,3,0.8550516990947103,7
224,110,1,2,0.0,6
224,223,1,2,0.0,6
224,127,1,3,2.37974118481606,7
225,45,1,2,0.0,7
225,127,1,2,0.0,7
225,224,1,2,0.0,7
225,128,1,2,0.0,7
226,50,1,2,0.0,8
226,114,1,2,0.0,8
226,115,1,2,0.0,8
226,213,1,2,0.0,8
227,55,1,2,0.0,8
227,98,1,2,0.0,8
227,99,1,2,0.0,8
227,219,1,2,0.0,8
228,30,1,2,0.0,9
228,72,1,2,0.0,9
228,93,1,2,0.0,9
228,144,1,2,0.0,9
229,51,1,3,17.318824835071602,7
229,23,1,1,22.963925761000535,7
229,145,1,3,13.00046651476291,7
230,51,1,2,0.0,7
230,52,1,3,3.832503923889067,8
230,229,1,3,12.666392281037425,8
230,118,1,2,0.0,7
231,71,1,3,17.41677328486422,10
231,72,1,2,0.0,9
231,93,1,3,11.047431357137157,10
231,143,1,2,0.0,9
232,2,2,2,0.0,6
232,41,2,2,0.0,6
232,97,1,2,0.0,6
233,76,1,3,7.183890371902632,9
233,84,1,3,11.67116307294121,9
233,89,1,1,6.3411503878599,9
233,115,1,2,0.0,8
234,49,1,1,15.359519723982496,6
234,13,1,2,0.0,5
234,140,1,3,35.96856666246595,6
234,150,1,3,8.139451850214423,6
235,49,1,2,0.0,6
235,140,1,2,0.0,6
235,234,1,2,0.0,6
235,141,1,2,0.0,6
236,70,1,2,0.0,8
236,87,1,2,0.0,8
236,117,1,2,0.0,8
236,154,1,2,0.0,8
237,84,1,2,0.0,9
237,89,1,2,0.0,9
237,133,1,2,0.0,9
237,233,1,2,0.0,9
238,83,1,2,0.0,8
238,84,1,2,0.0,8
238,132,1,2,0.0,8
238,165,1,2,0.0,8
239,67,1,2,0.0,9
239,68,1,2,0.0,9
239,158,1,2,0.0,9
239,160,1,2,0.0,9
240,17,1,1,9.020316024367068,8
240,85,1,3,8.96509159060074,8
240,86,1,1,7.687723666741582,8
240,109,1,3,9.703752627053552,8
241,17,1,2,0.0,8
241,109,1,2,0.0,8
241,240,1,2,0.0,8
241,154,1,2,0.0,8
242,85,1,2,0.0,8
242,86,1,2,0.0,8
242,129,1,2,0.0,8
242,240,1,2,0.0,8
243,27,1,2,0.0,8
243,59,1,2,0.0,8
243,111,1,2,0.0,8
243,131,1,2,0.0,8
244,76,1,2,0.0,9
244,89,1,2,0.0,9
244,120,1,2,0.0,9
244,233,1,2,0.0,9
245,22,1,3,5.664197486916188,6
245,16,1,2,0.0,5
245,122,1,3,8.114809838542985,6
245,162,1,2,0.0,5
246,22,1,2,0.0,6
246,122,1,2,0.0,6
246,245,1,2,0.0,6
246,123,1,2,0.0,6
247,51,1,2,0.0,7
247,83,1,2,0.0,7
247,118,1,2,0.0,7
247,152,1,2,0.0,7
248,25,1,2,0.0,7
248,70,1,2,0.0,7
248,104,1,2,0.0,7
248,116,1,2,0.0,7
249,16,1,2,0.0,5
249,53,1,2,0.0,5
249,122,1,2,0.0,5
249,167,1,2,0.0,5
250,57,1,3,6.869421879067553,7
250,3,1,2,0.0,6
250,145,1,3,4.8908181376095605,7
250,163,1,2,0.0,6
251,57,1,2,0.0,7
251,145,1,2,0.0,7
251,250,1,2,0.0,7
251,146,1,2,0.0,7
252,50,1,2,0.0,8
252,84,1,2,0.0,8
252,115,1,2,0.0,8
252,165,1,2,0.0,8
253,15,2,2,0.0,8
253,75,2,2,0.0,8
253,161,1,2,0.0,8
254,50,1,3,10.887022941301044,8
254,141,1,2,0.0,7
254,164,1,3,10.117240657566333,8
254,212,1,2,0.0,7
255,50,1,2,0.0,8
255,164,1,2,0.0,8
255,254,1,2,0.0,8
255,165,1,2,0.0,8
256,10,1,3,5.038178504584084,6
256,53,1,2,0.0,5
256,122,1,3,1.7744465147596955,6
256,171,1,2,0.0,5
257,10,1,2,0.0,6
257,122,1,2,0.0,6
257,256,1,2,0.0,6
257,123,1,2,0.0,6
258,8,1,3,50.77318474809278,6
258,100,1,2,0.0,5
258,101,1,2,0.0,5
258,140,1,3,51.5180404401003,6
259,8,1,2,0.0,6
259,140,1,2,0.0,6
259,258,1,2,0.0,6
259,141,1,2,0.0,6
260,0,1,2,0.0,5
260,46,1,2,0.0,5
260,124,1,2,0.0,5
260,166,1,2,0.0,5
261,36,1,2,0.0,9
261,60,1,2,0.0,9
261,126,1,2,0.0,9
261,144,1,2,0.0,9
262,8,1,2,0.0,6
262,47,1,2,0.0,6
262,102,1,2,0.0,6
262,113,1,2,0.0,6
263,24,1,3,2.827413336017124,7
263,106,1,2,0.0,6
263,107,1,3,4.626050593056145,7
263,205,1,2,0.0,6
264,24,1,2,0.0,7
264,107,1,2,0.0,7
264,263,1,2,0.0,7
264,108,1,2,0.0,7
265,54,1,1,6.9021373550468965,7
265,2,1,2,0.0,6
265,97,1,3,1.1248118174861312,7
265,107,1,3,2.318158371344921,7
266,54,1,3,5.519963097561857,8
266,107,1,2,0.0,7
266,265,1,2,0.0,7
266,108,1,3,0.578762836672222,8
267,54,1,2,0.0,8
267,108,1,2,0.0,8
267,266,1,2,0.0,8
267,119,1,2,0.0,8
268,58,1,3,7.896682482103433,9
268,146,1,2,0.0,8
268,179,1,3,3.7039593371451893,9
268,191,1,2,0.0,8
269,58,1,2,0.0,9
269,179,1,2,0.0,9
269,268,1,2,0.0,9
269,180,1,2,0.0,9
270,7,1,2,0.0,5
270,78,1,2,0.0,5
270,121,1,2,0.0,5
270,136,1,2,0.0,5
271,54,1,3,1.5637177508662643,8
271,97,1,2,0.0,7
271,98,1,3,1.8458556735653384,8
271,265,1,2,0.0,7
272,54,1,2,0.0,8
272,98,1,2,0.0,8
272,271,1,2,0.0,8
272,99,1,2,0.0,8
273,26,1,2,0.0,8
273,87,1,2,0.0,8
273,117,1,2,0.0,8
273,174,1,2,0.0,8
274,25,1,3,7.799463848836503,7
274,65,1,2,0.0,6
274,66,1,2,0.0,6
274,103,1,3,3.058439232806973,7
275,25,1,2,0.0,7
275,103,1,2,0.0,7
275,274,1,2,0.0,7
275,104,1,2,0.0,7
276,49,1,3,22.140311901940876,7
276,150,1,2,0.0,6
276,151,1,3,17.880207370129437,7
276,234,1,2,0.0,6
277,49,1,2,0.0,7
277,151,1,2,0.0,7
277,276,1,2,0.0,7
277,152,1,2,0.0,7
278,45,1,3,1.3183962335630397,7
278,94,1,2,0.0,6
278,95,1,3,0.22512089027347096,7
278,223,1,2,0.0,6
279,45,1,2,0.0,7
279,95,1,2,0.0,7
279,278,1,2,0.0,7
279,96,1,2,0.0,7
280,58,1,3,3.9826994412095806,9
280,87,1,2,0.0,8
280,88,1,3,2.238005027130541,9
280,174,1,2,0.0,8
281,58,1,2,0.0,9
281,88,1,2,0.0,9
281,280,1,2,0.0,9
281,180,1,2,0.0,9
282,46,1,3,8.320869477232993,6
282,12,1,2,0.0,5
282,101,1,3,4.046789545875121,6
282,166,1,2,0.0,5
283,46,1,2,0.0,6
283,101,1,2,0.0,6
283,282,1,2,0.0,6
283,102,1,2,0.0,6
284,2,2,2,0.0,6
284,106,2,2,0.0,6
284,107,1,2,0.0,6
285,57,1,3,16.64412384219281,7
285,22,1,2,0.0,6
285,81,1,3,6.279699348685701,7
285,163,1,2,0.0,6
286,81,1,3,3.993835836438293,8
286,57,1,3,5.614824578046171,8
286,285,1,2,0.0,7
286,82,1,1,3.1651381582325175,8
287,82,1,3,5.261533674937007,9
287,81,1,2,0.0,8
287,286,1,2,0.0,8
287,168,1,3,4.419741019812172,9
288,82,1,2,0.0,9
288,168,1,2,0.0,9
288,287,1,2,0.0,9
288,172,1,2,0.0,9
289,24,1,2,0.0,7
289,76,1,3,8.036703014218727,8
289,108,1,3,5.121479586353665,8
289,114,1,2,0.0,7
290,28,1,2,0.0,9
290,60,1,2,0.0,9
290,126,1,2,0.0,9
290,139,1,2,0.0,9
291,76,1,2,0.0,8
291,108,1,2,0.0,8
291,119,1,2,0.0,8
291,289,1,2,0.0,8
292,12,2,1,42.98498670768083,5
292,1,2,2,0.0,4
292,100,1,3,27.984296708663127,5
293,12,1,2,0.0,5
293,100,1,2,0.0,5
293,292,1,2,0.0,5
293,101,1,2,0.0,5
294,83,1,3,10.517981247096685,8
294,49,1,2,0.0,7
294,152,1,2,0.0,7
294,164,1,3,4.688962270685491,8
295,83,1,2,0.0,8
295,164,1,2,0.0,8
295,294,1,2,0.0,8
295,165,1,2,0.0,8
296,31,1,3,1.8297832536509864,8
296,66,1,2,0.0,7
296,134,1,2,0.0,7
296,175,1,3,5.846394794946482,8
297,31,1,2,0.0,8
297,175,1,2,0.0,8
297,296,1,2,0.0,8
297,176,1,2,0.0,8
298,62,1,3,8.308445684702646,8
298,25,1,2,0.0,7
298,116,1,2,0.0,7
298,175,1,3,11.530683172648082,8
299,62,1,2,0.0,8
299,175,1,2,0.0,8
299,298,1,2,0.0,8
299,176,1,2,0.0,8
300,31,1,2,0.0,8
300,67,1,2,0.0,8
300,159,1,2,0.0,8
300,176,1,2,0.0,8
301,48,1,3,6.93154713634105,7
301,10,1,2,0.0,6
301,123,1,2,0.0,6
301,127,1,3,7.204485426242774,7
302,48,1,2,0.0,7
302,127,1,2,0.0,7
302,301,1,2,0.0,7
302,128,1,2,0.0,7
303,6,2,2,0.0,6
303,94,2,2,0.0,6
303,95,1,2,0.0,6
304,57,1,2,0.0,8
304,82,1,2,0.0,8
304,179,1,2,0.0,8
304,286,1,2,0.0,8
306,61,1,1,9.442992512759439,10
306,305,1,1,5.947910230595542,10
306,182,1,1,9.078083192706945,10
307,48,1,3,4.521544003334822,7
307,22,1,2,0.0,6
307,81,1,3,3.603305170215086,7
307,123,1,2,0.0,6
308,48,1,3,3.4570891738160943,8
308,81,1,2,0.0,7
308,307,1,2,0.0,7
308,86,1,3,5.017565201765765,8
309,48,1,2,0.0,8
309,86,1,2,0.0,8
309,308,1,2,0.0,8
309,129,1,2,0.0,8
310,181,1,3,6.8523433795158715,10
310,173,1,3,11.173667782810092,10
310,193,1,2,0.0,9
311,181,1,3,5.195702437979559,11
311,305,1,3,3.1955803280346307,11
311,310,1,3,3.4026661628437567,11
311,306,1,3,5.190788387891873,11
312,77,1,3,7.782601487717172,9
312,54,1,2,0.0,8
312,99,1,2,0.0,8
312,119,1,3,5.440102899960595,9
313,77,1,2,0.0,9
313,119,1,2,0.0,9
313,312,1,2,0.0,9
313,120,1,2,0.0,9
314,17,1,3,4.255047350250594,9
314,86,1,2,0.0,8
314,168,1,3,1.9712035683871545,9
314,240,1,2,0.0,8
315,17,1,2,0.0,9
315,168,1,2,0.0,9
315,314,1,2,0.0,9
315,172,1,2,0.0,9
316,32,1,2,0.0,9
316,68,1,2,0.0,9
316,149,1,2,0.0,9
316,160,1,2,0.0,9
317,69,1,3,0.896335672001524,7
317,6,1,2,0.0,6
317,95,1,3,2.41878418229794,7
317,103,1,2,0.0,6
318,69,1,2,0.0,7
318,95,1,2,0.0,7
318,317,1,2,0.0,7
318,96,1,2,0.0,7
319,6,2,2,0.0,6
319,65,2,2,0.0,6
319,103,1,2,0.0,6
320,173,1,3,16.05833420216244,9
320,23,1,1,10.245369007511252,9
320,191,1,3,11.03301403669524,9
320,195,1,1,8.00643591854085,9
321,173,1,3,7.263709770537329,10
321,195,1,3,13.412289953585683,10
321,320,1,2,0.0,9
321,305,1,1,6.765581324528363,10
322,18,2,1,24.21643649021155,5
322,4,2,1,16.68878840421913,5
322,53,1,1,8.510086023878182,5
323,18,1,2,0.0,5
323,53,1,2,0.0,5
323,322,1,2,0.0,5
323,171,1,2,0.0,5
324,23,1,3,18.96289717775384,8
324,147,1,1,13.93240408562011,8
324,229,1,3,6.282423768813726,8
325,52,1,1,8.962450437093512,9
325,147,1,2,0.0,8
325,324,1,3,13.760549900562143,9
325,183,1,3,13.19834581170612,9
326,18,1,2,0.0,5
326,78,1,2,0.0,5
326,136,1,2,0.0,5
326,171,1,2,0.0,5
327,82,1,2,0.0,9
327,88,1,2,0.0,9
327,172,1,2,0.0,9
327,180,1,2,0.0,9
328,11,2,2,0.0,6
328,124,2,2,0.0,6
328,125,1,2,0.0,6
329,36,1,2,0.0,9
329,73,1,2,0.0,9
329,126,1,2,0.0,9
329,149,1,2,0.0,9
330,4,1,2,0.0,5
330,53,1,2,0.0,5
330,167,1,2,0.0,5
330,322,1,2,0.0,5
331,61,1,1,8.390998266981573,10
331,195,1,1,7.029248436307659,10
331,196,1,1,11.733043984356422,10
331,305,1,1,4.31546667587307,10
332,27,1,3,0.8860882845861252,8
332,97,1,2,0.0,7
332,98,1,2,0.0,7
332,130,1,3,1.5278858781900744,8
333,27,1,2,0.0,8
333,130,1,2,0.0,8
333,332,1,2,0.0,8
333,131,1,2,0.0,8
334,32,1,3,1.932974364321799,9
334,64,1,2,0.0,8
334,153,1,3,1.944150325235699,9
334,159,1,2,0.0,8
335,32,1,2,0.0,9
335,153,1,2,0.0,9
335,334,1,2,0.0,9
335,177,1,2,0.0,9
336,137,1,3,31.598355399439303,9
336,26,1,2,0.0,8
336,181,1,3,14.267185504595597,9
336,203,1,2,0.0,8
337,181,1,3,7.8533464561991435,10
337,137,1,2,0.0,9
337,336,1,2,0.0,9
337,182,1,3,10.027562367850535,10
338,181,1,3,2.332548294841633,11
338,182,1,2,0.0,10
338,337,1,2,0.0,10
338,306,1,3,3.245997677104587,11
339,181,1,2,0.0,11
339,306,1,2,0.0,11
339,338,1,2,0.0,11
339,311,1,2,0.0,11
340,195,1,2,0.0,10
340,305,1,2,0.0,10
340,321,1,2,0.0,10
340,331,1,2,0.0,10
341,147,1,3,25.52353892743498,9
341,23,1,3,10.96050176008536,9
341,195,1,1,9.122247299690635,9
341,324,1,2,0.0,8
342,195,1,3,15.988900650082545,10
342,147,1,2,0.0,9
342,341,1,2,0.0,9
342,196,1,3,20.021400680357473,10
343,195,1,2,0.0,10
343,196,1,2,0.0,10
343,342,1,2,0.0,10
343,331,1,2,0.0,10
344,61,1,2,0.0,10
344,305,1,2,0.0,10
344,306,1,2,0.0,10
344,331,1,2,0.0,10
345,173,1,2,0.0,10
345,305,1,3,2.2532847005344783,11
345,310,1,3,2.290192322810177,11
345,321,1,2,0.0,10
346,52,1,3,8.41328474577267,9
346,229,1,2,0.0,8
346,230,1,2,0.0,8
346,324,1,3,11.310865815978142,9
347,52,1,2,0.0,9
347,324,1,2,0.0,9
347,346,1,2,0.0,9
347,325,1,2,0.0,9
348,305,1,2,0.0,11
348,310,1,2,0.0,11
348,311,1,2,0.0,11
348,345,1,2,0.0,11
349,71,1,3,17.096691208487737,10
349,92,1,2,0.0,9
349,93,1,3,12.965569912066966,10
349,198,1,2,0.0,9
350,71,1,2,0.0,10
350,93,1,2,0.0,10
350,349,1,2,0.0,10
350,231,1,2,0.0,10
351,61,1,3,12.910297848697635,10
351,142,1,2,0.0,9
351,182,1,3,15.121966051790526,10
351,200,1,2,0.0,9
352,61,1,2,0.0,10
352,182,1,2,0.0,10
352,351,1,2,0.0,10
352,306,1,2,0.0,10
353,23,1,2,0.0,9
353,195,1,2,0.0,9
353,320,1,2,0.0,9
353,341,1,2,0.0,9
354,61,1,3,18.051151581312002,10
354,148,1,2,0.0,9
354,196,1,3,21.722632430832576,10
354,200,1,2,0.0,9
355,61,1,2,0.0,10
355,196,1,2,0.0,10
355,354,1,2,0.0,10
355,331,1,2,0.0,10
356,52,1,3,6.705109336167407,9
356,90,1,2,0.0,8
356,183,1,3,9.196808536996784,9
356,185,1,2,0.0,8
357,52,1,2,0.0,9
357,183,1,2,0.0,9
357,356,1,2,0.0,9
357,325,1,2,0.0,9
358,23,1,3,15.574106309307316,8
358,145,1,2,0.0,7
358,146,1,3,12.251661069705824,8
358,229,1,2,0.0,7
359,23,1,3,15.798781486491068,9
359,146,1,2,0.0,8
359,358,1,2,0.0,8
359,191,1,3,13.082416939345288,9
360,23,1,2,0.0,9
360,191,1,2,0.0,9
360,359,1,2,0.0,9
360,320,1,2,0.0,9
361,42,1,3,0.22533635932037477,8
361,15,1,2,0.0,7
361,43,1,3,0.23689935399811501,8
361,169,1,2,0.0,7
362,42,1,2,0.0,8
362,43,1,2,0.0,8
362,361,1,2,0.0,8
362,138,1,2,0.0,8
