2
25
9.448291908991672e-05
0,-3.0,-3.0,6.671280296717442e-05,0,0.00035161743287840503,0.0002449666126989516,-0.002448383684487133
1,-3.0,-1.5,-0.0004517936594085691,0,0.0022012735684054582,-0.007289627357433732,0.01919914299375331
2,-3.0,0.0,-0.03650620461319553,0,-0.15048225396045758,-0.004358393257198546,0.6755081168354933
3,-3.0,1.5,-0.003078234252739986,0,-0.011128576809185383,0.012504304228097809,0.08470687867285104
4,-3.0,3.0,3.2235359612692725e-05,0,0.00020201409923379017,-0.00013173207295268121,-0.0015953911589060587
5,-1.5,-3.0,0.004156270134668858,0,-0.016183396703082168,0.005225146198447868,0.14955860542336155
6,-1.5,-1.5,-0.24556821923690453,1,-1.7202739034814698,-2.884791886806978,110.21887138734394
7,-1.5,0.0,-1.7283429443995102,1,19.648821571296242,0.3805586052185031,-115.3104778601825
8,-1.5,1.5,0.6015670260052064,1,13.352946231484259,10.672230304702806,10.146306239210972
9,-1.5,3.0,0.03117594407517078,0,0.09447574000340615,-0.1343765537440565,-0.7205011881082802
10,0.0,-3.0,-0.24495404057434964,0,-0.09793022701475564,-1.0798083702274504,3.496330795065959
11,0.0,-1.5,-3.2366764763277858,1,-1.8560804486409566,17.158087000319657,-109.55297857839794
12,0.0,0.0,1.8544129886738725,1,9.462508186768316,14.418198250114624,5.0424521397072075
13,0.0,1.5,5.60786460413899,1,2.6969215451083817,16.80285108867109,121.81509804661455
14,0.0,3.0,0.2998710282262347,0,-0.0002474197957718618,-1.2994171380174038,-4.264518961620992
15,1.5,-3.0,-0.029759997706673206,0,0.09914051884845694,-0.12877611194540697,0.714309390782367
16,1.5,-1.5,-1.215150486701113,1,10.851778513708222,9.662611288042235,12.516268619051447
17,1.5,0.0,2.114968539227442,1,14.673185839141347,3.665364013813325,93.41926802847306
18,1.5,1.5,2.2741511562653063,1,-5.360212663923467,0.6153446353606894,-65.12380680428181
19,1.5,3.0,0.032007637185764756,0,-0.09517111644602555,-0.13936628540729493,-0.7464554909243769
20,3.0,-3.0,-5.864187872589529e-06,0,7.241823200028785e-05,-2.775161503699628e-05,0.0006414725143290975
21,3.0,-1.5,0.0035995207860981112,0,-0.016701555103971723,0.011784354927506725,-0.09657486666173837
22,3.0,0.0,0.03312494992430832,0,-0.16501023148445276,-0.0010895983142996362,-0.6812391883637858
23,3.0,1.5,0.0044245231361738965,0,-0.023057712625814554,-0.009986814877037828,-0.13095313960217736
24,3.0,3.0,4.1029727458267584e-05,0,-0.00024209655426406685,-0.00018449728009417208,-0.0020858507438777383
1,0,2,2,0.0,0
2,1,2,2,0.0,0
3,2,2,2,0.0,0
4,3,2,2,0.0,0
5,0,2,2,0.0,0
6,1,1,2,0.0,0
6,5,1,2,0.0,0
6,0,1,1,0.6228502948694155,0
7,6,1,2,0.0,0
7,1,1,1,1.0781440061095349,0
7,2,1,2,0.0,0
8,7,1,2,0.0,0
8,2,1,1,1.6593855527455752,0
8,3,1,2,0.0,0
9,8,1,2,0.0,0
9,3,1,1,1.069818734184136,0
9,4,2,2,0.0,0
10,5,2,2,0.0,0
11,6,1,2,0.0,0
11,5,1,1,1.9568071446437494,0
11,10,1,2,0.0,0
12,6,1,1,1.0453814995030954,0
12,7,1,2,0.0,0
12,11,1,2,0.0,0
13,7,1,1,2.1773682833420294,0
13,8,1,2,0.0,0
13,12,1,2,0.0,0
14,8,1,1,1.8926391419034754,0
14,13,1,2,0.0,0
14,9,2,2,0.0,0
15,10,2,2,0.0,0
16,11,1,2,0.0,0
16,10,1,1,2.1927299981016932,0
16,15,1,2,0.0,0
17,11,1,1,1.7489537456006703,0
17,12,1,2,0.0,0
17,16,1,2,0.0,0
18,12,1,1,2.2501104060893904,0
18,13,1,2,0.0,0
18,17,1,2,0.0,0
19,13,1,1,2.6626124809134204,0
19,18,1,2,0.0,0
19,14,2,2,0.0,0
20,15,2,2,0.0,0
21,16,1,2,0.0,0
21,20,2,2,0.0,0
21,15,1,1,0.7968033982659954,0
22,16,1,1,1.0817530701450755,0
22,17,1,2,0.0,0
22,21,2,2,0.0,0
23,17,1,1,1.1343586075408014,0
23,18,1,2,0.0,0
23,22,2,2,0.0,0
24,18,1,1,1.7895759606199149,0
24,23,2,2,0.0,0
24,19,2,2,0.0,0
