2
545
2.9780473293593852e-06
0,-3.0,-3.0,-0.01645190486594246,0,0.03475472977541082,0.021606260490053326,-0.023564477963090403
1,-3.0,-1.5,0.007543542040149784,0,0.047417851175900944,0.06772665149995159,0.1172949863341715
2,-3.0,0.0,0.012335904899813765,0,0.009393274680085224,0.013345029688241103,1.9650527253329015
3,-3.0,1.5,0.030312908314830477,0,0.08953388633791232,-0.04132800168322425,0.4263351002098259
4,-3.0,3.0,-0.02104645003174027,0,0.010446380400889218,-0.047676403420040925,-0.042008544554126406
5,-1.5,-3.0,0.09851688574316574,0,0.1612002177629778,0.18594752795016253,0.9370111494277452
6,-1.5,-1.5,0.3494712116828148,1,0.6044546959477595,0.8203646794111644,0.7188464369171303
7,-1.5,0.0,-2.9215942419223344,1,-2.0894906027242146,-1.4789154984176556,-22.029339181933473
8,-1.5,1.5,0.46573166650509645,1,2.231992755335377,1.3589940122501325,-0.5716473503172815
9,-1.5,3.0,-0.09232003519027239,0,-0.02043105995267135,0.16796142362370578,-2.4509953838004157
10,0.0,-3.0,-0.3491707610148543,0,-0.1696912130751986,-0.4669123849880195,7.845040732658321
11,0.0,-1.5,-5.968482645604156,1,-5.442059488938521,5.364865533632691,-59.61405290706929
12,0.0,0.0,0.9678579579526433,1,-5.144333434386646,-2.4676308757923917,-2.9577334684788763
13,0.0,1.5,8.309246979689101,1,-0.31355421229272734,2.843622906716739,61.62997626722036
14,0.0,3.0,0.3921008680321253,0,-0.0005802826727225673,-0.5695192905194051,-9.766390305839435
15,1.5,-3.0,0.08530964247261372,0,-0.04327052371994018,0.2550898680545784,2.448547736468774
16,1.5,-1.5,-0.42500956529871114,1,2.2561677392694346,1.404796884476144,1.313208833544194
17,1.5,0.0,3.3917020542175513,1,-3.420843063744375,-0.12493400038989022,17.754723518031202
18,1.5,1.5,1.152002101537665,1,-2.923679343352483,-0.7551484151233729,-3.7839909157487277
19,1.5,3.0,-0.09570167198776179,0,0.0318338788552899,0.15743598957507265,-2.547885113562185
20,3.0,-3.0,0.0073981032889419394,0,-0.0707749328433634,0.02764320658681052,0.038280232715539694
21,3.0,-1.5,-0.0313632470845564,0,-0.009926227956269865,-0.008602007992958096,-0.4281854798519977
22,3.0,0.0,-0.0560556193521134,0,-0.04776727219374794,0.007780597087818669,-2.166729811104508
23,3.0,1.5,-0.036941280437129506,0,-0.04192002630144952,0.03701785296322753,-0.5539406663943834
24,3.0,3.0,-0.03248345029960251,0,-0.017166253576111082,-0.029650610052750277,-0.07644786692058286
25,-2.25,-2.25,0.01392752502754077,1,0.03760164786535839,0.06586505262996899,0.007019779045391681
26,-2.25,-0.75,-0.24830130353365906,1,-0.6111473618909422,-0.6717628887325647,1.6533774823063638
27,-2.25,0.75,-0.40082416224268247,1,-1.2230425428741627,0.6620308135081764,2.6061184920694918
28,-2.25,2.25,0.016999916915536796,1,0.11942349866115805,-0.04169690162921416,0.2375914069656252
29,-0.75,-2.25,-0.9865666042555263,1,-2.600396974228139,-2.238846159850946,4.658568684481121
30,-0.75,-0.75,3.303861256597561,1,5.278436148530635,-0.3654998034070106,41.82497463515205
31,-0.75,0.75,-0.12028979469268612,1,5.2363622464096915,4.879492881442941,-18.85819030836932
32,-0.75,2.25,2.0528071801644208,1,3.15806817231097,-5.095438057380073,-6.364255314330121
33,0.75,-2.25,-2.0417624917671984,1,3.007342100779008,-5.0480360655011705,5.675668126021184
34,0.75,-0.75,0.21970358912093357,1,4.285049144460522,5.3886508476996235,11.111838106919752
35,0.75,0.75,1.5789773841473456,1,3.1144310029517652,2.6520200469852977,-18.082634246499737
36,0.75,2.25,2.070764669004176,1,-3.0422729968140363,-5.183939250037256,-6.566296249322701
37,2.25,-2.25,-0.012168558166167753,1,0.03730333588387798,0.02234546916715885,-0.2707782049865861
38,2.25,-0.75,0.39828330761067376,1,-1.3040503145491038,0.6169393197168617,-2.3132642986999823
39,2.25,0.75,0.3849638478750546,1,-1.249508049699001,-0.5360655849702823,-2.730385748871813
40,2.25,2.25,0.023399331788501784,1,-0.1474020987692938,-0.08697929865202945,0.14155132876480372
41,-2.25,-3.0,0.003019330283310467,0,0.07458818572248664,0.015347892916744817,-0.04617047139711803
42,-3.0,-2.25,-0.009674123242892895,0,0.03184775878794426,0.03307587511342929,-0.05091601830566908
43,-2.25,-1.5,0.023730783353138836,1,0.13560196301308566,-0.010347989944240188,-0.21303216990786017
44,-3.0,-0.75,0.020938022483637096,0,0.06698857490297457,0.01163121890804344,1.0796200796142157
45,-2.25,0.0,-0.6730800280272969,1,-2.088137464782926,-0.1370675227288232,3.115695848774412
46,-3.0,0.75,0.03568395759008471,0,0.06955133190705014,0.031238538175466526,1.493462787213132
47,-2.25,1.5,-0.02767256418437835,1,0.016365443448948816,0.2278703616056716,0.48745915308732973
48,-3.0,2.25,-0.0020595505103813473,0,0.05071125163019568,-0.04971559069304646,0.002896207871091929
49,-2.25,3.0,-0.03621972861297755,0,-0.036548280690714134,-0.03073139779141629,-0.2751816727133112
50,-1.5,-2.25,0.014303858626484887,1,-0.16501930760810782,0.07598245461702259,0.3204488588221152
51,-0.75,-3.0,0.023233556067943997,0,-0.26019670585696114,0.24824826768786004,4.707511714562229
52,-0.75,-1.5,-0.6773774480588122,1,-5.110846834356816,5.581858692250537,-4.0804264614435795
53,-1.5,-0.75,-0.30842293251802877,1,1.9793455080185784,-3.5423500224788103,-3.6747307929634108
54,-0.75,0.0,0.052963311278847534,1,8.250779014033911,-4.222727853256073,-3.9169842616745436
55,-1.5,0.75,-1.8306382074041634,1,-1.6054511473715105,3.6706717004929987,-9.44028740598676
56,-0.75,1.5,4.4990447829733995,1,8.334857574164312,2.068119748305694,22.80380685370093
57,-1.5,2.25,0.3417275306840833,1,1.0266384900923637,-0.8019762140860811,-2.3989369364111512
58,-0.75,3.0,0.11149054847661884,0,0.3574780743857466,-0.031168738147040416,-7.1683082584851485
59,0.0,-2.25,-3.065950643712325,1,-1.2929395761342468,-7.634631354066617,1.3090924076670045
60,0.75,-3.0,-0.15594615894785863,0,0.3701123946381398,-0.049348311799512164,6.618812965965975
61,0.75,-1.5,-4.476227772443009,1,7.68065283925121,2.088240685468704,-27.51460041548931
62,0.0,-0.75,1.519778840731618,1,-7.85974062528341,5.69251931811627,32.9042223544742
63,0.75,0.0,1.5669074885329382,1,7.064584717435879,-0.15719119470883722,0.771926166490902
64,0.0,0.75,1.3284476787678032,1,-1.8908251482738674,6.9686267568890985,-29.33534575015375
65,0.75,1.5,4.825473669444963,1,-6.841862348704918,1.104938459206262,20.233058730695195
66,0.0,2.25,3.676360438221436,1,-0.011172970273417609,-9.256916627082731,-3.7935771987731264
67,0.75,3.0,0.10130509543703829,0,-0.3415237941225813,-0.022055138086640547,-7.274875718814938
68,1.5,-2.25,-0.3276091106940081,1,1.0071697329118245,-0.6938720706779508,2.4078265313306577
69,2.25,-3.0,0.03207181778373789,0,-0.10837324137503525,0.053396236272589735,0.2768844952563462
70,2.25,-1.5,0.04465678424772745,1,-0.1040885879335043,0.2693585714294789,-0.49101476178563
71,1.5,-0.75,1.8463507142052482,1,-1.6070712663612066,3.669836960184698,9.546655438852538
72,2.25,0.0,0.6821775763036796,1,-2.234918638688555,-0.021969761798258314,-3.0598740436105376
73,1.5,0.75,2.011874389336621,1,-2.189255691967404,-2.3589345629632517,0.8501151299662981
74,2.25,1.5,0.11125679839779448,1,-0.44069695206417536,-0.17534670282824635,-0.8500365767937975
75,1.5,2.25,0.3786850470573465,1,-1.066958242653643,-0.9709006202418127,-2.8704737952731216
76,2.25,3.0,-0.04173845675458672,0,0.024058529184437013,-0.028784209308418615,-0.31979848427751306
77,3.0,-2.25,-0.0008736751781631316,0,-0.045144778105542654,0.012777804852978365,0.01699455345686452
78,3.0,-0.75,-0.05541411646594832,0,-0.013530348082379084,0.015052295279662634,-1.5225305263903997
79,3.0,0.75,-0.060559545778635676,0,-0.010778944954012349,0.013087964825819266,-1.5263981384664618
80,3.0,2.25,-0.01741455526258477,0,-0.06971057878473808,-0.017917339249023886,-0.09698385203662385
81,-2.625,-2.625,-0.008055208435751983,1,0.04374633331354127,0.03422010600941202,-0.006401992009279289
82,-2.625,-1.875,0.0022578798396184186,1,0.05328131712367587,0.03897899465292577,-0.16852261101309857
83,-2.625,-1.125,-0.005793076001169359,1,-0.07006111296440191,-0.03517246764024837,0.4416780915620695
84,-2.625,-0.375,-0.10728100383368054,1,-0.6333104312508528,-0.12794505537185158,1.7598883095287994
85,-2.625,0.375,-0.12033466975824406,1,-0.7535428815960199,0.10859674662641329,2.0734736363836803
86,-2.625,1.125,-0.014555366765537568,1,-0.21883219635198944,0.112009054411859,0.9333052283022806
87,-2.625,1.875,0.007768286200165192,1,0.039032802883702006,-0.013239246116083386,-0.057462927801278006
88,-2.625,2.625,-0.013056728089822368,1,0.03328321921147545,-0.06701866225882228,-0.029153524150187158
89,-1.875,-2.625,0.031068664185868556,1,0.08899498635962994,0.00576834140753693,-0.13691179108662369
90,-1.125,-2.625,-0.001494328290035787,1,-0.2614805573524296,-0.4109128631447763,2.174140025741446
91,-1.875,-1.875,0.07957533642722593,1,0.15996927907808892,0.20427202591623,-0.39160368249757516
92,-1.875,-1.125,0.011370915924433053,1,0.510234089231139,-0.6788799041883172,0.7927372805866767
93,-1.125,-1.875,-0.26343639414933734,1,-1.9240884333521486,0.5592154366880153,2.564099616680578
94,-1.125,-1.125,1.3692783741931889,1,2.9329292922371115,2.027985578530727,11.986103071722754
95,-1.875,-0.375,-1.276060428839561,1,-2.405740833800901,-2.009347373517985,-1.5953482251646278
96,-1.875,0.375,-1.651045121524023,1,-3.6060618239945854,1.1012251345822999,0.4083614646767997
97,-1.125,-0.375,-0.7239817258057281,1,6.107573460959287,-6.250371959628867,-20.761420775989514
98,-1.125,0.375,-2.7980041403745806,1,3.1091296381867997,1.1730439839667617,-28.525493288419977
99,-1.875,1.125,-0.40495438944617096,1,-0.6386744534860226,1.5788321937436078,1.9058326107969465
100,-1.875,1.875,0.13619947180274758,1,0.626148050018049,-0.016522140137983348,-1.2477566073306328
101,-1.125,1.125,0.39684636183036825,1,4.0899610374079955,5.889042706070054,-6.110896554009516
102,-1.125,1.875,1.834455293172116,1,4.604948235729736,-1.985174404491039,-2.722324421268559
103,-1.875,2.625,-0.012131407347635069,1,0.051055133225920306,-0.23761288543081047,-0.5362920402199859
104,-1.125,2.625,0.2389193480564939,1,0.6534139583404026,-1.3814419955100545,-4.524293668366977
105,-0.375,-2.625,-0.6774053643674889,1,-0.9975993728320077,-2.747736941198707,7.19466142753194
106,0.375,-2.625,-0.9719731484988865,1,0.5351612148648383,-3.7410664934032054,8.471288717812783
107,-0.375,-1.875,-3.8405942508669173,1,-6.610679806034774,-3.283413172513305,-18.822239967990498
108,-0.375,-1.125,0.5185233336754493,1,-6.791208855425164,12.685046955869094,20.18148524281734
109,0.375,-1.875,-5.72430238006836,1,3.1256807300883818,-6.987203822785582,-28.41038644629184
110,0.375,-1.125,-3.633225688260573,1,0.05454791990054329,11.100193844348166,-26.057966480077148
111,-0.375,-0.375,3.4789400429870763,1,-0.47215186417797744,-4.327988025138935,36.47891668221492
112,-0.375,0.375,0.7506662865100834,1,1.5368033949078592,-2.084373928620598,14.475952687650022
113,0.375,-0.375,0.3891207009174966,1,-0.8635629701739916,-1.019158071669502,-24.112845222308145
114,0.375,0.375,-0.17413093202769125,1,1.402020987948235,0.07950807982085045,-27.770301112844923
115,-0.375,1.125,4.5714817081446695,1,4.2099082634038485,10.798868454528986,17.559789475490234
116,-0.375,1.875,6.161304972436108,1,4.999910033229811,-7.776209984543441,22.968287289593544
117,0.375,1.125,4.415996043735277,1,-3.0525734984224724,11.444767069471446,5.220490146038137
118,0.375,1.875,6.1492076932343895,1,-4.869946180610803,-7.6719367767691455,22.135243144873833
119,-0.375,2.625,1.0067059331273718,1,0.7891789405589966,-4.060096553196532,-9.726146583765827
120,0.375,2.625,1.002283591260651,1,-0.7837114732319332,-4.06532403731844,-9.766765561453772
121,1.125,-2.625,-0.25032014602889474,1,0.655732101921309,-1.282940661053448,4.671265916887469
122,1.875,-2.625,0.015431668281319257,1,-0.001631969804191522,-0.1426270425011756,0.5535734734492173
123,1.125,-1.875,-1.8438674916260778,1,4.729427394616852,-1.961173542738628,2.6400418498713774
124,1.125,-1.125,-0.45037836976916024,1,4.368564592535627,5.846373996951377,5.8898352234611195
125,1.875,-1.875,-0.10782027115433285,1,0.5003541708811617,0.07428317335876534,1.12949006242135
126,1.875,-1.125,0.4396012609723552,1,-0.7623877706141142,1.5611741628661142,-1.641636085891058
127,1.125,-0.375,3.0632799487673283,1,2.6238284348945804,2.490264668165193,24.424873102929016
128,1.125,0.375,3.044468337785547,1,2.5220147498171035,-2.5564327860120635,22.285449035620147
129,1.875,-0.375,1.6640329204736717,1,-3.7750091528457905,1.2012076310880946,-1.8084272484098773
130,1.875,0.375,1.6251600898143943,1,-3.6621005794947723,-1.31327256901371,-2.1490464986958284
131,1.125,1.125,2.3784504879433195,1,-2.53087478766845,1.1678896249155999,-1.4747560037349308
132,1.125,1.875,2.0331585823144755,1,-4.436982774569872,-2.748044768188375,-3.908404869472509
133,1.875,1.125,0.6428693040301584,1,-1.6373420162334549,-0.8151636245039506,-5.104721004865392
134,1.875,1.875,0.2371429136166522,1,-0.8349918492487025,-0.4006283375461691,-2.936596628988767
135,1.125,2.625,0.239894766024749,1,-0.6291901902532449,-1.438283673353103,-4.651596906355717
136,1.875,2.625,-0.009884078962066278,1,-0.06539663663801902,-0.2713264179692182,-0.5690131588525361
137,2.625,-2.625,0.007347073926066646,1,-0.047309010465669724,0.008538102188579678,0.01170841981556641
138,2.625,-1.875,-0.004917336881832294,1,-0.054728881950945954,0.0320497414711023,0.02059899944951153
139,2.625,-1.125,0.014608575689560139,1,-0.3238370490046959,0.12023377937472134,-0.8974761324522325
140,2.625,-0.375,0.09242999821135733,1,-0.8296533456864049,0.10355366780691559,-2.2252553236108255
141,2.625,0.375,0.08811517776712881,1,-0.8117457372554034,-0.0997606099371186,-2.1216017699983007
142,2.625,1.125,0.01473247764776513,1,-0.3602571808272465,-0.05349412727641708,-0.9014677390935575
143,2.625,1.875,-0.0018746135679879954,1,-0.15220986066141734,-0.00754609870365581,-0.21546517430602136
144,2.625,2.625,-0.021282803372061666,1,-0.05381345556482648,-0.06538445357244817,-0.056363674665288695
145,-2.625,-3.0,-0.01176533721994573,0,0.04412595218355723,0.019503534128756727,-0.0388810306042155
146,-3.0,-2.625,-0.013229885177935202,0,0.03597983138157621,0.02899924146839486,-0.025410411275776413
147,-3.0,-1.875,-0.004741668612426233,0,0.0262555469567364,0.05004229277915117,-0.052567182009610525
148,-2.625,-1.5,0.005525379514316782,1,0.028523274782006704,0.04182391224761533,-0.018439881296843548
149,-3.0,-1.125,0.020046912607516138,0,0.07597604378188001,0.04943103587351236,0.520061382059355
150,-3.0,-0.375,0.014616221250426244,0,0.030062544599359756,-0.002133830110268118,1.6390188453741643
151,-2.625,0.0,-0.13794580369247592,1,-0.8106838908795944,-0.017866998640070866,2.2111267236598247
152,-3.0,0.375,0.02140552497234029,0,0.025420610506126342,0.0339223314042052,1.895682113391114
153,-3.0,1.125,0.041583567346060564,0,0.101302862651519,-0.004931383674432952,0.943309402454783
154,-2.625,1.5,0.008463086964267109,1,-0.029444369462363836,0.019235403879481368,0.3159448993277109
155,-3.0,1.875,0.01261746699694444,0,0.06268348767475505,-0.047346147264951906,0.10696909964776083
156,-3.0,2.625,-0.014279785955457853,0,0.026978860320254264,-0.05719411966484587,-0.026103892630729757
157,-2.625,3.0,-0.022096664954660717,0,0.006178429127448265,-0.0483347552616248,-0.0707682168814623
158,-1.875,-3.0,0.04132713206168154,0,0.13812869106674858,0.055983906671623014,0.15584566325890928
159,-1.5,-2.625,0.05697707080303968,1,0.04802444336968863,-0.07033717909033638,0.44339372266682525
160,-1.125,-3.0,0.1189829394396753,0,0.0200378501459871,0.32340777349587857,2.542205553319102
161,-1.875,-1.5,0.12966251115179084,1,0.4463401322793326,0.10364723393651733,-0.27876666828565577
162,-1.5,-1.875,0.09976732170694345,1,-0.1582461694475844,0.47125938062395906,0.7130115245782788
163,-1.125,-1.5,0.36738011243691393,1,-0.8462119466851116,2.8086225290925815,1.975895786292439
164,-1.5,-1.125,0.4437856309476015,1,1.9935023644603882,-0.5166327574450656,2.243642409600838
165,-1.875,0.0,-1.770325283066604,1,-3.7571569496118533,-0.5235991708643992,-2.112188220399244
166,-1.5,-0.375,-1.8164235074355204,1,-0.11330503790357604,-4.29148644766226,-17.123855334289605
167,-1.125,0.0,-2.4684349656486435,1,4.700121174857263,-2.994956176558437,-33.55730946474151
168,-1.5,0.375,-2.8610611598127487,1,-2.5939198799738117,1.7481889327593867,-16.385527688599126
169,-1.875,1.5,0.02114534986798091,1,0.45562467843671406,0.6660637791377817,0.14875323779632577
170,-1.5,1.125,-0.4567377492347557,1,0.5897030869857618,3.5375534716339474,-2.7625027036160414
171,-1.125,1.5,1.8924809611308124,1,5.715655095219407,1.9168919393738157,3.9144657262686646
172,-1.5,1.875,0.6060433057815561,1,2.033183669715798,-0.47001662728393334,-3.261802846470831
173,-1.875,3.0,-0.0692561261208868,0,-0.07695819252591256,0.05108466616891448,-0.9688599688477676
174,-1.5,2.625,0.0429587571052911,1,0.25558765589335775,-0.5845262907567119,-1.9913905330426735
175,-1.125,3.0,-0.0430469489205284,0,0.16844903058386418,0.18319947501642014,-4.693745559282387
176,-0.375,-3.0,-0.1812209137660531,0,-0.39880891957099657,-0.11816078193755,6.6999899172310435
177,0.0,-2.625,-1.0036244686318048,1,-0.4099777111807665,-3.845601247982416,8.441027519326912
178,0.375,-3.0,-0.3325273021498036,0,0.22291196579107592,-0.4198653930784487,7.822249294720342
179,-0.375,-1.5,-3.2580864154820497,1,-8.636931116431168,6.843919435109901,-30.388733364575728
180,0.0,-1.875,-5.729888189020027,1,-3.063998639768542,-6.349142614557462,-34.055745953940566
181,0.375,-1.5,-6.480961975977873,1,2.8533326487587485,3.089133178958879,-57.56902899750838
182,0.0,-1.125,-2.2350747358969376,1,-7.366416038487146,13.644048348163881,-11.688872724140523
183,-0.375,0.0,1.8749181675756004,1,1.0586551708749055,-4.034280732323506,25.313003985466093
184,0.0,-0.375,1.9626995583300724,1,-6.875159681114543,-2.610912968754865,5.1541063482562315
185,0.375,0.0,0.016859133133462077,1,0.7869629206522777,-0.8596802845913554,-29.423363813838638
186,0.0,0.375,0.3003943862730875,1,-3.377363177796725,-0.9628534829957569,-7.663558628840772
187,-0.375,1.5,7.219642663405366,1,6.106830623161777,2.3022486908402264,50.268286674514606
188,0.0,1.125,5.1956807835446615,1,-0.8802777049956892,12.850099907746749,16.757747266894494
189,0.375,1.5,7.169496634642001,1,-5.6852183449669615,2.6068012464864614,46.463970621100316
190,0.0,1.875,7.10916386029293,1,-0.08687259315462849,-8.939986237863241,31.19900411809795
191,-0.375,3.0,0.30436707712556194,0,0.31637179651171565,-0.3879747996144418,-9.05928005223146
192,0.0,2.625,1.1856949926661877,1,0.003248750870566488,-4.674163454061872,-10.465496737900398
193,0.375,3.0,0.29730991418744485,0,-0.3127720620169282,-0.37975551163765975,-9.115156161784766
194,1.125,-3.0,0.01944499875451573,0,0.1881610760656033,0.2444196400901831,4.5759996368841485
195,1.5,-2.625,-0.04344352432228275,1,0.22133617017624063,-0.4903271941861144,1.9600681703496363
196,1.875,-3.0,0.06727413428769752,0,-0.1284229889271549,0.14163994699076052,0.9703110508925341
197,1.125,-1.5,-1.9185146830968542,1,5.9370286612035015,1.895599644818553,-3.695288010806844
198,1.5,-1.875,-0.574232542918386,1,2.0414705478488866,-0.3763547712456366,3.9174759285819323
199,1.875,-1.5,0.018612816947048482,1,0.3305301400129218,0.7127167200289016,0.07886074575301087
200,1.5,-1.125,0.4873563141126022,1,0.6423571963095875,3.502183209339293,3.9076670518618144
201,1.125,0.0,3.5263538596874757,1,2.953469743926606,-0.09905858114442107,29.37338016244062
202,1.5,-0.375,2.970170406645334,1,-2.9769156812093565,2.2496106518088994,13.956763927701491
203,1.875,0.0,1.8927169270737827,1,-4.29411401679586,-0.0758031221477206,-0.8110479051636498
204,1.5,0.375,2.9170353664135025,1,-2.9393473034386477,-2.4363197027965295,12.426309464502507
205,1.125,1.5,2.6178850076537943,1,-5.134835016485077,-0.3610442433896308,2.629515045111842
206,1.5,1.125,1.4269374914116977,1,-2.4916598122831677,-0.8968456243329684,-4.012304416271927
207,1.875,1.5,0.4028063521367421,1,-1.2636412215487436,-0.45453802153208184,-3.3232774420413937
208,1.5,1.875,0.7903868105591251,1,-2.2357051810909803,-1.1854009901948601,-5.021724941950258
209,1.125,3.0,-0.05047566954281867,0,-0.14786287726448627,0.18034438419021465,-4.814449512802672
210,1.5,2.625,0.046971113757294666,1,-0.24833313342114274,-0.6399246121176496,-2.1100993464811184
211,1.875,3.0,-0.07157638921582307,0,0.07419700009119302,0.04134964024483106,-1.0320524103999436
212,2.625,-3.0,0.012678655989811032,0,-0.07399473930647053,0.02811070313563139,0.0672761146165935
213,3.0,-2.625,0.00562456909926635,0,-0.05868638898366495,0.017873648524700865,0.03585616371445917
214,2.625,-1.5,-0.0046057722597790274,1,-0.1327420317718326,0.05827066958536631,-0.32638479020011646
215,3.0,-1.875,-0.013411906562259704,0,-0.03193177870862031,-0.001245760307321178,-0.10453474597160019
216,3.0,-1.125,-0.047590741006614805,0,-0.00040364189471316656,0.0031674122622017014,-0.9349314197374727
217,2.625,0.0,0.11037308219961355,1,-0.9372097813990385,0.004007483576383391,-2.3373897685224936
218,3.0,-0.375,-0.056506931602269925,0,-0.03167016749931411,0.018618692399100824,-2.0024493683861517
219,3.0,0.375,-0.05914471561074053,0,-0.031874525934541736,-0.003238954296148091,-1.9762928675868323
220,2.625,1.5,0.0009877722749198996,1,-0.23370339089647973,-0.019884323480982034,-0.47841712507044576
221,3.0,1.125,-0.051968922569495625,0,-0.019270466582171106,0.034251543896613515,-0.9909545592582227
222,3.0,1.875,-0.021931526224532684,0,-0.06440598220548577,0.019906055303689524,-0.2589222755676002
223,2.625,3.0,-0.03166188285511074,0,-0.020032352895184735,-0.03562784308469232,-0.1083512609998384
224,3.0,2.625,-0.025351448300951197,0,-0.03897677671866759,-0.043798033463554126,-0.06462866509662145
225,-2.25,-2.625,0.0048031818524222735,1,0.05008260141516391,0.032829384136112645,-0.1253368389707496
226,-2.625,-2.25,-0.002025848794901028,1,0.05102139301250079,0.036634442914813964,-0.026296956763124765
227,-2.25,-1.875,0.027548030570126236,1,0.09236790823682478,0.05926363970823349,0.06131637567733339
228,-1.875,-2.25,0.03265188005683247,1,0.04521579223804228,0.1018942683102226,-0.4626157717379261
229,-2.25,-1.125,-0.04864608389885485,1,-0.009282520591508251,-0.2825240306080494,0.27884873355107176
230,-2.625,-0.75,-0.04875430028727194,1,-0.3074474627055107,-0.12945400618871347,1.058536924580447
231,-2.25,-0.375,-0.5177780460143445,1,-1.5240685370946034,-0.6519015606328116,1.8909421054447484
232,-1.875,-0.75,-0.5017280307411615,1,-0.4960137028116781,-1.9117088821058854,0.48646193656175196
233,-2.25,0.375,-0.6157361070707891,1,-1.9096185433331672,0.41540564679305064,2.802715892362415
234,-2.625,0.75,-0.06629876579778549,1,-0.49662234031356006,0.15922435451450542,1.557503171373466
235,-2.25,1.125,-0.1706380601728229,1,-0.4631631342581334,0.5294873623140393,1.2402646693489077
236,-1.875,0.75,-1.0708190006876923,1,-2.318436583866007,1.8690035566717738,1.8410519683228361
237,-2.25,1.875,0.017810287154750595,1,0.15194283067769163,0.030086394687593516,-0.6187907227324085
238,-2.625,2.25,0.0010556757715047653,1,0.06788890916599871,-0.04188289812016941,0.011564246080492663
239,-2.25,2.625,-0.0136691342260098,1,0.02753348965854157,-0.11611793831517574,-0.023008143090231917
240,-1.875,2.25,0.08821772479001513,1,0.3495437968122648,-0.20284239352620825,-0.5558333875689561
241,-1.125,-2.25,-0.23649800726446366,1,-1.095270579128871,-0.45989457127043626,2.4276224930684984
242,-0.75,-2.625,-0.2557976310253969,1,-0.7951702508670584,-1.3228781973671024,4.817036681774918
243,-0.75,-1.875,-1.5826777683217026,1,-5.1107025988492625,-0.47834758014504386,-2.534735111967901
244,-0.375,-2.25,-2.1601828692814236,1,-3.1521607338272504,-5.210679638011127,3.382904773364493
245,-0.75,-1.125,1.8844015689274813,1,-0.42650928677237915,7.491462239561746,26.681633427268856
246,-1.125,-0.75,1.149100757211664,1,6.099989123059636,-3.5625240088051027,7.188102198911798
247,-0.75,-0.375,2.007148823559334,1,7.95485777554658,-6.130090814191022,11.148382738453313
248,-0.375,-0.75,3.7053250928077937,1,-3.066375743327003,3.912943873447733,61.76876853799972
249,-0.75,0.375,-0.872828618662655,1,6.739332001575429,-0.8602509165619465,-8.003805171940789
250,-1.125,0.75,-1.6682123773136843,1,2.4121950364721982,4.879540657518054,-22.313121305551125
251,-0.75,1.125,2.459877233004873,1,6.693473372264442,8.180210882419827,2.75604460343707
252,-0.375,0.75,1.34554432307252,1,1.954130432801203,5.348295534148846,-13.73066264817367
253,-0.75,1.875,3.9460410786498707,1,6.553144026678229,-4.803435836441238,6.70837467679835
254,-1.125,2.25,0.9779630264135587,1,2.2390865785480853,-2.3586424057327613,-5.1258448933401315
255,-0.75,2.625,0.6054288308802983,1,0.9795349789908102,-2.6884409197960517,-7.503191843632126
256,-0.375,2.25,3.182236552053557,1,2.4527359768324493,-8.009748107268114,-5.260929301736823
257,0.375,-2.25,-2.9893388119576523,1,1.6473858864149387,-7.487125312363216,2.5911726607694834
258,0.75,-2.625,-0.6252341866787174,1,0.9526366368803618,-2.5708312247480123,7.086037114745556
259,0.75,-1.875,-3.927277607004846,1,6.185850554982547,-4.771040857736656,-9.797047805341506
260,1.125,-2.25,-0.9797311138909585,1,2.255350498479716,-2.327537935123563,5.456025865182432
261,0.75,-1.125,-2.4391251603925768,1,5.8003527800925365,8.223269872690329,-9.555638771876332
262,0.375,-0.75,-0.36822028145703495,1,-1.9251901870051547,5.407572880972534,3.5486827380882557
263,0.75,-0.375,1.39565806223873,1,5.777755597101972,1.0647476137025562,0.25510320119149527
264,1.125,-0.75,1.6447630236148576,1,2.524253227451415,5.153396059017576,20.22966003865647
265,0.75,0.375,1.3318856932925154,1,6.271214563181307,-1.0441467863155767,-1.6096672410383543
266,0.375,0.75,0.947120411191917,1,0.31758924169164204,6.585465166430792,-39.04731022893112
267,0.75,1.125,3.3414239460906012,1,-2.628822556868125,6.2227901600621776,0.17911750752270492
268,1.125,0.75,2.320415709795047,1,0.9329933474950973,-1.327299201970743,1.4828492556485655
269,0.75,1.875,4.036614739281628,1,-6.115363829505164,-5.112258806354781,5.8004296225630565
270,0.375,2.25,3.17960316628771,1,-2.416541284111541,-7.978408144876443,-5.255067125658376
271,0.75,2.625,0.6011397400601098,1,-0.9450894530508379,-2.7177837051155587,-7.650643085246353
272,1.125,2.25,1.0182879481394753,1,-2.192905635271781,-2.560362542680641,-5.570558958959857
273,1.875,-2.25,-0.07409565593688092,1,0.26238174612928383,-0.11384031747489554,0.736044758134389
274,2.25,-2.625,0.013419370844462904,1,-0.05269443698676739,-0.03434732517210549,0.029218956382082904
275,2.25,-1.875,-0.007305206908144254,1,0.05537864243356255,0.10116884151876543,0.4152244371331264
276,2.625,-2.25,-0.000980206456181719,1,-0.019838553118309628,0.02671875110404025,0.06916924186662617
277,2.25,-1.125,0.18436890276440082,1,-0.5720739018401899,0.5369417472825432,-1.207786784818528
278,1.875,-0.75,1.0819116309458967,1,-2.406685247652854,1.7976183053339032,-1.9743097479193106
279,2.25,-0.375,0.5992600524907927,1,-1.9758360217835194,0.43541460448941033,-3.4997946463919742
280,2.625,-0.75,0.05297612594292916,1,-0.5915824533333065,0.1387960529460151,-1.5375354570778597
281,2.25,0.375,0.5843004020311061,1,-1.9050905510083747,-0.46798248937147635,-3.322539219969961
282,1.875,0.75,1.0850834242100913,1,-2.4326818873888256,-1.4642021905866751,-4.061041788292702
283,2.25,1.125,0.2102520976004656,1,-0.7030867166910021,-0.32930033027832806,-2.002980420728967
284,2.625,0.75,0.04620073822827887,1,-0.5727662095327613,-0.0990406971886296,-1.5840359474309291
285,2.25,1.875,0.055869242640256216,1,-0.2568782328152757,-0.10845971020709283,-0.9222729784858237
286,1.875,2.25,0.1077791321144401,1,-0.3939333169780402,-0.28336507266413974,-0.8881246386235703
287,2.25,2.625,-0.01673029307285267,1,-0.04280492637998742,-0.1302952934546546,-0.07650520037373558
288,2.625,2.25,-0.005865944739711122,1,-0.11420131396341945,-0.03957129756550547,0.00673833870789581
289,-2.8125,-2.8125,-0.01344731096960395,1,0.0397093970795429,0.02656092779418939,-0.023564477963090403
290,-2.8125,-1.6875,0.0017399750118072864,1,0.03493683662466594,0.05464210182709905,-0.030558671996345294
291,-2.8125,-1.3125,0.01043819696195553,1,0.01711841797309181,0.04443485125433424,0.2651486446646882
292,-2.8125,-0.1875,-0.03381007704370937,1,-0.34540113411147616,-0.021505334013334838,1.8937716509739226
293,-2.8125,0.1875,-0.03390575531625026,1,-0.3757303230517336,0.03126453196941699,2.0363337996918798
294,-2.8125,1.3125,0.024871991616196,1,-0.016241116316146307,0.003522289620615687,0.65472365757365
295,-2.8125,1.6875,0.017161975908212473,1,0.03615735454082717,-0.031494088853867265,0.1979465428460049
296,-2.8125,2.8125,-0.018550864828578446,1,0.018724701892410725,-0.05595472491156271,-0.042008544554126406
297,-1.6875,-2.8125,0.061582688744313226,1,0.13036006901354702,0.032053541717458195,0.349834686066714
298,-1.3125,-2.8125,0.09030703971080378,1,0.044069562027899536,-0.0064374813588081855,1.5241876127887797
299,-1.6875,-1.6875,0.16277967531074716,1,0.295976801843753,0.40174007882432355,-0.1283382843704081
300,-1.6875,-1.3125,0.24058504371448897,1,0.9268909178892948,-0.027308000797112136,0.3952253056603741
301,-1.3125,-1.6875,0.14749327013313568,1,-0.5324583158611835,1.15576599210941,0.8206672832572913
302,-1.3125,-1.3125,0.6730965018246907,1,1.343035945419681,1.4653194333053834,3.3415322354463965
303,-1.6875,-0.1875,-2.0755971863839036,1,-2.645261763364186,-2.1605609326605513,-11.597595539671623
304,-1.6875,0.1875,-2.4191483309750916,1,-3.585267315870025,0.3392929929275703,-10.043052443378885
305,-1.3125,-0.1875,-2.2811683018033957,1,1.9142632531017534,-4.030516466447991,-30.83789270971644
306,-1.3125,0.1875,-3.0734784572693687,1,0.4116485844204333,-0.2213530072241131,-30.611156735948523
307,-1.6875,1.3125,-0.09280942115576149,1,0.5754625183409795,1.7921386138835258,0.45185474595376546
308,-1.6875,1.6875,0.2963244736229559,1,1.2940115567006438,0.32077561003399147,-0.8897003817755303
309,-1.3125,1.3125,0.5611029144658719,1,3.1746048566463925,3.3664989328566266,-0.9278099335097605
310,-1.3125,1.6875,1.1941513507698736,1,3.7249698062155208,0.05944020427957562,-0.7329916557767095
311,-1.6875,2.8125,-0.05349326812092513,1,0.00641910435118398,-0.16471347127662436,-1.4868844814777105
312,-1.3125,2.8125,-0.009203138980266595,1,0.18963531323489013,-0.41353085849530313,-3.4151062861231134
313,-0.1875,-2.8125,-0.4721962769380788,1,-0.4566534149893947,-1.777561303136525,7.545179899187052
314,0.1875,-2.8125,-0.5809988481246977,1,0.044717779108548225,-2.098907845335506,8.144901566129587
315,-0.1875,-1.6875,-5.146329075293828,1,-6.6330864116751815,0.06398228995367619,-45.427442735212516
316,-0.1875,-1.3125,-2.997800710098539,1,-8.013773835905678,11.173460674292672,-28.370392643668783
317,0.1875,-1.6875,-6.5431706712793405,1,-0.511598946571083,-2.0755392671932626,-57.18779500885931
318,0.1875,-1.3125,-5.079997868148444,1,-2.6677123310412125,9.540751518469028,-52.50280762606383
319,-0.1875,-0.1875,2.26078617831694,1,-3.7894278863870596,-3.661418033525611,17.481754291616273
320,-0.1875,0.1875,1.092726820324795,1,-2.2692196486382104,-2.6301421995920937,16.948162663030878
321,0.1875,-0.1875,0.6423375219633805,1,-3.8948448836920404,-1.9490699003311784,-24.360005942436437
322,0.1875,0.1875,0.07174529990076502,1,-2.3108715013545256,-1.1003635543172912,-19.481226383207847
323,-0.1875,1.3125,6.792518101116425,1,2.4457212326960223,8.410908836823022,48.28099925615826
324,-0.1875,1.6875,7.720775431895567,1,2.982709813067466,-3.7946275864318575,52.23125134663905
325,0.1875,1.3125,6.684465415034849,1,-2.90014442090347,8.781880743158286,43.055316253602086
326,0.1875,1.6875,7.6872122550006,1,-3.1174879361835317,-3.6459950220033726,50.62100179705171
327,-0.1875,2.8125,0.617479297395405,1,0.2544538574461619,-2.4015951967918854,-9.754328419934279
328,0.1875,2.8125,0.6143410299828697,1,-0.2523605586299216,-2.4010856385135635,-9.77845219174459
329,1.3125,-2.8125,-0.001795044136440451,1,0.1798858053771582,-0.32458354436925935,3.413970365147507
330,1.6875,-2.8125,0.051587689605742164,1,-0.033071255919959235,-0.07320012327865114,1.4831251077900405
331,1.3125,-1.6875,-1.1794443571137458,1,3.8392412564075062,0.10103585139454606,1.5438970632539746
332,1.3125,-1.3125,-0.5558621324583154,1,3.3483159328412833,3.3525443940929915,2.1729222776658252
333,1.6875,-1.6875,-0.25620886685343935,1,1.2192816814726046,0.3967527452216361,1.4583726943059954
334,1.6875,-1.3125,0.13569013707109737,1,0.5106722758453315,1.8088733908443875,0.19885485823002594
335,1.3125,-0.1875,3.502088779386,1,-0.5502208574649631,1.2656342260137161,26.321385177147903
336,1.3125,0.1875,3.4788757094406857,1,-0.556767034227438,-1.4981916610286818,26.587518422426225
337,1.6875,-0.1875,2.562367711109775,1,-4.153141769263005,0.88744746092697,6.807063172892315
338,1.6875,0.1875,2.5365838613285243,1,-4.096931356280807,-1.0917450461972888,7.06528869042543
339,1.3125,1.3125,1.8798738152134227,1,-3.410122464531631,-0.14359053089868723,-1.6727866841967296
340,1.3125,1.6875,1.6229749470724588,1,-3.800407235645514,-1.383904197048839,-2.8201333280262273
341,1.6875,1.3125,0.8585597187837962,1,-2.088950959524558,-0.6990214672582936,-4.657729547941546
342,1.6875,1.6875,0.6031821723340652,1,-1.774725620893527,-0.7122266475545727,-3.8105754621630132
343,1.3125,2.8125,-0.01179482990354442,1,-0.17326211240972253,-0.4444919525127416,-3.531007719800424
344,1.6875,2.8125,-0.05387087428315373,1,-0.004160365109562998,-0.19219174098281092,-1.564762507323946
345,2.8125,-2.8125,0.008389545535423227,1,-0.06276702005607585,0.01963529379952268,0.038280232715539694
346,2.8125,-1.6875,-0.016603016340057692,1,-0.06087808064493263,0.009639496258890677,-0.20962650414355072
347,2.8125,-1.3125,-0.02582099920647874,1,-0.11890311229652036,0.02642625577393295,-0.6467444555604549
348,2.8125,-0.1875,-0.002539627971992254,1,-0.4554272368095848,0.029171127598335497,-2.1829560679059945
349,2.8125,0.1875,-0.003925977019200105,1,-0.4522123157608477,-0.016455606172861976,-2.1505035543030333
350,2.8125,1.3125,-0.027648885854805225,1,-0.16636605305009605,0.012911244445719082,-0.7311950224541526
351,2.8125,1.6875,-0.01969236392354332,1,-0.12491888755660673,0.01609165810793242,-0.37668631033461275
352,2.8125,2.8125,-0.02911599098390232,1,-0.032127859631698605,-0.04461221610833797,-0.07644786692058285
353,-2.4375,-2.4375,0.0012606970683263058,1,0.044275210914876253,0.04414445975480027,0.07941043775977659
354,-2.4375,-2.0625,0.009633877309897333,1,0.06267987472363609,0.0488116409512038,0.026831403018971037
355,-2.0625,-2.4375,0.01740919749354055,1,0.04795484286174885,0.04856820907978591,-0.34993272920640034
356,-2.0625,-2.0625,0.03529545687104763,1,0.06937372546460636,0.10978169485791837,-0.28953961509499454
357,-2.4375,-0.9375,-0.07698152765175163,1,-0.2427344395425451,-0.24861291732718044,0.7882979439039031
358,-2.4375,-0.5625,-0.2126576560352042,1,-0.7576513489598231,-0.38059531510513006,1.4396427753764862
359,-2.0625,-0.9375,-0.18185621441421945,1,-0.16175592087057564,-0.8695274669597922,1.7142913975498382
360,-2.0625,-0.5625,-0.6232330062309777,1,-1.3319489507175624,-1.3399965127877491,1.8777437101770724
361,-2.4375,0.5625,-0.2764874912793723,1,-1.0679275523936842,0.3251805174651749,1.9359548533711946
362,-2.4375,0.9375,-0.145560860024376,1,-0.5792341977972323,0.3345933373466487,1.2342806963086597
363,-2.0625,0.5625,-0.9072921841440106,1,-2.31365582588311,1.0312302426287174,3.6186511269092465
364,-2.0625,0.9375,-0.4858045762517218,1,-1.1623838439694973,1.139509213118048,2.964535602571218
365,-2.4375,2.0625,0.009449777094386314,1,0.08933293794016893,-0.0022236424260339005,0.04180084499149658
366,-2.4375,2.4375,-0.0017858691693843631,1,0.06565997514218551,-0.07138718321032254,0.035121577869508806
367,-2.0625,2.0625,0.0573761435806255,1,0.2895396896808408,-0.03355148906614509,-0.7994406093172584
368,-2.0625,2.4375,0.01713874898937896,1,0.11647165628221595,-0.15333406414264722,0.11079643541524457
369,-0.9375,-2.4375,-0.32361379105946414,1,-1.111925795902779,-1.1066483468140456,3.856545414850644
370,-0.9375,-2.0625,-0.7378761197591687,1,-2.7274254047839155,-0.7647311354076801,3.5640791707236867
371,-0.5625,-2.4375,-0.9558668627449906,1,-1.8691136948973575,-2.9420699942860526,6.0469465797493465
372,-0.5625,-2.0625,-2.168526737745165,1,-4.642909540221407,-3.2621723960332933,-0.38501965218441897
373,-0.9375,-0.9375,2.2016467381415477,1,4.242030112885412,1.5595019442055935,27.230989857901367
374,-0.9375,-0.5625,1.549616096138944,1,7.400005938753458,-4.993154691376752,9.485973205886967
375,-0.5625,-0.9375,2.842234583818293,1,-1.041357469898538,6.8174043242282885,51.43365049486478
376,-0.5625,-0.5625,3.6042563225393556,1,3.131102951746328,-2.6021343759548645,48.81405520000995
377,-0.9375,0.5625,-1.6137392530506616,1,4.748889404311982,2.4454251960670828,-24.75365483111346
378,-0.9375,0.9375,0.11444218620744938,1,4.80052717555465,6.547953964102531,-16.030639180387904
379,-0.5625,0.5625,0.202069985085556,1,4.298020855170209,1.2104627602233695,-6.323224371377075
380,-0.5625,0.9375,2.0170465353112457,1,4.834894712036183,8.128352673064372,-6.833658880449781
381,-0.9375,2.0625,2.167956481846973,1,4.266816263896082,-3.802487526998779,-4.973646615085077
382,-0.9375,2.4375,0.8959882930055312,1,1.6916304752310802,-2.889387489984873,-6.071346994387039
383,-0.5625,2.0625,3.878640622059241,1,4.56226515578456,-7.066549349259137,1.742472162331491
384,-0.5625,2.4375,1.6260086285656683,1,1.8273853183054873,-5.05099581271224,-8.105573746979873
385,0.5625,-2.4375,-1.5880695226995005,1,1.5621821450814186,-4.825678602844021,6.895142733128435
386,0.5625,-2.0625,-3.752332603797369,1,3.830593475975627,-6.799512062072031,-5.043269228505725
387,0.9375,-2.4375,-0.9033033127411412,1,1.6766026242229604,-2.8171116128632576,6.376632528188244
388,0.9375,-2.0625,-2.1741641774964395,1,4.235390252751627,-3.8127080369417823,4.20398625337209
389,0.5625,-0.9375,-1.609250439262214,1,2.4297130874407418,8.315455081692686,-3.209457748880268
390,0.5625,-0.5625,0.37578009636495513,1,2.317436392851011,2.108605460393105,-4.026888001087113
391,0.9375,-0.9375,-0.15171488851542062,1,4.628356434995559,6.699911783058342,11.989177470352798
392,0.9375,-0.5625,1.7663576317230187,1,4.322840223375158,3.4201785183734916,19.16310650598542
393,0.5625,0.5625,0.641314662431235,1,3.5126469154157056,1.6346182498311599,-28.61387867500471
394,0.5625,0.9375,2.3883793217194986,1,-0.31354233791311065,7.703284862752923,-20.815690654675148
395,0.9375,0.5625,2.084186684345994,1,3.8892352874051745,-1.1513954128506612,2.7255295579801877
396,0.9375,0.9375,2.342132314691444,1,0.0018006575852385198,2.417977446476816,-6.80392254321488
397,0.5625,2.0625,3.893734409447668,1,-4.386750489103748,-7.107839434234688,0.8167941867390159
398,0.5625,2.4375,1.6256122726903393,1,-1.7843273431686009,-5.073801991707535,-8.415568777600708
399,0.9375,2.0625,2.2479393994979837,1,-4.08302345281635,-4.120352591211718,-5.535023791398151
400,0.9375,2.4375,0.9077898387406991,1,-1.6399460771403889,-2.9776764300360075,-6.148972966594885
401,2.0625,-2.4375,-0.011832698363065093,1,0.03741502067761156,-0.06895364581843408,0.04209691263798856
402,2.0625,-2.0625,-0.044507363325047095,1,0.18696246463807786,0.037855665805052806,0.3617448579129241
403,2.4375,-2.4375,0.0010847288739829369,1,-0.015596589448487502,0.0020241190200806797,-0.12115064468430012
404,2.4375,-2.0625,-0.005502955274867615,1,0.0036742922053212817,0.055530582060619796,0.17999841891078486
405,2.0625,-0.9375,0.5004360604101735,1,-1.2598165781907555,1.1056972716762665,-2.925316484618475
406,2.0625,-0.5625,0.9022279789997102,1,-2.3971189646572353,0.996847342529215,-3.985200144883569
407,2.4375,-0.9375,0.14554973091252782,1,-0.6809165625882548,0.32595371172836224,-1.1893693033466215
408,2.4375,-0.5625,0.2596244540231773,1,-1.1432450937692824,0.2943907516425357,-1.9195865608509737
409,2.0625,0.5625,0.876900153440993,1,-2.3098895900517005,-0.9660032368995786,-4.638233868772755
410,2.0625,0.9375,0.5338769151216097,1,-1.4363984702599881,-0.7911247120915254,-4.6670585510150815
411,2.4375,0.5625,0.24883149890146666,1,-1.0981012735705642,-0.28306048140335294,-2.0116349994939133
412,2.4375,0.9375,0.14370562698950826,1,-0.6862816878894354,-0.23244434842091086,-1.2484420935446408
413,2.0625,2.0625,0.09053622121587504,1,-0.3607388804232762,-0.17122847511711056,-1.4858887460348935
414,2.0625,2.4375,0.02196619731042117,1,-0.1386001208496604,-0.19141253708137776,-0.07491256007223343
415,2.4375,2.0625,0.015434072415963408,1,-0.15873545758168126,-0.04054491659043735,0.05729049518653045
416,2.4375,2.4375,-0.004845026700184134,1,-0.09134719029982641,-0.0849506880379051,0.044057286611182245
417,-2.4375,-2.8125,-0.004536068042536767,1,0.05116351366252525,0.024745739782464433,-0.05419758324534061
418,-2.0625,-2.8125,0.018506732253534015,1,0.09092425961819724,0.021671071565517393,-0.038143359548895514
419,-2.8125,-2.4375,-0.009227115793640533,1,0.041330508511531985,0.032523032442391624,-0.02725634458846239
420,-2.8125,-2.0625,-0.005028028131676497,1,0.039174373228637156,0.03743482608455012,-0.07457569202287574
421,-2.4375,-1.6875,0.013066427366975346,1,0.0779943454463892,0.030487985793181446,-0.27241190918314134
422,-2.4375,-1.3125,-0.003921188534933373,1,0.01561068783132663,-0.05668016154376436,0.3322540181343571
423,-2.0625,-1.6875,0.06141906581091949,1,0.20046584320569705,0.08668510972647776,-0.38963431387319036
424,-2.0625,-1.3125,0.0320780495394615,1,0.27772582299329057,-0.19259828438334636,0.2395816510234248
425,-2.8125,-0.9375,0.0063470662039024055,1,-0.06019015245768744,-0.007509530846644518,0.7749741194540218
426,-2.8125,-0.5625,-0.014171486065506158,1,-0.20936753253349305,-0.04227619708588006,1.3842660397744064
427,-2.4375,-0.1875,-0.3353656527130593,1,-1.247868472860892,-0.20750790688306603,2.019219870697662
428,-2.4375,0.1875,-0.3598171354623611,1,-1.3649673923183436,0.08522582670501523,2.219950597711893
429,-2.0625,-0.1875,-1.0511739732476497,1,-2.579934921319181,-0.8194177546220197,2.0744281982552693
430,-2.0625,0.1875,-1.1594400405962497,1,-2.959341171944059,0.24848429895590773,3.281050803185427
431,-2.8125,0.5625,-0.012575830498384417,1,-0.2850196963248371,0.06889877719283194,1.7550304270903478
432,-2.8125,0.9375,0.013796327773116937,1,-0.13530576974537167,0.056035901359513335,1.2318951473359157
433,-2.4375,1.3125,-0.042294967874411095,1,-0.16629241267453676,0.20074170422094798,0.7032982197120526
434,-2.4375,1.6875,0.002251579073482413,1,0.03838334030618986,0.04286857690559189,-0.06830637146255068
435,-2.0625,1.3125,-0.13113469339178568,1,-0.1523546473059195,0.7113464728055533,1.3223169663892629
436,-2.0625,1.6875,0.03589504519470302,1,0.2974003787720817,0.18776897818347374,0.25306837855928005
437,-2.8125,2.0625,0.004972701943075325,1,0.05264530050679359,-0.03859355989067058,0.01599165644951686
438,-2.8125,2.4375,-0.007400893711334676,1,0.044803347686511466,-0.05504215941441634,-0.010199240707333081
439,-2.4375,2.8125,-0.022587708686683222,1,0.004513775658377018,-0.07014112938104657,-0.09952788920879818
440,-2.0625,2.8125,-0.03885877216309609,1,-0.027588246852794415,-0.09404347412729168,-0.4508354562178242
441,-1.6875,-2.4375,0.033428756364364334,1,0.02560663709471165,0.021316833115861272,-0.32849514685454945
442,-1.3125,-2.4375,-0.024286053203136804,1,-0.30846900115928916,-0.2142508896677199,0.9945882136254788
443,-1.6875,-2.0625,0.05659729625275514,1,-2.5103971829297873e-05,0.2205953879136791,-0.01715719717667083
444,-1.3125,-2.0625,-0.07689762796075567,1,-0.7738082829099797,0.16990692187351894,2.115417505760149
445,-0.9375,-2.8125,0.019512823072278754,1,-0.2490742469626684,-0.2945734510877376,3.560223493849424
446,-0.5625,-2.8125,-0.20229132723629925,1,-0.544660953712602,-0.9756913432427248,5.8547999352750315
447,-0.9375,-1.6875,-0.5528983052309482,1,-3.422261781066842,2.0844951572861503,-1.2266469257467862
448,-0.9375,-1.3125,0.836948208378904,1,-0.7276720672097661,5.114548934454878,9.460254254453798
449,-0.5625,-1.6875,-2.5145405432514525,1,-7.0328496476548,1.961126457018321,-17.769032864888022
450,-0.5625,-1.3125,-0.35015490384394543,1,-5.7540061339898765,9.421388682199467,2.2617060243677596
451,-1.6875,-0.9375,-0.08452086185882848,1,0.9544188209666226,-1.7596530250949756,0.2923615219978775
452,-1.3125,-0.9375,0.7185419114568792,1,3.5733992852876337,-1.5658236474773004,4.972920613529098
453,-1.6875,-0.5625,-1.0373831521303547,1,-0.5665800766033027,-3.1813940361764312,-5.423237083351493
454,-1.3125,-0.5625,-0.5332737426300134,1,3.63129556900497,-5.058536977084815,-11.607861502538473
455,-0.9375,-0.1875,-0.4485458915201674,1,7.715053617560352,-5.3348688210473485,-19.889158044218846
456,-0.9375,0.1875,-1.7518992369993667,1,6.483621915281261,-1.7114571895703097,-23.257889056660755
457,-0.5625,-0.1875,2.0626913359669463,1,5.050543183302203,-5.088635601491083,19.906029076637736
458,-0.5625,0.1875,0.5616317469218316,1,5.204357178265705,-3.0335938609418167,14.869252959893203
459,-1.6875,0.5625,-1.9228398071071675,1,-2.9696428045450025,2.228177499661902,-5.410444889343168
460,-1.3125,0.5625,-2.5297761336786624,1,-0.06033658034947471,3.073449010332444,-22.661788300495115
461,-1.6875,0.9375,-0.9649657216750925,1,-1.2424284414457352,2.7693678141487825,-1.3301291970510016
462,-1.3125,0.9375,-1.0213047306496406,1,1.1181453197805202,4.851702281646142,-12.205285838846637
463,-0.9375,1.3125,2.387565207130905,1,6.642178680465271,4.983458889832066,7.369205975940859
464,-0.9375,1.6875,3.1395192853105502,1,6.744651861471346,-1.0560906121325637,8.813981048019917
465,-0.5625,1.3125,4.988932842257134,1,6.9967084690746395,6.661678497918812,30.49489087733541
466,-0.5625,1.6875,5.779976061099298,1,7.181879196083672,-2.7303729636131835,31.718668631376577
467,-1.6875,2.0625,0.26812210628882216,1,0.9486105362223941,-0.3485457636050928,-2.2131791061042656
468,-1.3125,2.0625,0.8914827840114516,1,2.441785657088266,-1.42802514042989,-5.321606055982848
469,-1.6875,2.4375,0.09810487160427239,1,0.3691718621049629,-0.45006619984499285,-1.0488336370826277
470,-1.3125,2.4375,0.3561067284067758,1,0.9614971224020947,-1.2658795760785644,-3.202574660605444
471,-0.9375,2.8125,0.15372283571243764,1,0.4545086844116446,-0.9768781743868133,-5.9723848324416595
472,-0.5625,2.8125,0.41125942751828154,1,0.5463608455199417,-1.7762679071153704,-8.364231684528637
473,-0.1875,-2.4375,-1.6677941688437286,1,-1.4760981965232947,-5.03065747915577,6.430636078999225
474,0.1875,-2.4375,-1.951154873156619,1,0.140412788672259,-5.880419401464851,6.277650305916968
475,-0.1875,-2.0625,-3.834279000448744,1,-3.8003715381856957,-6.518997680770918,-10.541632322320366
476,0.1875,-2.0625,-4.548381854863891,1,0.21227334641187046,-8.15150073639117,-13.564509715236907
477,0.5625,-2.8125,-0.43940980986962397,1,0.4797573041088911,-1.6778362374467943,7.499597023311164
478,0.9375,-2.8125,-0.18272706363209254,1,0.472010794142916,-0.9058862264279649,5.7380289086207865
479,0.5625,-1.6875,-5.540511993467253,1,5.721813056129121,-2.3776582534199813,-37.97346182965948
480,0.5625,-1.3125,-4.644081370470972,1,4.824670864035445,6.898178522882835,-39.07806605711909
481,0.9375,-1.6875,-3.159367992386626,1,6.699746144699392,-1.0629198061536635,-10.177396961710068
482,0.9375,-1.3125,-2.4294948468537156,1,6.560162005771029,4.943747376199131,-10.08836332985249
483,-0.1875,-0.9375,1.2218703347642468,1,-7.219918192981982,10.330208035989823,38.26377869151698
484,0.1875,-0.9375,-1.175134023359873,1,-4.957397129161331,10.120454602537402,2.9258427590723044
485,-0.1875,-0.5625,3.0996764091936466,1,-5.508815674061425,-0.16210894842624243,44.88044587423716
486,0.1875,-0.5625,0.9188864677029133,1,-5.296889790690373,1.0016983526877596,3.1434001787767287
487,0.5625,-0.1875,0.656420368137084,1,4.043985666313866,-0.31772197847664524,-22.273742863163594
488,0.5625,0.1875,0.5099367301314861,1,4.761757107494051,-0.5067608387383474,-16.531944395886978
489,0.9375,-0.1875,2.5606586044906083,1,5.429459996741122,0.9100864081412948,17.955346050554372
490,0.9375,0.1875,2.542017928100955,1,5.523079854099727,-1.112168657894439,20.443122635632207
491,-0.1875,0.5625,0.8276011248662332,1,-1.0340666623789896,1.5380736814626368,-9.572430902210943
492,0.1875,0.5625,0.2652300870533478,1,-1.35306182040114,2.652861688826884,-35.572517310101844
493,-0.1875,0.9375,3.0723785018913894,1,0.5918788777561267,10.200590556152047,-7.09459372989106
494,0.1875,0.9375,2.8029637776833622,1,-1.708540864994373,10.874128684384795,-20.730021710476098
495,0.5625,1.3125,5.167150188046369,1,-5.040748633005003,6.302596447841503,23.762531167188097
496,0.5625,1.6875,5.840020898022411,1,-6.543187135520649,-2.873760165988404,29.081820351908323
497,0.9375,1.3125,3.3660030780031582,1,-4.584995821132282,2.411115566948903,7.201143717383745
498,0.9375,1.6875,3.4593680957603135,1,-6.059016901341554,-2.1067671681615763,7.245648916578348
499,-0.1875,2.0625,5.158388593747447,1,1.9901824387127427,-9.48355583150503,9.260916474102144
500,0.1875,2.0625,5.150185358336596,1,-2.0105903023518064,-9.436544627701066,8.627339994595578
501,-0.1875,2.4375,2.1797509033302553,1,0.819872704947604,-6.674248948232879,-8.414883541037572
502,0.1875,2.4375,2.1776597346667996,1,-0.8139623496621848,-6.668447096693038,-8.270279201449537
503,0.5625,2.8125,0.40331410657306915,1,-0.5339553999934251,-1.7801768360692558,-8.451860131824954
504,0.9375,2.8125,0.14713379459023426,1,-0.43061232265867944,-0.9961177399665149,-6.09789130580492
505,1.3125,-2.4375,-0.3549419800744646,1,0.944906546491185,-1.1794113666778316,3.4190222152738454
506,1.6875,-2.4375,-0.09003585840911643,1,0.3242158500080286,-0.3503193179964998,0.9780836720463264
507,1.3125,-2.0625,-0.8810020543627283,1,2.4806863363527385,-1.360146058353629,5.370497906582509
508,1.6875,-2.0625,-0.243581265178684,1,0.8831601800778386,-0.24771014179839446,2.862777856338294
509,2.0625,-2.8125,0.037887998063441085,1,-0.09180848853427662,-0.00586584479494491,0.4574969939950451
510,2.4375,-2.8125,0.016976244950703146,1,-0.0741415901148336,0.00918640982999741,0.09627199651764726
511,2.0625,-1.6875,-0.01228228599581845,1,0.17547888614811574,0.25880575602792943,0.04619272318810564
512,2.0625,-1.3125,0.15773058165194376,1,-0.27913043956975464,0.7319654745474319,-1.4516510768361386
513,2.4375,-1.6875,0.005629102307860488,1,-0.06263889396346282,0.0956303468047972,0.02543535646124935
514,2.4375,-1.3125,0.05071848279325979,1,-0.2757644453883085,0.2260783268354491,-0.6144395175258969
515,1.3125,-0.9375,1.0125465584075233,1,1.2841326129306803,4.855116512657393,12.71724817675951
516,1.6875,-0.9375,0.9914755707033978,1,-1.300169714650346,2.7156143270085407,1.8464297578898934
517,1.3125,-0.5625,2.596548571050105,1,-0.18946247404100824,3.5252352340616158,20.81855626837042
518,1.6875,-0.5625,1.9466320615345276,1,-3.1177665301873527,2.3010682462969982,4.21304112186727
519,2.0625,-0.1875,1.1759012965337874,1,-3.131534981535134,0.40717014956456377,-4.345726838110183
520,2.0625,0.1875,1.1623064599648527,1,-3.0775296786800315,-0.49476735698734753,-4.44441623972174
521,2.4375,-0.1875,0.3411179236055675,1,-1.4632009531726733,0.1353731572353279,-2.286417850937837
522,2.4375,0.1875,0.33701318295634913,1,-1.442187712633785,-0.1471588002862929,-2.180923023256854
523,1.3125,0.5625,2.6866945307573875,1,-0.582334251035961,-2.6756652214748313,11.582679354075976
524,1.6875,0.5625,1.9255755158741974,1,-3.1103231293451836,-2.1039352192171212,0.9628695345493614
525,1.3125,0.9375,2.0203009734482067,1,-1.619234900765657,-0.9759853286756802,-1.9137161671115583
526,1.6875,0.9375,1.2487011153877101,1,-2.281540688012783,-1.4760692937656321,-4.367452083004408
527,2.0625,1.3125,0.30584110596142594,1,-0.9240826414877187,-0.3977373665550398,-3.4617719658542723
528,2.0625,1.6875,0.17753136081993318,1,-0.628933868360622,-0.2798299991008881,-2.1464361180618323
529,2.4375,1.3125,0.07232713363743462,1,-0.4114183705359951,-0.11988145756039523,-0.7502928345505155
530,2.4375,1.6875,0.03499369986777109,1,-0.25402168323585017,-0.07482927835073802,-0.41207548052077786
531,1.3125,2.0625,0.9963991152172909,1,-2.4583447538464283,-1.8585350888078318,-6.201307056354597
532,1.6875,2.0625,0.34045402043040196,1,-1.069342812030169,-0.6444530811454591,-3.622677993874004
533,1.3125,2.4375,0.3742534284233995,1,-0.9524470703443069,-1.376128229263987,-3.3842911467227754
534,1.6875,2.4375,0.11169531382081395,1,-0.3886016551683653,-0.5245122131144075,-1.0309013971442316
535,2.0625,2.8125,-0.04148204880404935,1,0.01633789601130022,-0.10830051598828985,-0.4993423134759321
536,2.4375,2.8125,-0.029501976779775906,1,-0.01952947721098218,-0.06963671345252728,-0.14025465507909396
537,2.8125,-2.4375,0.0026896832321087858,1,-0.043182603676279005,0.017080189351847682,0.03343209471337866
538,2.8125,-2.0625,-0.005329243099674729,1,-0.04068144224946194,0.014917328938862752,0.0005570122003503789
539,2.8125,-0.9375,-0.023874975250830998,1,-0.23268915990061395,0.050130221976922774,-1.2231183839144908
540,2.8125,-0.5625,-0.013092833307868786,1,-0.36289328355797396,0.050760822287162354,-1.8219426688663092
541,2.8125,0.5625,-0.018038470120873444,1,-0.35362031205393063,-0.031809003028898296,-1.8020821808706309
542,2.8125,0.9375,-0.028508615953477597,1,-0.24126584127405085,-0.00726739475525331,-1.250714096062293
543,2.8125,2.0625,-0.013205867353116464,1,-0.10243161034136035,-0.005279952295109935,-0.14115824080058764
544,2.8125,2.4375,-0.018056450691728853,1,-0.07092533096378548,-0.04214820012565141,-0.05280946327266008
145,0,2,1,1000000000000,5
145,41,2,1,1000000000000,5
145,81,1,1,1000000000000,5
146,0,2,1,1000000000000,5
146,42,2,1,1000000000000,5
146,81,1,1,1000000000000,5
147,1,2,1,1000000000000,5
147,42,2,1,1000000000000,5
147,82,1,1,1000000000000,5
148,1,1,1,1000000000000,5
148,43,1,1,1000000000000,5
148,82,1,1,1000000000000,5
148,83,1,1,1000000000000,5
149,1,2,1,1000000000000,5
149,44,2,1,1000000000000,5
149,83,1,1,1000000000000,5
150,2,2,1,1000000000000,5
150,44,2,1,1000000000000,5
150,84,1,1,1000000000000,5
151,2,1,1,1000000000000,5
151,45,1,1,1000000000000,5
151,84,1,1,1000000000000,5
151,85,1,1,1000000000000,5
152,2,2,1,1000000000000,5
152,46,2,1,1000000000000,5
152,85,1,1,1000000000000,5
153,3,2,1,1000000000000,5
153,46,2,1,1000000000000,5
153,86,1,1,1000000000000,5
154,3,1,1,1000000000000,5
154,47,1,1,1000000000000,5
154,86,1,1,1000000000000,5
154,87,1,1,1000000000000,5
155,3,2,1,1000000000000,5
155,48,2,1,1000000000000,5
155,87,1,1,1000000000000,5
156,4,2,1,1000000000000,5
156,48,2,1,1000000000000,5
156,88,1,1,1000000000000,5
157,4,2,1,1000000000000,5
157,49,2,1,1000000000000,5
157,88,1,1,1000000000000,5
158,5,2,1,1000000000000,5
158,41,2,1,1000000000000,5
158,89,1,1,1000000000000,5
159,5,1,1,1000000000000,5
159,50,1,1,1000000000000,5
159,89,1,1,1000000000000,5
159,90,1,1,1000000000000,5
160,5,2,1,1000000000000,5
160,51,2,1,1000000000000,5
160,90,1,1,1000000000000,5
161,6,1,1,1000000000000,5
161,43,1,1,1000000000000,5
161,91,1,1,1000000000000,5
161,92,1,1,1000000000000,5
162,6,1,1,1000000000000,5
162,50,1,1,1000000000000,5
162,91,1,1,1000000000000,5
162,93,1,1,1000000000000,5
163,6,1,1,1000000000000,5
163,52,1,1,1000000000000,5
163,93,1,1,1000000000000,5
163,94,1,1,1000000000000,5
164,6,1,1,1000000000000,5
164,53,1,1,1000000000000,5
164,92,1,1,1000000000000,5
164,94,1,1,1000000000000,5
165,7,1,1,1000000000000,5
165,45,1,1,1000000000000,5
165,95,1,1,1000000000000,5
165,96,1,1,1000000000000,5
166,7,1,1,1000000000000,5
166,53,1,1,1000000000000,5
166,95,1,1,1000000000000,5
166,97,1,1,1000000000000,5
167,7,1,1,1000000000000,5
167,54,1,1,1000000000000,5
167,97,1,1,1000000000000,5
167,98,1,1,1000000000000,5
168,7,1,1,1000000000000,5
168,55,1,1,1000000000000,5
168,96,1,1,1000000000000,5
168,98,1,1,1000000000000,5
169,8,1,1,1000000000000,5
169,47,1,1,1000000000000,5
169,99,1,1,1000000000000,5
169,100,1,1,1000000000000,5
170,8,1,1,1000000000000,5
170,55,1,1,1000000000000,5
170,99,1,1,1000000000000,5
170,101,1,1,1000000000000,5
171,8,1,1,1000000000000,5
171,56,1,1,1000000000000,5
171,101,1,1,1000000000000,5
171,102,1,1,1000000000000,5
172,8,1,1,1000000000000,5
172,57,1,1,1000000000000,5
172,100,1,1,1000000000000,5
172,102,1,1,1000000000000,5
173,9,2,1,1000000000000,5
173,49,2,1,1000000000000,5
173,103,1,1,1000000000000,5
174,9,1,1,1000000000000,5
174,57,1,1,1000000000000,5
174,103,1,1,1000000000000,5
174,104,1,1,1000000000000,5
175,9,2,1,1000000000000,5
175,58,2,1,1000000000000,5
175,104,1,1,1000000000000,5
176,10,2,1,1000000000000,5
176,51,2,1,1000000000000,5
176,105,1,1,1000000000000,5
177,10,1,1,1000000000000,5
177,59,1,1,1000000000000,5
177,105,1,1,1000000000000,5
177,106,1,1,1000000000000,5
178,10,2,1,1000000000000,5
178,60,2,1,1000000000000,5
178,106,1,1,1000000000000,5
179,11,1,1,1000000000000,5
179,52,1,1,1000000000000,5
179,107,1,1,1000000000000,5
179,108,1,1,1000000000000,5
180,11,1,1,1000000000000,5
180,59,1,1,1000000000000,5
180,107,1,1,1000000000000,5
180,109,1,1,1000000000000,5
181,11,1,1,1000000000000,5
181,61,1,1,1000000000000,5
181,109,1,1,1000000000000,5
181,110,1,1,1000000000000,5
182,11,1,1,1000000000000,5
182,62,1,1,1000000000000,5
182,108,1,1,1000000000000,5
182,110,1,1,1000000000000,5
183,12,1,1,1000000000000,5
183,54,1,1,1000000000000,5
183,111,1,1,1000000000000,5
183,112,1,1,1000000000000,5
184,12,1,1,1000000000000,5
184,62,1,1,1000000000000,5
184,111,1,1,1000000000000,5
184,113,1,1,1000000000000,5
185,12,1,1,1000000000000,5
185,63,1,1,1000000000000,5
185,113,1,1,1000000000000,5
185,114,1,1,1000000000000,5
186,12,1,1,1000000000000,5
186,64,1,1,1000000000000,5
186,112,1,1,1000000000000,5
186,114,1,1,1000000000000,5
187,13,1,1,1000000000000,5
187,56,1,1,1000000000000,5
187,115,1,1,1000000000000,5
187,116,1,1,1000000000000,5
188,13,1,1,1000000000000,5
188,64,1,1,1000000000000,5
188,115,1,1,1000000000000,5
188,117,1,1,1000000000000,5
189,13,1,1,1000000000000,5
189,65,1,1,1000000000000,5
189,117,1,1,1000000000000,5
189,118,1,1,1000000000000,5
190,13,1,1,1000000000000,5
190,66,1,1,1000000000000,5
190,116,1,1,1000000000000,5
190,118,1,1,1000000000000,5
191,14,2,1,1000000000000,5
191,58,2,1,1000000000000,5
191,119,1,1,1000000000000,5
192,14,1,1,1000000000000,5
192,66,1,1,1000000000000,5
192,119,1,1,1000000000000,5
192,120,1,1,1000000000000,5
193,14,2,1,1000000000000,5
193,67,2,1,1000000000000,5
193,120,1,1,1000000000000,5
194,15,2,1,1000000000000,5
194,60,2,1,1000000000000,5
194,121,1,1,1000000000000,5
195,15,1,1,1000000000000,5
195,68,1,1,1000000000000,5
195,121,1,1,1000000000000,5
195,122,1,1,1000000000000,5
196,15,2,1,1000000000000,5
196,69,2,1,1000000000000,5
196,122,1,1,1000000000000,5
197,16,1,1,1000000000000,5
197,61,1,1,1000000000000,5
197,123,1,1,1000000000000,5
197,124,1,1,1000000000000,5
198,16,1,1,1000000000000,5
198,68,1,1,1000000000000,5
198,123,1,1,1000000000000,5
198,125,1,1,1000000000000,5
199,16,1,1,1000000000000,5
199,70,1,1,1000000000000,5
199,125,1,1,1000000000000,5
199,126,1,1,1000000000000,5
200,16,1,1,1000000000000,5
200,71,1,1,1000000000000,5
200,124,1,1,1000000000000,5
200,126,1,1,1000000000000,5
201,17,1,1,1000000000000,5
201,63,1,1,1000000000000,5
201,127,1,1,1000000000000,5
201,128,1,1,1000000000000,5
202,17,1,1,1000000000000,5
202,71,1,1,1000000000000,5
202,127,1,1,1000000000000,5
202,129,1,1,1000000000000,5
203,17,1,1,1000000000000,5
203,72,1,1,1000000000000,5
203,129,1,1,1000000000000,5
203,130,1,1,1000000000000,5
204,17,1,1,1000000000000,5
204,73,1,1,1000000000000,5
204,128,1,1,1000000000000,5
204,130,1,1,1000000000000,5
205,18,1,1,1000000000000,5
205,65,1,1,1000000000000,5
205,131,1,1,1000000000000,5
205,132,1,1,1000000000000,5
206,18,1,1,1000000000000,5
206,73,1,1,1000000000000,5
206,131,1,1,1000000000000,5
206,133,1,1,1000000000000,5
207,18,1,1,1000000000000,5
207,74,1,1,1000000000000,5
207,133,1,1,1000000000000,5
207,134,1,1,1000000000000,5
208,18,1,1,1000000000000,5
208,75,1,1,1000000000000,5
208,132,1,1,1000000000000,5
208,134,1,1,1000000000000,5
209,19,2,1,1000000000000,5
209,67,2,1,1000000000000,5
209,135,1,1,1000000000000,5
210,19,1,1,1000000000000,5
210,75,1,1,1000000000000,5
210,135,1,1,1000000000000,5
210,136,1,1,1000000000000,5
211,19,2,1,1000000000000,5
211,76,2,1,1000000000000,5
211,136,1,1,1000000000000,5
212,20,2,1,1000000000000,5
212,69,2,1,1000000000000,5
212,137,1,1,1000000000000,5
213,20,2,1,1000000000000,5
213,77,2,1,1000000000000,5
213,137,1,1,1000000000000,5
214,21,1,1,1000000000000,5
214,70,1,1,1000000000000,5
214,138,1,1,1000000000000,5
214,139,1,1,1000000000000,5
215,21,2,1,1000000000000,5
215,77,2,1,1000000000000,5
215,138,1,1,1000000000000,5
216,21,2,1,1000000000000,5
216,78,2,1,1000000000000,5
216,139,1,1,1000000000000,5
217,22,1,1,1000000000000,5
217,72,1,1,1000000000000,5
217,140,1,1,1000000000000,5
217,141,1,1,1000000000000,5
218,22,2,1,1000000000000,5
218,78,2,1,1000000000000,5
218,140,1,1,1000000000000,5
219,22,2,1,1000000000000,5
219,79,2,1,1000000000000,5
219,141,1,1,1000000000000,5
220,23,1,1,1000000000000,5
220,74,1,1,1000000000000,5
220,142,1,1,1000000000000,5
220,143,1,1,1000000000000,5
221,23,2,1,1000000000000,5
221,79,2,1,1000000000000,5
221,142,1,1,1000000000000,5
222,23,2,1,1000000000000,5
222,80,2,1,1000000000000,5
222,143,1,1,1000000000000,5
223,24,2,1,1000000000000,5
223,76,2,1,1000000000000,5
223,144,1,1,1000000000000,5
224,24,2,1,1000000000000,5
224,80,2,1,1000000000000,5
224,144,1,1,1000000000000,5
225,25,1,1,1000000000000,5
225,41,1,1,1000000000000,5
225,81,1,1,1000000000000,5
225,89,1,1,1000000000000,5
226,25,1,1,1000000000000,5
226,42,1,1,1000000000000,5
226,81,1,1,1000000000000,5
226,82,1,1,1000000000000,5
227,25,1,1,1000000000000,5
227,43,1,1,1000000000000,5
227,82,1,1,1000000000000,5
227,91,1,1,1000000000000,5
228,25,1,1,1000000000000,5
228,50,1,1,1000000000000,5
228,89,1,1,1000000000000,5
228,91,1,1,1000000000000,5
229,26,1,1,1000000000000,5
229,43,1,1,1000000000000,5
229,83,1,1,1000000000000,5
229,92,1,1,1000000000000,5
230,26,1,1,1000000000000,5
230,44,1,1,1000000000000,5
230,83,1,1,1000000000000,5
230,84,1,1,1000000000000,5
231,26,1,1,1000000000000,5
231,45,1,1,1000000000000,5
231,84,1,1,1000000000000,5
231,95,1,1,1000000000000,5
232,26,1,1,1000000000000,5
232,53,1,1,1000000000000,5
232,92,1,1,1000000000000,5
232,95,1,1,1000000000000,5
233,27,1,1,1000000000000,5
233,45,1,1,1000000000000,5
233,85,1,1,1000000000000,5
233,96,1,1,1000000000000,5
234,27,1,1,1000000000000,5
234,46,1,1,1000000000000,5
234,85,1,1,1000000000000,5
234,86,1,1,1000000000000,5
235,27,1,1,1000000000000,5
235,47,1,1,1000000000000,5
235,86,1,1,1000000000000,5
235,99,1,1,1000000000000,5
236,27,1,1,1000000000000,5
236,55,1,1,1000000000000,5
236,96,1,1,1000000000000,5
236,99,1,1,1000000000000,5
237,28,1,1,1000000000000,5
237,47,1,1,1000000000000,5
237,87,1,1,1000000000000,5
237,100,1,1,1000000000000,5
238,28,1,1,1000000000000,5
238,48,1,1,1000000000000,5
238,87,1,1,1000000000000,5
238,88,1,1,1000000000000,5
239,28,1,1,1000000000000,5
239,49,1,1,1000000000000,5
239,88,1,1,1000000000000,5
239,103,1,1,1000000000000,5
240,28,1,1,1000000000000,5
240,57,1,1,1000000000000,5
240,100,1,1,1000000000000,5
240,103,1,1,1000000000000,5
241,29,1,1,1000000000000,5
241,50,1,1,1000000000000,5
241,90,1,1,1000000000000,5
241,93,1,1,1000000000000,5
242,29,1,1,1000000000000,5
242,51,1,1,1000000000000,5
242,90,1,1,1000000000000,5
242,105,1,1,1000000000000,5
243,29,1,1,1000000000000,5
243,52,1,1,1000000000000,5
243,93,1,1,1000000000000,5
243,107,1,1,1000000000000,5
244,29,1,1,1000000000000,5
244,59,1,1,1000000000000,5
244,105,1,1,1000000000000,5
244,107,1,1,1000000000000,5
245,30,1,1,1000000000000,5
245,52,1,1,1000000000000,5
245,94,1,1,1000000000000,5
245,108,1,1,1000000000000,5
246,30,1,1,1000000000000,5
246,53,1,1,1000000000000,5
246,94,1,1,1000000000000,5
246,97,1,1,1000000000000,5
247,30,1,1,1000000000000,5
247,54,1,1,1000000000000,5
247,97,1,1,1000000000000,5
247,111,1,1,1000000000000,5
248,30,1,1,1000000000000,5
248,62,1,1,1000000000000,5
248,108,1,1,1000000000000,5
248,111,1,1,1000000000000,5
249,31,1,1,1000000000000,5
249,54,1,1,1000000000000,5
249,98,1,1,1000000000000,5
249,112,1,1,1000000000000,5
250,31,1,1,1000000000000,5
250,55,1,1,1000000000000,5
250,98,1,1,1000000000000,5
250,101,1,1,1000000000000,5
251,31,1,1,1000000000000,5
251,56,1,1,1000000000000,5
251,101,1,1,1000000000000,5
251,115,1,1,1000000000000,5
252,31,1,1,1000000000000,5
252,64,1,1,1000000000000,5
252,112,1,1,1000000000000,5
252,115,1,1,1000000000000,5
253,32,1,1,1000000000000,5
253,56,1,1,1000000000000,5
253,102,1,1,1000000000000,5
253,116,1,1,1000000000000,5
254,32,1,1,1000000000000,5
254,57,1,1,1000000000000,5
254,102,1,1,1000000000000,5
254,104,1,1,1000000000000,5
255,32,1,1,1000000000000,5
255,58,1,1,1000000000000,5
255,104,1,1,1000000000000,5
255,119,1,1,1000000000000,5
256,32,1,1,1000000000000,5
256,66,1,1,1000000000000,5
256,116,1,1,1000000000000,5
256,119,1,1,1000000000000,5
257,33,1,1,1000000000000,5
257,59,1,1,1000000000000,5
257,106,1,1,1000000000000,5
257,109,1,1,1000000000000,5
258,33,1,1,1000000000000,5
258,60,1,1,1000000000000,5
258,106,1,1,1000000000000,5
258,121,1,1,1000000000000,5
259,33,1,1,1000000000000,5
259,61,1,1,1000000000000,5
259,109,1,1,1000000000000,5
259,123,1,1,1000000000000,5
260,33,1,1,1000000000000,5
260,68,1,1,1000000000000,5
260,121,1,1,1000000000000,5
260,123,1,1,1000000000000,5
261,34,1,1,1000000000000,5
261,61,1,1,1000000000000,5
261,110,1,1,1000000000000,5
261,124,1,1,1000000000000,5
262,34,1,1,1000000000000,5
262,62,1,1,1000000000000,5
262,110,1,1,1000000000000,5
262,113,1,1,1000000000000,5
263,34,1,1,1000000000000,5
263,63,1,1,1000000000000,5
263,113,1,1,1000000000000,5
263,127,1,1,1000000000000,5
264,34,1,1,1000000000000,5
264,71,1,1,1000000000000,5
264,124,1,1,1000000000000,5
264,127,1,1,1000000000000,5
265,35,1,1,1000000000000,5
265,63,1,1,1000000000000,5
265,114,1,1,1000000000000,5
265,128,1,1,1000000000000,5
266,35,1,1,1000000000000,5
266,64,1,1,1000000000000,5
266,114,1,1,1000000000000,5
266,117,1,1,1000000000000,5
267,35,1,1,1000000000000,5
267,65,1,1,1000000000000,5
267,117,1,1,1000000000000,5
267,131,1,1,1000000000000,5
268,35,1,1,1000000000000,5
268,73,1,1,1000000000000,5
268,128,1,1,1000000000000,5
268,131,1,1,1000000000000,5
269,36,1,1,1000000000000,5
269,65,1,1,1000000000000,5
269,118,1,1,1000000000000,5
269,132,1,1,1000000000000,5
270,36,1,1,1000000000000,5
270,66,1,1,1000000000000,5
270,118,1,1,1000000000000,5
270,120,1,1,1000000000000,5
271,36,1,1,1000000000000,5
271,67,1,1,1000000000000,5
271,120,1,1,1000000000000,5
271,135,1,1,1000000000000,5
272,36,1,1,1000000000000,5
272,75,1,1,1000000000000,5
272,132,1,1,1000000000000,5
272,135,1,1,1000000000000,5
273,37,1,1,1000000000000,5
273,68,1,1,1000000000000,5
273,122,1,1,1000000000000,5
273,125,1,1,1000000000000,5
274,37,1,1,1000000000000,5
274,69,1,1,1000000000000,5
274,122,1,1,1000000000000,5
274,137,1,1,1000000000000,5
275,37,1,1,1000000000000,5
275,70,1,1,1000000000000,5
275,125,1,1,1000000000000,5
275,138,1,1,1000000000000,5
276,37,1,1,1000000000000,5
276,77,1,1,1000000000000,5
276,137,1,1,1000000000000,5
276,138,1,1,1000000000000,5
277,38,1,1,1000000000000,5
277,70,1,1,1000000000000,5
277,126,1,1,1000000000000,5
277,139,1,1,1000000000000,5
278,38,1,1,1000000000000,5
278,71,1,1,1000000000000,5
278,126,1,1,1000000000000,5
278,129,1,1,1000000000000,5
279,38,1,1,1000000000000,5
279,72,1,1,1000000000000,5
279,129,1,1,1000000000000,5
279,140,1,1,1000000000000,5
280,38,1,1,1000000000000,5
280,78,1,1,1000000000000,5
280,139,1,1,1000000000000,5
280,140,1,1,1000000000000,5
281,39,1,1,1000000000000,5
281,72,1,1,1000000000000,5
281,130,1,1,1000000000000,5
281,141,1,1,1000000000000,5
282,39,1,1,1000000000000,5
282,73,1,1,1000000000000,5
282,130,1,1,1000000000000,5
282,133,1,1,1000000000000,5
283,39,1,1,1000000000000,5
283,74,1,1,1000000000000,5
283,133,1,1,1000000000000,5
283,142,1,1,1000000000000,5
284,39,1,1,1000000000000,5
284,79,1,1,1000000000000,5
284,141,1,1,1000000000000,5
284,142,1,1,1000000000000,5
285,40,1,1,1000000000000,5
285,74,1,1,1000000000000,5
285,134,1,1,1000000000000,5
285,143,1,1,1000000000000,5
286,40,1,1,1000000000000,5
286,75,1,1,1000000000000,5
286,134,1,1,1000000000000,5
286,136,1,1,1000000000000,5
287,40,1,1,1000000000000,5
287,76,1,1,1000000000000,5
287,136,1,1,1000000000000,5
287,144,1,1,1000000000000,5
288,40,1,1,1000000000000,5
288,80,1,1,1000000000000,5
288,143,1,1,1000000000000,5
288,144,1,1,1000000000000,5
289,0,1,2,0.0,5
289,81,1,2,0.0,5
289,145,1,2,0.0,5
289,146,1,2,0.0,5
290,1,1,2,0.0,5
290,82,1,2,0.0,5
290,147,1,2,0.0,5
290,148,1,2,0.0,5
291,1,1,2,0.0,5
291,83,1,2,0.0,5
291,148,1,2,0.0,5
291,149,1,2,0.0,5
292,2,1,2,0.0,5
292,84,1,2,0.0,5
292,150,1,2,0.0,5
292,151,1,2,0.0,5
293,2,1,2,0.0,5
293,85,1,2,0.0,5
293,151,1,2,0.0,5
293,152,1,2,0.0,5
294,3,1,2,0.0,5
294,86,1,2,0.0,5
294,153,1,2,0.0,5
294,154,1,2,0.0,5
295,3,1,2,0.0,5
295,87,1,2,0.0,5
295,154,1,2,0.0,5
295,155,1,2,0.0,5
296,4,1,2,0.0,5
296,88,1,2,0.0,5
296,156,1,2,0.0,5
296,157,1,2,0.0,5
297,5,1,2,0.0,5
297,89,1,2,0.0,5
297,158,1,2,0.0,5
297,159,1,2,0.0,5
298,5,1,2,0.0,5
298,90,1,2,0.0,5
298,159,1,2,0.0,5
298,160,1,2,0.0,5
299,6,1,2,0.0,5
299,91,1,2,0.0,5
299,161,1,2,0.0,5
299,162,1,2,0.0,5
300,6,1,2,0.0,5
300,92,1,2,0.0,5
300,161,1,2,0.0,5
300,164,1,2,0.0,5
301,6,1,2,0.0,5
301,93,1,2,0.0,5
301,162,1,2,0.0,5
301,163,1,2,0.0,5
302,6,1,2,0.0,5
302,94,1,2,0.0,5
302,163,1,2,0.0,5
302,164,1,2,0.0,5
303,7,1,2,0.0,5
303,95,1,2,0.0,5
303,165,1,2,0.0,5
303,166,1,2,0.0,5
304,7,1,2,0.0,5
304,96,1,2,0.0,5
304,165,1,2,0.0,5
304,168,1,2,0.0,5
305,7,1,2,0.0,5
305,97,1,2,0.0,5
305,166,1,2,0.0,5
305,167,1,2,0.0,5
306,7,1,2,0.0,5
306,98,1,2,0.0,5
306,167,1,2,0.0,5
306,168,1,2,0.0,5
307,8,1,2,0.0,5
307,99,1,2,0.0,5
307,169,1,2,0.0,5
307,170,1,2,0.0,5
308,8,1,2,0.0,5
308,100,1,2,0.0,5
308,169,1,2,0.0,5
308,172,1,2,0.0,5
309,8,1,2,0.0,5
309,101,1,2,0.0,5
309,170,1,2,0.0,5
309,171,1,2,0.0,5
310,8,1,2,0.0,5
310,102,1,2,0.0,5
310,171,1,2,0.0,5
310,172,1,2,0.0,5
311,9,1,2,0.0,5
311,103,1,2,0.0,5
311,173,1,2,0.0,5
311,174,1,2,0.0,5
312,9,1,2,0.0,5
312,104,1,2,0.0,5
312,174,1,2,0.0,5
312,175,1,2,0.0,5
313,10,1,2,0.0,5
313,105,1,2,0.0,5
313,176,1,2,0.0,5
313,177,1,2,0.0,5
314,10,1,2,0.0,5
314,106,1,2,0.0,5
314,177,1,2,0.0,5
314,178,1,2,0.0,5
315,11,1,2,0.0,5
315,107,1,2,0.0,5
315,179,1,2,0.0,5
315,180,1,2,0.0,5
316,11,1,2,0.0,5
316,108,1,2,0.0,5
316,179,1,2,0.0,5
316,182,1,2,0.0,5
317,11,1,2,0.0,5
317,109,1,2,0.0,5
317,180,1,2,0.0,5
317,181,1,2,0.0,5
318,11,1,2,0.0,5
318,110,1,2,0.0,5
318,181,1,2,0.0,5
318,182,1,2,0.0,5
319,12,1,2,0.0,5
319,111,1,2,0.0,5
319,183,1,2,0.0,5
319,184,1,2,0.0,5
320,12,1,2,0.0,5
320,112,1,2,0.0,5
320,183,1,2,0.0,5
320,186,1,2,0.0,5
321,12,1,2,0.0,5
321,113,1,2,0.0,5
321,184,1,2,0.0,5
321,185,1,2,0.0,5
322,12,1,2,0.0,5
322,114,1,2,0.0,5
322,185,1,2,0.0,5
322,186,1,2,0.0,5
323,13,1,2,0.0,5
323,115,1,2,0.0,5
323,187,1,2,0.0,5
323,188,1,2,0.0,5
324,13,1,2,0.0,5
324,116,1,2,0.0,5
324,187,1,2,0.0,5
324,190,1,2,0.0,5
325,13,1,2,0.0,5
325,117,1,2,0.0,5
325,188,1,2,0.0,5
325,189,1,2,0.0,5
326,13,1,2,0.0,5
326,118,1,2,0.0,5
326,189,1,2,0.0,5
326,190,1,2,0.0,5
327,14,1,2,0.0,5
327,119,1,2,0.0,5
327,191,1,2,0.0,5
327,192,1,2,0.0,5
328,14,1,2,0.0,5
328,120,1,2,0.0,5
328,192,1,2,0.0,5
328,193,1,2,0.0,5
329,15,1,2,0.0,5
329,121,1,2,0.0,5
329,194,1,2,0.0,5
329,195,1,2,0.0,5
330,15,1,2,0.0,5
330,122,1,2,0.0,5
330,195,1,2,0.0,5
330,196,1,2,0.0,5
331,16,1,2,0.0,5
331,123,1,2,0.0,5
331,197,1,2,0.0,5
331,198,1,2,0.0,5
332,16,1,2,0.0,5
332,124,1,2,0.0,5
332,197,1,2,0.0,5
332,200,1,2,0.0,5
333,16,1,2,0.0,5
333,125,1,2,0.0,5
333,198,1,2,0.0,5
333,199,1,2,0.0,5
334,16,1,2,0.0,5
334,126,1,2,0.0,5
334,199,1,2,0.0,5
334,200,1,2,0.0,5
335,17,1,2,0.0,5
335,127,1,2,0.0,5
335,201,1,2,0.0,5
335,202,1,2,0.0,5
336,17,1,2,0.0,5
336,128,1,2,0.0,5
336,201,1,2,0.0,5
336,204,1,2,0.0,5
337,17,1,2,0.0,5
337,129,1,2,0.0,5
337,202,1,2,0.0,5
337,203,1,2,0.0,5
338,17,1,2,0.0,5
338,130,1,2,0.0,5
338,203,1,2,0.0,5
338,204,1,2,0.0,5
339,18,1,2,0.0,5
339,131,1,2,0.0,5
339,205,1,2,0.0,5
339,206,1,2,0.0,5
340,18,1,2,0.0,5
340,132,1,2,0.0,5
340,205,1,2,0.0,5
340,208,1,2,0.0,5
341,18,1,2,0.0,5
341,133,1,2,0.0,5
341,206,1,2,0.0,5
341,207,1,2,0.0,5
342,18,1,2,0.0,5
342,134,1,2,0.0,5
342,207,1,2,0.0,5
342,208,1,2,0.0,5
343,19,1,2,0.0,5
343,135,1,2,0.0,5
343,209,1,2,0.0,5
343,210,1,2,0.0,5
344,19,1,2,0.0,5
344,136,1,2,0.0,5
344,210,1,2,0.0,5
344,211,1,2,0.0,5
345,20,1,2,0.0,5
345,137,1,2,0.0,5
345,212,1,2,0.0,5
345,213,1,2,0.0,5
346,21,1,2,0.0,5
346,138,1,2,0.0,5
346,214,1,2,0.0,5
346,215,1,2,0.0,5
347,21,1,2,0.0,5
347,139,1,2,0.0,5
347,214,1,2,0.0,5
347,216,1,2,0.0,5
348,22,1,2,0.0,5
348,140,1,2,0.0,5
348,217,1,2,0.0,5
348,218,1,2,0.0,5
349,22,1,2,0.0,5
349,141,1,2,0.0,5
349,217,1,2,0.0,5
349,219,1,2,0.0,5
350,23,1,2,0.0,5
350,142,1,2,0.0,5
350,220,1,2,0.0,5
350,221,1,2,0.0,5
351,23,1,2,0.0,5
351,143,1,2,0.0,5
351,220,1,2,0.0,5
351,222,1,2,0.0,5
352,24,1,2,0.0,5
352,144,1,2,0.0,5
352,223,1,2,0.0,5
352,224,1,2,0.0,5
353,25,1,2,0.0,5
353,81,1,2,0.0,5
353,225,1,2,0.0,5
353,226,1,2,0.0,5
354,25,1,2,0.0,5
354,82,1,2,0.0,5
354,226,1,2,0.0,5
354,227,1,2,0.0,5
355,25,1,2,0.0,5
355,89,1,2,0.0,5
355,225,1,2,0.0,5
355,228,1,2,0.0,5
356,25,1,2,0.0,5
356,91,1,2,0.0,5
356,227,1,2,0.0,5
356,228,1,2,0.0,5
357,26,1,2,0.0,5
357,83,1,2,0.0,5
357,229,1,2,0.0,5
357,230,1,2,0.0,5
358,26,1,2,0.0,5
358,84,1,2,0.0,5
358,230,1,2,0.0,5
358,231,1,2,0.0,5
359,26,1,2,0.0,5
359,92,1,2,0.0,5
359,229,1,2,0.0,5
359,232,1,2,0.0,5
360,26,1,2,0.0,5
360,95,1,2,0.0,5
360,231,1,2,0.0,5
360,232,1,2,0.0,5
361,27,1,2,0.0,5
361,85,1,2,0.0,5
361,233,1,2,0.0,5
361,234,1,2,0.0,5
362,27,1,2,0.0,5
362,86,1,2,0.0,5
362,234,1,2,0.0,5
362,235,1,2,0.0,5
363,27,1,2,0.0,5
363,96,1,2,0.0,5
363,233,1,2,0.0,5
363,236,1,2,0.0,5
364,27,1,2,0.0,5
364,99,1,2,0.0,5
364,235,1,2,0.0,5
364,236,1,2,0.0,5
365,28,1,2,0.0,5
365,87,1,2,0.0,5
365,237,1,2,0.0,5
365,238,1,2,0.0,5
366,28,1,2,0.0,5
366,88,1,2,0.0,5
366,238,1,2,0.0,5
366,239,1,2,0.0,5
367,28,1,2,0.0,5
367,100,1,2,0.0,5
367,237,1,2,0.0,5
367,240,1,2,0.0,5
368,28,1,2,0.0,5
368,103,1,2,0.0,5
368,239,1,2,0.0,5
368,240,1,2,0.0,5
369,29,1,2,0.0,5
369,90,1,2,0.0,5
369,241,1,2,0.0,5
369,242,1,2,0.0,5
370,29,1,2,0.0,5
370,93,1,2,0.0,5
370,241,1,2,0.0,5
370,243,1,2,0.0,5
371,29,1,2,0.0,5
371,105,1,2,0.0,5
371,242,1,2,0.0,5
371,244,1,2,0.0,5
372,29,1,2,0.0,5
372,107,1,2,0.0,5
372,243,1,2,0.0,5
372,244,1,2,0.0,5
373,30,1,2,0.0,5
373,94,1,2,0.0,5
373,245,1,2,0.0,5
373,246,1,2,0.0,5
374,30,1,2,0.0,5
374,97,1,2,0.0,5
374,246,1,2,0.0,5
374,247,1,2,0.0,5
375,30,1,2,0.0,5
375,108,1,2,0.0,5
375,245,1,2,0.0,5
375,248,1,2,0.0,5
376,30,1,2,0.0,5
376,111,1,2,0.0,5
376,247,1,2,0.0,5
376,248,1,2,0.0,5
377,31,1,2,0.0,5
377,98,1,2,0.0,5
377,249,1,2,0.0,5
377,250,1,2,0.0,5
378,31,1,2,0.0,5
378,101,1,2,0.0,5
378,250,1,2,0.0,5
378,251,1,2,0.0,5
379,31,1,2,0.0,5
379,112,1,2,0.0,5
379,249,1,2,0.0,5
379,252,1,2,0.0,5
380,31,1,2,0.0,5
380,115,1,2,0.0,5
380,251,1,2,0.0,5
380,252,1,2,0.0,5
381,32,1,2,0.0,5
381,102,1,2,0.0,5
381,253,1,2,0.0,5
381,254,1,2,0.0,5
382,32,1,2,0.0,5
382,104,1,2,0.0,5
382,254,1,2,0.0,5
382,255,1,2,0.0,5
383,32,1,2,0.0,5
383,116,1,2,0.0,5
383,253,1,2,0.0,5
383,256,1,2,0.0,5
384,32,1,2,0.0,5
384,119,1,2,0.0,5
384,255,1,2,0.0,5
384,256,1,2,0.0,5
385,33,1,2,0.0,5
385,106,1,2,0.0,5
385,257,1,2,0.0,5
385,258,1,2,0.0,5
386,33,1,2,0.0,5
386,109,1,2,0.0,5
386,257,1,2,0.0,5
386,259,1,2,0.0,5
387,33,1,2,0.0,5
387,121,1,2,0.0,5
387,258,1,2,0.0,5
387,260,1,2,0.0,5
388,33,1,2,0.0,5
388,123,1,2,0.0,5
388,259,1,2,0.0,5
388,260,1,2,0.0,5
389,34,1,2,0.0,5
389,110,1,2,0.0,5
389,261,1,2,0.0,5
389,262,1,2,0.0,5
390,34,1,2,0.0,5
390,113,1,2,0.0,5
390,262,1,2,0.0,5
390,263,1,2,0.0,5
391,34,1,2,0.0,5
391,124,1,2,0.0,5
391,261,1,2,0.0,5
391,264,1,2,0.0,5
392,34,1,2,0.0,5
392,127,1,2,0.0,5
392,263,1,2,0.0,5
392,264,1,2,0.0,5
393,35,1,2,0.0,5
393,114,1,2,0.0,5
393,265,1,2,0.0,5
393,266,1,2,0.0,5
394,35,1,2,0.0,5
394,117,1,2,0.0,5
394,266,1,2,0.0,5
394,267,1,2,0.0,5
395,35,1,2,0.0,5
395,128,1,2,0.0,5
395,265,1,2,0.0,5
395,268,1,2,0.0,5
396,35,1,2,0.0,5
396,131,1,2,0.0,5
396,267,1,2,0.0,5
396,268,1,2,0.0,5
397,36,1,2,0.0,5
397,118,1,2,0.0,5
397,269,1,2,0.0,5
397,270,1,2,0.0,5
398,36,1,2,0.0,5
398,120,1,2,0.0,5
398,270,1,2,0.0,5
398,271,1,2,0.0,5
399,36,1,2,0.0,5
399,132,1,2,0.0,5
399,269,1,2,0.0,5
399,272,1,2,0.0,5
400,36,1,2,0.0,5
400,135,1,2,0.0,5
400,271,1,2,0.0,5
400,272,1,2,0.0,5
401,37,1,2,0.0,5
401,122,1,2,0.0,5
401,273,1,2,0.0,5
401,274,1,2,0.0,5
402,37,1,2,0.0,5
402,125,1,2,0.0,5
402,273,1,2,0.0,5
402,275,1,2,0.0,5
403,37,1,2,0.0,5
403,137,1,2,0.0,5
403,274,1,2,0.0,5
403,276,1,2,0.0,5
404,37,1,2,0.0,5
404,138,1,2,0.0,5
404,275,1,2,0.0,5
404,276,1,2,0.0,5
405,38,1,2,0.0,5
405,126,1,2,0.0,5
405,277,1,2,0.0,5
405,278,1,2,0.0,5
406,38,1,2,0.0,5
406,129,1,2,0.0,5
406,278,1,2,0.0,5
406,279,1,2,0.0,5
407,38,1,2,0.0,5
407,139,1,2,0.0,5
407,277,1,2,0.0,5
407,280,1,2,0.0,5
408,38,1,2,0.0,5
408,140,1,2,0.0,5
408,279,1,2,0.0,5
408,280,1,2,0.0,5
409,39,1,2,0.0,5
409,130,1,2,0.0,5
409,281,1,2,0.0,5
409,282,1,2,0.0,5
410,39,1,2,0.0,5
410,133,1,2,0.0,5
410,282,1,2,0.0,5
410,283,1,2,0.0,5
411,39,1,2,0.0,5
411,141,1,2,0.0,5
411,281,1,2,0.0,5
411,284,1,2,0.0,5
412,39,1,2,0.0,5
412,142,1,2,0.0,5
412,283,1,2,0.0,5
412,284,1,2,0.0,5
413,40,1,2,0.0,5
413,134,1,2,0.0,5
413,285,1,2,0.0,5
413,286,1,2,0.0,5
414,40,1,2,0.0,5
414,136,1,2,0.0,5
414,286,1,2,0.0,5
414,287,1,2,0.0,5
415,40,1,2,0.0,5
415,143,1,2,0.0,5
415,285,1,2,0.0,5
415,288,1,2,0.0,5
416,40,1,2,0.0,5
416,144,1,2,0.0,5
416,287,1,2,0.0,5
416,288,1,2,0.0,5
417,41,1,2,0.0,5
417,81,1,2,0.0,5
417,145,1,2,0.0,5
417,225,1,2,0.0,5
418,41,1,2,0.0,5
418,89,1,2,0.0,5
418,158,1,2,0.0,5
418,225,1,2,0.0,5
419,42,1,2,0.0,5
419,81,1,2,0.0,5
419,146,1,2,0.0,5
419,226,1,2,0.0,5
420,42,1,2,0.0,5
420,82,1,2,0.0,5
420,147,1,2,0.0,5
420,226,1,2,0.0,5
421,43,1,2,0.0,5
421,82,1,2,0.0,5
421,148,1,2,0.0,5
421,227,1,2,0.0,5
422,43,1,2,0.0,5
422,83,1,2,0.0,5
422,148,1,2,0.0,5
422,229,1,2,0.0,5
423,43,1,2,0.0,5
423,91,1,2,0.0,5
423,161,1,2,0.0,5
423,227,1,2,0.0,5
424,43,1,2,0.0,5
424,92,1,2,0.0,5
424,161,1,2,0.0,5
424,229,1,2,0.0,5
425,44,1,2,0.0,5
425,83,1,2,0.0,5
425,149,1,2,0.0,5
425,230,1,2,0.0,5
426,44,1,2,0.0,5
426,84,1,2,0.0,5
426,150,1,2,0.0,5
426,230,1,2,0.0,5
427,45,1,2,0.0,5
427,84,1,2,0.0,5
427,151,1,2,0.0,5
427,231,1,2,0.0,5
428,45,1,2,0.0,5
428,85,1,2,0.0,5
428,151,1,2,0.0,5
428,233,1,2,0.0,5
429,45,1,2,0.0,5
429,95,1,2,0.0,5
429,165,1,2,0.0,5
429,231,1,2,0.0,5
430,45,1,2,0.0,5
430,96,1,2,0.0,5
430,165,1,2,0.0,5
430,233,1,2,0.0,5
431,46,1,2,0.0,5
431,85,1,2,0.0,5
431,152,1,2,0.0,5
431,234,1,2,0.0,5
432,46,1,2,0.0,5
432,86,1,2,0.0,5
432,153,1,2,0.0,5
432,234,1,2,0.0,5
433,47,1,2,0.0,5
433,86,1,2,0.0,5
433,154,1,2,0.0,5
433,235,1,2,0.0,5
434,47,1,2,0.0,5
434,87,1,2,0.0,5
434,154,1,2,0.0,5
434,237,1,2,0.0,5
435,47,1,2,0.0,5
435,99,1,2,0.0,5
435,169,1,2,0.0,5
435,235,1,2,0.0,5
436,47,1,2,0.0,5
436,100,1,2,0.0,5
436,169,1,2,0.0,5
436,237,1,2,0.0,5
437,48,1,2,0.0,5
437,87,1,2,0.0,5
437,155,1,2,0.0,5
437,238,1,2,0.0,5
438,48,1,2,0.0,5
438,88,1,2,0.0,5
438,156,1,2,0.0,5
438,238,1,2,0.0,5
439,49,1,2,0.0,5
439,88,1,2,0.0,5
439,157,1,2,0.0,5
439,239,1,2,0.0,5
440,49,1,2,0.0,5
440,103,1,2,0.0,5
440,173,1,2,0.0,5
440,239,1,2,0.0,5
441,50,1,2,0.0,5
441,89,1,2,0.0,5
441,159,1,2,0.0,5
441,228,1,2,0.0,5
442,50,1,2,0.0,5
442,90,1,2,0.0,5
442,159,1,2,0.0,5
442,241,1,2,0.0,5
443,50,1,2,0.0,5
443,91,1,2,0.0,5
443,162,1,2,0.0,5
443,228,1,2,0.0,5
444,50,1,2,0.0,5
444,93,1,2,0.0,5
444,162,1,2,0.0,5
444,241,1,2,0.0,5
445,51,1,2,0.0,5
445,90,1,2,0.0,5
445,160,1,2,0.0,5
445,242,1,2,0.0,5
446,51,1,2,0.0,5
446,105,1,2,0.0,5
446,176,1,2,0.0,5
446,242,1,2,0.0,5
447,52,1,2,0.0,5
447,93,1,2,0.0,5
447,163,1,2,0.0,5
447,243,1,2,0.0,5
448,52,1,2,0.0,5
448,94,1,2,0.0,5
448,163,1,2,0.0,5
448,245,1,2,0.0,5
449,52,1,2,0.0,5
449,107,1,2,0.0,5
449,179,1,2,0.0,5
449,243,1,2,0.0,5
450,52,1,2,0.0,5
450,108,1,2,0.0,5
450,179,1,2,0.0,5
450,245,1,2,0.0,5
451,53,1,2,0.0,5
451,92,1,2,0.0,5
451,164,1,2,0.0,5
451,232,1,2,0.0,5
452,53,1,2,0.0,5
452,94,1,2,0.0,5
452,164,1,2,0.0,5
452,246,1,2,0.0,5
453,53,1,2,0.0,5
453,95,1,2,0.0,5
453,166,1,2,0.0,5
453,232,1,2,0.0,5
454,53,1,2,0.0,5
454,97,1,2,0.0,5
454,166,1,2,0.0,5
454,246,1,2,0.0,5
455,54,1,2,0.0,5
455,97,1,2,0.0,5
455,167,1,2,0.0,5
455,247,1,2,0.0,5
456,54,1,2,0.0,5
456,98,1,2,0.0,5
456,167,1,2,0.0,5
456,249,1,2,0.0,5
457,54,1,2,0.0,5
457,111,1,2,0.0,5
457,183,1,2,0.0,5
457,247,1,2,0.0,5
458,54,1,2,0.0,5
458,112,1,2,0.0,5
458,183,1,2,0.0,5
458,249,1,2,0.0,5
459,55,1,2,0.0,5
459,96,1,2,0.0,5
459,168,1,2,0.0,5
459,236,1,2,0.0,5
460,55,1,2,0.0,5
460,98,1,2,0.0,5
460,168,1,2,0.0,5
460,250,1,2,0.0,5
461,55,1,2,0.0,5
461,99,1,2,0.0,5
461,170,1,2,0.0,5
461,236,1,2,0.0,5
462,55,1,2,0.0,5
462,101,1,2,0.0,5
462,170,1,2,0.0,5
462,250,1,2,0.0,5
463,56,1,2,0.0,5
463,101,1,2,0.0,5
463,171,1,2,0.0,5
463,251,1,2,0.0,5
464,56,1,2,0.0,5
464,102,1,2,0.0,5
464,171,1,2,0.0,5
464,253,1,2,0.0,5
465,56,1,2,0.0,5
465,115,1,2,0.0,5
465,187,1,2,0.0,5
465,251,1,2,0.0,5
466,56,1,2,0.0,5
466,116,1,2,0.0,5
466,187,1,2,0.0,5
466,253,1,2,0.0,5
467,57,1,2,0.0,5
467,100,1,2,0.0,5
467,172,1,2,0.0,5
467,240,1,2,0.0,5
468,57,1,2,0.0,5
468,102,1,2,0.0,5
468,172,1,2,0.0,5
468,254,1,2,0.0,5
469,57,1,2,0.0,5
469,103,1,2,0.0,5
469,174,1,2,0.0,5
469,240,1,2,0.0,5
470,57,1,2,0.0,5
470,104,1,2,0.0,5
470,174,1,2,0.0,5
470,254,1,2,0.0,5
471,58,1,2,0.0,5
471,104,1,2,0.0,5
471,175,1,2,0.0,5
471,255,1,2,0.0,5
472,58,1,2,0.0,5
472,119,1,2,0.0,5
472,191,1,2,0.0,5
472,255,1,2,0.0,5
473,59,1,2,0.0,5
473,105,1,2,0.0,5
473,177,1,2,0.0,5
473,244,1,2,0.0,5
474,59,1,2,0.0,5
474,106,1,2,0.0,5
474,177,1,2,0.0,5
474,257,1,2,0.0,5
475,59,1,2,0.0,5
475,107,1,2,0.0,5
475,180,1,2,0.0,5
475,244,1,2,0.0,5
476,59,1,2,0.0,5
476,109,1,2,0.0,5
476,180,1,2,0.0,5
476,257,1,2,0.0,5
477,60,1,2,0.0,5
477,106,1,2,0.0,5
477,178,1,2,0.0,5
477,258,1,2,0.0,5
478,60,1,2,0.0,5
478,121,1,2,0.0,5
478,194,1,2,0.0,5
478,258,1,2,0.0,5
479,61,1,2,0.0,5
479,109,1,2,0.0,5
479,181,1,2,0.0,5
479,259,1,2,0.0,5
480,61,1,2,0.0,5
480,110,1,2,0.0,5
480,181,1,2,0.0,5
480,261,1,2,0.0,5
481,61,1,2,0.0,5
481,123,1,2,0.0,5
481,197,1,2,0.0,5
481,259,1,2,0.0,5
482,61,1,2,0.0,5
482,124,1,2,0.0,5
482,197,1,2,0.0,5
482,261,1,2,0.0,5
483,62,1,2,0.0,5
483,108,1,2,0.0,5
483,182,1,2,0.0,5
483,248,1,2,0.0,5
484,62,1,2,0.0,5
484,110,1,2,0.0,5
484,182,1,2,0.0,5
484,262,1,2,0.0,5
485,62,1,2,0.0,5
485,111,1,2,0.0,5
485,184,1,2,0.0,5
485,248,1,2,0.0,5
486,62,1,2,0.0,5
486,113,1,2,0.0,5
486,184,1,2,0.0,5
486,262,1,2,0.0,5
487,63,1,2,0.0,5
487,113,1,2,0.0,5
487,185,1,2,0.0,5
487,263,1,2,0.0,5
488,63,1,2,0.0,5
488,114,1,2,0.0,5
488,185,1,2,0.0,5
488,265,1,2,0.0,5
489,63,1,2,0.0,5
489,127,1,2,0.0,5
489,201,1,2,0.0,5
489,263,1,2,0.0,5
490,63,1,2,0.0,5
490,128,1,2,0.0,5
490,201,1,2,0.0,5
490,265,1,2,0.0,5
491,64,1,2,0.0,5
491,112,1,2,0.0,5
491,186,1,2,0.0,5
491,252,1,2,0.0,5
492,64,1,2,0.0,5
492,114,1,2,0.0,5
492,186,1,2,0.0,5
492,266,1,2,0.0,5
493,64,1,2,0.0,5
493,115,1,2,0.0,5
493,188,1,2,0.0,5
493,252,1,2,0.0,5
494,64,1,2,0.0,5
494,117,1,2,0.0,5
494,188,1,2,0.0,5
494,266,1,2,0.0,5
495,65,1,2,0.0,5
495,117,1,2,0.0,5
495,189,1,2,0.0,5
495,267,1,2,0.0,5
496,65,1,2,0.0,5
496,118,1,2,0.0,5
496,189,1,2,0.0,5
496,269,1,2,0.0,5
497,65,1,2,0.0,5
497,131,1,2,0.0,5
497,205,1,2,0.0,5
497,267,1,2,0.0,5
498,65,1,2,0.0,5
498,132,1,2,0.0,5
498,205,1,2,0.0,5
498,269,1,2,0.0,5
499,66,1,2,0.0,5
499,116,1,2,0.0,5
499,190,1,2,0.0,5
499,256,1,2,0.0,5
500,66,1,2,0.0,5
500,118,1,2,0.0,5
500,190,1,2,0.0,5
500,270,1,2,0.0,5
501,66,1,2,0.0,5
501,119,1,2,0.0,5
501,192,1,2,0.0,5
501,256,1,2,0.0,5
502,66,1,2,0.0,5
502,120,1,2,0.0,5
502,192,1,2,0.0,5
502,270,1,2,0.0,5
503,67,1,2,0.0,5
503,120,1,2,0.0,5
503,193,1,2,0.0,5
503,271,1,2,0.0,5
504,67,1,2,0.0,5
504,135,1,2,0.0,5
504,209,1,2,0.0,5
504,271,1,2,0.0,5
505,68,1,2,0.0,5
505,121,1,2,0.0,5
505,195,1,2,0.0,5
505,260,1,2,0.0,5
506,68,1,2,0.0,5
506,122,1,2,0.0,5
506,195,1,2,0.0,5
506,273,1,2,0.0,5
507,68,1,2,0.0,5
507,123,1,2,0.0,5
507,198,1,2,0.0,5
507,260,1,2,0.0,5
508,68,1,2,0.0,5
508,125,1,2,0.0,5
508,198,1,2,0.0,5
508,273,1,2,0.0,5
509,69,1,2,0.0,5
509,122,1,2,0.0,5
509,196,1,2,0.0,5
509,274,1,2,0.0,5
510,69,1,2,0.0,5
510,137,1,2,0.0,5
510,212,1,2,0.0,5
510,274,1,2,0.0,5
511,70,1,2,0.0,5
511,125,1,2,0.0,5
511,199,1,2,0.0,5
511,275,1,2,0.0,5
512,70,1,2,0.0,5
512,126,1,2,0.0,5
512,199,1,2,0.0,5
512,277,1,2,0.0,5
513,70,1,2,0.0,5
513,138,1,2,0.0,5
513,214,1,2,0.0,5
513,275,1,2,0.0,5
514,70,1,2,0.0,5
514,139,1,2,0.0,5
514,214,1,2,0.0,5
514,277,1,2,0.0,5
515,71,1,2,0.0,5
515,124,1,2,0.0,5
515,200,1,2,0.0,5
515,264,1,2,0.0,5
516,71,1,2,0.0,5
516,126,1,2,0.0,5
516,200,1,2,0.0,5
516,278,1,2,0.0,5
517,71,1,2,0.0,5
517,127,1,2,0.0,5
517,202,1,2,0.0,5
517,264,1,2,0.0,5
518,71,1,2,0.0,5
518,129,1,2,0.0,5
518,202,1,2,0.0,5
518,278,1,2,0.0,5
519,72,1,2,0.0,5
519,129,1,2,0.0,5
519,203,1,2,0.0,5
519,279,1,2,0.0,5
520,72,1,2,0.0,5
520,130,1,2,0.0,5
520,203,1,2,0.0,5
520,281,1,2,0.0,5
521,72,1,2,0.0,5
521,140,1,2,0.0,5
521,217,1,2,0.0,5
521,279,1,2,0.0,5
522,72,1,2,0.0,5
522,141,1,2,0.0,5
522,217,1,2,0.0,5
522,281,1,2,0.0,5
523,73,1,2,0.0,5
523,128,1,2,0.0,5
523,204,1,2,0.0,5
523,268,1,2,0.0,5
524,73,1,2,0.0,5
524,130,1,2,0.0,5
524,204,1,2,0.0,5
524,282,1,2,0.0,5
525,73,1,2,0.0,5
525,131,1,2,0.0,5
525,206,1,2,0.0,5
525,268,1,2,0.0,5
526,73,1,2,0.0,5
526,133,1,2,0.0,5
526,206,1,2,0.0,5
526,282,1,2,0.0,5
527,74,1,2,0.0,5
527,133,1,2,0.0,5
527,207,1,2,0.0,5
527,283,1,2,0.0,5
528,74,1,2,0.0,5
528,134,1,2,0.0,5
528,207,1,2,0.0,5
528,285,1,2,0.0,5
529,74,1,2,0.0,5
529,142,1,2,0.0,5
529,220,1,2,0.0,5
529,283,1,2,0.0,5
530,74,1,2,0.0,5
530,143,1,2,0.0,5
530,220,1,2,0.0,5
530,285,1,2,0.0,5
531,75,1,2,0.0,5
531,132,1,2,0.0,5
531,208,1,2,0.0,5
531,272,1,2,0.0,5
532,75,1,2,0.0,5
532,134,1,2,0.0,5
532,208,1,2,0.0,5
532,286,1,2,0.0,5
533,75,1,2,0.0,5
533,135,1,2,0.0,5
533,210,1,2,0.0,5
533,272,1,2,0.0,5
534,75,1,2,0.0,5
534,136,1,2,0.0,5
534,210,1,2,0.0,5
534,286,1,2,0.0,5
535,76,1,2,0.0,5
535,136,1,2,0.0,5
535,211,1,2,0.0,5
535,287,1,2,0.0,5
536,76,1,2,0.0,5
536,144,1,2,0.0,5
536,223,1,2,0.0,5
536,287,1,2,0.0,5
537,77,1,2,0.0,5
537,137,1,2,0.0,5
537,213,1,2,0.0,5
537,276,1,2,0.0,5
538,77,1,2,0.0,5
538,138,1,2,0.0,5
538,215,1,2,0.0,5
538,276,1,2,0.0,5
539,78,1,2,0.0,5
539,139,1,2,0.0,5
539,216,1,2,0.0,5
539,280,1,2,0.0,5
540,78,1,2,0.0,5
540,140,1,2,0.0,5
540,218,1,2,0.0,5
540,280,1,2,0.0,5
541,79,1,2,0.0,5
541,141,1,2,0.0,5
541,219,1,2,0.0,5
541,284,1,2,0.0,5
542,79,1,2,0.0,5
542,142,1,2,0.0,5
542,221,1,2,0.0,5
542,284,1,2,0.0,5
543,80,1,2,0.0,5
543,143,1,2,0.0,5
543,222,1,2,0.0,5
543,288,1,2,0.0,5
544,80,1,2,0.0,5
544,144,1,2,0.0,5
544,224,1,2,0.0,5
544,288,1,2,0.0,5
