2
402
1e-11
0,0.0,0.0,60.02366757169986,0,-306.5798920217363,-279.8308244151642,574.7320581062343
1,0.0,0.25,-42.76947948289297,0,-862.4286067613269,-563.5827450734284,-4312.470480405307
2,0.0,0.5,-12.126430253358516,0,-402.81839808659305,309.5088501249026,-681.1785480649608
3,0.0,0.75,19.684358469905202,0,-360.6644265357214,339.2125047544758,-302.14780715711436
4,0.0,1.0,24.669311127929802,0,-363.88630752789123,482.4540578249136,-417.71871246006305
5,0.25,0.0,23.68669409676514,0,-604.0119703899919,-426.9678890979696,-2518.814739300462
6,0.25,0.25,10.308339780612211,1,-680.9708890998838,-1767.3535661081878,148185.93887601644
7,0.25,0.5,-1.75546407098413,1,-882.3065549891409,284.1594133442414,-1215.6226121235845
8,0.25,0.75,11.688047020804424,1,-295.4234375627091,360.0483010792917,-509.0744514819054
9,0.25,1.0,18.87692899303692,0,-227.24992055970486,539.769184680826,-492.5465484752317
10,0.5,0.0,51.00971352309113,0,70.38795746497172,-287.83985075500385,3111.6149395665852
11,0.5,0.25,15.59035475296915,1,-914.7566989545286,-1089.7253264266901,303001.87715611624
12,0.5,0.5,-11.396585291107979,1,200.165279689485,217.7857328754691,4286.07968042479
13,0.5,0.75,0.7990191213115163,1,-189.97388057669852,618.0542719837331,-3111.011069119688
14,0.5,1.0,55.826319670071264,0,120.63407169763968,574.4973429831649,156.7826674539744
15,0.75,0.0,11.355000622849815,0,120.07263586539429,-959.4950350310944,-5202.474079317041
16,0.75,0.25,13.275094422227355,1,-234.11268234851283,947.3542640616002,-339246.95987217006
17,0.75,0.5,3.1974213881247504,1,-111.09813448424356,766.1384191303833,399164.6844468136
18,0.75,0.75,47.390483554645336,1,-115.0714047143357,1390.5612830617288,51203.624932041515
19,0.75,1.0,139.08800854078493,0,80.19031387668173,224.78666379137962,3557.580861689646
20,1.0,0.0,79.97068072819206,0,267.71097180209176,-333.8662502736716,2620.4201731521825
21,1.0,0.25,7.590758521774439,0,803.2745962543796,-194.4039618053992,-8023.9156751494365
22,1.0,0.5,6.203262612864301,0,672.2762544989431,259.55927376646855,-718.934549925123
23,1.0,0.75,24.414272852544848,0,636.5715006932611,545.3788714261862,-3164.093506743047
24,1.0,1.0,116.59900797484795,0,18.601605996650953,649.4041260768627,318.14836273855735
25,0.125,0.125,34.47644441993198,1,-247.77337077645535,-270.4603669319795,2029.9173311629377
26,0.375,0.125,27.344880516187704,1,-323.8172922302604,-465.90099341193957,93048.71372187292
27,0.125,0.875,19.8380841054786,1,-314.86856284153544,429.15864267669974,-422.6882641816028
28,0.625,0.375,1.1454168929129818,1,419.38435175703995,86.46638876603518,-98350.95405337717
29,0.875,0.375,-7.037456007481754,1,953.2874376966154,-499.5466735713128,-13549.4646749637
30,0.125,0.625,10.456825527021474,1,-326.5741608104129,246.4264494714269,-48.112623036990705
31,0.125,0.375,-50.69630674374195,1,-305.7129123946252,749.8606916915662,-2069.202003989192
32,0.625,0.125,25.670849253278636,1,607.5276293416927,-797.5240644998114,-17748.051054521973
33,0.875,0.625,19.613715435226823,1,342.0715452485402,0.88107217779253,28516.02584532892
34,0.375,0.875,20.553243629395123,1,-145.6009818704262,544.2242903571927,-668.7432705517936
35,0.375,0.375,2.134192747580589,1,-120.36993233417712,226.3341200482076,-70475.02869893529
36,0.875,0.125,30.932821617027134,1,720.0659231414573,-579.8456369056244,18451.377930011626
37,0.875,0.875,91.40139119658949,1,-25.01392275884037,753.5008877523973,425.6347468374845
38,0.375,0.625,2.555247582734408,1,-295.80916305192613,114.44887406803151,1846.5160471424663
39,0.625,0.625,-8.035107791133376,1,479.81366107733214,-21.856270322244203,-21985.793964098793
40,0.625,0.875,80.58341461315511,1,339.6686012053289,653.2844523676442,1686.556360060871
41,0.625,0.25,15.653435729412388,1,682.1542984880908,375.87438342166183,-573485.6416540091
42,0.375,0.25,15.419766571810564,1,-1026.7945978434825,-184.6065579325639,222078.68217650542
43,0.5,0.375,3.6839815367479076,1,-370.5720169417802,411.7928320306776,130991.80991023954
44,0.5625,0.3125,2.8361637478445165,1,-492.4879220517156,603.7483618135237,98293.40503300828
45,0.75,0.375,4.461447400495508,1,684.6466084530139,-133.20405981314545,-353123.39716921863
46,0.6875,0.3125,6.61865469751115,1,597.2423789438297,-740.0789781820608,-46457.904222318626
47,0.5,0.125,33.56188826493607,1,-156.85888670806338,-1516.7580878520314,109506.78687952222
48,0.5625,0.1875,20.773405455968785,1,-61.55747305329442,-776.2587362867919,161480.00447205492
49,0.5625,0.25,16.807752883461877,1,-195.3917686681202,201.5697671314169,-315145.57108912704
50,0.875,0.75,14.550103150578735,1,531.3664811641921,1016.1061168775486,-8233.695222081618
51,0.875,0.5,-1.4910523880599462,1,724.1329464547374,151.74510580015772,-5957.817580860525
52,0.75,0.875,118.17356942143928,1,55.185666617392805,476.42693879835747,7099.894493138418
53,0.625,1.0,104.46393855040348,0,285.89476712760563,379.6190814139984,1991.2341004107036
54,0.75,0.625,2.199417539482014,1,315.1575575211615,250.42988829898243,-19303.07082746235
55,1.0,0.625,28.50721482869806,0,296.122170958475,151.45063318109223,3805.2682424605887
56,0.625,0.75,14.122601652801512,1,183.85294593356878,1071.270479047422,-5448.688519482177
57,0.5,0.875,38.64526887036615,1,55.71081281223096,657.6766901278082,-565.2794923123029
58,0.25,0.125,25.806386687836003,1,-951.643060812081,-276.7617572260109,242.40665470258475
59,0.125,0.25,-32.275535306898945,1,-372.4905576746221,-1033.0148445757666,-1997.6802114491536
60,1.0,0.375,-0.3625465663140519,0,802.3000394938097,-235.6340839022591,-1630.0357549335029
61,1.0,0.875,83.3531989097082,0,211.66638698178815,769.5428782759544,-819.7690977303857
62,0.875,1.0,123.56029734639691,0,-58.56328846151092,498.22085175049165,1435.0422323660835
63,0.875,0.25,13.40100414734633,1,856.049889941396,-136.71945553629388,23192.34437416595
64,0.25,0.375,4.2549618691691675,1,-146.22948573454846,1338.3388494526062,155469.18623905405
65,0.375,0.75,6.000758960932513,1,-267.24483367705426,401.9820336304533,-912.6280100182796
66,0.375,0.0,5.218802421428929,0,-302.38848196313967,-765.9165030992386,-13544.74033954756
67,0.4375,0.0625,20.589002976160362,1,65.91615457847004,-650.0014738111365,-3406.046981508662
68,0.625,0.5,-0.06763015483418203,1,47.71736732209371,436.1990504798182,63802.28165590827
69,0.5,0.625,-15.93563637132967,1,-243.68289076179101,115.14237929529735,-2988.188935701808
70,0.75,0.125,16.151685315821744,1,-72.06442321124327,-327.6205644595636,-45965.79407164552
71,0.375,0.5,5.722818066900979,1,-244.3708884872513,69.0958834841925,39306.64538605753
72,0.625,0.0,46.997957316328105,0,-34.790311054527535,-527.9172703926185,1895.1045287845245
73,0.5625,0.0625,50.10456310023706,1,-268.24371516501174,-698.6032875947207,4883.428991691295
74,0.125,0.5,-6.7285847016356835,1,-211.06111236567207,159.65440137947914,1013.8505163801688
75,0.875,0.0,50.48518851191906,0,684.6307014462836,-505.872307814063,2119.3746263199014
76,1.0,0.125,44.96020418424701,0,406.45033685755163,-680.6228558730658,565.4950597279147
77,0.125,0.0,52.70063597937897,0,-400.5897412191221,-226.6074452509426,650.2661382394195
78,0.0,0.375,-61.50842858333058,0,-871.5529852231805,313.85895986898527,-4598.276399823961
79,0.0,0.125,32.01405889953461,0,-360.48091447825794,-438.25706139390473,67.90140209351554
80,0.25,0.625,6.66113315328728,1,-347.7285618650115,270.3734272231799,-539.7835234535177
81,0.4375,0.1875,17.08719413251045,1,-595.6373739958474,-585.9929645900131,56020.66807566199
82,0.6875,0.1875,19.47252172703063,1,267.6072159349563,152.12788575732807,-172037.25420143333
83,0.625,0.1875,21.044021669568238,1,90.37531188157217,-150.51099501884366,-50384.00886204565
84,0.4375,0.3125,5.187811746252128,1,-255.73331733318517,297.36384515432985,295083.2255279359
85,0.0,0.625,12.500375716554437,0,-349.11979206736186,279.2853057340818,-194.80505007449423
86,0.125,0.75,16.599090955919603,1,-328.4457353363234,340.3161672747482,-330.1465130818611
87,0.625,0.3125,2.463610238969125,1,140.43591099935216,-753.6214749211756,-214466.8873460428
88,0.25,0.875,16.95828054041458,1,-248.594146288319,468.61684491136873,-520.7208627269416
89,0.5625,0.4375,0.3826329355134941,1,-679.7986113271644,-153.3852360387683,9550.915034533205
90,0.5625,0.375,1.6331071161770603,1,264.40545770376804,160.43453223476504,-437536.2807519228
91,0.5,0.1875,18.451223866755168,1,-556.4300288844622,-99.67519873151029,42805.773946411624
92,0.53125,0.21875,20.859830158443092,1,48.109356141640085,-357.9773200074171,309853.3873738631
93,0.8125,0.3125,1.426541521866747,1,1215.7770499765356,-256.66022187129875,-324878.50650219945
94,0.75,0.3125,1.5153309606322307,1,710.846512058088,-397.03284421105974,-447916.7993290072
95,0.6875,0.4375,4.408897992019585,1,-762.9361877659738,196.01381484865817,-26316.53251814284
96,0.6875,0.375,5.672746228492065,1,79.18377134043902,-156.39735680337927,39948.93676269939
97,0.375,1.0,28.202330117047584,0,-94.4035395756866,588.9847980744646,-442.8664678179335
98,0.5,0.3125,5.90151583966932,1,-230.05407714633793,286.3292281559041,479192.16266850627
99,0.53125,0.28125,4.587771809903236,1,309.01632425800454,-814.2188426720377,-364381.110468531
100,0.9375,0.5625,20.024545840739478,1,492.5469946376339,442.8646441279979,1966.3138731975175
101,0.9375,0.4375,-4.831637549182467,1,764.3122728156345,19.89738431100755,-2658.4797531668873
102,0.9375,0.8125,52.63903681667885,1,309.0316832331859,804.1550055755167,-2284.042641057706
103,0.9375,0.6875,14.559112859570673,1,591.6054075099448,77.11921080801822,-3837.7650543131667
104,0.6875,0.9375,121.26019575310839,1,263.09078746452366,405.8931480617778,3466.2534981820504
105,0.8125,0.6875,-3.5335492498325327,1,181.301273283673,-5.9866286620616425,-83744.69754751457
106,0.6875,0.8125,82.99803173723328,1,552.5033043781754,694.0640636708778,5922.704351546081
107,0.8125,0.5625,-0.40943670923078956,1,661.0993397058163,646.8693481087571,-39312.86043574815
108,0.3125,0.5625,3.1111702547452276,1,-116.35067547490296,282.7054584628268,-2836.0595478066616
109,0.3125,0.6875,6.082716140675596,1,-277.96953424645864,291.3243411966273,-490.7885699572318
110,0.0625,0.5625,2.1766813964002796,1,-318.44145906730296,254.69101783365332,-86.97612980749724
111,0.3125,0.0625,15.27969336108213,1,-270.4020805651628,-254.49146775892152,-5193.333212284875
112,0.3125,0.1875,16.540172314478944,1,-345.84756123021884,-56.73469174848803,-91101.99149636031
113,0.9375,0.3125,10.013401002197396,1,546.4485235609249,-336.1261377982843,4930.745428939599
114,0.3125,0.8125,13.314740005712842,1,-241.33482034502677,447.3393214972287,-660.1387882297255
115,0.8125,0.4375,0.9262657901064598,1,862.0711781974255,-360.2380453620206,136665.7428563493
116,0.4375,0.5625,-2.7032767358738443,1,-453.04857626096936,139.07502219199048,-1168.9791450967816
117,0.8125,0.8125,76.54398185088776,1,-332.40553340461787,825.0646266185851,1973.7379016639547
118,0.6875,0.0625,31.327272638660332,1,-38.416810748037584,-454.03367770926735,1651.9125354280611
119,0.1875,0.0625,42.75886587981686,1,-495.00986735775354,-191.12268920012636,739.3042173592329
120,0.1875,0.5625,8.149290045332224,1,-362.101891531723,166.14111495084808,356.5195118949061
121,0.6875,0.5625,3.1318755052939498,1,157.22174681517643,432.62608495198884,1450.0310881533812
122,0.6875,0.6875,3.7165085032085345,1,331.2092583743925,306.96365045068745,-41906.53399183733
123,0.0,0.875,21.84507839124752,0,-364.13510846391097,418.76019256024904,-393.8791242541658
124,0.0625,0.8125,19.835073207669183,1,-342.1303014079784,380.4931863540849,-360.4364894057872
125,0.3125,0.4375,-5.321510802633,1,-274.809286896353,-241.29716866313282,-111524.97696576775
126,0.8125,0.9375,126.53516829041978,1,-73.39018597345876,483.02473566401227,2799.9727571234807
127,0.0625,0.3125,-70.88905755905925,1,-899.7290634548976,-132.64492401495028,-10246.601530256457
128,0.5625,0.8125,33.4554384104687,1,122.17265569322142,797.9353502316608,-1543.779720973991
129,0.5625,0.9375,71.736457163516,1,225.3500625050807,581.6979776190022,735.579740733718
130,0.8125,0.0625,14.184546494108822,1,768.0814951670309,-831.3761612034101,-5481.464447720932
131,0.0625,0.4375,-31.774299210018665,1,-360.58113574304065,350.7595105449938,-1265.2144101032748
132,0.3125,0.9375,20.766101931852354,1,-177.4741003081325,535.2521395265898,-516.304101088048
133,0.1875,0.1875,40.149671630054755,1,216.57260792916762,66.28132209281623,11835.572631551357
134,0.0625,0.0625,49.13353463822441,1,-325.36476013892826,-307.77612115849087,682.5562020761176
135,0.3125,0.3125,5.0317168521867695,1,-39.82742631224922,-179.43768438105366,126726.57974638624
136,0.4375,0.4375,-4.863967709640989,1,-825.6046859805531,-209.96916756750588,-97876.95461798077
137,0.4375,0.6875,-5.7866108126657565,1,-337.4545780093837,314.1867893992204,-1858.09891272581
138,0.0625,0.1875,2.329585934259929,1,-362.6922900383945,-558.2559499973231,-559.3760558022724
139,0.0625,0.6875,15.693137778629016,1,-340.1713762776327,299.68039029045866,-227.55112009239028
140,0.1875,0.6875,12.304463597482636,1,-328.60812925209774,294.6614701150628,-305.2257151021108
141,0.1875,0.3125,-61.308354313532824,1,-722.2344909775118,-126.6546077757347,-84932.76817557975
142,0.5625,0.5625,-1.065477449941134,1,61.60663487459497,-23.88771156876753,3641.2589815069473
143,0.9375,0.9375,106.70937063785647,1,22.443744558861358,684.1104622971767,323.4042604489263
144,0.9375,0.0625,64.31250730188492,1,383.140043640282,-454.4728686304933,3259.4128382163235
145,0.1875,0.4375,8.705859047428548,1,294.82549030076007,-336.12087331637423,9085.832019923844
146,0.5625,0.6875,-19.395108320850817,1,-234.08927993738564,509.3527884875894,-9061.209885069593
147,0.4375,0.8125,15.163820513541992,1,-147.73445124102443,574.5899801782399,-1245.5854171914498
148,0.4375,0.9375,35.30199573393869,1,-10.583926671033982,597.2584102744879,-369.68390036380833
149,0.1875,0.8125,16.43804360988764,1,-299.85949417469124,398.872410220672,-446.654180962064
150,0.5625,0.5,-0.3731254625118525,1,-135.71308621857068,558.9490840893552,-3137.2382465099627
151,0.6875,0.125,28.213635370231074,1,139.68443709474835,-695.4149165499847,45946.125390006746
152,0.65625,0.15625,27.825737828693136,1,86.1310568378421,-729.1036009540701,82676.3954535479
153,0.4375,0.125,22.369744370616193,1,-540.5656141251941,-143.6785914107534,-94923.22847712222
154,0.125,1.0,21.368166410797624,0,-308.9402277408509,495.58359998300637,-440.315912735577
155,0.1875,0.9375,19.178587952461083,1,-276.00927450363486,483.19251635788305,-468.78899586241533
156,0.6875,0.25,6.164640577102645,1,41.67538815768716,-698.9532947369435,-921942.1165476454
157,0.65625,0.28125,3.681011010938888,1,60.36021417840474,-1029.7804888076869,-572847.2268640692
158,0.8125,0.1875,18.966658415466075,1,-19.4352063050516,-268.1350365497938,-24415.21695208807
159,0.75,0.1875,15.48241193488153,1,1570.775762117392,-942.4857514042152,31347.025286402113
160,0.65625,0.21875,16.376576643805688,1,505.6598307257058,-373.4355433078747,-381510.70712406264
161,0.71875,0.28125,6.356519946066575,1,495.4853091843802,-1136.652575480235,-421774.6853406847
162,0.75,0.4375,3.7822619777330813,1,-113.87549634616296,-265.74177686674005,87313.38011409315
163,0.71875,0.40625,4.071449812282182,1,594.0311841024367,221.9528967136618,323244.87322529516
164,0.4375,0.25,9.11465034189321,1,-258.6402411769528,-509.4674355079248,-82232.12407569657
165,0.59375,0.21875,19.031042394427903,1,371.3779757128435,-604.6917485499429,94698.11247312518
166,0.5625,0.21875,19.56510886642084,1,62.29590778729946,-353.01430490141365,339137.3040283706
167,0.5625,0.125,30.13490494381406,1,-336.20573491863837,-810.7493843897446,-32999.39365843556
168,0.53125,0.15625,20.048565856935898,1,146.43397652103621,-555.343252422608,-146647.8878725891
169,0.8125,0.375,2.328280215187594,1,131.4109942604636,-198.05507769524186,-235216.64472398045
170,0.78125,0.34375,4.191127984250164,1,422.2881133019261,36.064387849243346,142881.74912252242
171,0.46875,0.28125,3.897519763287511,1,-307.05634608251034,111.7786163130324,-513123.8128715067
172,0.9375,0.1875,20.806313445859644,1,293.40945153061466,-525.4786796481735,-9437.74274853908
173,0.5,0.0625,54.19183653076008,1,58.30474675664478,-174.60601474440332,8390.089510728769
174,0.59375,0.28125,12.706434202815732,1,1064.3060534495357,-923.0587071419008,-141201.32080916862
175,0.5625,0.28125,8.693530775084046,1,1207.1848759244574,-980.7688426707006,444974.3912361363
176,0.53125,0.34375,4.776397999795149,1,3.080566220422587,643.8635344176527,355652.7424390441
177,0.53125,0.3125,5.544413231213961,1,-865.8236255863465,-312.16235800223694,647783.9198964369
178,0.8125,0.5,-12.253189461588148,1,711.7637827328525,375.96478333597094,-49627.11771807716
179,0.78125,0.46875,-2.4175899139355943,1,361.34375240382667,84.53057356532916,348654.93768225075
180,0.53125,0.25,16.63267385288425,1,-53.482365005760144,429.77607852425524,351213.29927431897
181,0.5625,0.0,59.47204765353991,0,-83.52719358416208,-332.76546336740967,4098.688201948732
182,0.59375,0.34375,2.8392635828792323,1,-5.724050996818666,-290.68714452024113,115123.4520295132
183,0.8125,0.25,11.820062671178468,1,319.9917446361397,217.48617328815484,-208709.6211674682
184,0.78125,0.28125,10.910815025030434,1,-639.8658027600769,-674.8246192377135,95344.65946669297
185,0.6875,0.5,4.198782596969949,1,-12.634309834325709,-48.240880033908894,-9892.542942346241
186,0.71875,0.46875,4.176684622095983,1,305.6284755279137,41.448070926200295,336607.11379450996
187,0.625,0.4375,-11.953927613029192,1,278.32697942404724,-302.1134309706329,-298827.51841670054
188,0.65625,0.40625,2.159510764354394,1,608.1919616660946,-83.68697468757627,286587.8531229945
189,0.875,0.4375,-3.199240029285108,1,584.3907920932827,151.95517245197235,504.403909230069
190,0.84375,0.46875,-1.958077628532929,1,396.9145188311064,-343.78248993839304,-662.3302384351301
191,0.8125,0.46875,-2.4024976819930988,1,312.3250886031625,-330.3763408932221,-9580.01341471612
192,0.75,0.5625,3.13531434911872,1,210.70883514647997,275.4963308800066,162490.7126230289
193,0.78125,0.53125,0.26090513750024896,1,-85.67190386977359,298.72291582149376,118333.31768604286
194,0.78125,0.5,-6.804831414682784,1,-507.02812598835715,484.415066467261,-340204.7184871043
195,0.71875,0.53125,4.308527948122563,1,-189.76257144125265,255.80934046804134,-82003.33220694248
196,0.75,0.46875,2.029966748052222,1,152.10785182884376,-876.7757979633055,-228260.6305474637
197,0.71875,0.5,4.679922948852262,1,78.31271392019725,92.08458269645065,-83761.56808354486
198,0.71875,0.34375,4.469113045287389,1,448.8304548703635,18.122075487285567,167068.0917046584
199,0.46875,0.21875,14.995326137025415,1,-345.36049916271617,826.9105749019808,-341502.19835419906
200,0.5,0.21875,16.959767097480103,1,-163.3983728794986,-580.9430651364113,55008.90186116072
201,0.9375,0.625,24.04645694088779,1,301.88466707370895,137.84931232627363,7612.460726668465
202,0.75,0.8125,91.87259912440189,1,19.48547462601743,616.8222986681,16549.990419597492
203,0.125,0.3125,-62.77650855366026,1,-964.0322074031399,-135.9859305048674,-24811.562980318642
204,0.875,0.5625,11.899646752336428,1,726.041064727143,444.27765855794485,-144.94754029351387
205,0.84375,0.53125,-1.9907788201750778,1,664.9524875985476,363.8583293520443,-8426.790871396193
206,0.0625,0.25,-39.44354045943921,1,-612.2789301648305,-622.3289152614827,-4279.032069478298
207,0.875,0.6875,5.098780318839609,1,827.7681168703454,80.62514557422752,-16825.032994645106
208,0.75,0.9375,130.55343291394897,1,77.79893330327137,379.083321415086,4230.9254025333985
209,0.1875,0.25,-6.943860614675875,1,392.4255169581705,-1219.1871991288592,18272.765780134716
210,0.9375,0.75,23.432109755575393,1,543.5479437508677,618.7821054075229,-4379.899106048884
211,0.6875,0.875,104.96244092787028,1,330.8065593594673,544.6231358633934,4543.852175731855
212,0.8125,0.75,27.268564793225874,1,-243.27167172049639,1252.8865341050894,-9700.25748397268
213,0.84375,0.5,-5.072234661823568,1,738.1630696783121,116.72648257244202,-16168.514102192254
214,0.8125,0.875,106.58875756008372,1,-128.66776339186524,638.8076037471898,3074.8099746908347
215,0.8125,0.53125,-5.032290710057956,1,157.93147717353088,448.2138891606315,5241.637165205341
216,0.125,0.1875,13.350740807010657,1,-127.03887822677603,-469.8395303875013,2827.108423865717
217,0.375,0.5625,4.914977109623351,1,-268.71211538798195,-43.77353075508935,9287.030685074138
218,0.6875,0.75,37.823721946268236,1,533.1876585529682,1114.8254854294678,2442.776693066926
219,0.8125,0.625,9.315701709853233,1,662.9279377780349,211.5647446275186,123421.62318958603
220,1.0,0.6875,20.990281684739532,0,583.9320230187562,176.46822244539294,-1758.5888432271984
221,1.0,0.5625,22.31977251248872,0,433.53746744152664,347.7483550112313,1754.740359732625
222,0.25,0.1875,35.11997923240533,1,-976.6053723027935,261.89705707187574,22530.616113510954
223,0.875,0.8125,58.03661089558204,1,98.56873673180448,894.8073361274656,-2029.5913036594707
224,0.875,0.1875,18.315417195758847,1,540.5301927205886,-352.85216859666684,9261.470262637955
225,0.9375,0.125,43.482263991727166,1,357.61079884308185,-626.236028945357,3209.6357698541956
226,0.9375,0.875,84.14433735007722,1,123.04549464662432,766.4077610872749,-588.6931828754202
227,0.8125,0.125,14.225767459308111,1,684.6680513733473,-600.3576440731767,-14352.77438536072
228,0.1875,0.5,4.198963148333972,1,-301.7728563574011,22.993344776900155,2310.1448590186205
229,1.0,0.8125,53.250625183966264,0,433.3874063993305,743.017963176901,-2137.986971647211
230,0.3125,0.5,-4.386442673777736,1,-168.405872304719,664.7540082089118,-19067.50343491012
231,0.125,0.0625,47.10540504005155,1,-366.88887229346534,-241.80597233890822,1025.5109722094269
232,0.25,0.4375,11.15439311523789,1,-880.311256130297,-554.7966575622142,12953.60467027164
233,0.9375,0.5,4.812761576690456,1,671.9799748485813,248.48987792334304,-1356.9980533175062
234,0.625,0.0625,41.597587739200954,1,137.14371072177613,-666.3926525161131,1428.462249229921
235,0.59375,0.09375,35.2232419574292,1,65.77520130081977,-891.9093679633233,-11108.888368009082
236,0.0625,0.375,-57.955772256492665,1,-596.22176172563,367.23661744011315,-4544.8235860432205
237,0.90625,0.46875,-0.8787025832989944,1,689.9486212018768,129.58245858453364,-2367.2228695287126
238,0.59375,0.03125,50.89980511755735,1,-77.09018564450639,-555.5912869307676,3076.420992913618
239,0.125,0.5625,4.515079312246254,1,-302.23478280991117,201.1971878910541,308.8203188576467
240,0.4375,0.5,-6.217418038154957,1,-513.1134974766594,557.6842400006389,-13863.302174148817
241,0.0,0.3125,-65.85427061790641,0,-1113.078288635624,-130.2419808055582,-7350.9874851855475
242,0.875,0.0625,43.59501304048207,1,684.5049433796866,-507.82922643167,4587.17523670673
243,0.25,0.3125,-28.93195283554184,1,705.0768640625191,-145.84317218727168,-352580.5375219876
244,0.1875,0.125,39.3492501413881,1,-378.7733741941783,-110.22280815907452,3711.8002086940282
245,0.375,0.0625,15.29763144480806,1,-491.5048591405438,-39.78919905908022,-21939.923193073162
246,0.40625,0.09375,21.53032922705416,1,-763.7378662383156,-263.71898260204904,-6805.121232457811
247,0.0625,0.5,-11.385471412217989,1,-314.3972499383339,274.79010268063104,-254.879642898891
248,0.3125,0.625,5.513329143330651,1,-247.03584006272084,251.9279782472988,-505.0288985187363
249,0.125,0.4375,-19.236852073734557,1,-91.72071739425331,247.0959977851732,1691.3165305528864
250,0.3125,0.125,18.16894004367159,1,10.438683932080783,-710.9131560992329,-30675.4805784219
251,0.53125,0.03125,56.829636323526216,1,-62.33097627942933,-357.664030779695,5120.9554109838455
252,0.0625,0.125,31.43203586826982,1,-313.8590008941059,-400.1557720468746,555.2497198825745
253,0.375,0.6875,2.251343274990196,1,-301.7409352814588,266.1149676092042,-353.74986138971366
254,0.75,0.6875,8.511867405027441,1,-39.75793073626326,852.7144220347471,524.0004994220651
255,0.9375,0.375,-0.7136046253688084,1,803.9717673034366,-260.9120056757302,-2327.7727119424876
256,0.90625,0.40625,-5.227015117477802,1,797.4770474267847,-111.41413076953313,-4507.828307710752
257,0.6875,1.0,126.59737992969129,0,231.2247200316613,256.5376825317298,3120.330489616112
258,0.5625,0.75,5.0215047289681145,1,-41.68479310912824,788.306504542266,-4791.172298661362
259,0.4375,0.625,-5.425034629805774,1,-357.6795571399982,167.1241007822337,-1042.1877365954833
260,0.875,0.9375,114.10807124399648,1,-46.529707412250595,609.9715650198142,1246.0134991939938
261,0.71875,0.15625,17.607959441874463,1,766.7933522188158,-819.6779206052352,107502.20743139551
262,0.625,0.9375,96.9658416281256,1,292.7233137290114,506.7105280965944,1969.9059248468357
263,0.84375,0.40625,-2.786766432957315,1,747.966017071875,725.2656656229892,-33204.162931211824
264,0.84375,0.4375,2.9787169122801416,1,293.24880637363395,128.0444316644097,25825.913398983103
265,0.625,0.6875,-9.80934228547431,1,19.127249972561312,552.5634194399088,-19600.55659012197
266,0.3125,0.375,2.9384057167781585,1,-1322.101818954692,-954.9089954283107,-11172.310855329153
267,0.75,0.53125,4.958252440594594,1,477.7540821007833,-217.2967167161224,-303385.18198370753
268,0.1875,0.375,-23.274566839139617,1,600.674589064369,896.0362243645966,19388.262019852235
269,0.53125,0.09375,48.32903464105437,1,-555.992671094693,-635.5076448986974,22445.22793087668
270,0.25,0.5625,4.059446016539791,1,-443.74993690114036,254.3648487487639,-1058.7365428722144
271,0.75,0.0625,11.670532113629811,1,56.77183479776217,-845.2006439700988,-8648.751555119843
272,0.78125,0.59375,2.3630531624873914,1,125.2236059410859,809.6224926100772,-79108.51257645735
273,0.78125,0.5625,0.06016530831872332,1,-297.6901689429947,-6.4936611201755605,-180363.76500891734
274,0.78125,0.40625,2.1516959276520704,1,768.8277120485701,-403.13095275938144,489272.6228592191
275,0.796875,0.484375,-7.707001392819636,1,131.50561619836654,-795.4638237466827,-12689.22798441173
276,0.625,0.8125,53.95164260733108,1,338.43731468028227,841.3013200770213,154.1981177876958
277,0.0625,0.625,11.081076203835554,1,-332.8126739981907,269.28862942467134,-139.3612307528431
278,0.375,0.4375,4.331624171413074,1,-295.2052486965267,532.8204693514438,180870.3564682149
279,0.3125,0.25,15.491308026299702,1,-138.5020805980789,587.4906835133951,-165989.49337382073
280,0.71875,0.09375,22.651121681472812,1,-244.68484351721438,-562.3977362502155,-1754.1269253326398
281,0.65625,0.09375,36.32463646024764,1,403.2926871857498,-480.9573390733051,11972.807839908955
282,0.65625,0.125,32.59933650843026,1,475.0292037726344,-491.6260541921068,30711.81940723541
283,0.375,0.1875,18.060821773542,1,-583.2996291118678,-431.5120502836177,-46199.1577186489
284,1.0,0.4375,-1.5657443235530948,0,810.6902865559459,20.675308397641338,-1916.4824527981002
285,0.5,0.5625,-8.695073143304107,1,-83.6865645386091,74.14203998950454,942.5426452832869
286,0.5,0.8125,21.629819695999224,1,-41.50931116026845,675.3230917595656,-1616.4139248993577
287,0.65625,0.34375,4.029352981513025,1,8.375126311977173,286.56750664937385,43431.19568664879
288,0.65625,0.3125,0.806633393984929,1,639.1268011597543,1045.6633665771108,28932.97853299423
289,0.0,0.1875,-0.15129848589742112,0,-528.9744721253151,-552.4023635035097,-1340.8302974790843
290,0.59375,0.15625,21.072483907916908,1,-487.11967788716,-779.373903814455,-35175.23141705704
291,0.25,0.0625,26.156820090190557,1,-611.1658980606437,-272.95458939365795,-1682.60926988088
292,0.1875,0.625,10.059796313320042,1,-343.81397180448084,240.95402571618658,-134.15058742442827
293,0.625,0.34375,1.6210314150015235,1,-46.08074970832115,134.56656194314863,260016.05079794736
294,0.59375,0.25,15.819536617503438,1,-192.14896068378826,-851.8980171240022,287780.6000362479
295,0.8125,0.0,21.435000430589568,0,623.3512105866272,-891.7645127851742,-3511.507087109751
296,0.9375,0.25,13.467595355306214,1,462.2109275649774,-223.34618277266978,-12782.035514711235
297,0.59375,0.3125,3.142393760422804,1,-637.8474302203621,326.60768807495583,-342141.74591440783
298,0.46875,0.09375,35.10140756849891,1,419.78803723192846,-596.2623027015086,4891.900232905257
299,0.8125,1.0,133.59941464955878,0,-42.34322532733044,339.5098044651091,2648.1421520756726
300,0.5,0.6875,-12.011211887567551,1,-288.8163603022719,388.54435867990856,-4254.627200654225
301,0.125,0.6875,14.440211183139612,1,-331.35440560145906,293.8021927772737,-227.75899282833825
302,0.0,0.5625,3.4063060750279597,0,-355.407900960859,277.07724318360505,-262.4839644381933
303,0.546875,0.296875,2.2690384778257675,1,377.83828141896157,490.66526211953436,-984542.9970019112
304,0.4375,0.0,25.411795222912268,0,94.49026441649251,-694.2970256246854,-3686.5595961893932
305,0.46875,0.03125,38.69900799152122,1,120.69746577287746,-437.20956210400806,1102.2744681493248
306,0.625,0.28125,15.408026459930477,1,-637.2637610724539,352.29810081471976,1164185.3237337307
307,0.375,0.3125,2.915977048633256,1,-445.68348506154683,-458.2798943030774,-226543.56256870303
308,0.3125,0.75,9.538289857921312,1,-272.5949979085226,374.2914669640643,-643.1574549217855
309,0.65625,0.25,15.072127358399486,1,-584.9763038147025,-929.8459226806564,1218899.1468324272
310,0.5,0.28125,3.532525136746767,1,101.63808802640852,82.36978736440088,-310394.0555216769
311,1.0,0.0625,68.6767971766154,0,284.2920606310458,-491.5614458176825,2426.185227328186
312,0.6875,0.28125,5.905232333825133,1,692.1088994998878,1378.5404686288139,1267123.8108290357
313,0.71875,0.21875,17.238654310310913,1,-1239.6576084536805,68.22363924170479,-136908.65851205098
314,0.71875,0.25,15.840689800235245,1,1283.282905477347,-946.8456032613798,852627.9647199255
315,0.6875,0.21875,22.80061896348937,1,530.8057081849453,-2165.8865739547055,1041672.9901219782
316,0.5,0.4375,-1.5713717193148737,1,140.5676458001733,-593.3696379553179,33202.31649708273
317,0.875,0.3125,7.593914941057493,1,650.193517748378,-519.6481203013124,9775.243883231307
318,0.0625,0.0,56.18454436922496,0,-339.08138171231855,-260.2623889293825,647.5276501244722
319,0.1875,0.0,43.24956621733872,0,-515.1609911516757,-262.00158573684274,-97.48504158564408
320,0.546875,0.265625,15.081074260050592,1,503.02529701936,-232.93447999674905,338413.51712743135
321,0.546875,0.234375,18.11087789926175,1,-864.141896744746,-817.9882198354785,-386920.62632266025
322,0.5625,0.625,-16.427272051742634,1,-83.03382820971477,78.52910445954912,-7598.483450840811
323,1.0,0.1875,19.69542926096351,0,654.8696005471944,-526.2325584878561,-6583.476528124921
324,0.40625,0.28125,5.502121325135893,1,69.21412569942864,-399.4425500784962,-178979.06568312313
325,0.4375,0.75,3.5115933566017024,1,-247.05184764219345,480.3934432538197,-1781.8308522638067
326,0.78125,0.21875,16.739441471069213,1,686.5684381078865,-2123.889719163362,445216.2905919156
327,0.78125,0.25,9.195831997907497,1,373.08641061901915,-1319.5925146514194,-347675.41724726424
328,0.3125,0.0,11.813879048406383,0,-419.2278492054847,-632.1091874242125,-6612.555375854442
329,0.25,0.6875,9.679356571267586,1,-313.39888893393976,304.26182798672585,-461.2180649986915
330,1.0,0.3125,8.162417244428726,0,672.9965189378519,-242.27112240826554,51.88485694906433
331,1.0,0.9375,105.94964521161819,0,67.6545909466494,702.718635676735,36.29694647650607
332,0.5,0.9375,50.80797917575249,1,103.53433655002885,606.5433456665652,-10.650246122104706
333,0.46875,0.15625,20.97896877904207,1,-507.68868459181226,-236.3709835410963,-35306.47826403928
334,0.5,0.15625,19.092463148377917,1,-558.5874934380936,-775.7374351501151,-134030.52985375168
335,0.0,0.4375,-33.89729436902533,0,-559.8981306372098,351.62325908221356,-1952.4709420238676
336,0.78125,0.4375,-5.577970333653877,1,142.87295468543644,-454.0841815180756,-749691.8991444993
337,0.765625,0.453125,0.1677784912092411,1,-203.04621225919792,641.2176550402324,288875.2357997779
338,0.375,0.8125,13.75585967805389,1,-203.52797297589194,493.30413943383314,-871.7738714978123
339,0.75,0.28125,15.698157613831288,1,1429.7532944693442,-598.2833173023641,1086185.121279873
340,0.625,0.21875,17.53184743237879,1,-827.7352801656209,-1550.4348112594878,520163.0415647163
341,0.0,0.0625,50.97432879375641,0,-313.762067129213,-336.049775031579,501.9364660879963
342,0.5625,0.875,56.97850017571342,1,197.45384478507572,684.5202814495899,78.26922187707383
343,0.9375,0.0,70.49026561555925,0,432.2650523553195,-349.2131013691747,2814.655118976183
344,0.796875,0.453125,-2.7547154830916956,1,1107.3129972535564,974.6729500882194,-68487.80800515387
345,0.75,0.34375,4.267387312991279,1,503.66765502986897,127.84520795253081,586755.9624510979
346,0.78125,0.3125,2.57082305135336,1,747.6736890472622,-199.31882005564975,-228916.11156450835
347,0.765625,0.484375,-2.1894952773264653,1,-237.69709466441356,34.584433561534375,-275653.1976492994
348,0.71875,0.3125,2.662900822354849,1,-482.36470890949926,969.534151292397,-44336.59783704368
349,0.65625,0.1875,21.01802006054181,1,-79.36197255963526,-1484.0511430100578,137294.17660670457
350,0.734375,0.484375,2.9884460130676804,1,-0.45692409819592017,275.3288097341807,-369811.37347537075
351,0.4375,0.875,27.47558442628041,1,-61.513262897566165,597.9993298012429,-712.3230201048386
352,0.4375,0.375,0.8046212910337565,1,-1292.0654868958343,-126.96282042480046,35757.01797305336
353,0.515625,0.234375,16.976627062862395,1,123.72202621986924,-22.955836392540757,-698621.3185437679
354,0.9375,1.0,116.21452401708912,0,-4.585703907761209,610.2114825116573,599.9997790006234
355,0.65625,0.46875,2.010147795170274,1,-190.0792639603067,264.4163287993004,235460.22142003907
356,0.46875,0.34375,2.505943646722528,1,307.5237872214811,-1106.0084067762828,-594695.3706371161
357,0.84375,0.34375,1.504210698138833,1,331.6189586443442,-113.78899391000674,144399.9555956059
358,0.8125,0.34375,3.672106042349861,1,529.2274417361388,100.38445530728615,418336.7069546939
359,0.53125,0.1875,18.672026285097868,1,-351.45914666182955,-508.4132687209086,72287.91111326836
360,0.515625,0.203125,19.850258629907817,1,114.42240854297017,-61.53267646241665,-121584.20715070759
361,0.71875,0.4375,4.115691944475184,1,301.6232246926668,83.21575288777538,-344404.3818402096
362,0.6875,0.46875,4.269868524763445,1,98.39804405034373,156.18013982198664,-383223.29424274043
363,0.5625,1.0,78.37172026396276,0,223.86167550550113,501.10328046088466,904.7940623330285
364,0.65625,0.4375,2.1873269565490947,1,693.0398981184568,-114.48743972900887,144006.49504883992
365,0.0625,0.75,18.59027535039589,1,-342.9987864827722,339.2334508699346,-305.07048243428824
366,0.46875,0.1875,17.15213180304633,1,-357.73173962570877,-1065.5558061332854,165893.2261674392
367,0.484375,0.203125,16.299971949219593,1,0.2902148545241157,-874.5975099816931,-99301.62728864423
368,0.46875,0.25,15.696488076608368,1,546.7600985303112,-612.0571804853968,587953.8284343383
369,0.1875,0.75,14.768720758929344,1,-314.0161154272891,347.73798057942304,-397.7752151569853
370,0.546875,0.203125,20.05073073012255,1,78.61279909159667,41.738748532468605,-575367.4607473044
371,0.125,0.8125,18.720757199540277,1,-321.7750739169878,386.72811334457333,-389.9813619078288
372,0.59375,0.40625,1.5706278307713837,1,-866.184725001516,498.9809675996787,652545.9743227422
373,0.625,0.40625,-3.3711231286868895,1,-843.0862986629234,-472.162648685946,-474687.18036013783
374,0.0,0.6875,17.87861450141289,0,-354.9696732381529,303.9055709075633,-238.01377435409728
375,0.0625,0.9375,22.227507904834034,1,-337.7918295400784,456.3595798371014,-417.71871246006305
376,0.5625,0.34375,3.5959731523169443,1,26.696917735396916,-334.2613330330743,245154.3132240367
377,0.625,0.5625,0.6502630667377337,1,-361.03520666712353,255.1709527364742,24358.21497809527
378,0.65625,0.53125,0.7623601610464773,1,168.77328503095325,208.11341692891654,-179644.56845438379
379,0.6875,0.53125,4.007881867963881,1,285.17359037034856,241.6149437831854,152952.3449394739
380,0.6875,0.40625,4.423356708208946,1,225.07867218549,-128.0957312343526,-477681.2734238927
381,0.125,0.9375,21.211405043467735,1,-309.66846471591225,465.98177404412064,-437.3779713099146
382,0.25,0.8125,14.95556652907669,1,-272.4148735888724,418.65856103523896,-534.1470708501591
383,0.6875,0.0,30.38843051817051,0,-34.85437942183133,-598.8976064580339,-0.8861199190986929
384,0.6875,0.625,2.9086836464152865,1,-225.05484811719114,526.0674533563622,133243.85386109844
385,0.71875,0.59375,2.3457365353932675,1,136.6274812953512,240.9467084407252,-214361.67289979372
386,0.0625,0.875,21.51076775466014,1,-339.88149816716464,420.89455544529267,-398.68064757540475
387,0.5,0.34375,4.862793261046874,1,62.10985240016746,1384.9059880006823,315293.58339646517
388,0.515625,0.328125,4.726768105566224,1,14.399684532534874,-93.05464759845107,-1404443.4292302774
389,0.40625,0.21875,14.723475760340854,1,-474.2271864451873,-63.09119914500353,-191492.33111768586
390,0.4375,0.21875,14.671351939686499,1,-809.117021123595,-442.9435689794028,280131.61820679513
391,0.4375,1.0,39.98767258833005,0,4.388842274512276,597.5110810351792,-256.36290027289397
392,0.546875,0.328125,4.873979697383296,1,-1191.4941201893548,-38.8569451416127,-500671.88705224456
393,0.59375,0.46875,-8.52747490797634,1,-751.1140083999401,1046.2187387429778,-57152.88999319225
394,0.3125,0.875,18.12985544512433,1,-204.02196224373063,499.6072880686244,-591.4767556491272
395,0.59375,0.1875,18.97550010662646,1,-186.16087194638166,-675.3423283749497,-141862.95986264906
396,0.578125,0.203125,19.929031053238177,1,-666.7691308565859,-62.97994112711629,-327119.24168300914
397,0.375,0.9375,26.329636464531145,1,-106.25199022754784,567.6063512390891,-499.39943495539586
398,0.84375,0.28125,11.849000914233308,1,357.2371674955593,-668.488379998473,150924.60889660087
399,0.8125,0.28125,8.86580486229098,1,458.02449147742396,-648.1449008473624,424869.2002353957
400,0.71875,0.375,3.787219463241781,1,-571.9528649228031,394.3287574394313,-228150.95754472626
401,0.1875,0.875,18.544968489907887,1,-285.3434559028022,444.84481804738317,-464.7130759332559
67,66,1,1,14.834755878759712,4
81,26,1,1,4.879638190908931,4
83,32,1,1,2.777257010859527,5
84,35,1,1,2.0984568315549588,4
88,9,1,1,3.678891674683479,3
89,12,1,1,4.4740029904370715,4
89,43,1,1,4.638381245018234,4
90,28,1,1,2.8921325527256965,5
90,43,1,3,2.6955185703221183,5
90,89,1,3,3.8378233530725936,5
96,28,1,1,3.0415109913610365,5
96,46,1,1,2.5189378576354393,5
97,9,2,1,2.904369093007751,3
98,84,1,1,3.261599932053313,5
99,11,1,1,5.020606886601135,6
99,98,1,1,4.593866142180602,6
100,22,1,1,4.145974277679424,4
100,33,1,1,10.1041554847928,4
100,51,1,1,4.829719249383571,4
100,55,1,1,8.95485057468753,4
101,22,1,1,6.645933305721715,4
101,60,1,1,7.050414556404272,4
102,23,1,1,9.46955053294888,4
102,37,1,1,5.897772596278411,4
102,50,1,1,8.798029737147296,4
102,61,1,1,3.0202970991049725,4
103,23,1,1,14.560206395125237,4
103,33,1,1,8.019915896614815,4
103,50,1,1,18.1419115946178,4
103,55,1,1,7.028861543460814,4
104,19,1,1,10.641109721194848,4
104,40,1,1,6.499480433733138,4
104,52,1,1,12.294117761689082,4
104,53,1,1,5.45522874596095,4
105,18,1,1,18.398319835031764,4
105,33,1,1,12.783142961734722,4
105,50,1,1,21.678235589791736,4
105,54,1,1,11.698125152036084,4
106,18,1,1,15.993844065358566,4
106,40,1,1,10.064822931287988,4
106,52,1,1,14.470517178577897,4
106,56,1,1,7.248693477436422,4
107,33,1,1,8.458615305291442,4
108,7,1,1,4.153220851802047,4
108,38,1,1,2.353920387086118,4
108,71,1,1,4.823244124817749,4
108,80,1,1,1.570558572987136,4
109,8,1,1,0.755047894757378,4
109,38,1,1,2.0552123349271816,4
109,65,1,1,2.2176908159528086,4
109,80,1,1,0.48866393865921764,4
110,2,1,1,4.409803985995791,4
110,30,1,1,3.0244120540009627,4
110,74,1,1,3.908961779851496,4
110,85,1,1,3.2573315480684664,4
111,5,1,1,6.063638393681305,4
111,26,1,1,4.988131123517313,4
111,58,1,1,6.441474690685892,4
111,66,1,1,8.639772809514621,4
112,6,1,1,11.038433832161953,4
112,26,1,1,5.739903950536355,4
112,42,1,1,4.262422468968621,4
112,58,1,1,6.535762480479726,4
113,21,1,1,4.097917382780662,4
113,29,1,1,5.413177602263477,4
113,60,1,1,3.4273143743959613,4
113,63,1,1,2.602478490685571,4
114,8,1,1,1.2543456363269248,4
114,34,1,1,2.251409716061251,4
114,65,1,1,2.1691845050698344,4
114,88,1,1,1.3337373781984092,4
116,12,1,1,6.602057680906548,4
116,38,1,1,2.476964334762199,4
116,69,1,1,4.071850036164802,4
116,71,1,1,4.938240306605445,4
117,18,1,1,9.267551727104703,4
117,37,1,1,9.255000121265452,4
117,50,1,1,9.72361455220971,4
117,52,1,1,11.018302404903622,4
118,15,1,1,8.451100133437173,4
118,72,1,1,4.917152079097791,4
119,5,1,1,4.57365035165833,4
119,25,1,1,6.808888999454634,4
119,58,1,1,3.743959719914552,4
119,77,1,1,5.530438046801459,4
120,7,1,1,4.004271243456383,4
120,30,1,1,2.0712286611322046,4
120,74,1,1,4.488210556998919,4
120,80,1,1,2.0001197764957865,4
121,39,1,1,2.6795029954124834,4
122,18,1,1,15.199505218746928,4
122,39,1,1,12.931094864161466,4
122,54,1,1,12.93009812055395,4
122,56,1,1,15.39168176242751,4
123,3,2,1,0.30629117829410113,3
123,4,2,1,0.19513892946790046,3
124,3,1,3,0.5935995775857439,4
124,27,1,1,0.36262828207111913,4
124,123,1,3,0.4364600282060602,4
124,86,1,1,0.3758583504306259,4
125,7,1,1,5.405707940120548,4
125,35,1,1,4.747328673842827,4
125,64,1,1,10.482824834536473,4
125,71,1,1,8.489266913741407,4
126,19,1,1,8.589299752754672,4
126,37,1,1,8.461305963442113,4
126,52,1,1,9.380624422789595,4
126,62,1,1,5.57781338226755,4
127,1,1,1,19.354737517217238,4
127,31,1,1,21.889406993698604,4
127,59,1,1,20.557308281855867,4
127,78,1,1,20.609738513593417,4
128,13,1,1,6.345649846021949,4
128,40,1,1,6.251777727190298,4
128,56,1,1,6.337417070132202,4
128,57,1,1,4.777138933094608,4
129,14,1,1,3.6691621703945096,4
129,40,1,1,6.486225137810498,4
129,53,1,1,3.973457853648336,4
129,57,1,1,4.933046955920887,4
130,15,1,1,18.12408512687027,4
130,36,1,1,7.022389051624117,4
130,70,1,1,14.583000392391211,4
130,75,1,1,8.074738905497805,4
131,2,1,1,4.731369630406765,4
131,31,1,1,8.5057391878847,4
131,74,1,1,6.146284275158126,4
131,78,1,1,6.138111345931428,4
132,9,1,2,0.0,3
132,34,1,1,2.0279277847484196,4
132,88,1,3,2.9206480123347482,4
132,97,1,3,4.454419423783417,4
133,6,1,1,17.510875927251163,4
133,25,1,1,13.986646681100334,4
133,58,1,1,13.209915359414914,4
133,59,1,1,14.00888233286728,4
134,0,1,1,4.360788633029269,4
134,25,1,1,5.907037848124447,4
134,77,1,1,4.557253409654472,4
134,79,1,1,8.355629420376602,4
135,6,1,1,12.090055585255463,4
135,35,1,1,6.468202156587496,4
135,42,1,1,7.578084347982933,4
135,64,1,1,12.550998612054377,4
136,12,1,1,6.515349658000434,4
136,35,1,1,2.8555569338453997,4
136,43,1,1,3.5671718567187014,4
136,71,1,1,6.333417416099195,4
137,13,1,1,5.8404233298796475,4
137,38,1,1,3.439831512803085,4
137,65,1,1,3.551075899863159,4
137,69,1,1,6.273520699333783,4
138,1,1,1,6.793288594074201,4
138,25,1,1,10.431928071117323,4
138,59,1,1,7.900494473053983,4
138,79,1,1,9.029061434911005,4
139,3,1,1,1.1896382471538194,4
139,30,1,1,1.5837024820200294,4
139,85,1,1,2.357604143335233,4
139,86,1,1,0.941242387724412,4
140,8,1,1,0.38824456934602525,4
140,30,1,1,1.0741034214358711,4
140,80,1,1,0.5915995365280959,4
140,86,1,1,0.4727073780517426,4
141,6,1,1,24.553081803121927,4
141,31,1,1,28.643102691599793,4
141,59,1,1,28.042047758464285,4
141,64,1,1,24.498574632730424,4
142,12,1,1,5.295812428069066,4
142,39,1,1,4.3484245695239245,4
142,68,1,1,6.012705912014322,4
142,69,1,1,4.915692950383023,4
143,24,1,1,5.329101233481374,4
143,37,1,1,8.23872092157724,4
143,61,1,1,7.593287996040463,4
143,62,1,1,6.063284513435001,4
144,20,1,1,6.7854818165855235,4
144,36,1,1,6.455193227874693,4
144,75,1,1,8.617492187845496,4
144,76,1,1,6.410457313462107,4
145,7,1,1,10.920441951193165,4
145,31,1,1,11.526753979531264,4
145,64,1,1,15.234303139756436,4
145,74,1,1,9.183384801724554,4
146,13,1,1,9.09933126808918,4
146,39,1,1,12.322223323975365,4
146,56,1,1,13.768340962189608,4
146,69,1,1,11.27950474225836,4
147,13,1,1,5.208308067902083,4
147,34,1,1,3.4142586706483096,4
147,57,1,1,4.372398496365954,4
147,65,1,1,3.812168009932614,4
148,14,1,1,4.394498904013307,4
148,34,1,1,3.639597844269081,4
148,57,1,1,4.005115011729419,4
148,97,1,1,3.712933807529266,4
149,8,1,1,0.49509999597698956,4
149,27,1,1,0.3100044416228339,4
149,86,1,1,0.219755620132702,4
149,88,1,1,0.7487519220666452,4
150,12,1,2,0.0,4
150,68,1,3,3.9502351264561644,5
150,89,1,3,3.3343344728297373,5
150,142,1,2,0.0,4
151,70,1,1,2.9067427892528803,5
151,82,1,1,4.409819716946013,5
151,118,1,1,5.100790463046791,5
152,32,1,3,4.345045383579951,6
152,82,1,3,4.139963482988374,6
152,151,1,3,4.992568887722555,6
152,83,1,3,2.4919180754721477,6
153,26,1,3,6.102553900288148,5
153,47,1,1,5.815401623940865,5
153,67,1,1,6.924389698987599,5
153,81,1,3,3.981047869526188,5
154,9,2,1,1.0938757069685678,3
154,4,2,1,0.19622027573290346,3
155,9,1,2,0.0,3
155,27,1,1,0.34591087070423043,4
155,154,1,3,1.1444882972211534,4
155,88,1,3,1.804395745262089,4
157,41,1,1,2.64349766210571,6
157,46,1,1,3.7752595699449873,6
157,156,1,1,4.504326379292621,6
157,87,1,1,3.277229115640731,6
158,36,1,1,6.617774221665336,4
158,63,1,1,2.3373093371344096,4
158,70,1,1,6.213346740818417,4
159,16,1,1,2.886030180785926,5
159,70,1,3,5.178565384306616,5
159,158,1,3,4.561461309997568,5
159,82,1,1,3.012586948233431,5
160,41,1,1,1.8836800610135924,6
160,82,1,1,1.9237753934820159,6
160,83,1,1,1.3206347273631698,6
160,156,1,1,2.607882771972779,6
161,16,1,1,2.517691633944314,6
161,46,1,1,2.7556123314199574,6
161,94,1,1,3.482621896230823,6
161,156,1,1,2.9016435354308046,6
162,45,1,1,2.26569565000743,5
163,45,1,3,1.8630081991504759,6
163,95,1,1,0.8666575674240362,6
163,162,1,3,2.844390803698918,6
163,96,1,1,0.8459329582341524,6
164,42,1,1,3.2941906856211123,5
164,84,1,1,1.9871364423003746,5
165,41,1,1,0.6420249184580615,6
165,49,1,1,1.9459676626989943,6
165,83,1,1,1.0476572105185762,6
166,48,1,1,0.679965529649738,7
166,49,1,3,1.5957182236653922,7
166,165,1,3,1.4806417636313693,7
166,92,1,1,1.2931709574827592,7
167,47,1,1,5.030125018064969,5
167,32,1,1,4.280685544377013,5
167,48,1,1,6.03884521493578,5
167,73,1,1,3.3582490105254474,5
168,47,1,3,4.991649913970969,6
168,48,1,3,5.871462243862089,6
168,167,1,2,0.0,5
168,91,1,1,4.365851893322471,6
169,45,1,1,2.9516469582005582,5
169,29,1,1,3.4149206529678136,5
169,115,1,1,3.1171647538243246,5
170,45,1,3,1.5206920874300893,6
170,93,1,1,2.68767047989995,6
170,169,1,3,1.5551406432350978,6
170,94,1,1,3.92296844395738,6
171,11,1,1,5.024144413206246,6
171,84,1,2,0.0,5
171,98,1,3,5.426042984717597,6
171,164,1,3,2.5272512195244126,6
172,21,1,1,7.854891347769366,4
172,36,1,1,6.66856605379938,4
172,63,1,1,5.176579715762965,4
172,76,1,1,4.599162613964095,4
173,10,1,1,9.794840708659768,5
173,47,1,1,8.815817382316183,5
173,67,1,1,8.327635179924311,5
173,73,1,1,9.216112609242636,5
174,44,1,1,3.593230340437159,6
174,41,1,1,2.788165711053045,6
174,49,1,1,2.751129439339036,6
174,87,1,1,3.7142438551135815,6
175,44,1,3,2.9506137035012037,7
175,49,1,3,2.3328124632162446,7
175,174,1,2,0.0,6
175,99,1,1,2.9089337734097818,7
176,43,1,3,0.9929468660602918,6
176,90,1,3,1.2385827554476458,6
177,44,1,1,1.2458728550956526,7
177,98,1,3,2.2568986410787675,7
177,176,1,1,0.70970796499805,7
177,99,1,3,3.7029550812289607,7
180,11,1,3,2.687699710505452,7
180,49,1,1,2.2212741995660785,7
180,92,1,1,1.976611697180683,7
180,99,1,3,4.280674090318957,7
181,10,2,1,4.3886048040505985,5
181,72,2,1,1.9460221175551187,5
181,73,1,1,4.262738928331588,5
182,28,1,3,1.2963113365729226,6
182,44,1,1,2.0593917637284775,6
182,87,1,1,3.475098135519371,6
182,90,1,3,1.1443525448367278,6
183,63,1,3,2.206432406216717,5
183,158,1,3,2.5472221698663295,5
184,16,1,1,3.0594669697572865,6
184,93,1,1,3.7851563055038087,6
184,183,1,1,2.401748701829648,6
184,94,1,1,5.209593897142226,6
185,68,1,1,2.1117468874348644,5
186,95,1,1,1.431643232658837,6
186,185,1,1,1.4454836310377792,6
186,162,1,1,2.837088727985133,6
187,68,1,1,6.605260764364846,5
187,89,1,1,8.575433404619517,5
188,28,1,3,2.6182251948519806,6
188,95,1,1,3.4148557620954447,6
188,187,1,1,4.129601907910487,6
188,96,1,3,1.9446899695481221,6
189,51,1,1,3.4362235206040763,5
189,29,1,1,3.6329501465021146,5
189,101,1,1,2.654320528700344,5
190,115,1,1,2.4627814749028634,6
190,51,1,3,3.3848331285049262,6
190,189,1,3,3.032135943738591,6
190,178,1,1,4.111089909580439,6
191,115,1,3,2.2559462881862817,7
191,178,1,3,4.861226256671081,7
191,190,1,2,0.0,6
191,179,1,1,2.1707707723755583,7
192,54,1,1,1.2807064916592088,5
192,121,1,1,2.5542884837854567,5
193,17,1,1,2.7585077786245416,6
193,107,1,1,2.8742151807859857,6
193,192,1,1,1.9681408686834438,6
193,178,1,1,5.415962547881602,6
194,17,1,3,2.787786186682073,7
194,178,1,3,4.609664725040997,7
194,179,1,1,2.8810959942643475,7
194,193,1,2,0.0,6
195,17,1,1,3.038922320083122,6
195,121,1,3,2.0302161500038123,6
195,185,1,1,1.1314937646033152,6
195,192,1,3,2.2593657688020334,6
196,17,1,1,1.591441675713786,7
196,162,1,3,2.5357661284193282,7
196,179,1,1,1.2856650127022604,7
196,186,1,3,2.294248188924956,7
197,17,1,3,2.2950067716625577,7
197,185,1,2,0.0,6
197,186,1,3,1.0169905692092502,7
197,195,1,2,0.0,6
198,45,1,1,0.997245904034118,6
198,46,1,3,3.157015676347524,6
198,94,1,1,3.7284667686718365,6
198,96,1,3,2.2821127632639113,6
199,11,1,1,3.498335425031307,6
199,81,1,1,0.8281174283362902,6
199,164,1,1,1.683591743902626,6
200,11,1,3,2.4242707739770157,7
200,91,1,1,0.5975162274214108,7
200,199,1,3,1.7299108984075628,7
200,92,1,1,1.2245236045245074,7
201,33,1,2,0.0,4
201,55,1,2,0.0,4
201,100,1,2,0.0,4
201,103,1,2,0.0,4
202,18,1,2,0.0,4
202,52,1,2,0.0,4
202,106,1,2,0.0,4
202,117,1,2,0.0,4
203,31,1,2,0.0,4
203,59,1,2,0.0,4
203,127,1,2,0.0,4
203,141,1,2,0.0,4
204,51,1,3,4.474797415663373,5
204,33,1,2,0.0,4
204,100,1,2,0.0,4
204,107,1,3,5.9780702873203815,5
205,51,1,3,2.939056175227396,6
205,107,1,3,3.6305881630204393,6
205,204,1,2,0.0,5
205,178,1,1,5.218649437155203,6
206,1,1,2,0.0,4
206,59,1,2,0.0,4
206,127,1,2,0.0,4
206,138,1,2,0.0,4
207,33,1,2,0.0,4
207,50,1,2,0.0,4
207,103,1,2,0.0,4
207,105,1,2,0.0,4
208,19,1,2,0.0,4
208,52,1,2,0.0,4
208,104,1,2,0.0,4
208,126,1,2,0.0,4
209,6,1,2,0.0,4
209,59,1,2,0.0,4
209,133,1,2,0.0,4
209,141,1,2,0.0,4
210,23,1,2,0.0,4
210,50,1,2,0.0,4
210,102,1,2,0.0,4
210,103,1,2,0.0,4
211,40,1,2,0.0,4
211,52,1,2,0.0,4
211,104,1,2,0.0,4
211,106,1,2,0.0,4
212,18,1,2,0.0,4
212,50,1,2,0.0,4
212,105,1,2,0.0,4
212,117,1,2,0.0,4
213,51,1,2,0.0,6
213,178,1,2,0.0,6
213,190,1,2,0.0,6
213,205,1,2,0.0,6
214,37,1,2,0.0,4
214,52,1,2,0.0,4
214,117,1,2,0.0,4
214,126,1,2,0.0,4
215,107,1,2,0.0,6
215,178,1,2,0.0,6
215,193,1,2,0.0,6
215,205,1,2,0.0,6
216,25,1,2,0.0,4
216,59,1,2,0.0,4
216,133,1,2,0.0,4
216,138,1,2,0.0,4
217,38,1,2,0.0,4
217,71,1,2,0.0,4
217,108,1,2,0.0,4
217,116,1,2,0.0,4
218,18,1,2,0.0,4
218,56,1,2,0.0,4
218,106,1,2,0.0,4
218,122,1,2,0.0,4
219,33,1,2,0.0,4
219,54,1,3,5.783703462651733,5
219,105,1,2,0.0,4
219,107,1,3,6.509419668818257,5
220,23,2,2,0.0,4
220,55,2,2,0.0,4
220,103,1,2,0.0,4
221,22,2,2,0.0,4
221,55,2,2,0.0,4
221,100,1,2,0.0,4
222,6,1,2,0.0,4
222,58,1,2,0.0,4
222,112,1,2,0.0,4
222,133,1,2,0.0,4
223,37,1,2,0.0,4
223,50,1,2,0.0,4
223,102,1,2,0.0,4
223,117,1,2,0.0,4
224,36,1,2,0.0,4
224,63,1,2,0.0,4
224,158,1,2,0.0,4
224,172,1,2,0.0,4
225,36,1,2,0.0,4
225,76,1,2,0.0,4
225,144,1,2,0.0,4
225,172,1,2,0.0,4
226,37,1,2,0.0,4
226,61,1,2,0.0,4
226,102,1,2,0.0,4
226,143,1,2,0.0,4
227,36,1,2,0.0,4
227,70,1,2,0.0,4
227,130,1,2,0.0,4
227,158,1,2,0.0,4
228,7,1,2,0.0,4
228,74,1,2,0.0,4
228,120,1,2,0.0,4
228,145,1,2,0.0,4
229,23,2,2,0.0,4
229,61,2,2,0.0,4
229,102,1,2,0.0,4
230,7,1,2,0.0,4
230,71,1,2,0.0,4
230,108,1,2,0.0,4
230,125,1,2,0.0,4
231,25,1,2,0.0,4
231,77,1,2,0.0,4
231,119,1,2,0.0,4
231,134,1,2,0.0,4
232,7,1,2,0.0,4
232,64,1,2,0.0,4
232,125,1,2,0.0,4
232,145,1,2,0.0,4
233,22,1,2,0.0,4
233,51,1,3,3.101674689237436,5
233,100,1,2,0.0,4
233,101,1,3,4.7517448600165295,5
234,32,1,1,3.416589141799718,5
234,72,1,3,4.035666705521009,5
234,73,1,1,3.176930416697107,5
234,118,1,3,4.777396486837873,5
235,32,1,2,0.0,5
235,73,1,2,0.0,5
235,234,1,2,0.0,5
235,167,1,2,0.0,5
236,31,1,2,0.0,4
236,78,1,2,0.0,4
236,127,1,2,0.0,4
236,131,1,2,0.0,4
237,51,1,2,0.0,5
237,101,1,2,0.0,5
237,189,1,2,0.0,5
237,233,1,2,0.0,5
238,72,1,2,0.0,5
238,73,1,2,0.0,5
238,181,1,2,0.0,5
238,234,1,2,0.0,5
239,30,1,2,0.0,4
239,74,1,2,0.0,4
239,110,1,2,0.0,4
239,120,1,2,0.0,4
240,12,1,2,0.0,4
240,71,1,2,0.0,4
240,116,1,2,0.0,4
240,136,1,2,0.0,4
241,1,2,2,0.0,4
241,78,2,2,0.0,4
241,127,1,2,0.0,4
242,36,1,2,0.0,4
242,75,1,2,0.0,4
242,130,1,2,0.0,4
242,144,1,2,0.0,4
243,6,1,2,0.0,4
243,64,1,2,0.0,4
243,135,1,2,0.0,4
243,141,1,2,0.0,4
244,25,1,2,0.0,4
244,58,1,2,0.0,4
244,119,1,2,0.0,4
244,133,1,2,0.0,4
245,26,1,3,4.663913975495772,5
245,66,1,2,0.0,4
245,67,1,3,10.445467453250249,5
245,111,1,2,0.0,4
246,26,1,2,0.0,5
246,67,1,2,0.0,5
246,245,1,2,0.0,5
246,153,1,2,0.0,5
247,2,1,2,0.0,4
247,74,1,2,0.0,4
247,110,1,2,0.0,4
247,131,1,2,0.0,4
248,38,1,2,0.0,4
248,80,1,2,0.0,4
248,108,1,2,0.0,4
248,109,1,2,0.0,4
249,31,1,2,0.0,4
249,74,1,2,0.0,4
249,131,1,2,0.0,4
249,145,1,2,0.0,4
250,26,1,2,0.0,4
250,58,1,2,0.0,4
250,111,1,2,0.0,4
250,112,1,2,0.0,4
251,10,1,2,0.0,5
251,73,1,2,0.0,5
251,173,1,2,0.0,5
251,181,1,2,0.0,5
252,25,1,2,0.0,4
252,79,1,2,0.0,4
252,134,1,2,0.0,4
252,138,1,2,0.0,4
253,38,1,2,0.0,4
253,65,1,2,0.0,4
253,109,1,2,0.0,4
253,137,1,2,0.0,4
254,18,1,2,0.0,4
254,54,1,2,0.0,4
254,105,1,2,0.0,4
254,122,1,2,0.0,4
255,29,1,3,4.1845105388663475,5
255,60,1,2,0.0,4
255,101,1,3,5.440412009903659,5
255,113,1,2,0.0,4
256,29,1,2,0.0,5
256,101,1,2,0.0,5
256,255,1,2,0.0,5
256,189,1,2,0.0,5
257,19,2,2,0.0,4
257,53,2,2,0.0,4
257,104,1,2,0.0,4
258,13,1,2,0.0,4
258,56,1,2,0.0,4
258,128,1,2,0.0,4
258,146,1,2,0.0,4
259,38,1,2,0.0,4
259,69,1,2,0.0,4
259,116,1,2,0.0,4
259,137,1,2,0.0,4
260,37,1,2,0.0,4
260,62,1,2,0.0,4
260,126,1,2,0.0,4
260,143,1,2,0.0,4
261,70,1,2,0.0,5
261,82,1,2,0.0,5
261,151,1,2,0.0,5
261,159,1,2,0.0,5
262,40,1,2,0.0,4
262,53,1,2,0.0,4
262,104,1,2,0.0,4
262,129,1,2,0.0,4
263,115,1,3,3.9681039826831306,6
263,29,1,2,0.0,5
263,169,1,2,0.0,5
263,189,1,3,2.4036698480986036,6
264,115,1,2,0.0,6
264,189,1,2,0.0,6
264,263,1,2,0.0,6
264,190,1,2,0.0,6
265,39,1,2,0.0,4
265,56,1,2,0.0,4
265,122,1,2,0.0,4
265,146,1,2,0.0,4
266,35,1,2,0.0,4
266,64,1,2,0.0,4
266,125,1,2,0.0,4
266,135,1,2,0.0,4
267,17,1,2,0.0,6
267,192,1,2,0.0,6
267,193,1,2,0.0,6
267,195,1,2,0.0,6
268,31,1,2,0.0,4
268,64,1,2,0.0,4
268,141,1,2,0.0,4
268,145,1,2,0.0,4
269,47,1,2,0.0,5
269,73,1,2,0.0,5
269,167,1,2,0.0,5
269,173,1,2,0.0,5
270,7,1,2,0.0,4
270,80,1,2,0.0,4
270,108,1,2,0.0,4
270,120,1,2,0.0,4
271,15,1,2,0.0,4
271,70,1,3,10.794301424659196,5
271,118,1,3,7.28713189750939,5
271,130,1,2,0.0,4
272,107,1,3,2.925414622982707,6
272,54,1,2,0.0,5
272,192,1,3,1.6331623885942408,6
272,219,1,2,0.0,5
273,107,1,2,0.0,6
273,192,1,2,0.0,6
273,272,1,2,0.0,6
273,193,1,2,0.0,6
274,45,1,2,0.0,5
274,115,1,3,3.7895581795648194,6
274,162,1,3,4.8353922547655195,6
274,169,1,2,0.0,5
275,178,1,2,0.0,7
275,179,1,2,0.0,7
275,191,1,2,0.0,7
275,194,1,2,0.0,7
276,40,1,2,0.0,4
276,56,1,2,0.0,4
276,106,1,2,0.0,4
276,128,1,2,0.0,4
277,30,1,2,0.0,4
277,85,1,2,0.0,4
277,110,1,2,0.0,4
277,139,1,2,0.0,4
278,35,1,2,0.0,4
278,71,1,2,0.0,4
278,125,1,2,0.0,4
278,136,1,2,0.0,4
279,6,1,2,0.0,4
279,42,1,2,0.0,4
279,112,1,2,0.0,4
279,135,1,2,0.0,4
280,70,1,2,0.0,5
280,118,1,2,0.0,5
280,151,1,2,0.0,5
280,271,1,2,0.0,5
281,32,1,3,4.857137456216097,6
281,118,1,2,0.0,5
281,151,1,3,5.8368520020416685,6
281,234,1,2,0.0,5
282,32,1,2,0.0,6
282,151,1,2,0.0,6
282,281,1,2,0.0,6
282,152,1,2,0.0,6
283,26,1,2,0.0,4
283,42,1,3,3.155884070319246,5
283,81,1,3,2.563642537850114,5
283,112,1,2,0.0,4
284,22,2,2,0.0,4
284,60,2,2,0.0,4
284,101,1,2,0.0,4
285,12,1,2,0.0,4
285,69,1,2,0.0,4
285,116,1,2,0.0,4
285,142,1,2,0.0,4
286,13,1,2,0.0,4
286,57,1,2,0.0,4
286,128,1,2,0.0,4
286,147,1,2,0.0,4
287,46,1,3,3.0288321636938846,6
287,28,1,3,2.030097092599291,6
287,87,1,1,3.098661263887678,6
287,96,1,2,0.0,5
288,46,1,2,0.0,6
288,87,1,2,0.0,6
288,287,1,2,0.0,6
288,157,1,2,0.0,6
289,1,2,2,0.0,4
289,79,2,2,0.0,4
289,138,1,2,0.0,4
290,32,1,2,0.0,5
290,48,1,3,3.8109438250195997,6
290,83,1,3,3.0974414121458245,6
290,167,1,2,0.0,5
291,5,1,2,0.0,4
291,58,1,2,0.0,4
291,111,1,2,0.0,4
291,119,1,2,0.0,4
292,30,1,2,0.0,4
292,80,1,2,0.0,4
292,120,1,2,0.0,4
292,140,1,2,0.0,4
293,28,1,2,0.0,6
293,87,1,2,0.0,6
293,182,1,2,0.0,6
293,287,1,2,0.0,6
294,41,1,2,0.0,6
294,49,1,2,0.0,6
294,165,1,2,0.0,6
294,174,1,2,0.0,6
295,15,2,2,0.0,4
295,75,2,2,0.0,4
295,130,1,2,0.0,4
296,21,1,2,0.0,4
296,63,1,2,0.0,4
296,113,1,2,0.0,4
296,172,1,2,0.0,4
297,44,1,2,0.0,6
297,87,1,2,0.0,6
297,174,1,2,0.0,6
297,182,1,2,0.0,6
298,47,1,2,0.0,5
298,67,1,2,0.0,5
298,153,1,2,0.0,5
298,173,1,2,0.0,5
299,19,2,2,0.0,4
299,62,2,2,0.0,4
299,126,1,2,0.0,4
300,13,1,2,0.0,4
300,69,1,2,0.0,4
300,137,1,2,0.0,4
300,146,1,2,0.0,4
301,30,1,2,0.0,4
301,86,1,2,0.0,4
301,139,1,2,0.0,4
301,140,1,2,0.0,4
302,2,2,2,0.0,4
302,85,2,2,0.0,4
302,110,1,2,0.0,4
303,44,1,2,0.0,7
303,99,1,2,0.0,7
303,175,1,2,0.0,7
303,177,1,2,0.0,7
304,10,2,1,2.192238511029718,5
304,66,2,2,0.0,4
304,67,1,3,9.897865799971598,5
305,10,1,2,0.0,5
305,67,1,2,0.0,5
305,304,1,2,0.0,5
305,173,1,2,0.0,5
306,41,1,2,0.0,6
306,87,1,2,0.0,6
306,157,1,2,0.0,6
306,174,1,2,0.0,6
307,35,1,2,0.0,4
307,42,1,3,4.811579072530014,5
307,84,1,3,2.7144193310048816,5
307,135,1,2,0.0,4
308,8,1,2,0.0,4
308,65,1,2,0.0,4
308,109,1,2,0.0,4
308,114,1,2,0.0,4
309,41,1,2,0.0,6
309,156,1,2,0.0,6
309,157,1,2,0.0,6
309,160,1,2,0.0,6
310,11,1,2,0.0,6
310,98,1,2,0.0,6
310,99,1,2,0.0,6
310,171,1,2,0.0,6
311,20,2,2,0.0,4
311,76,2,2,0.0,4
311,144,1,2,0.0,4
312,46,1,2,0.0,6
312,156,1,2,0.0,6
312,157,1,2,0.0,6
312,161,1,2,0.0,6
313,16,1,3,2.81930569526454,6
313,82,1,3,3.4026711742526157,6
313,156,1,1,3.293230948901945,6
313,159,1,2,0.0,5
314,16,1,2,0.0,6
314,156,1,2,0.0,6
314,313,1,2,0.0,6
314,161,1,2,0.0,6
315,82,1,2,0.0,6
315,156,1,2,0.0,6
315,160,1,2,0.0,6
315,313,1,2,0.0,6
316,12,1,2,0.0,4
316,43,1,2,0.0,4
316,89,1,2,0.0,4
316,136,1,2,0.0,4
317,29,1,3,4.096884630822018,5
317,63,1,3,2.5196259485016776,5
317,93,1,1,2.4832876138288977,5
317,113,1,2,0.0,4
318,0,2,2,0.0,4
318,77,2,2,0.0,4
318,134,1,2,0.0,4
319,5,2,2,0.0,4
319,77,2,2,0.0,4
319,119,1,2,0.0,4
320,49,1,2,0.0,7
320,99,1,2,0.0,7
320,175,1,2,0.0,7
320,180,1,2,0.0,7
321,49,1,2,0.0,7
321,92,1,2,0.0,7
321,166,1,2,0.0,7
321,180,1,2,0.0,7
322,39,1,2,0.0,4
322,69,1,2,0.0,4
322,142,1,2,0.0,4
322,146,1,2,0.0,4
323,21,2,2,0.0,4
323,76,2,2,0.0,4
323,172,1,2,0.0,4
324,42,1,2,0.0,5
324,84,1,2,0.0,5
324,164,1,2,0.0,5
324,307,1,2,0.0,5
325,13,1,2,0.0,4
325,65,1,2,0.0,4
325,137,1,2,0.0,4
325,147,1,2,0.0,4
326,16,1,3,2.180446353849856,6
326,158,1,2,0.0,5
326,159,1,2,0.0,5
326,183,1,3,2.0125842606078983,6
327,16,1,2,0.0,6
327,183,1,2,0.0,6
327,326,1,2,0.0,6
327,184,1,2,0.0,6
328,5,2,2,0.0,4
328,66,2,2,0.0,4
328,111,1,2,0.0,4
329,8,1,2,0.0,4
329,80,1,2,0.0,4
329,109,1,2,0.0,4
329,140,1,2,0.0,4
330,21,2,2,0.0,4
330,60,2,2,0.0,4
330,113,1,2,0.0,4
331,24,2,2,0.0,4
331,61,2,2,0.0,4
331,143,1,2,0.0,4
332,14,1,2,0.0,4
332,57,1,2,0.0,4
332,129,1,2,0.0,4
332,148,1,2,0.0,4
333,47,1,3,4.058305786793345,6
333,81,1,3,1.8855843913988077,6
333,91,1,1,3.146129217903046,6
333,153,1,2,0.0,5
334,47,1,2,0.0,6
334,91,1,2,0.0,6
334,333,1,2,0.0,6
334,168,1,2,0.0,6
335,2,2,2,0.0,4
335,78,2,2,0.0,4
335,131,1,2,0.0,4
336,162,1,3,4.529362839559653,7
336,115,1,3,4.401461656237828,7
336,179,1,1,3.091632756565133,7
336,274,1,2,0.0,6
337,162,1,2,0.0,7
337,179,1,2,0.0,7
337,336,1,2,0.0,7
337,196,1,2,0.0,7
338,34,1,2,0.0,4
338,65,1,2,0.0,4
338,114,1,2,0.0,4
338,147,1,2,0.0,4
339,16,1,2,0.0,6
339,94,1,2,0.0,6
339,161,1,2,0.0,6
339,184,1,2,0.0,6
340,41,1,2,0.0,6
340,83,1,2,0.0,6
340,160,1,2,0.0,6
340,165,1,2,0.0,6
341,0,2,2,0.0,4
341,79,2,2,0.0,4
341,134,1,2,0.0,4
342,40,1,2,0.0,4
342,57,1,2,0.0,4
342,128,1,2,0.0,4
342,129,1,2,0.0,4
343,20,2,2,0.0,4
343,75,2,2,0.0,4
343,144,1,2,0.0,4
344,115,1,2,0.0,7
344,179,1,2,0.0,7
344,191,1,2,0.0,7
344,336,1,2,0.0,7
345,45,1,2,0.0,6
345,94,1,2,0.0,6
345,170,1,2,0.0,6
345,198,1,2,0.0,6
346,93,1,2,0.0,6
346,94,1,2,0.0,6
346,170,1,2,0.0,6
346,184,1,2,0.0,6
347,17,1,2,0.0,7
347,179,1,2,0.0,7
347,194,1,2,0.0,7
347,196,1,2,0.0,7
348,46,1,2,0.0,6
348,94,1,2,0.0,6
348,161,1,2,0.0,6
348,198,1,2,0.0,6
349,82,1,2,0.0,6
349,83,1,2,0.0,6
349,152,1,2,0.0,6
349,160,1,2,0.0,6
350,17,1,2,0.0,7
350,186,1,2,0.0,7
350,196,1,2,0.0,7
350,197,1,2,0.0,7
351,34,1,2,0.0,4
351,57,1,2,0.0,4
351,147,1,2,0.0,4
351,148,1,2,0.0,4
352,35,1,2,0.0,4
352,43,1,3,2.630937123170275,5
352,84,1,3,1.336724595774943,5
352,136,1,2,0.0,4
353,11,1,2,0.0,7
353,92,1,2,0.0,7
353,180,1,2,0.0,7
353,200,1,2,0.0,7
354,24,2,2,0.0,4
354,62,2,2,0.0,4
354,143,1,2,0.0,4
355,68,1,2,0.0,5
355,95,1,1,3.885552745181462,6
355,185,1,3,2.311159625293863,6
355,187,1,3,6.822338103694303,6
356,43,1,3,0.9637303913571658,6
356,84,1,2,0.0,5
356,98,1,3,1.3190809167886064,6
356,352,1,2,0.0,5
357,93,1,3,3.1004026562359943,6
357,29,1,2,0.0,5
357,169,1,3,1.831232107069832,6
357,317,1,2,0.0,5
358,93,1,2,0.0,6
358,169,1,2,0.0,6
358,357,1,2,0.0,6
358,170,1,2,0.0,6
359,91,1,3,2.3871764992592137,7
359,48,1,3,2.4112520985233994,7
359,92,1,1,1.5390779607433434,7
359,168,1,2,0.0,6
360,91,1,2,0.0,7
360,92,1,2,0.0,7
360,359,1,2,0.0,7
360,200,1,2,0.0,7
361,95,1,2,0.0,6
361,162,1,2,0.0,6
361,163,1,2,0.0,6
361,186,1,2,0.0,6
362,95,1,2,0.0,6
362,185,1,2,0.0,6
362,186,1,2,0.0,6
362,355,1,2,0.0,6
363,14,2,2,0.0,4
363,53,2,2,0.0,4
363,129,1,2,0.0,4
364,95,1,2,0.0,6
364,187,1,2,0.0,6
364,188,1,2,0.0,6
364,355,1,2,0.0,6
365,3,1,2,0.0,4
365,86,1,2,0.0,4
365,124,1,2,0.0,4
365,139,1,2,0.0,4
366,91,1,3,1.7835925937652028,7
366,81,1,2,0.0,6
366,199,1,3,0.6951704880891993,7
366,333,1,2,0.0,6
367,91,1,2,0.0,7
367,199,1,2,0.0,7
367,366,1,2,0.0,7
367,200,1,2,0.0,7
368,11,1,2,0.0,6
368,164,1,2,0.0,6
368,171,1,2,0.0,6
368,199,1,2,0.0,6
369,8,1,2,0.0,4
369,86,1,2,0.0,4
369,140,1,2,0.0,4
369,149,1,2,0.0,4
370,48,1,2,0.0,7
370,92,1,2,0.0,7
370,166,1,2,0.0,7
370,359,1,2,0.0,7
371,27,1,2,0.0,4
371,86,1,2,0.0,4
371,124,1,2,0.0,4
371,149,1,2,0.0,4
372,28,1,3,3.2530119970355837,6
372,89,1,2,0.0,5
372,90,1,2,0.0,5
372,187,1,3,5.997237319278442,6
373,28,1,2,0.0,6
373,187,1,2,0.0,6
373,372,1,2,0.0,6
373,188,1,2,0.0,6
374,3,2,2,0.0,4
374,85,2,2,0.0,4
374,139,1,2,0.0,4
375,4,1,2,0.0,3
375,27,1,1,0.32389688409373507,4
375,123,1,3,0.2996028987527124,4
375,154,1,3,0.29108508533736616,4
376,44,1,3,1.7081010204306573,7
376,90,1,2,0.0,6
376,176,1,3,0.7684513757091622,7
376,182,1,2,0.0,6
377,68,1,3,5.802104100853871,5
377,39,1,2,0.0,4
377,121,1,3,1.6088925646162,5
377,142,1,2,0.0,4
378,68,1,2,0.0,5
378,121,1,3,0.878110463209502,6
378,377,1,2,0.0,5
378,185,1,3,1.2221515245545072,6
379,121,1,2,0.0,6
379,185,1,2,0.0,6
379,195,1,2,0.0,6
379,378,1,2,0.0,6
380,95,1,2,0.0,6
380,96,1,2,0.0,6
380,163,1,2,0.0,6
380,188,1,2,0.0,6
381,27,1,2,0.0,4
381,154,1,2,0.0,4
381,155,1,2,0.0,4
381,375,1,2,0.0,4
382,8,1,2,0.0,4
382,88,1,2,0.0,4
382,114,1,2,0.0,4
382,149,1,2,0.0,4
383,15,2,2,0.0,4
383,72,2,2,0.0,4
383,118,1,2,0.0,4
384,54,1,3,6.766863719670816,5
384,39,1,2,0.0,4
384,121,1,3,2.9004655817689526,5
384,122,1,2,0.0,4
385,54,1,2,0.0,5
385,121,1,2,0.0,5
385,384,1,2,0.0,5
385,192,1,2,0.0,5
386,27,1,2,0.0,4
386,123,1,2,0.0,4
386,124,1,2,0.0,4
386,375,1,2,0.0,4
387,98,1,3,0.6620952781860083,7
387,43,1,2,0.0,6
387,176,1,3,0.7269715892233333,7
387,356,1,2,0.0,6
388,98,1,2,0.0,7
388,176,1,2,0.0,7
388,387,1,2,0.0,7
388,177,1,2,0.0,7
389,81,1,3,0.5945531750626301,6
389,42,1,2,0.0,5
389,164,1,3,2.08609317862224,6
389,283,1,2,0.0,5
390,81,1,2,0.0,6
390,164,1,2,0.0,6
390,389,1,2,0.0,6
390,199,1,2,0.0,6
391,14,2,2,0.0,4
391,97,2,2,0.0,4
391,148,1,2,0.0,4
392,44,1,2,0.0,7
392,176,1,2,0.0,7
392,177,1,2,0.0,7
392,376,1,2,0.0,7
393,68,1,2,0.0,5
393,89,1,2,0.0,5
393,150,1,2,0.0,5
393,187,1,2,0.0,5
394,34,1,2,0.0,4
394,88,1,2,0.0,4
394,114,1,2,0.0,4
394,132,1,2,0.0,4
395,48,1,3,1.4253023887110903,7
395,83,1,2,0.0,6
395,165,1,3,0.8798575182180767,7
395,290,1,2,0.0,6
396,48,1,2,0.0,7
396,165,1,2,0.0,7
396,395,1,2,0.0,7
396,166,1,2,0.0,7
397,34,1,2,0.0,4
397,97,1,2,0.0,4
397,132,1,2,0.0,4
397,148,1,2,0.0,4
398,93,1,3,3.8554277561661845,6
398,63,1,2,0.0,5
398,183,1,3,2.0557153336908485,6
398,317,1,2,0.0,5
399,93,1,2,0.0,6
399,183,1,2,0.0,6
399,398,1,2,0.0,6
399,184,1,2,0.0,6
400,45,1,2,0.0,6
400,96,1,2,0.0,6
400,163,1,2,0.0,6
400,198,1,2,0.0,6
401,27,1,2,0.0,4
401,88,1,2,0.0,4
401,149,1,2,0.0,4
401,155,1,2,0.0,4
