2
25
0.000359355588249
24,1.0,1.0,1479.0433540528943,0,417.41063607285355,374.86553097537535,532.88185668913263
20,1.0,0.0,1668.9840975271586,0,113.44184251731798,-173.53770212216713,920.57871943912107
21,1.0,0.25,1600.9178350081793,0,239.50690255354661,-332.96409386972232,847.00353937906743
22,1.0,0.5,1487.684401874114,0,570.68011437083999,-178.42775357698764,-839.06343287595325
23,1.0,0.75,1446.8604318389393,0,507.58307674324027,347.62432905599576,683.59032512600311
1,0.0,0.25,1812.4264048963926,0,-66.528595534788934,-3.8864392971310329,2158.9102438649043
0,0.0,0.0,1861.9186368254707,0,-60.361602089729857,188.55726086023532,1651.0997411726682
3,0.0,0.75,1784.7576578648791,0,-101.2234791904762,-45.772496825488112,1763.6527913585264
2,0.0,0.5,1786.2276402097932,0,-84.902542590641957,-29.781999637862786,2669.1140400467534
5,0.25,0.0,1736.789967738921,0,-409.82269539759386,-59.262209517355579,1143.28923848043
4,0.0,1.0,1803.1047084779671,0,-105.05273288120306,-155.88259726510697,1247.4506274852133
7,0.25,0.5,1664.997053725727,1,-722.02563812143228,45.528489649395439,3100.0782971768185
6,0.25,0.25,1695.6737199467327,1,-561.06239576446444,-197.36653148337084,1473.1480613803294
9,0.25,1.0,1709.2259334636203,0,-420.74464344418783,45.869959166518861,731.24846361190066
8,0.25,0.75,1680.5340480445363,1,-526.87409498823934,95.430563046342414,1569.0232489510681
11,0.5,0.25,1561.655841497648,1,-20.251463751514073,-558.1136731957738,-2379.4118708777978
10,0.5,0.0,1633.4689036611419,0,22.705750847008002,-406.25324179745155,-250.46199239552138
13,0.5,0.75,1489.8684099201907,1,-309.23723859650443,465.11655642887274,-4007.1380371429345
12,0.5,0.5,1479.5075846102411,1,-237.72590988868282,-45.551059614541529,-11930.375536707174
15,0.75,0.0,1638.3492010380048,0,217.52146234074385,-244.25599023143062,994.15389949917517
14,0.5,1.0,1528.3115305242557,0,-282.29569751578276,557.14238663382434,-1460.5032709397458
17,0.75,0.5,1447.6250295510956,1,573.80740012292188,-177.76424288043995,-2657.450515069223
16,0.75,0.25,1562.9082615089239,1,351.76934401021373,-444.08935087639486,1653.2494354765508
19,0.75,1.0,1445.5975927267825,0,403.80602736575366,503.79264293078114,382.1733882521504
18,0.75,0.75,1421.666061400327,1,489.87617281080276,428.98166344388358,3.7587386186024507
24,19,2,2,0.0,0
24,18,1,1,10.717283491069615,0
24,23,2,2,0.0,0
20,15,2,2,0.0,0
21,20,2,2,0.0,0
21,15,1,1,10.764862788664448,0
21,16,1,2,0.0,0
22,16,1,1,14.269441601449644,0
22,21,2,2,0.0,0
22,17,1,2,0.0,0
23,18,1,2,0.0,0
23,17,1,1,20.688078447378668,0
23,22,2,2,0.0,0
1,0,2,2,0.0,0
3,2,2,2,0.0,0
2,1,2,2,0.0,0
5,0,2,2,0.0,0
4,3,2,2,0.0,0
7,1,1,1,24.693713899462239,0
7,2,1,2,0.0,0
7,6,1,2,0.0,0
6,1,1,2,0.0,0
6,0,1,1,23.133644535572977,0
6,5,1,2,0.0,0
9,8,1,2,0.0,0
9,3,1,1,15.240679965928459,0
9,4,2,2,0.0,0
8,3,1,2,0.0,0
8,2,1,1,18.801241631938321,0
8,7,1,2,0.0,0
11,10,1,2,0.0,0
11,5,1,1,13.052117785034349,0
11,6,1,2,0.0,0
10,5,2,2,0.0,0
13,12,1,2,0.0,0
13,7,1,1,24.128593281402832,0
13,8,1,2,0.0,0
12,11,1,2,0.0,0
12,7,1,2,0.0,0
12,6,1,1,8.2976327501013234,0
15,10,2,2,0.0,0
14,9,2,2,0.0,0
14,8,1,1,17.518332163512525,0
14,13,1,2,0.0,0
17,11,1,1,21.620349412781191,0
17,12,1,2,0.0,0
17,16,1,2,0.0,0
16,11,1,2,0.0,0
16,10,1,1,12.656399935798525,0
16,15,1,2,0.0,0
19,18,1,2,0.0,0
19,13,1,1,29.784355071206402,0
19,14,2,2,0.0,0
18,13,1,2,0.0,0
18,12,1,1,25.126964552602523,0
18,17,1,2,0.0,0
