2
81
3.59355588249e-06
56,0.375,0.5,1636.3820008072851,1,-981.27110310092928,-859.31973109828471,178182.58821454339
77,0.75,0.375,1717.4923734279412,1,4405.1935148073408,-1973.4989752517222,29217.726042089671
54,0.25,0.125,1971.782479686233,1,-201.24254437322776,-1228.1563631895051,-7578.981046160533
42,1.0,0.375,2100.0,0,0,0,0
48,0.125,0.0,2100.0,0,0,0,0
43,1.0,0.625,2100.0,0,0,0,0
60,0.375,1.0,2100.0,0,0,0,0
61,0.375,0.75,1666.8117139418864,1,-863.3247694147916,4743.8521680711829,18414.522813960473
62,0.25,0.875,2063.5829398937931,1,-484.61764881009583,1127.3490723452221,11410.698507988436
63,0.5,0.875,1969.939720267053,1,-253.03497842453154,1859.1641306888264,18852.922396858812
64,0.625,0.75,1597.3683443338582,1,954.46558506574831,4274.8447538372011,-68730.578032337507
49,0.0,0.875,2100.0,0,0,0,0
66,0.625,0.5,1283.6185977339578,1,-473.06331773597253,-510.90417897906178,-91973.568338755445
67,0.5,0.375,1427.2331180347899,1,-155.51706169071986,664.03572905618989,-72675.083822116983
68,0.625,0.25,1731.1493804944278,1,1815.0316352866357,-3958.5107502766737,1680.45184886227
69,0.5,0.125,1968.0475113803416,1,722.09485365853004,-1590.6478650712136,11372.156903501585
80,0.75,0.875,2033.5413440221403,1,1026.662455288129,953.69173834151582,11349.881963116377
52,0.125,0.5,2040.1689075756208,1,207.13377064434584,424.23333488394911,16425.236718363409
53,0.375,0.0,2100.0,0,0,0,0
24,1.0,1.0,2100.0,0,0,0,0
25,0.125,0.375,1996.335122572423,1,-718.77499166681878,1524.2095606185983,-23920.583471450936
26,0.125,0.125,2055.5455438115614,1,-497.14018865075718,-693.65914160533589,-5436.9910552286647
27,0.125,0.875,2121.9773278662301,1,-63.682240618457847,379.49232941036786,3940.6330528298481
20,1.0,0.0,2100.0,0,0,0,0
21,1.0,0.25,2100.0,0,0,0,0
22,1.0,0.5,2100.0,0,0,0,0
23,1.0,0.75,2100.0,0,0,0,0
46,0.125,0.25,1966.2304068249807,1,-902.39487138241498,-386.97344236095921,-14168.983174754127
47,0.0,0.125,2100.0,0,0,0,0
44,1.0,0.875,2100.0,0,0,0,0
45,0.0,0.375,2100.0,0,0,0,0
28,0.125,0.625,2024.5012054560602,1,-880.9178673610063,-373.30669318392972,-5604.6913598031279
29,0.375,0.125,1957.9501536746213,1,619.38538842938055,-1472.4068828558131,2439.4250429234339
40,0.875,0.875,2122.5768634277269,1,254.72944205938344,121.49197866679974,6451.078797853379
41,1.0,0.125,2100.0,0,0,0,0
1,0.0,0.25,2100.0,0,0,0,0
0,0.0,0.0,2100.0,0,0,0,0
3,0.0,0.75,2100.0,0,0,0,0
2,0.0,0.5,2100.0,0,0,0,0
5,0.25,0.0,2100.0,0,0,0,0
4,0.0,1.0,2100.0,0,0,0,0
7,0.25,0.5,1883.9753452968685,1,-1843.2187136486345,-217.13169921728971,102514.71972609335
6,0.25,0.25,1753.1438492850702,1,-1255.399381364771,-1608.2945044484336,-27318.358172336902
9,0.25,1.0,2100.0,0,0,0,0
8,0.25,0.75,1847.7552117718215,1,-2421.5523713768584,3473.1618716812613,19071.393120297111
78,0.875,1.0,2100.0,0,0,0,0
51,0.0,0.625,2100.0,0,0,0,0
13,0.5,0.75,1567.439486607484,1,-442.35327885461555,5376.7286466793103,36491.473150901373
65,0.5,0.625,1341.1234848972597,1,192.44760963157412,-270.17889602010916,-46897.040379385478
76,0.875,0.25,2100.2528919420415,1,740.68936130179191,-723.33949811671459,14837.297804227164
75,0.75,0.625,1588.1522444438301,1,4418.9652743971455,1332.6753009143993,-29900.810916856426
12,0.5,0.5,1417.3977669196365,1,-2611.880932141893,-448.12878508666148,157529.05335199254
73,0.625,1.0,2100.0,0,0,0,0
72,0.875,0.0,2100.0,0,0,0,0
71,0.75,0.125,2090.8116872986984,1,931.89890776958543,-541.69032858370815,13507.786174153838
70,0.625,0.0,2100.0,0,0,0,0
59,0.25,0.375,1781.1123020027335,1,-2305.3721056263689,2079.9633981882021,-34585.383024150055
79,0.875,0.75,2046.1339893653314,1,1140.3129220659887,809.69008815737777,14454.433228297139
58,0.375,0.25,1649.6605932595005,1,309.57227941447053,-2475.9605936239245,-7538.0160674484114
11,0.5,0.25,1619.3275686109937,1,838.34084883811977,-4211.0807924458013,13840.980249322543
10,0.5,0.0,2100.0,0,0,0,0
39,0.875,0.375,2044.5671296824585,1,1406.0332658575969,-1027.8436371226362,18219.823571903133
38,0.875,0.625,1982.0999393506697,1,2133.721519157963,723.91471726823738,18959.652803956316
15,0.75,0.0,2100.0,0,0,0,0
14,0.5,1.0,2100.0,0,0,0,0
17,0.75,0.5,1541.9709892201233,1,5268.7227219425868,-949.30646793145161,-6488.551761524318
16,0.75,0.25,1950.9774163762233,1,2875.0533735502427,-2345.0179032390815,34043.096650410262
19,0.75,1.0,2100.0,0,0,0,0
18,0.75,0.75,1807.9626885597709,1,3523.0924483543613,2914.5442402795638,32407.001311378859
31,0.375,0.375,1550.6168752072101,1,-679.01017248266828,3211.3586566987474,-137322.62739171478
30,0.375,0.625,1444.9128290627586,1,-1083.2384952094149,-1986.9836066320108,-233236.07115546416
37,0.875,0.125,2142.1960827714452,1,100.13316623287594,15.605523840105695,7086.2709945952502
36,0.625,0.625,1246.5276953707992,1,574.71619394396396,1020.9006693372476,-129254.94433656367
35,0.625,0.875,1978.942153197424,1,332.59330346711215,2129.0224557293545,6541.4477432332724
34,0.625,0.125,2035.0896425189092,1,994.72184367097589,-1255.8112953713121,12901.777051609848
33,0.625,0.375,1377.9326699381195,1,1710.2556250413891,-1883.0092088865954,-134437.19417619941
55,0.125,1.0,2100.0,0,0,0,0
74,0.875,0.5,1953.7945600586434,1,2269.7084575885488,-305.60229244575584,8488.7112260698123
32,0.375,0.875,2032.871251969483,1,-231.99160016050456,1451.3834683017706,22630.767858826785
57,0.25,0.625,1763.9530964067717,1,-3928.3920681042446,-645.26635064924358,-40621.905954755872
50,0.125,0.75,2040.9412836566796,1,-642.8777748358076,969.26733960760396,4351.8337033309572
56,31,1,2,0.0,2
56,12,1,2,0.0,2
56,7,1,2,0.0,2
56,30,1,2,0.0,2
77,33,1,2,0.0,2
77,39,1,2,0.0,2
77,17,1,2,0.0,2
77,16,1,2,0.0,2
54,26,1,2,0.0,2
54,5,1,2,0.0,2
54,29,1,2,0.0,2
54,6,1,2,0.0,2
42,39,1,2,0.0,2
42,21,2,2,0.0,2
42,22,2,2,0.0,2
48,0,2,2,0.0,2
48,26,1,2,0.0,2
48,5,2,2,0.0,2
43,38,1,2,0.0,2
43,22,2,2,0.0,2
43,23,2,2,0.0,2
60,9,2,2,0.0,2
60,32,1,2,0.0,2
60,14,2,2,0.0,2
61,8,1,2,0.0,2
61,13,1,2,0.0,2
61,30,1,2,0.0,2
61,32,1,2,0.0,2
62,9,1,2,0.0,2
62,8,1,2,0.0,2
62,27,1,2,0.0,2
62,32,1,2,0.0,2
63,32,1,2,0.0,2
63,13,1,2,0.0,2
63,14,1,2,0.0,2
63,35,1,2,0.0,2
64,18,1,2,0.0,2
64,13,1,2,0.0,2
64,36,1,2,0.0,2
64,35,1,2,0.0,2
49,3,2,2,0.0,2
49,27,1,2,0.0,2
49,4,2,2,0.0,2
66,33,1,2,0.0,2
66,12,1,2,0.0,2
66,36,1,2,0.0,2
66,17,1,2,0.0,2
67,11,1,2,0.0,2
67,33,1,2,0.0,2
67,31,1,2,0.0,2
67,12,1,2,0.0,2
68,11,1,2,0.0,2
68,33,1,2,0.0,2
68,34,1,2,0.0,2
68,16,1,2,0.0,2
69,11,1,2,0.0,2
69,10,1,2,0.0,2
69,29,1,2,0.0,2
69,34,1,2,0.0,2
80,19,1,2,0.0,2
80,18,1,2,0.0,2
80,40,1,2,0.0,2
80,35,1,2,0.0,2
52,25,1,2,0.0,2
52,2,1,2,0.0,2
52,28,1,2,0.0,2
52,7,1,2,0.0,2
53,10,2,2,0.0,2
53,5,2,2,0.0,2
53,29,1,2,0.0,2
25,1,1,1,1000000000000,2
25,2,1,1,1000000000000,2
25,7,1,1,1000000000000,2
25,6,1,1,1000000000000,2
26,1,1,1,1000000000000,2
26,0,1,1,1000000000000,2
26,5,1,1,1000000000000,2
26,6,1,1,1000000000000,2
27,3,1,1,1000000000000,2
27,4,1,1,1000000000000,2
27,9,1,1,1000000000000,2
27,8,1,1,1000000000000,2
46,1,1,2,0.0,2
46,25,1,2,0.0,2
46,26,1,2,0.0,2
46,6,1,2,0.0,2
47,1,2,2,0.0,2
47,0,2,2,0.0,2
47,26,1,2,0.0,2
44,24,2,2,0.0,2
44,40,1,2,0.0,2
44,23,2,2,0.0,2
45,1,2,2,0.0,2
45,25,1,2,0.0,2
45,2,2,2,0.0,2
28,3,1,1,1000000000000,2
28,2,1,1,1000000000000,2
28,7,1,1,1000000000000,2
28,8,1,1,1000000000000,2
29,11,1,1,1000000000000,2
29,10,1,1,1000000000000,2
29,5,1,1,1000000000000,2
29,6,1,1,1000000000000,2
40,24,1,1,1000000000000,2
40,23,1,1,1000000000000,2
40,19,1,1,1000000000000,2
40,18,1,1,1000000000000,2
41,37,1,2,0.0,2
41,20,2,2,0.0,2
41,21,2,2,0.0,2
78,19,2,2,0.0,2
78,24,2,2,0.0,2
78,40,1,2,0.0,2
51,3,2,2,0.0,2
51,2,2,2,0.0,2
51,28,1,2,0.0,2
65,13,1,2,0.0,2
65,12,1,2,0.0,2
65,36,1,2,0.0,2
65,30,1,2,0.0,2
76,39,1,2,0.0,2
76,37,1,2,0.0,2
76,21,1,2,0.0,2
76,16,1,2,0.0,2
75,18,1,2,0.0,2
75,38,1,2,0.0,2
75,36,1,2,0.0,2
75,17,1,2,0.0,2
73,19,2,2,0.0,2
73,14,2,2,0.0,2
73,35,1,2,0.0,2
72,20,2,2,0.0,2
72,15,2,2,0.0,2
72,37,1,2,0.0,2
71,37,1,2,0.0,2
71,34,1,2,0.0,2
71,15,1,2,0.0,2
71,16,1,2,0.0,2
70,10,2,2,0.0,2
70,15,2,2,0.0,2
70,34,1,2,0.0,2
59,25,1,2,0.0,2
59,31,1,2,0.0,2
59,7,1,2,0.0,2
59,6,1,2,0.0,2
79,18,1,2,0.0,2
79,38,1,2,0.0,2
79,40,1,2,0.0,2
79,23,1,2,0.0,2
58,11,1,2,0.0,2
58,31,1,2,0.0,2
58,29,1,2,0.0,2
58,6,1,2,0.0,2
39,21,1,1,1000000000000,2
39,22,1,1,1000000000000,2
39,16,1,1,1000000000000,2
39,17,1,1,1000000000000,2
38,22,1,1,1000000000000,2
38,17,1,1,1000000000000,2
38,23,1,1,1000000000000,2
38,18,1,1,1000000000000,2
31,11,1,1,1000000000000,2
31,12,1,1,1000000000000,2
31,7,1,1,1000000000000,2
31,6,1,1,1000000000000,2
30,13,1,1,1000000000000,2
30,12,1,1,1000000000000,2
30,7,1,1,1000000000000,2
30,8,1,1,1000000000000,2
37,15,1,1,1000000000000,2
37,21,1,1,1000000000000,2
37,16,1,1,1000000000000,2
37,20,1,1,1000000000000,2
36,13,1,1,1000000000000,2
36,12,1,1,1000000000000,2
36,17,1,1,1000000000000,2
36,18,1,1,1000000000000,2
35,13,1,1,1000000000000,2
35,14,1,1,1000000000000,2
35,19,1,1,1000000000000,2
35,18,1,1,1000000000000,2
34,11,1,1,1000000000000,2
34,10,1,1,1000000000000,2
34,15,1,1,1000000000000,2
34,16,1,1,1000000000000,2
33,11,1,1,1000000000000,2
33,12,1,1,1000000000000,2
33,17,1,1,1000000000000,2
33,16,1,1,1000000000000,2
55,9,2,2,0.0,2
55,27,1,2,0.0,2
55,4,2,2,0.0,2
74,39,1,2,0.0,2
74,38,1,2,0.0,2
74,22,1,2,0.0,2
74,17,1,2,0.0,2
32,13,1,1,1000000000000,2
32,14,1,1,1000000000000,2
32,9,1,1,1000000000000,2
32,8,1,1,1000000000000,2
57,8,1,2,0.0,2
57,30,1,2,0.0,2
57,28,1,2,0.0,2
57,7,1,2,0.0,2
50,8,1,2,0.0,2
50,3,1,2,0.0,2
50,27,1,2,0.0,2
50,28,1,2,0.0,2
