2
145
8.573200168343029e-06
0,-3.0,-3.0,6.671280296717442e-05,0,0.00035161743287840503,0.0002449666126989516,-0.002448383684487133
1,-3.0,-1.5,-0.0004517936594085691,0,0.0022012735684054582,-0.007289627357433732,0.01919914299375331
2,-3.0,0.0,-0.03650620461319553,0,-0.15048225396045758,-0.004358393257198546,0.6755081168354933
3,-3.0,1.5,-0.003078234252739986,0,-0.011128576809185383,0.012504304228097809,0.08470687867285104
4,-3.0,3.0,3.2235359612692725e-05,0,0.00020201409923379017,-0.00013173207295268121,-0.0015953911589060587
5,-1.5,-3.0,0.004156270134668858,0,-0.016183396703082168,0.005225146198447868,0.14955860542336155
6,-1.5,-1.5,0.5377790327610648,1,1.0350992947627875,0.4502765709109487,-2.6262983109208204
7,-1.5,0.0,-3.3053024722464315,1,-4.121806836919636,-2.710118047998269,-34.98862544761527
8,-1.5,1.5,0.3873147177873097,1,1.8540462302492344,0.38744545622100685,-0.21328332169916378
9,-1.5,3.0,0.03117594407517078,0,0.09447574000340615,-0.1343765537440565,-0.7205011881082802
10,0.0,-3.0,-0.24495404057434964,0,-0.09793022701475564,-1.0798083702274504,3.496330795065959
11,0.0,-1.5,-6.263007401834242,1,-7.639413783943202,5.977612927575512,-101.85554007178396
12,0.0,0.0,0.9579500784865471,1,-8.213479904868109,-8.9947426216541,-5.5962044719080595
13,0.0,1.5,8.716149859259689,1,-0.8512805124703237,2.681739704944146,99.97914377731567
14,0.0,3.0,0.2998710282262347,0,-0.0002474197957718618,-1.2994171380174038,-4.264518961620992
15,1.5,-3.0,-0.029759997706673206,0,0.09914051884845694,-0.12877611194540697,0.714309390782367
16,1.5,-1.5,-0.3329714512509099,1,1.9412786242791285,0.5493538001906589,1.6065609807277776
17,1.5,0.0,3.7260616865804965,1,-5.3678831184669615,-1.5318952307335625,28.165970569814263
18,1.5,1.5,0.9747727712370855,1,-3.162230995772389,-1.4057609586390396,-5.888101349594156
19,1.5,3.0,0.032007637185764756,0,-0.09517111644602555,-0.13936628540729493,-0.7464554909243769
20,3.0,-3.0,-5.864187872589529e-06,0,7.241823200028785e-05,-2.775161503699628e-05,0.0006414725143290975
21,3.0,-1.5,0.0035995207860981112,0,-0.016701555103971723,0.011784354927506725,-0.09657486666173837
22,3.0,0.0,0.03312494992430832,0,-0.16501023148445276,-0.0010895983142996362,-0.6812391883637858
23,3.0,1.5,0.0044245231361738965,0,-0.023057712625814554,-0.009986814877037828,-0.13095313960217736
24,3.0,3.0,4.1029727458267584e-05,0,-0.00024209655426406685,-0.00018449728009417208,-0.0020858507438777383
25,-2.25,-2.25,0.006162059171704966,1,-0.12739045440175667,-0.41322196923101157,0.37695437213095523
26,-2.25,-0.75,-0.27668826121580675,1,-1.4972327287712581,-0.7284652919448552,5.653616683294575
27,-2.25,0.75,-0.33446188231783597,1,-1.7331072937179473,-0.05052908198514986,3.5755568298783547
28,-2.25,2.25,0.007065125311263631,1,-0.17457784763840767,-0.42729268290670774,-0.3789222867234222
29,-0.75,-2.25,-1.1428236653915835,1,-3.092110646987327,-5.048558778850367,16.055803704989874
30,-0.75,-0.75,3.675303532952506,1,7.72389856135221,-1.135114422764321,64.52079606444903
31,-0.75,0.75,-0.18961381070548924,1,6.062014091544994,5.7277379884372275,-25.000786336560843
32,-0.75,2.25,2.196101463919332,1,3.5242222777728496,-8.199195917222463,-20.50735531955101
33,0.75,-2.25,-2.2200272935311527,1,3.707361453680104,-8.35116251815861,20.460214709049524
34,0.75,-0.75,0.05827371409189516,1,5.7975925927056,5.971786569427603,15.941486485720306
35,0.75,0.75,1.555366547101592,1,4.794685016376082,3.041651580759375,-28.343139677959247
36,0.75,2.25,2.207031593061512,1,-3.630280099242838,-8.278853605581133,-20.800586529216243
37,2.25,-2.25,-0.003048065887190737,1,-0.17376908387961534,-0.4528609340348833,0.04053599464382253
38,2.25,-0.75,0.3344249996185621,1,-1.7702279643093422,-0.12037843218652239,-4.420704663938032
39,2.25,0.75,0.3228202949641758,1,-1.3181355697419348,-0.5975198661926158,-5.479103311708899
40,2.25,2.25,0.014130785712752558,1,0.0572860554800273,-0.5055618391605932,-0.4750032512592946
41,-2.25,-3.0,0.0016813428282380135,0,0.005364619673467005,0.0059044701181154916,-0.029541724818653907
42,-3.0,-2.25,0.0005463513877625497,0,0.0030639966011538435,0.0009762432721481961,-0.01424258770262526
43,-2.25,-1.5,0.010614790946140049,1,-0.38929212719340106,-0.11474195050423876,-0.6006840820567844
44,-3.0,-0.75,-0.01664436868867095,0,-0.06308640416321759,-0.03498366656795229,0.33343322306753387
45,-2.25,0.0,-0.6360457019175155,1,-3.4196206963863998,-0.7868207303309789,9.926261594838929
46,-3.0,0.75,-0.02159835840370967,0,-0.09001960145989743,0.032955863625133405,0.45295057591134696
47,-2.25,1.5,-0.041077302098162086,1,-0.20730668553155382,-0.3649586415033964,-0.3876770378603887
48,-3.0,2.25,0.0002057354949121862,0,0.0016755455761369934,7.488345327734609e-05,-0.006667162000554956
49,-2.25,3.0,0.0018041292213376169,0,0.008274443860109046,-0.007661167260665531,-0.061589563807149236
50,-1.5,-2.25,0.07434927851708885,1,0.5262234481953529,-1.0737933595472606,0.28618151312232576
51,-0.75,-3.0,-0.07521944362893038,0,-0.21956324696447943,-0.3582940078504715,1.7222495408497938
52,-0.75,-1.5,-0.5430709992984905,1,-7.067389226061622,6.8174291097251505,-6.5387352173283775
53,-1.5,-0.75,-0.40523029676664574,1,2.4145902572817097,-5.81217985136845,-9.889119008363515
54,-0.75,0.0,0.049820919300197164,1,10.960683773355795,-9.228749401413486,-3.9579729355845603
55,-1.5,0.75,-2.0482308470501946,1,-3.678637287022389,4.23006259031958,-6.280056895323535
56,-0.75,1.5,4.705923820527208,1,10.740447945739866,1.1414739962063971,28.516567808566187
57,-1.5,2.25,0.2678393195483056,1,0.0555556193325069,-1.9194495952937045,-3.854713355334172
58,-0.75,3.0,0.17064056293934143,0,0.25706411042363086,-0.7390615694256603,-2.8068198717997523
59,0.0,-2.25,-3.55631499214869,1,-1.6306084718686467,-13.0840747630915,17.38747192133801
60,0.75,-3.0,-0.16872380398959722,0,0.2506501367233651,-0.7314733136845315,2.6706553980191043
61,0.75,-1.5,-4.804038072971803,1,10.753350316418315,0.9925692087821261,-34.27133025347183
62,0.0,-0.75,1.5845090782638864,1,-12.020230015645826,7.819266524223139,52.34568081394906
63,0.75,0.0,1.5374991020195263,1,9.915616820381464,-3.8403092651840676,-1.604455168147846
64,0.0,0.75,1.3839850073063669,1,-3.803151974082506,9.848145937172356,-50.57702064588532
65,0.75,1.5,4.966412373133823,1,-9.38848008385928,0.6101188580011873,27.880948578882595
66,0.0,2.25,4.1324630415254395,1,-0.12844482927994721,-14.597688587043761,-22.242698020238237
67,0.75,3.0,0.17105905365815754,0,-0.2555455256342121,-0.7415713595675817,-2.821095538091738
68,1.5,-2.25,-0.24696709453159132,1,0.04329204780179408,-1.8436862520766306,3.4090333496675767
69,2.25,-3.0,-0.0012692954982315556,0,0.006949583210686553,-0.005538989610634876,0.051521860531482694
70,2.25,-1.5,0.06079114521167188,1,-0.3105588226966326,-0.38244337078488844,-0.5148734900324008
71,1.5,-0.75,2.040087209208074,1,-3.505498502627551,3.883777137628939,8.838270122558333
72,2.25,0.0,0.6140813861422992,1,-3.11152517225738,-0.6499147258391965,-9.991147762349746
73,1.5,0.75,2.135218020853995,1,-2.769673711914351,-4.3875177422991465,0.48576964908197656
74,2.25,1.5,0.05328879442437043,1,-0.23610091639893346,-0.2889142823512424,0.35302523237854055
75,1.5,2.25,0.27512574138748047,1,-0.25187836608651487,-1.878486081121526,-4.15409414426228
76,2.25,3.0,0.0019836567773795187,0,-0.00880937870354887,-0.008738294131872838,-0.06895224147690318
77,3.0,-2.25,6.619044374636068e-05,0,0.0001916026322987268,0.000678022240106443,-0.00040067909146901653
78,3.0,-0.75,0.019787938687620927,0,-0.09818251404215478,0.02801195480324157,-0.44287774800030455
79,3.0,0.75,0.018799738805525244,0,-0.09386900690374265,-0.027225701547848986,-0.4329004740919125
80,3.0,2.25,0.0006567112333330451,0,-0.0037308740869549913,-0.001954277518459518,-0.024712547442041582
81,-2.625,-2.625,0.019109010655543157,1,-0.01827431708920768,-0.08918963815290377,0.09640817579819716
82,-2.625,-1.875,0.01145953020115995,1,-0.13500077364442953,-0.16307547356423902,0.11720879589366466
83,-2.625,-1.125,0.006303126408719093,1,-0.3399681142906021,-0.01610342017408441,2.435420446330189
84,-2.625,-0.375,-0.09362691748037992,1,-0.8272637415006312,-0.24444702660923642,3.632150162481777
85,-2.625,0.375,-0.12782115464256943,1,-0.9616399697570992,-0.407602532545946,2.1366559655880564
86,-2.625,1.125,-0.03211185302137132,1,-0.4275710913348408,-0.22786556281436748,1.0881809600013497
87,-2.625,1.875,0.004753673742413596,1,-0.12422936114000584,-0.19749988698019594,0.30635073911576355
88,-2.625,2.625,-0.005574566674035425,1,-0.05461425156857916,-0.0986775342668271,-0.10323346348970115
89,-1.875,-2.625,0.048652208252746285,1,0.0997637876670386,-0.3519989592201592,-0.366118535881932
90,-1.125,-2.625,0.014834273101238353,1,-0.1584611753869471,-1.1666622165174432,8.258952286699401
91,-1.875,-1.875,0.0353339380446784,1,0.1950229438447252,-0.40943637328760524,-4.929276260332371
92,-1.875,-1.125,0.014742733797152366,1,-0.15821976099635696,-1.5827938786045028,1.175380526975325
93,-1.125,-1.875,-0.32060518844756236,1,-1.7790072423520775,-0.5107559502641753,0.7474074162968913
94,-1.125,-1.125,1.3477009477721953,1,3.2295959145339266,2.0737500573862913,22.660790577785157
95,-1.875,-0.375,-1.3512336583648439,1,-3.5453182116399065,-3.1602354031515105,6.169453620007344
96,-1.875,0.375,-1.7381588556588066,1,-4.949871177500848,0.8693319258553945,8.108368591336335
97,-1.125,-0.375,-0.4776091335359358,1,7.539359175793876,-7.645861538363798,-53.439584520474426
98,-1.125,0.375,-2.833325615707084,1,2.6902485312019953,-0.2557118691851161,-64.17152406202771
99,-1.875,1.125,-0.3828255855715812,1,-1.2437893842881855,1.1162406965719367,7.053015389561305
100,-1.875,1.875,0.15771492482987673,1,0.27876066183889725,-0.6945849684487642,0.14032597231112712
101,-1.125,1.125,0.39515559614818946,1,4.057252797910054,4.733683999007034,-14.23786811393623
102,-1.125,1.875,1.8671853489146824,1,4.420980804712631,-3.7932238013269477,-8.249195044029277
103,-1.875,2.625,-0.0018113492206650143,1,-0.13327747026409262,-0.5143342219843409,-1.408770258710265
104,-1.125,2.625,0.26404987205156827,1,0.39723691663596367,-2.096935045953435,-10.822643694289308
105,-0.375,-2.625,-0.7825969114110276,1,-1.1629984772536675,-4.010662252179569,17.129364686587383
106,0.375,-2.625,-1.1119611166843453,1,0.6275890788382866,-4.821607852624821,16.052799865508256
107,-0.375,-1.875,-3.8705903020582397,1,-7.794416052156058,-5.766821342267805,-37.012772518211825
108,-0.375,-1.125,0.4392786484809603,1,-8.10990611935447,11.90919703992457,49.12362503381433
109,0.375,-1.875,-5.840101735231409,1,3.505702147509882,-9.052968691086969,-53.92710337649677
110,0.375,-1.125,-3.700798722675255,1,0.19720026144882602,11.578247483281007,-53.079332057524645
111,-0.375,-0.375,3.5614564141179206,1,-0.8189489835397169,-6.835480426836276,90.30673526498549
112,-0.375,0.375,0.4017841046961003,1,0.4010644388110434,-2.7251404485817976,34.93783062605311
113,0.375,-0.375,0.743282544680711,1,-2.1430140338713604,-2.119994290163269,-56.561007563079556
114,0.375,0.375,-0.2804180387864314,1,1.4929684354419286,-2.2275479885950045,-74.83586012383319
115,-0.375,1.125,4.691910117481217,1,4.470955564540039,11.227071861950282,31.978021218279764
116,-0.375,1.875,6.24592497664166,1,5.500212260067559,-10.094847854706137,41.44161137057369
117,0.375,1.125,4.453519119697766,1,-3.87031670821235,10.507296916470604,3.435828294278622
118,0.375,1.875,6.1994965791489305,1,-5.707623997069695,-10.236901435721533,40.23263017060401
119,-0.375,2.625,1.1732556754166192,1,0.8133659788268002,-5.093880974603306,-18.40472023720059
120,0.375,2.625,1.1689055441416303,1,-0.913456502408465,-5.10570548349804,-18.552724279853113
121,1.125,-2.625,-0.25542647342855007,1,0.4311258090565961,-2.1236406967814316,10.758670425193747
122,1.875,-2.625,0.006972766340161153,1,-0.13207438616950185,-0.5238487565107155,1.1732345825475616
123,1.125,-1.875,-1.877895686858568,1,4.699655294132888,-3.9299194819237746,9.868452516950304
124,1.125,-1.125,-0.4533645849372925,1,4.645889347413801,4.644513112789291,19.382644717858756
125,1.875,-1.875,-0.1303788365163836,1,0.20350032182042072,-0.6060929971019363,-0.3587437070638027
126,1.875,-1.125,0.4293354329662529,1,-1.3918894556278667,1.0865109702097009,-7.2829439065485015
127,1.125,-0.375,3.084679154136115,1,2.418307240960644,1.1765197650780956,59.06032679189195
128,1.125,0.375,2.8267088495376838,1,3.474415472375415,-3.3801078340688395,51.138951812427074
129,1.875,-0.375,1.7397132009338385,1,-5.045536599373445,0.8253114793687965,-11.10200978510883
130,1.875,0.375,1.6712744584957728,1,-4.520616620999998,-2.5157167809564887,-12.696834751013874
131,1.125,1.125,2.4325638524347997,1,-2.7858043375873454,1.0224422237732724,-6.6619563090555465
132,1.125,1.875,2.0982433311056496,1,-4.643297309475344,-4.205355693796595,-8.177363963891406
133,1.875,1.125,0.6318990144621769,1,-1.8629023727949705,-1.686857664076408,-8.760502021068193
134,1.875,1.875,0.24976946626391724,1,-0.5882242596014624,-0.9913689552651613,-0.7004605344175711
135,1.125,2.625,0.27083168807096974,1,-0.47318338834860624,-2.091221531529934,-10.499807618687583
136,1.875,2.625,-0.00142146661077972,1,0.06150036551256134,-0.5138603229828125,-1.2167653055841978
137,2.625,-2.625,0.007671136499984028,1,-0.044508153130921366,-0.11481328880178274,-0.009068336559146697
138,2.625,-1.875,-0.0018147351752301625,1,-0.11341690383587494,-0.22607247167074251,-0.635624472818744
139,2.625,-1.125,0.034519799315552366,1,-0.41153879093463813,-0.24863556253654678,-1.534050991072573
140,2.625,-0.375,0.12348223908476329,1,-0.8709947364632171,-0.3673678422209191,-2.457373028731838
141,2.625,0.375,0.11604908433332242,1,-0.7235065134842855,-0.1701754990699677,-2.77783149888145
142,2.625,1.125,0.04473476792245212,1,-0.2752212868664729,-0.039221795036649486,-0.8831990286030509
143,2.625,1.875,0.01989360191555235,1,-0.05245360153802717,-0.2241601750855113,0.34027110476666145
144,2.625,2.625,-0.009738944070062528,1,0.02728708573851104,-0.11571354869523755,-0.13860148712046477
41,0,2,1,1000000000000,3
41,5,2,1,1000000000000,3
41,25,1,1,1000000000000,3
42,0,2,1,1000000000000,3
42,1,2,1,1000000000000,3
42,25,1,1,1000000000000,3
43,1,1,1,1000000000000,3
43,6,1,1,1000000000000,3
43,25,1,1,1000000000000,3
43,26,1,1,1000000000000,3
44,1,2,1,1000000000000,3
44,2,2,1,1000000000000,3
44,26,1,1,1000000000000,3
45,2,1,1,1000000000000,3
45,7,1,1,1000000000000,3
45,26,1,1,1000000000000,3
45,27,1,1,1000000000000,3
46,2,2,1,1000000000000,3
46,3,2,1,1000000000000,3
46,27,1,1,1000000000000,3
47,3,1,1,1000000000000,3
47,8,1,1,1000000000000,3
47,27,1,1,1000000000000,3
47,28,1,1,1000000000000,3
48,3,2,1,1000000000000,3
48,4,2,1,1000000000000,3
48,28,1,1,1000000000000,3
49,4,2,1,1000000000000,3
49,9,2,1,1000000000000,3
49,28,1,1,1000000000000,3
50,5,1,1,1000000000000,3
50,6,1,1,1000000000000,3
50,25,1,1,1000000000000,3
50,29,1,1,1000000000000,3
51,5,2,1,1000000000000,3
51,10,2,1,1000000000000,3
51,29,1,1,1000000000000,3
52,6,1,1,1000000000000,3
52,11,1,1,1000000000000,3
52,29,1,1,1000000000000,3
52,30,1,1,1000000000000,3
53,6,1,1,1000000000000,3
53,7,1,1,1000000000000,3
53,26,1,1,1000000000000,3
53,30,1,1,1000000000000,3
54,7,1,1,1000000000000,3
54,12,1,1,1000000000000,3
54,30,1,1,1000000000000,3
54,31,1,1,1000000000000,3
55,7,1,1,1000000000000,3
55,8,1,1,1000000000000,3
55,27,1,1,1000000000000,3
55,31,1,1,1000000000000,3
56,8,1,1,1000000000000,3
56,13,1,1,1000000000000,3
56,31,1,1,1000000000000,3
56,32,1,1,1000000000000,3
57,8,1,1,1000000000000,3
57,9,1,1,1000000000000,3
57,28,1,1,1000000000000,3
57,32,1,1,1000000000000,3
58,9,2,1,1000000000000,3
58,14,2,1,1000000000000,3
58,32,1,1,1000000000000,3
59,10,1,1,1000000000000,3
59,11,1,1,1000000000000,3
59,29,1,1,1000000000000,3
59,33,1,1,1000000000000,3
60,10,2,1,1000000000000,3
60,15,2,1,1000000000000,3
60,33,1,1,1000000000000,3
61,11,1,1,1000000000000,3
61,16,1,1,1000000000000,3
61,33,1,1,1000000000000,3
61,34,1,1,1000000000000,3
62,11,1,1,1000000000000,3
62,12,1,1,1000000000000,3
62,30,1,1,1000000000000,3
62,34,1,1,1000000000000,3
63,12,1,1,1000000000000,3
63,17,1,1,1000000000000,3
63,34,1,1,1000000000000,3
63,35,1,1,1000000000000,3
64,12,1,1,1000000000000,3
64,13,1,1,1000000000000,3
64,31,1,1,1000000000000,3
64,35,1,1,1000000000000,3
65,13,1,1,1000000000000,3
65,18,1,1,1000000000000,3
65,35,1,1,1000000000000,3
65,36,1,1,1000000000000,3
66,13,1,1,1000000000000,3
66,14,1,1,1000000000000,3
66,32,1,1,1000000000000,3
66,36,1,1,1000000000000,3
67,14,2,1,1000000000000,3
67,19,2,1,1000000000000,3
67,36,1,1,1000000000000,3
68,15,1,1,1000000000000,3
68,16,1,1,1000000000000,3
68,33,1,1,1000000000000,3
68,37,1,1,1000000000000,3
69,15,2,1,1000000000000,3
69,20,2,1,1000000000000,3
69,37,1,1,1000000000000,3
70,16,1,1,1000000000000,3
70,21,1,1,1000000000000,3
70,37,1,1,1000000000000,3
70,38,1,1,1000000000000,3
71,16,1,1,1000000000000,3
71,17,1,1,1000000000000,3
71,34,1,1,1000000000000,3
71,38,1,1,1000000000000,3
72,17,1,1,1000000000000,3
72,22,1,1,1000000000000,3
72,38,1,1,1000000000000,3
72,39,1,1,1000000000000,3
73,17,1,1,1000000000000,3
73,18,1,1,1000000000000,3
73,35,1,1,1000000000000,3
73,39,1,1,1000000000000,3
74,18,1,1,1000000000000,3
74,23,1,1,1000000000000,3
74,39,1,1,1000000000000,3
74,40,1,1,1000000000000,3
75,18,1,1,1000000000000,3
75,19,1,1,1000000000000,3
75,36,1,1,1000000000000,3
75,40,1,1,1000000000000,3
76,19,2,1,1000000000000,3
76,24,2,1,1000000000000,3
76,40,1,1,1000000000000,3
77,20,2,1,1000000000000,3
77,21,2,1,1000000000000,3
77,37,1,1,1000000000000,3
78,21,2,1,1000000000000,3
78,22,2,1,1000000000000,3
78,38,1,1,1000000000000,3
79,22,2,1,1000000000000,3
79,23,2,1,1000000000000,3
79,39,1,1,1000000000000,3
80,23,2,1,1000000000000,3
80,24,2,1,1000000000000,3
80,40,1,1,1000000000000,3
81,0,1,2,0.0,3
81,25,1,2,0.0,3
81,41,1,2,0.0,3
81,42,1,2,0.0,3
82,1,1,2,0.0,3
82,25,1,2,0.0,3
82,42,1,2,0.0,3
82,43,1,2,0.0,3
83,1,1,2,0.0,3
83,26,1,2,0.0,3
83,43,1,2,0.0,3
83,44,1,2,0.0,3
84,2,1,2,0.0,3
84,26,1,2,0.0,3
84,44,1,2,0.0,3
84,45,1,2,0.0,3
85,2,1,2,0.0,3
85,27,1,2,0.0,3
85,45,1,2,0.0,3
85,46,1,2,0.0,3
86,3,1,2,0.0,3
86,27,1,2,0.0,3
86,46,1,2,0.0,3
86,47,1,2,0.0,3
87,3,1,2,0.0,3
87,28,1,2,0.0,3
87,47,1,2,0.0,3
87,48,1,2,0.0,3
88,4,1,2,0.0,3
88,28,1,2,0.0,3
88,48,1,2,0.0,3
88,49,1,2,0.0,3
89,5,1,2,0.0,3
89,25,1,2,0.0,3
89,41,1,2,0.0,3
89,50,1,2,0.0,3
90,5,1,2,0.0,3
90,29,1,2,0.0,3
90,50,1,2,0.0,3
90,51,1,2,0.0,3
91,6,1,2,0.0,3
91,25,1,2,0.0,3
91,43,1,2,0.0,3
91,50,1,2,0.0,3
92,6,1,2,0.0,3
92,26,1,2,0.0,3
92,43,1,2,0.0,3
92,53,1,2,0.0,3
93,6,1,2,0.0,3
93,29,1,2,0.0,3
93,50,1,2,0.0,3
93,52,1,2,0.0,3
94,6,1,2,0.0,3
94,30,1,2,0.0,3
94,52,1,2,0.0,3
94,53,1,2,0.0,3
95,7,1,2,0.0,3
95,26,1,2,0.0,3
95,45,1,2,0.0,3
95,53,1,2,0.0,3
96,7,1,2,0.0,3
96,27,1,2,0.0,3
96,45,1,2,0.0,3
96,55,1,2,0.0,3
97,7,1,2,0.0,3
97,30,1,2,0.0,3
97,53,1,2,0.0,3
97,54,1,2,0.0,3
98,7,1,2,0.0,3
98,31,1,2,0.0,3
98,54,1,2,0.0,3
98,55,1,2,0.0,3
99,8,1,2,0.0,3
99,27,1,2,0.0,3
99,47,1,2,0.0,3
99,55,1,2,0.0,3
100,8,1,2,0.0,3
100,28,1,2,0.0,3
100,47,1,2,0.0,3
100,57,1,2,0.0,3
101,8,1,2,0.0,3
101,31,1,2,0.0,3
101,55,1,2,0.0,3
101,56,1,2,0.0,3
102,8,1,2,0.0,3
102,32,1,2,0.0,3
102,56,1,2,0.0,3
102,57,1,2,0.0,3
103,9,1,2,0.0,3
103,28,1,2,0.0,3
103,49,1,2,0.0,3
103,57,1,2,0.0,3
104,9,1,2,0.0,3
104,32,1,2,0.0,3
104,57,1,2,0.0,3
104,58,1,2,0.0,3
105,10,1,2,0.0,3
105,29,1,2,0.0,3
105,51,1,2,0.0,3
105,59,1,2,0.0,3
106,10,1,2,0.0,3
106,33,1,2,0.0,3
106,59,1,2,0.0,3
106,60,1,2,0.0,3
107,11,1,2,0.0,3
107,29,1,2,0.0,3
107,52,1,2,0.0,3
107,59,1,2,0.0,3
108,11,1,2,0.0,3
108,30,1,2,0.0,3
108,52,1,2,0.0,3
108,62,1,2,0.0,3
109,11,1,2,0.0,3
109,33,1,2,0.0,3
109,59,1,2,0.0,3
109,61,1,2,0.0,3
110,11,1,2,0.0,3
110,34,1,2,0.0,3
110,61,1,2,0.0,3
110,62,1,2,0.0,3
111,12,1,2,0.0,3
111,30,1,2,0.0,3
111,54,1,2,0.0,3
111,62,1,2,0.0,3
112,12,1,2,0.0,3
112,31,1,2,0.0,3
112,54,1,2,0.0,3
112,64,1,2,0.0,3
113,12,1,2,0.0,3
113,34,1,2,0.0,3
113,62,1,2,0.0,3
113,63,1,2,0.0,3
114,12,1,2,0.0,3
114,35,1,2,0.0,3
114,63,1,2,0.0,3
114,64,1,2,0.0,3
115,13,1,2,0.0,3
115,31,1,2,0.0,3
115,56,1,2,0.0,3
115,64,1,2,0.0,3
116,13,1,2,0.0,3
116,32,1,2,0.0,3
116,56,1,2,0.0,3
116,66,1,2,0.0,3
117,13,1,2,0.0,3
117,35,1,2,0.0,3
117,64,1,2,0.0,3
117,65,1,2,0.0,3
118,13,1,2,0.0,3
118,36,1,2,0.0,3
118,65,1,2,0.0,3
118,66,1,2,0.0,3
119,14,1,2,0.0,3
119,32,1,2,0.0,3
119,58,1,2,0.0,3
119,66,1,2,0.0,3
120,14,1,2,0.0,3
120,36,1,2,0.0,3
120,66,1,2,0.0,3
120,67,1,2,0.0,3
121,15,1,2,0.0,3
121,33,1,2,0.0,3
121,60,1,2,0.0,3
121,68,1,2,0.0,3
122,15,1,2,0.0,3
122,37,1,2,0.0,3
122,68,1,2,0.0,3
122,69,1,2,0.0,3
123,16,1,2,0.0,3
123,33,1,2,0.0,3
123,61,1,2,0.0,3
123,68,1,2,0.0,3
124,16,1,2,0.0,3
124,34,1,2,0.0,3
124,61,1,2,0.0,3
124,71,1,2,0.0,3
125,16,1,2,0.0,3
125,37,1,2,0.0,3
125,68,1,2,0.0,3
125,70,1,2,0.0,3
126,16,1,2,0.0,3
126,38,1,2,0.0,3
126,70,1,2,0.0,3
126,71,1,2,0.0,3
127,17,1,2,0.0,3
127,34,1,2,0.0,3
127,63,1,2,0.0,3
127,71,1,2,0.0,3
128,17,1,2,0.0,3
128,35,1,2,0.0,3
128,63,1,2,0.0,3
128,73,1,2,0.0,3
129,17,1,2,0.0,3
129,38,1,2,0.0,3
129,71,1,2,0.0,3
129,72,1,2,0.0,3
130,17,1,2,0.0,3
130,39,1,2,0.0,3
130,72,1,2,0.0,3
130,73,1,2,0.0,3
131,18,1,2,0.0,3
131,35,1,2,0.0,3
131,65,1,2,0.0,3
131,73,1,2,0.0,3
132,18,1,2,0.0,3
132,36,1,2,0.0,3
132,65,1,2,0.0,3
132,75,1,2,0.0,3
133,18,1,2,0.0,3
133,39,1,2,0.0,3
133,73,1,2,0.0,3
133,74,1,2,0.0,3
134,18,1,2,0.0,3
134,40,1,2,0.0,3
134,74,1,2,0.0,3
134,75,1,2,0.0,3
135,19,1,2,0.0,3
135,36,1,2,0.0,3
135,67,1,2,0.0,3
135,75,1,2,0.0,3
136,19,1,2,0.0,3
136,40,1,2,0.0,3
136,75,1,2,0.0,3
136,76,1,2,0.0,3
137,20,1,2,0.0,3
137,37,1,2,0.0,3
137,69,1,2,0.0,3
137,77,1,2,0.0,3
138,21,1,2,0.0,3
138,37,1,2,0.0,3
138,70,1,2,0.0,3
138,77,1,2,0.0,3
139,21,1,2,0.0,3
139,38,1,2,0.0,3
139,70,1,2,0.0,3
139,78,1,2,0.0,3
140,22,1,2,0.0,3
140,38,1,2,0.0,3
140,72,1,2,0.0,3
140,78,1,2,0.0,3
141,22,1,2,0.0,3
141,39,1,2,0.0,3
141,72,1,2,0.0,3
141,79,1,2,0.0,3
142,23,1,2,0.0,3
142,39,1,2,0.0,3
142,74,1,2,0.0,3
142,79,1,2,0.0,3
143,23,1,2,0.0,3
143,40,1,2,0.0,3
143,74,1,2,0.0,3
143,80,1,2,0.0,3
144,24,1,2,0.0,3
144,40,1,2,0.0,3
144,76,1,2,0.0,3
144,80,1,2,0.0,3
