2
105
1e-11
0,0.0,0.0,-81.91728243112098,0,-393.22529777984295,-330.5937027108293,-3323.8547256586276
1,0.0,0.25,-11.101472483307003,0,55.084516870735484,45.26722002776441,2042.1033605446464
2,0.0,0.5,-22.901562258489477,0,-126.30241600277716,99.72921544756561,-691.9172748162141
3,0.0,0.75,-19.882312212163658,0,-44.0261798889123,-61.624030521880655,445.9712852161789
4,0.0,1.0,-30.657343545335785,0,-170.84660517037548,4.8897448335997264,-183.84433915838483
5,0.25,0.0,12.360664413619178,0,268.4731867661022,-189.9831085822219,21448.125524131894
6,0.25,0.25,22.6415610974285,1,-595.3295484965108,-108.69608976878597,53692.06155813858
7,0.25,0.5,0.9162751819947097,1,-88.96212941769807,-44.12660094547439,8969.002079969328
8,0.25,0.75,-25.513876503721423,1,-161.08530034163348,-75.97663585596791,-405.2243812008337
9,0.25,1.0,-51.28152479815567,0,-181.4698671737131,112.83236666400268,-592.2799214904976
10,0.5,0.0,32.91443212460346,0,3.3509326508778603,20.486569238693924,-17145.597135698277
11,0.5,0.25,7.349558317389525,1,338.36854212322976,-846.6617588236732,-166952.88182884103
12,0.5,0.5,0.08810815902056475,1,208.23902027648276,75.00598240405272,-31257.93634628744
13,0.5,0.75,-29.94732380776448,1,125.23741455318495,-212.31709769458,-626.8764810435468
14,0.5,1.0,-83.7480501557768,0,-195.9413322260436,364.69257228410385,-1884.901487225129
15,0.75,0.0,-7.5033970551730365,0,-265.06792516499604,-556.6249099474943,-1524.6769548877962
16,0.75,0.25,15.013263788430157,1,485.62462899430807,85.4408127666846,225777.2499007516
17,0.75,0.5,3.471628793794263,1,-478.9780500089624,-49.30402584125748,35210.58022572875
18,0.75,0.75,7.782164744024895,1,685.8978135329473,-106.18315401778791,-27741.57918741625
19,0.75,1.0,12.869595125123695,0,532.7004036117733,606.3668767145226,-3594.0361843333562
20,1.0,0.0,18.334166700657732,0,77.07002598686029,224.4533806732109,-191.34550277381283
21,1.0,0.25,18.292835678876422,0,440.8275354406878,-6.608870378494194,6408.825319603738
22,1.0,0.5,-93.45381665259114,0,600.742293478255,-808.1368102426006,-149429.32098419583
23,1.0,0.75,126.50015924685988,0,-607.6050769825043,983.8958511854681,34177.02267968764
24,1.0,1.0,243.1525005492684,0,-230.4835487277408,-772.5218412932203,3630.196102988562
25,0.625,0.125,28.66326573988552,1,-66.56171366730696,-319.57419823730373,82952.40907467036
26,0.125,0.375,-0.9212351045581629,1,-26.186692978851745,-344.7240709598418,-8857.438387659613
27,0.375,0.125,24.674328323050442,1,-448.2306591549613,-180.08316707116015,31840.5075074896
28,0.375,0.375,1.1413094186810981,1,-430.3115288747821,607.824120504972,63603.562240055035
29,0.875,0.875,129.37954266206285,1,709.1783451745201,167.14005260904096,3630.196102988562
30,0.625,0.375,2.7977326658432027,1,508.59882583984495,502.5031544910948,24547.27189385958
31,0.125,0.125,-23.17541831983914,1,58.92730126431214,371.0161240176728,-10858.339309657074
32,0.375,0.625,-16.40139526066227,1,-235.99607036609027,278.19396469749336,-2005.7043357435173
33,0.875,0.625,-4.229266473093623,1,-421.5989536924205,1157.4805918371421,64723.84925638674
34,0.625,0.625,2.5304851957750767,1,-550.919269751266,-360.3898128792503,33288.08162808812
35,0.375,0.875,-56.77382066981078,1,-140.98659825023105,80.4469058318785,-1000.7155038226113
36,0.625,0.25,13.806083344996829,1,-451.6002614744446,128.15329462863602,209317.620145605
37,0.5,0.125,26.094484686593095,1,-25.675548220974722,-50.146926481683316,80774.97595430797
38,0.5625,0.1875,20.6925265825286,1,208.4856922347364,-410.28382155083716,68353.77695437004
39,0.875,0.125,19.942244148513854,1,-73.93354094077745,224.32574627724128,4044.8320419493116
40,0.75,0.125,13.955429506790944,1,437.4620902839314,408.52057614212504,-37943.46703052086
41,0.6875,0.1875,16.880118917898077,1,586.1917220066637,1281.6847236229378,-283938.94275487144
42,0.625,0.875,-56.952021846704106,1,-114.67731210908698,221.45321861732975,-2769.0874706276454
43,0.125,0.875,-32.20178948842322,1,-152.47814698479527,-13.478713351980593,-183.84433915838483
44,0.125,0.625,-13.273202098872448,1,25.226622512112947,-67.86956515343847,1075.7869095907424
45,0.375,0.25,10.340623978816165,1,-63.64572099586339,-160.11017490400877,-7802.164799792558
46,0.4375,0.1875,17.609607334054065,1,-246.81855747526993,132.2542953736677,-25950.714851757257
47,0.5,0.1875,17.426751100773956,1,172.67932795004685,-82.92487377240238,-69049.97697466725
48,0.5,0.375,3.0146066936219147,1,-82.02735622664187,-954.6267113599897,-68452.38080149652
49,0.5625,0.3125,4.123265848021772,1,-371.4831343812687,313.3932400728447,95543.65336790512
50,0.5625,0.25,17.269058395238176,1,148.29944725516086,527.9490636320967,-39026.54461623583
51,0.53125,0.21875,20.90381331309501,1,-216.44920417107022,1270.4364302716208,-121856.39091072217
52,0.625,0.0,50.63627723081184,0,170.4925981267586,479.76132411938937,-7234.9671782778505
53,0.6875,0.0625,22.918860461303638,1,-518.3606470780377,73.85694521998056,6796.343321271689
54,0.5625,0.0625,38.11485494123198,1,111.9899873002146,-45.113532736739806,-21266.277677827406
55,0.6875,0.125,14.767613413518188,1,235.38225628863015,-603.5289378989263,13440.546396177644
56,0.5625,0.125,31.467722582205784,1,68.40040191355487,260.49149812438856,-142548.23891182267
57,0.25,0.125,9.781335515206003,1,58.90600365738947,107.04974805569077,-45790.24459265281
58,0.25,0.375,4.999168013669572,1,-37.52234969993615,118.63410794381056,-40467.03601535344
59,0.125,0.25,12.053194571395238,1,411.144292056525,11.558513766675786,9004.596805341635
60,0.375,0.0,30.30847004463188,0,-647.0052729084031,180.988496708511,-11274.494480101066
61,0.4375,0.0625,25.006994752749545,1,24.328491196264498,24.88132574901301,-13024.916593569136
62,0.4375,0.125,21.5478739165751,1,80.76795474677678,-85.59548403560603,-79987.316489376
63,0.3125,0.3125,4.83514899414999,1,-59.95035005074516,-4.094147252067738,-60458.33436433919
64,0.625,0.1875,21.30303636955387,1,-531.5326507424701,-279.1276865100565,61138.48664419551
65,0.875,0.0,7.266050309007624,0,280.7652871380114,-96.06370686387791,-3959.4769807297644
66,0.8125,0.0625,2.5017870793815282,1,300.814285363564,-152.95266241547014,-9845.697231047277
67,0.4375,0.3125,3.616780630317431,1,-172.42966360802507,174.3067584695378,-49712.40408557813
68,0.5,0.3125,5.866990421776391,1,-596.1105531594435,1354.356080325908,225978.65724913398
69,0.53125,0.28125,3.886131644101609,1,-93.25211676178425,-634.058881360039,-520153.60400901496
70,0.53125,0.25,18.7682974547554,1,377.3831702692089,-957.8161123468095,720846.0128856213
71,0.59375,0.21875,19.21466596789284,1,471.3528340361278,97.91961861976087,-253070.24119795044
72,0.875,0.375,-3.1317889056594703,1,-250.41175415223378,-479.61031753175837,133667.4014114027
73,0.875,0.25,14.95166975049832,1,478.4616895904774,596.0565610762902,-84842.47516324196
74,0.8125,0.1875,19.43547948945821,1,339.26417579142554,-633.7212294222358,162411.65336730634
75,0.75,0.1875,15.888926650214866,1,225.75370671719645,-225.41244531253392,-160335.47541621595
76,0.75,0.375,5.217070986187975,1,300.75691406848483,434.3587891590105,-120023.17763134681
77,0.6875,0.3125,3.882838659112038,1,259.7207238057347,571.4861606494977,246378.77945819707
78,0.6875,0.25,6.470810491056501,1,37.586715194255305,-187.27036535796952,-505594.10684115696
79,0.3125,0.1875,19.367139805801116,1,-179.45085409191924,217.72240332132216,-13377.593844673003
80,0.375,0.1875,19.206334543387733,1,-300.02145317473384,-204.0264124204734,13862.47465427362
81,0.71875,0.21875,18.089639022651628,1,-1095.7906890927525,-649.9958243667581,32910.889921170194
82,0.625,0.3125,1.8767834100254392,1,771.9086535010722,-583.4616013506559,-354898.60593590006
83,0.125,0.0,-41.691924192418156,0,256.3170838140388,-0.7675130150653248,-898.1019552102214
84,0.5,0.625,-3.6975704550784965,1,254.28387746799046,264.1967993948859,-150.6088837465956
85,0.0,0.375,-13.03076048923946,0,-286.5961132972923,-164.59230822943078,-4091.1726723976976
86,1.0,0.125,24.647644796291747,0,-131.04150356238566,235.3757801120659,3576.7859751821375
87,0.0,0.125,-46.69593542560196,0,-414.4220131018102,170.0718380693542,-5749.607496107032
88,0.125,0.5,-11.356231262019696,1,46.57842264054592,14.223341443560614,123.85833177105941
89,0.75,0.875,8.22715648300059,1,519.9340164443738,473.73115476288956,-7618.626684847172
90,0.4375,0.25,9.827493586692048,1,-683.6814607387794,-436.24102186402274,95553.20244679705
91,0.46875,0.21875,16.51503354871025,1,49.0071925397155,-184.71445203509867,-27119.89803083449
92,0.5,0.21875,19.19054213662047,1,-160.80815226422104,-215.92164498096562,286657.9655344414
93,0.75,0.625,2.595719586723951,1,136.0562978148519,-495.3507607788815,-72929.6177634497
94,0.625,0.75,-30.086189100756147,1,-246.0601583016039,-489.9547229385277,537.6346222501693
95,0.65625,0.21875,17.710827480951952,1,-13.107969875647116,-222.73730337996764,-4485.797850127103
96,0.6875,0.21875,22.39430133236149,1,-23.89284770411823,-521.8066821784741,726922.2791223382
97,0.8125,0.3125,4.526032420886542,1,1110.1192333691997,418.3085208955591,49190.476697811486
98,0.8125,0.25,9.221214499088147,1,-872.8911824153531,-245.1342812472607,-215531.14741776773
99,0.78125,0.21875,16.30651102473803,1,325.7809226955543,-14.860779142332488,131418.61536615508
100,0.75,0.21875,12.774624251601542,1,241.8726773415572,804.2948298325338,-204802.51110477655
101,0.75,0.3125,1.874923661340689,1,-487.9670351509115,-1423.6453225286566,-275834.7148481011
102,0.375,0.75,-32.12020491542102,1,-105.51651464122068,28.055417910548723,-1009.6301754526272
103,0.71875,0.15625,16.21787470894683,1,555.2068676318853,65.40228047790102,124954.6380814645
104,0.71875,0.1875,20.532358616483396,1,389.7244313434959,-121.77757722871348,202459.14493842286
3,2,2,1,53.72359097145616,1
4,3,2,1,7.413474353268376,1
8,7,1,1,42.22426835738038,1
8,3,1,1,24.733712552788376,1
9,8,1,1,87.18058717526482,1
9,4,2,1,6.770436076978866,1
12,7,1,1,90.10129267482814,1
14,13,1,1,446.4319847090533,1
14,9,2,1,135.8905935684235,1
17,12,1,1,220.0144449354627,1
19,14,2,1,800.8966052385304,1
22,17,1,1,3020.8034785005057,1
22,21,2,1,1522.2415412170142,1
23,18,1,1,2213.3799209952767,1
23,22,2,1,3616.451358664261,1
24,23,2,1,661.5657944734118,1
24,19,2,1,1067.5252222104355,1
26,1,1,1,201.76327229481092,2
26,7,1,1,29.35734805701118,2
26,6,1,1,211.9571337176572,2
26,2,1,1,8.992473950410464,2
27,5,1,1,47.78688320735277,2
28,12,1,3,36.47513216738664,2
28,7,1,3,46.11278142550281,2
29,18,1,3,1629.7545011481823,2
29,24,1,2,0.0,1
29,23,1,2,0.0,1
29,19,1,3,1757.8904637818587,2
30,17,1,3,173.61655484195938,2
30,12,1,3,64.27557394292705,2
31,0,1,1,48.95541371907311,2
31,6,1,1,433.1016706449291,2
31,5,1,1,264.8451460422232,2
31,1,1,1,261.1717268529171,2
32,7,1,2,0.0,1
32,13,1,1,68.04918971402778,2
32,12,1,3,128.12025733181338,2
32,8,1,3,28.57073933684392,2
33,17,1,3,2553.0430771185447,2
33,23,1,2,0.0,1
33,22,1,2,0.0,1
33,18,1,3,1459.039314811157,2
34,12,1,3,123.27521122424736,2
34,18,1,1,739.8108943309732,2
34,17,1,3,132.63844130460774,2
34,13,1,1,165.07165203523516,2
35,8,1,3,119.1786064688002,2
35,14,1,2,0.0,1
35,13,1,3,106.17922408058678,2
35,9,1,2,0.0,1
37,10,1,1,11.212759417711084,3
38,25,1,1,12.285100021672978,4
38,37,1,1,15.888884658335202,4
39,21,1,1,44.796868896316774,2
39,20,1,1,16.211231602651957,2
40,15,1,1,133.982150435429,3
40,39,1,1,82.50076741495336,3
41,25,1,1,41.84434140932197,4
42,13,1,3,868.668316127482,2
42,19,1,3,1008.8246394749658,2
42,18,1,1,634.5323072881761,2
42,14,1,2,0.0,1
43,3,1,2,0.0,1
43,9,1,2,0.0,1
43,8,1,2,0.0,1
43,4,1,2,0.0,1
44,2,1,3,69.99541375628512,2
44,8,1,2,0.0,1
44,7,1,3,47.917231513330975,2
44,3,1,2,0.0,1
45,6,1,1,123.05500485559799,3
45,28,1,1,16.16619726368638,3
46,27,1,1,19.047872070309484,4
46,45,1,1,3.835752028494372,4
46,37,1,1,10.342494737014299,4
47,37,1,2,0.0,4
47,46,1,3,14.24376130841965,5
47,38,1,3,19.595908639072068,5
48,12,1,2,0.0,2
48,28,1,3,4.132978281815085,3
48,30,1,3,4.0942000839986035,3
49,30,1,3,20.07445665978475,4
49,48,1,3,4.853982988552648,4
49,36,1,1,33.616538563870186,4
50,36,1,3,12.162260239898332,5
50,49,1,3,62.30750663567264,5
50,38,1,1,11.483221788517488,5
51,11,1,1,75.2854858196709,6
51,38,1,2,0.0,5
51,50,1,3,20.678747930881528,6
51,47,1,3,35.61070312115651,6
52,15,2,1,229.031074107889,3
52,10,2,1,63.318457636709525,3
52,25,1,1,86.86813527926063,3
53,15,1,2,0.0,3
53,25,1,3,73.20811545880285,4
53,52,1,2,0.0,3
53,40,1,3,154.8846584174205,4
54,10,1,2,0.0,3
54,25,1,3,46.6499369326465,4
54,37,1,3,13.728721011838184,4
54,52,1,2,0.0,3
55,25,1,2,0.0,4
55,40,1,3,77.19095784675082,5
55,41,1,3,45.34030245109028,5
55,53,1,2,0.0,4
56,25,1,2,0.0,4
56,37,1,2,0.0,4
56,38,1,2,0.0,4
56,54,1,2,0.0,4
57,5,1,2,0.0,2
57,6,1,3,198.70833044455074,3
57,27,1,3,46.34765640667793,3
57,31,1,2,0.0,2
58,6,1,3,154.8496391146578,3
58,7,1,2,0.0,2
58,26,1,2,0.0,2
58,28,1,3,21.837045748405338,3
59,1,1,2,0.0,2
59,6,1,2,0.0,2
59,26,1,2,0.0,2
59,31,1,2,0.0,2
60,10,2,1,7.340612889812691,3
60,5,2,2,0.0,2
60,27,1,3,46.65063287384446,3
61,27,1,3,51.48590624727444,4
61,10,1,2,0.0,3
61,60,1,2,0.0,3
61,37,1,3,9.019936657254366,4
62,27,1,2,0.0,4
62,37,1,2,0.0,4
62,61,1,2,0.0,4
62,46,1,2,0.0,4
63,6,1,2,0.0,3
63,28,1,2,0.0,3
63,45,1,2,0.0,3
63,58,1,2,0.0,3
64,25,1,2,0.0,4
64,36,1,1,2.9991034632773155,5
64,38,1,3,8.751249542498154,5
64,41,1,3,25.639557854130278,5
65,15,2,1,51.45979712374615,3
65,20,2,2,0.0,2
65,39,1,3,46.049816854546584,3
66,15,1,2,0.0,3
66,39,1,2,0.0,3
66,65,1,2,0.0,3
66,40,1,2,0.0,3
67,11,1,1,16.35251659608645,4
67,28,1,2,0.0,3
67,45,1,3,4.819340669247104,4
67,48,1,3,4.619552140337329,4
68,11,1,3,32.62400673489822,5
68,48,1,2,0.0,4
68,67,1,2,0.0,4
68,49,1,3,16.21107254515417,5
69,11,1,3,58.626937222701514,6
69,49,1,2,0.0,5
69,68,1,2,0.0,5
69,50,1,3,90.14272730950364,6
70,11,1,2,0.0,6
70,50,1,2,0.0,6
70,69,1,2,0.0,6
70,51,1,2,0.0,6
71,36,1,2,0.0,5
71,38,1,2,0.0,5
71,50,1,2,0.0,5
71,64,1,2,0.0,5
72,22,1,2,0.0,1
72,21,1,3,1288.29518399297,2
72,17,1,3,1161.469098669534,2
73,21,1,2,0.0,2
73,72,1,3,220.67524792340245,3
73,39,1,3,47.4241001786349,3
74,39,1,2,0.0,3
74,73,1,3,30.90974971275365,4
74,40,1,3,39.50576746591193,4
75,40,1,3,15.316657573110135,5
75,74,1,3,14.084731613557468,5
76,17,1,2,0.0,2
76,30,1,3,38.49795100486806,3
76,72,1,3,313.1626320029251,3
77,16,1,1,64.21747491435772,4
77,30,1,3,15.479606823072508,4
77,76,1,3,27.495408814743804,4
77,36,1,1,45.15474167007146,4
78,16,1,3,105.40000575040882,5
78,36,1,3,75.36433805099033,5
78,77,1,2,0.0,4
79,27,1,3,29.416566037497297,4
79,6,1,2,0.0,3
79,45,1,3,60.01201916720515,4
79,57,1,2,0.0,3
80,27,1,2,0.0,4
80,45,1,2,0.0,4
80,79,1,2,0.0,4
80,46,1,2,0.0,4
81,16,1,3,40.6895456227711,6
81,41,1,1,54.88602470494388,6
81,75,1,1,21.034519054770435,6
81,78,1,3,107.23362759150825,6
82,30,1,2,0.0,4
82,36,1,2,0.0,4
82,49,1,2,0.0,4
82,77,1,2,0.0,4
83,0,2,2,0.0,2
83,5,2,2,0.0,2
83,31,1,2,0.0,2
84,12,1,2,0.0,2
84,13,1,2,0.0,2
84,32,1,2,0.0,2
84,34,1,2,0.0,2
85,1,2,2,0.0,2
85,2,2,2,0.0,2
85,26,1,2,0.0,2
86,20,2,2,0.0,2
86,21,2,2,0.0,2
86,39,1,2,0.0,2
87,0,2,2,0.0,2
87,1,2,2,0.0,2
87,31,1,2,0.0,2
88,2,1,2,0.0,2
88,7,1,2,0.0,2
88,26,1,2,0.0,2
88,44,1,2,0.0,2
89,18,1,2,0.0,2
89,19,1,2,0.0,2
89,29,1,2,0.0,2
89,42,1,2,0.0,2
90,11,1,3,17.746286449683332,5
90,45,1,2,0.0,4
90,46,1,3,8.273855949943638,5
90,67,1,2,0.0,4
91,11,1,3,48.00896828513335,6
91,46,1,2,0.0,5
91,90,1,2,0.0,5
91,47,1,3,29.090560753750825,6
92,11,1,2,0.0,6
92,47,1,2,0.0,6
92,91,1,2,0.0,6
92,51,1,2,0.0,6
93,17,1,2,0.0,2
93,18,1,2,0.0,2
93,33,1,2,0.0,2
93,34,1,2,0.0,2
94,13,1,2,0.0,2
94,18,1,2,0.0,2
94,34,1,2,0.0,2
94,42,1,2,0.0,2
95,41,1,3,49.65487653476062,6
95,36,1,2,0.0,5
95,64,1,2,0.0,5
95,78,1,3,87.44375435834306,6
96,41,1,2,0.0,6
96,78,1,2,0.0,6
96,95,1,2,0.0,6
96,81,1,2,0.0,6
97,16,1,1,42.802477345815944,4
97,72,1,2,0.0,3
97,73,1,3,49.49559214096534,4
97,76,1,3,59.16365322625978,4
98,16,1,3,47.861273125384685,5
98,73,1,2,0.0,4
98,97,1,2,0.0,4
98,74,1,3,33.62429856048397,5
99,16,1,3,20.07172919931629,6
99,74,1,2,0.0,5
99,98,1,2,0.0,5
99,75,1,3,13.443521208890326,6
100,16,1,2,0.0,6
100,75,1,2,0.0,6
100,99,1,2,0.0,6
100,81,1,2,0.0,6
101,16,1,2,0.0,4
101,76,1,2,0.0,4
101,77,1,2,0.0,4
101,97,1,2,0.0,4
102,8,1,2,0.0,2
102,13,1,2,0.0,2
102,32,1,2,0.0,2
102,35,1,2,0.0,2
103,41,1,3,19.957880526342876,6
103,40,1,2,0.0,5
103,55,1,2,0.0,5
103,75,1,3,14.1008759028283,6
104,41,1,2,0.0,6
104,75,1,2,0.0,6
104,103,1,2,0.0,6
104,81,1,2,0.0,6
