2
102
3.59355588249e-06
24,1.0,1.0,2606.5579168540735,0,-587.51019662513329,-533.43810073952682,11091.064837458996
25,0.375,0.375,1531.1304258294679,1,-2179.3668385741234,1963.6211989940616,-134445.81759588054
26,0.625,0.625,1255.3913551303308,1,-815.39311676069144,929.27353220691339,-90355.686734858289
27,0.625,0.375,1363.1696265196858,1,635.15277806650681,-1695.903068232665,-126293.97148231823
20,1.0,0.0,2704.736883964601,0,-936.19302110591605,399.51162689489013,11329.411709441863
21,1.0,0.25,2490.040092850084,0,-154.30201378117238,-1331.8404197771283,11872.914967184315
22,1.0,0.5,2280.4686951218255,0,1102.4342975344086,-429.96048426389001,13066.09888230137
23,1.0,0.75,2408.1933102030503,0,314.86202360390365,1018.8730426024406,11645.955093545643
28,0.5,0.375,1433.0844435680096,1,-1754.4723491305997,425.40008582395683,-66774.908397712745
29,0.375,0.625,1435.3657658028758,1,-2119.855330450534,-2253.4115232219724,-242525.39057786897
0,0.0,0.0,1876.2170162416896,0,-1086.3903447231187,-1214.7986244739316,-915.33848281834116
4,0.0,1.0,2206.8616226393819,0,-294.9833005115014,150.37939541767554,4109.2500811516347
8,0.25,0.75,1908.7742804458001,1,-2264.2372881302226,2327.551227950571,-2951.6795167841769
59,0.8125,0.4375,1909.6061187980361,1,3713.6905060671779,-1233.6936340268414,17116.770360077619
58,0.8125,0.5625,1822.2868564472128,1,4302.815293903237,-151.29043380384164,12964.797892374008
55,0.125,0.875,2149.6732839331926,1,-926.26308582483068,781.65918072636157,4109.2500811516584
54,0.75,0.625,1585.9758727156022,1,4486.6025484008087,1590.2314806970071,-47339.522370149651
57,0.875,0.5,2082.2441803131219,1,2997.7927089014775,-570.60755461012866,14761.493465300933
56,0.125,0.75,2047.6017162893211,1,-1576.6234946004004,674.98347830903333,585.8214582183283
51,0.875,0.625,2081.4539414739338,1,3245.7738877593724,794.08527874349761,9979.6455680790477
50,0.03125,0.28125,1910.6386962654199,1,-1613.3936244481256,-296.13628808260142,-4092.238179475893
53,0.75,0.375,1759.1379725907561,1,4132.9721449553635,-1900.5299521956806,6114.3614496357741
52,0.875,0.375,2169.7671602733358,1,2336.8875436321127,-1266.8288896620882,12880.866739981764
88,0.875,0.5625,2062.1882379252625,1,3159.1020302117204,-9.8596571772858841,12537.763119567122
89,0.96875,0.53125,2267.1947113348715,1,1596.2903157707776,-231.05190050070837,12843.006179929622
82,0.9375,0.6875,2299.5711270850829,1,1587.6373686796423,930.08588261152067,11505.753102623188
83,0.9375,0.625,2244.4637963410764,1,2034.0405730201026,543.37131395587528,11383.170846586785
80,0.4375,0.8125,1864.3901699730081,1,-1091.9034820667387,3770.6631859609433,40622.884210959666
81,0.875,0.75,2245.0916858984206,1,1712.8760179174819,1561.9953867256716,12467.392561336253
86,0.9375,0.4375,2254.965561534138,1,1713.6847517676333,-802.47428363154847,13232.043248479085
87,0.9375,0.5,2225.4378970298012,1,1968.7502708588993,-460.14998648377855,13398.037527779383
84,1.0,0.5625,2291.296226257236,0,1230.1321123377218,-0.2815224169789633,12413.123049926791
85,1.0,0.375,2330.5908061020805,0,589.49080576264225,-1077.0677520239199,12771.821099260967
3,0.0,0.75,2096.2018818427123,0,-1167.6040186537282,296.4041965848819,1293.3216532188226
7,0.25,0.5,1888.7077416494637,1,-3125.0888442147743,-1066.8190541257993,111121.09143513201
100,0.96875,0.65625,2310.0557045129949,1,1390.9497436889408,693.69372298924395,11570.562667032706
101,0.96875,0.5625,2271.5769088559737,1,1636.5972394297341,-1.5389851927474001,12427.07140150936
39,0.125,0.125,1869.3638537385582,1,-1071.5049712037051,-1355.4794324840118,-294.16516377849479
38,0.0,0.375,2000.5735954350134,0,-1247.3936648700364,609.34839623608661,-1076.8803015971137
33,0.125,0.375,1956.1475784049042,1,-1377.9628953384383,1183.2232754097352,-14244.387406897156
32,0.375,0.125,1914.2936740728403,1,-377.71137140534194,-2321.5128016444351,13495.344094919757
31,0.625,0.875,2038.9618163971311,1,-209.73075061961728,3284.6791498752059,4866.9818525441688
30,0.5,0.625,1337.2138665244704,1,-236.76898741694549,-413.65606990111866,-32180.717268961005
37,0.5,0.875,2017.271789605343,1,-999.43738020327135,2698.9291193347731,24445.413805178861
36,0.375,0.875,2061.4270554084778,1,-669.2721210451042,2233.9661222801533,21032.965352886938
35,0.5,0.125,1976.8217289557635,1,-263.6974938079174,-2699.7427241176915,18257.684941008938
34,0.625,0.125,2108.4284648381208,1,286.73053756474343,-2746.3827445806314,11085.212428044188
60,0.625,0.5,1269.1853729712561,1,-1261.8095448283864,-865.74598480337431,-69104.773544920565
61,0.6875,0.5625,1338.3598719645677,1,2446.6669049901384,-246.65472990697194,-109090.78673913862
62,0.25,0.625,1779.2141743492921,1,-4743.4766230868672,-511.79284109850465,-29480.699060183619
63,0.625,0.75,1603.2547782783292,1,311.79074280410623,4214.3641531943649,-77035.923715639656
64,0.5625,0.6875,1395.3185543458278,1,-1251.0357775577672,2904.4607196468005,-11712.585371861194
65,0.375,0.75,1699.7569096945451,1,-2045.5652274448225,4888.3159018795914,21684.310974795695
66,0.6875,0.6875,1519.2975500701066,1,2459.9674597051344,2889.6185807292504,-33555.964750690284
67,0.375,0.25,1655.5534508273172,1,-1300.6390144782711,-3706.4792734241009,9584.2351917621872
68,0.875,0.125,2534.6759886549316,1,488.76268459663697,-1025.4440788110869,11329.411709441863
69,0.875,0.875,2432.7515671108681,1,559.31561274344494,1005.0209969261764,10923.838827136837
2,0.0,0.5,2104.3379626901806,0,-226.96297990037201,-150.28332145072159,9877.1378966489337
6,0.25,0.25,1754.6478067068381,1,-1881.2010346406787,-2016.2592397278395,-3530.4793924210603
99,1.0,0.53125,2288.851598101588,0,1181.4225638997282,-224.78690981819975,12791.30857302185
98,0.96875,0.71875,2364.4728160898203,1,932.68352830237495,979.43824548022883,11638.487280109677
91,0.9375,0.3125,2364.799969035917,1,1003.3229348511549,-1324.9126909607301,12275.25040313592
90,0.875,0.25,2354.0134658621978,1,1290.9568077510783,-1727.4343521399062,11611.747353023566
93,0.96875,0.59375,2278.3899706077045,1,1619.4468391492537,245.88954245224838,12007.040823666601
92,0.9375,0.375,2292.0464646303658,1,1410.2785629578577,-1112.8376080039525,12789.995372714433
95,1.0,0.875,2526.0906265110539,0,-439.16065893718962,609.66125334167236,11258.290847781156
94,1.0,0.6875,2353.870242985703,0,799.10188903521407,836.5477617682343,11604.524973571191
97,0.9375,0.75,2362.0230897416222,1,1029.6848004975791,1128.7734515231405,11797.715950698685
96,0.9375,0.8125,2434.1845011193041,1,538.39081122877576,999.76279107463733,11509.129863264394
11,0.5,0.25,1622.3544178751326,1,-731.67418882604909,-4947.4171356816878,18125.392701865771
10,0.5,0.0,2098.8134536682041,0,-131.71279977785591,-902.46701041510562,15273.981601245514
13,0.5,0.75,1563.7993896727173,1,-859.77676896557784,5352.8332184746223,28180.865853254581
12,0.5,0.5,1414.2642189244355,1,-3482.6464145221671,-1545.2665146262234,131503.32646962942
15,0.75,0.0,2460.521034581026,0,351.74482640286851,-456.82213302141031,11207.312068742984
14,0.5,1.0,2162.1436602112126,0,-924.34218460810337,675.77265667777101,18697.693703947203
17,0.75,0.5,1555.7419156978849,1,4990.0122563684718,-1160.007936568277,2467.324975847479
16,0.75,0.25,2040.1159588639714,1,2523.9214176307009,-3322.5724342813996,10465.436445928985
19,0.75,1.0,2305.398605715543,0,598.86854679448913,850.90212681127821,9069.3046647340871
18,0.75,0.75,1879.4082421255443,1,3020.1038582425276,3225.1894067471999,16112.670614094617
48,0.0625,0.1875,1871.4848121636126,1,-1391.2445436689604,-1016.3200583933094,-2468.2717804179565
49,0.0625,0.25,1883.39329656824,1,-1551.5343491582807,-641.97134219687405,-3904.8916772396219
46,0.0,0.3125,1939.2975058614745,0,-1624.3457828241967,23.402092978020114,-3617.2015494121019
47,0.0,0.125,1872.1037378008768,0,-1325.9042946021443,-1184.3290819030574,-1536.511801858187
44,0.0625,0.4375,2049.3556440163816,1,-854.58948274486966,572.90564689608664,6382.6926438803566
45,0.0625,0.375,1984.5919886313764,1,-1329.6053268018582,659.24623892131581,-3536.5061504283558
42,0.125,0.625,2036.8153957466218,1,-1771.5145370649891,-881.38304476880455,-107.60638471297871
43,0.125,0.5,2058.6335573591919,1,-628.40567088080115,-112.06471956026935,26850.772683547984
40,0.125,0.25,1847.0052098897013,1,-1548.1128705147366,-925.49326638368984,-4635.627003438708
41,0.0625,0.3125,1918.3381168694948,1,-1564.1521995607479,30.046341706499728,-5207.4495370995101
1,0.0,0.25,1894.4103020179523,0,-1694.211648427301,-582.68527132708391,-3639.4099541523406
5,0.25,0.0,1924.7380325954896,0,-268.68797753791591,-1212.4294497922519,6600.5894655706325
9,0.25,1.0,2208.8944160642959,0,-293.2272475373548,284.14133392274181,12571.1077170193
77,0.9375,0.5625,2222.7824622176158,1,2100.8529456970168,-12.00408784445292,12445.115552514419
76,1.0,0.625,2310.1194077986302,0,1137.7649485035288,465.41258483095271,11788.801745349652
75,0.5625,0.3125,1483.1120997937862,1,-822.35252976213371,-3778.7855422747471,-56211.269640561375
74,0.625,0.25,1740.2344180662028,1,416.29649115118633,-4734.4613936464502,-11381.761028472096
73,0.3125,0.6875,1644.6250230816436,1,-3774.5789351181797,2626.9298637529091,-27215.504261008027
72,0.75,0.875,2186.4869164740066,1,1055.2315769420875,2018.0795247835711,10243.198989627706
71,0.4375,0.4375,1546.6653981960305,1,-2206.0709492016604,2418.9292313331152,65994.998523892966
70,0.375,0.5,1647.4008894123565,1,-2006.8038013773482,-1650.2465741400626,170421.96654154087
79,0.3125,0.3125,1631.6782962610441,1,-2810.2137675531844,-1521.4538630523787,-61548.110214178989
78,0.25,0.375,1780.224211940865,1,-3549.2353926570145,797.69483121096164,-9471.2891298991017
24,19,2,1,60.59792569554606,1
25,11,1,1,72.112530837887519,2
25,7,1,1,71.198347511913909,2
26,12,1,1,83.222781396533108,2
27,12,1,1,99.890708528974599,2
27,17,1,1,99.204135563887235,2
27,16,1,1,55.184684731015992,2
20,15,2,1,94.979781921638775,1
21,20,2,1,57.864651785533134,1
28,11,1,3,74.912268969734669,3
28,25,1,3,86.126531110370038,3
28,12,1,3,63.84702947526052,3
28,27,1,3,68.042116334221873,3
29,13,1,1,71.093657075412381,2
29,12,1,1,90.400913554723218,2
29,7,1,1,86.461942862563419,2
4,3,2,1,25.08353209826025,1
59,57,1,2,0.0,3
59,53,1,2,0.0,3
59,17,1,2,0.0,3
59,52,1,2,0.0,3
58,54,1,2,0.0,3
58,57,1,3,36.436161587830803,4
58,51,1,3,46.391201876086711,4
58,17,1,2,0.0,3
55,9,1,2,0.0,1
55,8,1,3,56.981798579660769,2
55,3,1,3,33.557329701636128,2
55,4,1,2,0.0,1
54,26,1,1,54.644418538483883,3
54,17,1,1,43.386951784671005,3
54,18,1,3,75.910902585704022,3
54,51,1,3,79.773279699745174,3
57,52,1,1,43.78248067540212,3
57,17,1,1,47.088146087747326,3
56,55,1,2,0.0,2
56,8,1,2,0.0,2
56,3,1,2,0.0,2
56,42,1,2,0.0,2
51,18,1,1,80.848967852058649,2
50,1,1,2,0.0,5
50,46,1,2,0.0,5
50,41,1,2,0.0,5
50,49,1,2,0.0,5
53,27,1,2,0.0,2
53,52,1,3,55.516094994007645,3
53,17,1,3,49.787184873714509,3
53,16,1,2,0.0,2
52,16,1,1,58.083614154548869,2
88,77,1,2,0.0,4
88,57,1,2,0.0,4
88,51,1,2,0.0,4
88,58,1,2,0.0,4
89,22,1,3,12.101047891421196,6
89,77,1,3,12.472859302890766,6
89,87,1,2,0.0,5
89,84,1,1,7.0228265396315388,6
82,51,1,3,27.541177724506575,4
82,81,1,3,22.470249288376014,4
83,51,1,2,0.0,4
83,77,1,3,19.837157260090503,5
83,76,1,1,17.014542387221471,5
83,82,1,3,24.399858623362462,5
80,13,1,2,0.0,3
80,37,1,2,0.0,3
80,36,1,2,0.0,3
80,65,1,2,0.0,3
81,18,1,2,0.0,2
81,51,1,3,49.127130079852819,3
81,69,1,3,61.216074786148546,3
86,22,1,3,26.146152625502147,4
86,57,1,3,33.688716249741269,4
86,52,1,3,33.337285003018195,4
86,85,1,3,24.372257272006799,4
87,77,1,3,17.169967823021505,5
87,57,1,2,0.0,4
87,86,1,2,0.0,4
87,22,1,3,22.932553569417085,5
84,76,2,1,11.598440910796004,5
85,21,2,1,24.05796523134968,3
85,22,2,1,23.774456855673606,3
3,2,2,1,31.136167543338434,1
100,82,1,2,0.0,5
100,76,1,2,0.0,5
100,94,1,2,0.0,5
100,83,1,2,0.0,5
101,77,1,2,0.0,6
101,93,1,2,0.0,6
101,89,1,2,0.0,6
101,84,1,2,0.0,6
39,0,1,3,26.354939489072997,2
39,5,1,2,0.0,1
39,6,1,3,57.043606226295182,2
38,2,2,1,12.700698092352837,3
33,7,1,1,35.549059174167951,2
33,6,1,1,52.269804586318472,2
32,11,1,1,69.034296039042204,2
32,10,1,3,56.911317597622293,2
32,6,1,3,95.434611800312595,2
32,5,1,2,0.0,1
31,13,1,1,81.463852696996852,2
31,14,1,3,94.060916622388802,2
31,19,1,3,85.024788285076951,2
31,18,1,1,83.545624936919594,2
30,13,1,3,65.498065440959209,3
30,12,1,2,0.0,2
30,26,1,3,76.65389588370391,3
30,29,1,2,0.0,2
37,31,1,2,0.0,2
37,36,1,3,56.207314542981138,3
37,13,1,3,74.749135647532924,3
37,14,1,2,0.0,2
36,14,1,3,58.514204747366975,2
36,9,1,2,0.0,1
36,8,1,3,114.52621645615258,2
35,11,1,2,0.0,2
35,10,1,2,0.0,2
35,34,1,2,0.0,2
35,32,1,2,0.0,2
34,11,1,1,57.967006771360701,2
34,10,1,3,76.738258073717574,2
34,15,1,2,0.0,1
34,16,1,3,97.822729840185715,2
60,27,1,2,0.0,2
60,26,1,3,88.464131488772608,3
60,12,1,2,0.0,2
60,17,1,3,99.270325255564174,3
61,60,1,2,0.0,3
61,54,1,2,0.0,3
61,26,1,2,0.0,3
61,17,1,2,0.0,3
62,8,1,3,78.051028104912433,3
62,42,1,2,0.0,2
62,29,1,3,69.305375541860599,3
62,7,1,2,0.0,2
63,13,1,3,55.563818424024674,3
63,18,1,3,69.512911629296354,3
63,31,1,2,0.0,2
63,26,1,1,51.113643209358386,3
64,13,1,2,0.0,3
64,63,1,2,0.0,3
64,26,1,2,0.0,3
64,30,1,2,0.0,3
65,13,1,3,54.883996333435377,3
65,29,1,3,54.837824902187158,3
65,36,1,3,83.054187288288603,3
65,8,1,3,84.626466792614252,3
66,18,1,2,0.0,3
66,26,1,2,0.0,3
66,63,1,2,0.0,3
66,54,1,2,0.0,3
67,11,1,2,0.0,2
67,25,1,3,47.653929218210763,3
67,32,1,2,0.0,2
67,6,1,3,71.141076500890193,3
68,20,1,2,0.0,1
68,15,1,2,0.0,1
68,21,1,3,59.23800091968171,2
68,16,1,3,84.710503821971969,2
69,24,1,3,49.836831892974224,2
69,19,1,3,66.191555807042164,2
69,18,1,1,75.014493847621523,2
6,5,1,1,86.765808560208683,1
99,89,1,2,0.0,6
99,84,2,2,0.0,6
99,22,2,2,0.0,6
98,82,1,2,0.0,5
98,94,1,2,0.0,5
98,97,1,2,0.0,5
98,23,1,2,0.0,5
91,90,1,2,0.0,3
91,85,1,3,24.311986752433207,4
91,21,1,2,0.0,3
91,52,1,3,29.307034955152584,4
90,68,1,2,0.0,2
90,52,1,3,43.486720346043725,3
90,21,1,3,46.829888479092268,3
90,16,1,2,0.0,2
93,77,1,3,13.843378500795041,6
93,76,1,2,0.0,5
93,84,1,3,9.9217300803765909,6
93,83,1,2,0.0,5
92,91,1,2,0.0,4
92,85,1,2,0.0,4
92,86,1,2,0.0,4
92,52,1,2,0.0,4
95,24,2,2,0.0,2
95,69,1,3,31.866676133080524,3
95,23,2,1,18.000613785465703,3
94,82,1,1,11.539580210702372,5
94,76,2,1,11.802328542000167,5
94,23,2,1,9.9956468993841483,5
97,82,1,3,14.624596542026234,5
97,96,1,2,0.0,4
97,81,1,2,0.0,4
97,23,1,3,16.660873849104082,5
96,69,1,2,0.0,3
96,81,1,3,37.591054490616628,4
96,95,1,2,0.0,3
96,23,1,3,19.830544535706384,4
10,5,2,1,46.283293972377884,1
15,10,2,1,84.095997083454094,1
14,9,2,1,58.629787657095044,1
16,15,1,1,108.64804373144389,1
19,14,2,1,100.27910515852918,1
48,1,1,3,9.4040976803939511,4
48,47,1,2,0.0,3
48,39,1,2,0.0,3
48,40,1,3,17.389071798706492,4
49,1,1,3,9.3125987320263484,5
49,41,1,3,8.8352767214769088,5
49,48,1,2,0.0,4
49,40,1,2,0.0,4
46,1,2,1,3.6307922658657712,5
46,38,2,2,0.0,4
46,41,1,3,7.6742658985112406,5
47,1,2,1,7.6978287295647831,3
47,0,2,2,0.0,2
47,39,1,3,10.581223818161757,3
44,33,1,3,17.030223256086003,4
44,2,1,2,0.0,3
44,43,1,2,0.0,3
44,38,1,3,10.154303142590484,4
45,33,1,2,0.0,4
45,44,1,2,0.0,4
45,38,1,2,0.0,4
45,41,1,2,0.0,4
42,3,1,3,33.124381349004899,2
42,2,1,3,36.535656392163446,2
42,7,1,1,70.552068923507008,2
42,8,1,1,78.800775147252097,2
43,33,1,3,32.983853695144887,3
43,2,1,3,33.853449150449919,3
43,42,1,2,0.0,2
43,7,1,2,0.0,2
40,39,1,3,37.132312061934151,3
40,33,1,3,40.167661615394728,3
40,6,1,2,0.0,2
41,38,1,1,6.9744884923592139,4
41,33,1,3,13.487137828820593,4
41,40,1,3,15.186510621312387,4
5,0,2,1,35.194291731669352,1
9,4,2,1,55.739265803753035,1
9,8,1,1,99.100510144689864,1
77,57,1,1,22.009306187671989,4
77,51,1,1,22.7002491625868,4
75,11,1,2,0.0,3
75,27,1,2,0.0,3
75,28,1,2,0.0,3
75,74,1,2,0.0,3
74,11,1,3,52.952123894167961,3
74,34,1,2,0.0,2
74,27,1,3,64.084426325734242,3
74,16,1,2,0.0,2
73,8,1,2,0.0,3
73,62,1,2,0.0,3
73,29,1,2,0.0,3
73,65,1,2,0.0,3
72,19,1,2,0.0,2
72,18,1,2,0.0,2
72,31,1,2,0.0,2
72,69,1,2,0.0,2
71,25,1,2,0.0,3
71,12,1,2,0.0,3
71,28,1,2,0.0,3
71,70,1,2,0.0,3
70,25,1,3,78.405243331498127,3
70,12,1,3,68.028909621881326,3
70,29,1,2,0.0,2
70,7,1,2,0.0,2
79,67,1,2,0.0,3
79,25,1,2,0.0,3
79,78,1,2,0.0,3
79,6,1,2,0.0,3
78,33,1,2,0.0,2
78,25,1,3,38.7896430299946,3
78,7,1,2,0.0,2
78,6,1,3,50.946655122091151,3
