2
545
1.19785196083e-08
344,0.28125,0.15625,2871.1063497045575,1,-775.62894447425106,-1384.3672425959519,48061.361836100165
0,0.0,0.0,3459.9916581442581,0,5924.5627649945673,3585.4908121843614,28100.272187942574
346,0.28125,0.65625,1845.079179512996,1,-7394.1505262788769,4193.3185372518474,973380.13057573652
347,0.21875,0.65625,2201.4518078623355,1,-3645.7652668597734,5675.3772832079294,-16719.217890936354
340,0.09375,0.96875,3945.6721043923726,1,3936.2755631795594,-3817.4776733120175,33496.309135953539
341,0.21875,0.09375,3205.7503368921748,1,1045.6713886614832,970.05556529636135,38520.072402010752
342,0.21875,0.15625,2989.9346844811853,1,885.60613202473894,-1062.7275038347582,45200.604417932904
343,0.28125,0.09375,3080.5317555726992,1,-293.10095775251432,743.19603067793128,40695.652768277971
348,0.21875,0.59375,1868.0924541255995,1,-3508.5251270113522,-217.64913328757262,-85722.479802037808
349,0.34375,0.46875,1851.2862740804569,1,144.90085457292113,4972.8239424758458,6716.2503035561267
298,0.09375,0.84375,3606.8170452634836,1,2978.1407810292121,-90.206062027295033,30645.003571552523
299,0.15625,0.90625,3723.7748678451217,1,2194.7636221635635,-1569.9438025465245,34694.951929288109
296,0.15625,0.15625,3047.385011806653,1,1941.7111470240939,-1057.6641514827845,31971.112364233977
297,0.15625,0.09375,3277.8186436106425,1,2284.3503763288168,953.96818960495364,33358.804415581479
294,0.09375,0.15625,3080.6538343051593,1,2691.9658107916202,-855.14480954571945,24073.737934636807
295,0.09375,0.09375,3315.6813427746151,1,3375.9671385861002,908.84378678192547,28495.216863510126
292,0.09375,0.34375,2132.3314868589955,1,-781.61527142308341,-1818.8181276597204,206.65626938341475
293,0.15625,0.40625,1863.0663384919392,1,-1777.7747706618277,-1125.1591681744794,-21644.010629287299
290,0.09375,0.40625,1952.6704788650388,1,-1383.9263890741513,-778.1678019434745,-7169.7711173127409
291,0.15625,0.34375,2037.4226466522489,1,-1797.4880828922128,-1756.0634457016592,10081.363707060229
199,0.875,0.5625,2548.9734833903244,1,2761.4171417908442,-2986.3343524997599,49532.232740757208
198,0.8125,0.625,1940.1414121447795,1,7899.9619720194796,1974.7137772548426,-108806.9260436015
195,0.875,0.3125,3012.3021432985479,1,807.48380278659397,369.94707748772237,38682.768339146598
194,0.8125,0.375,2542.4904310109828,1,2764.2299333708825,-2319.173424716832,43721.396732872337
197,0.9375,0.625,2647.6935974959738,1,415.07692455304368,-1470.4859827373311,27070.169533933138
196,0.875,0.4375,2816.5554011053964,1,2482.8125012634955,59.787794655980434,56958.237166766448
191,0.3125,0.5,1901.1906328812959,1,1106.1460192990435,2046.297754955039,-276822.03524466191
190,0.25,0.5625,1807.8831827334525,1,481.06999367699586,-7333.8141966810235,-78427.721691191226
193,0.9375,0.375,3132.5616139010349,1,-1199.1105667680445,389.69307623858134,44721.404683884881
192,0.1875,0.5,1875.5595911493513,1,-442.70285175791264,1171.3719773114458,36389.686198282601
270,0.6875,1.0,2368.1839129387718,0,-1345.7713308548223,-691.48612122852944,9147.0637913703249
271,0.8125,1.0,2533.1129427608266,0,-9.082646406763331,-2277.083382239317,9179.3775833529035
272,0.75,0.6875,1980.6450161011492,1,3576.3020817562051,9331.5878916216298,184158.20617278121
273,0.6875,0.75,2009.1826095898616,1,11772.719307623249,-331.40352647175257,946823.71550926287
274,0.75,0.8125,2358.9567065609003,1,3652.0290871826892,-3078.4467739017755,55344.295693629356
275,0.8125,0.75,2478.8558445781127,1,-620.69254144965112,1655.0319431071548,64350.718934766526
276,0.9375,0.875,2782.0170726066635,1,-1953.8234536377101,-2237.9289437384596,22898.538758762406
277,0.8125,0.875,2544.7980257411086,1,802.31265612317077,-1979.0319078762134,18300.902757363183
278,0.875,0.8125,2670.2385030541359,1,-926.39550695639787,-1074.0671553878183,31223.17660390359
279,0.875,0.9375,2694.8218014638283,1,-651.35179333590759,-2726.9378184590473,17049.043075639223
524,0.59375,0.96875,2511.1866992280252,1,-1823.4350747924464,-1057.9388748933086,28195.415590947025
525,0.84375,0.03125,3237.1770326063825,1,-622.28775932113501,3839.2839172051176,23665.805571996007
526,0.90625,0.03125,3409.3299390959905,1,-1915.4827746359813,4530.7362258754183,25327.435756897379
527,0.78125,0.09375,2966.2983150469227,1,526.575383322108,1737.8737335004173,22941.901059401742
520,0.84375,0.46875,2568.1634410745814,1,4461.5959477583656,682.51111019412815,85013.714494363987
521,0.90625,0.53125,2760.7580992741373,1,801.44857843980571,-1962.9869729552156,54839.177778472636
522,0.90625,0.46875,2897.3915004470564,1,512.52729096859241,-614.835653506722,59114.461876371148
523,0.65625,0.96875,2392.0108043846612,1,-1783.9391127445326,-440.35833041926452,14200.215053558211
528,0.71875,0.09375,2699.9500996406405,1,1201.4999391637446,866.60373126807031,19661.71747264154
529,0.78125,0.15625,2878.983677900776,1,927.91995723363016,434.91651685080728,25184.689296590197
449,0.53125,0.46875,1414.3466466585583,1,-3468.8430205523478,-782.5366727750644,-818106.59989306377
448,0.46875,0.03125,2541.3918934349872,1,-2506.8862193973964,576.23612384919693,21770.259665175086
443,0.53125,0.21875,1748.5454954654372,1,-225.35287681822004,-4134.9290886636791,-314072.70060341241
442,0.28125,0.21875,2543.8399517727548,1,-1548.2876099760026,-3819.2859370473616,97103.253003402919
441,0.28125,0.28125,2045.7785597788413,1,-2996.0863810191272,-8966.1166671364099,386666.74804677203
440,0.21875,0.21875,2654.3168438303583,1,830.19302841307262,-3603.258864531429,57510.017397310367
447,0.53125,0.03125,2377.2723487940161,1,-1822.0151155325525,-424.62816518670394,10315.825062236507
446,0.46875,0.28125,1600.880964823305,1,-4096.3687077575851,-3951.2598751250944,-250745.14506466629
445,0.46875,0.21875,1940.3164232327997,1,-6960.5341403603434,-4403.1945075458525,-289646.15632117883
444,0.53125,0.28125,1561.6163684331086,1,1050.3527295337776,-294.08461806712705,389506.294636985
108,0.3125,0.8125,2855.2069448826346,1,-1009.843896441061,3165.1739899800805,75454.742049964843
109,0.3125,0.6875,1761.3457447446351,1,-8083.0924311812078,3839.3797632705628,-605091.86480055214
102,0.1875,0.1875,2876.1276119309737,1,1396.6045778240584,-2248.7118408884226,38451.537252024827
103,0.3125,0.3125,1583.2474585148934,1,-6741.891248123924,-10427.483710457405,-209948.92001759182
100,0.1875,0.5625,1939.8279143201448,1,-2235.8728140010417,-476.97821301255857,24215.367758431552
101,0.1875,0.3125,2080.4812431991513,1,-2883.5294729198672,-2751.036422169163,-37818.328682262545
106,0.1875,0.9375,3734.7129388322205,1,1730.2441640286659,-2458.0912326216849,36648.068509600947
107,0.1875,0.8125,3268.8794085303698,1,375.7261170358114,1371.9342312819156,32187.582736917164
104,0.3125,0.1875,2637.6979070639741,1,-2079.3160756068401,-2989.6407665487072,44093.894833000231
105,0.3125,0.9375,3330.787509994881,1,-777.97946125759188,-1540.861725762968,40990.777081442357
39,0.875,0.375,2901.2416708947612,1,1691.4843168962125,-186.41309170294375,42138.709675026614
38,0.875,0.625,2403.6847812787828,1,3727.9105665971706,-1120.0565493568795,7419.8466899324148
33,0.625,0.375,1358.30766721488,1,-1025.6105118587191,-1052.5331664567341,47928.47456535411
32,0.375,0.875,2865.7413278127465,1,-2761.5597508877836,1782.5613973328143,44434.816270772841
31,0.375,0.375,1386.4171737230704,1,-3653.9330270952673,6964.2035579315143,-299931.95942081051
30,0.375,0.625,1311.2153389476507,1,993.15258257509629,-1475.3941545377877,376393.63222463318
37,0.875,0.125,3276.9039132580806,1,-896.03549354938332,2391.0512992878312,25945.550240151038
36,0.625,0.625,1264.8726714734155,1,-112.33534771039665,-3360.5809630335298,248182.51428131256
35,0.625,0.875,2315.7809405098837,1,-3856.4445072655358,1246.0913765718567,40379.946472225442
34,0.625,0.125,2272.2294838531111,1,2009.4610781806371,-1270.9342274087119,-12239.647277076469
438,0.46875,0.59375,1338.9853450622886,1,-1440.1594178368678,-2626.1869095243674,614139.09411096352
439,0.21875,0.28125,2195.0720551276859,1,-1448.0790522047375,-5787.1751058793661,-47298.546501282835
436,0.46875,0.65625,1315.323405346164,1,-4889.7652112289015,-1480.9868984728189,-294088.18436472159
437,0.53125,0.65625,1559.8597848404306,1,8917.7013089060129,-1156.9139247289788,3129021.7893618722
434,0.65625,0.71875,1551.8444671475115,1,8538.5846272487888,7985.6519095846443,-79341.079576654491
435,0.53125,0.59375,1312.4641209486103,1,3033.4243946422243,90.55191209808109,-1322961.9008219282
432,0.59375,0.71875,1311.9721599874997,1,-3206.2684946603117,-2522.970602515963,-656466.21397192264
433,0.59375,0.78125,1842.9794730939905,1,-1645.3996600165885,12082.85196726709,664552.64754916809
430,0.40625,0.71875,1630.5862704586273,1,-4814.4828705043637,2563.9922293768946,137386.26657904676
431,0.65625,0.78125,1803.3885148695861,1,4636.3570311728154,922.69632429179478,-1340748.0097904415
339,0.15625,0.96875,3839.694718175409,1,2483.9346800477806,-3669.8188167261028,35481.170949597705
338,0.34375,0.21875,2313.5304435775711,1,-3126.0848753321743,-5727.9578035474306,-13540.019458315917
335,0.34375,0.28125,1773.4634434932273,1,-2337.86307564047,-7551.8650532974298,122497.29954569247
334,0.21875,0.40625,1791.0998517193027,1,120.32996221656154,592.15320651643788,-313073.01804978214
337,0.40625,0.28125,1715.1716416519732,1,1333.4368208184565,-8183.3783162926002,-321916.94399604946
336,0.40625,0.21875,2186.2212183007559,1,808.58013634321139,-3707.1487881213748,152277.0252199794
331,0.21875,0.34375,1853.4883115113548,1,-2703.8107121062594,-548.09584589626854,-109217.66695809553
330,0.46875,0.15625,2271.3844518369556,1,-2887.1042934696434,-2468.9117829559823,77051.017863151428
333,0.28125,0.34375,1641.1659426371609,1,-2538.2090749888735,2223.5060850242007,-240537.85397520382
332,0.28125,0.40625,1849.8246494143555,1,-34.312294134288663,3436.6998683211796,275844.88194304152
345,0.28125,0.59375,1661.5135113788292,1,-473.70804309794732,-6036.6075629333591,-1041769.9136910752
6,0.25,0.25,2404.320433949722,1,340.39623334870532,-5955.9629440311892,123495.36798655061
99,0.3125,0.4375,1910.2418012694,1,1658.4877820223451,-4761.5290326252534,-70636.809997059419
98,0.3125,0.5625,1734.8920334327711,1,-4977.2301174961394,-8991.9915183674311,969891.16237605107
91,0.0625,0.8125,3501.6693615039371,1,3294.6085672875506,572.6309209017013,28110.704319214776
90,0.0625,0.6875,2780.50202169062,1,1016.459804537917,2325.3337004229093,16777.26986398048
93,0.0625,0.5625,2152.3672447162744,1,-648.77791731748914,1746.6277660688738,4204.5392332782276
92,0.0625,0.4375,1939.6859814915952,1,-1305.7480990792799,-116.69539244923685,-4858.2478206938222
95,0.3125,0.0625,3068.5701975252891,1,-817.41209849191739,1598.9975268523797,38294.772272615432
94,0.1875,0.0625,3325.0914043160001,1,1769.3856606898928,1992.6528758505851,35393.122899240087
97,0.1875,0.4375,1792.2500376346277,1,-916.44676256643709,1111.8591565039683,-144315.76864777712
96,0.0625,0.9375,3946.8376731087183,1,4615.4398292262085,-2862.7766096505661,32469.485139607688
238,0.1875,0.25,2476.7312426424128,1,142.96343854682317,-4414.192337741878,6124.3551869793764
239,0.25,0.1875,2807.0086967279185,1,-26.778435359892697,-2098.3285099679056,61968.809163686587
234,0.0,0.5625,2165.8216132526895,0,-245.81151209917911,1766.7769074807754,4456.5114645973244
235,0.0625,0.5,1978.7131301397178,1,-1118.0311307196264,1008.2334166260853,-1888.4979102831855
236,0.25,0.3125,1875.1671239387533,1,-2081.6647514523247,-5356.3250493607475,-280995.58049639885
237,0.3125,0.25,2203.5555965031363,1,-4609.5840137271789,-6069.5407409439931,158854.94003037678
230,0.625,0.0625,2379.6491552167313,1,583.09661493048077,-684.24891639141788,2691.3808029634693
231,0.625,0.1875,2147.5405458197856,1,3181.2560122172449,-542.6560540602319,72205.167993395051
232,0.5625,0.125,2143.1690069290889,1,-1059.4687773518008,-3734.3216156701715,-27513.832217963452
233,0.0,0.4375,1950.5847263664989,0,-1154.4569566715313,-126.70531093071708,-2368.599309455964
1,0.0,0.25,2616.0958807311081,0,1994.1580270593709,-1958.8631099772317,11571.621073971515
146,0.9375,1.0,2792.2010236165165,0,-1865.7575446471449,-4119.1638167340152,18780.709768651566
147,0.1875,0.375,1860.2863848467057,1,-2567.888232507014,-1600.1198777967504,79661.331327999666
144,0.6875,0.5625,1283.6997108811354,1,-1200.7202680964169,1214.0660895329445,-310147.66668299865
145,1.0,0.9375,2822.7922803410193,0,-3192.157433112277,-3233.9490478123826,20668.741991553103
142,0.8125,0.5625,2125.0201983899437,1,6515.8394539747005,-7834.6624755085522,81807.486028115847
143,0.6875,0.4375,1372.2163606669528,1,-463.09450450494171,296.43754503179116,-130997.90672432981
140,0.6875,0.9375,2334.498313630339,1,-1312.2231211067515,452.36375289782256,2933.7181600228705
141,0.8125,0.4375,2329.4866041251539,1,8619.2895760507909,-686.52133595560929,-3120.2613290662948
148,0.125,0.3125,2228.8200893817798,1,-955.42523720766326,-2291.6480809803666,3113.8926233513334
149,0.0625,0.375,2048.0835317546116,1,-890.36739375874686,-1285.8715680147513,-1899.2314511854004
133,0.4375,0.9375,2833.5131445985571,1,-1374.8467714672327,341.78770764363514,31029.851258979841
132,0.9375,0.5625,2774.9195520085632,1,-147.11688658431473,-2009.0432781830721,41627.523448461136
131,0.9375,0.4375,3049.9981655377578,1,-1047.6258077349205,-256.03161588671367,51302.655414045927
130,0.5625,0.5625,1277.0282932802384,1,833.39864085026113,-2766.0895165461056,395477.96316710266
137,0.8125,0.1875,2954.7959948439529,1,931.5908875968579,355.56623120362747,24579.093676036453
136,0.6875,0.3125,1716.9186120784893,1,5422.0244719751354,-4196.7363802834298,91959.837156871174
135,0.8125,0.3125,2688.3821308455144,1,3554.3892156495212,138.86039057901394,50630.658533070033
134,0.5625,0.9375,2558.320021338096,1,-1337.273117606215,-512.12990287199216,37114.149948260376
494,0.96875,0.65625,2663.3543541461709,1,-869.33942409104145,-1139.7580879863262,25911.955012506856
495,0.84375,0.84375,2623.6352265693145,1,-196.69649784407986,-1763.1923200094539,29674.42220319399
139,0.8125,0.9375,2537.1253293565446,1,309.76989443598961,-1861.4245183649884,9258.7500832096084
138,0.6875,0.1875,2407.2342628337728,1,1538.9176631099162,-1704.4680987999661,46178.421113804085
490,0.03125,0.34375,2166.0264231368378,1,-273.68738469672252,-1635.3307193981416,1726.9350581230563
491,0.96875,0.40625,3137.6339314429792,1,-2574.3762584357505,99.952177844963714,47301.589019700616
492,0.96875,0.34375,3212.9817565897797,1,-2667.4548086324016,738.49400525380986,41747.094897161121
493,0.96875,0.59375,2749.0185245361863,1,-1091.7724080312041,-1770.1318925104717,34795.116269913764
24,1.0,1.0,2814.8885091504394,0,-3136.0857558637567,-4321.6550799763609,19807.217512303134
25,0.125,0.375,1988.5433100698926,1,-1234.7817761282779,-1524.5153105023198,-4631.4404425390912
26,0.125,0.125,3204.3325942746051,1,2638.5722786250376,-50.047041825459011,29474.717894490594
27,0.125,0.875,3691.7005020764964,1,2605.6574085092816,-786.81345666030575,32663.621190902148
20,1.0,0.0,3503.443807653674,0,-4246.4604384276108,5718.0481362003802,26155.993523180819
21,1.0,0.25,3333.6408736717949,0,-3954.2403579894526,1640.1431965835266,34163.332125501896
22,1.0,0.5,2992.110543601415,0,-3630.2535773501049,-1257.2194262579612,47738.83783368404
23,1.0,0.75,2702.7829992155566,0,-2554.8768788341586,-819.56734116202813,23826.499173592307
28,0.125,0.625,2339.164803335168,1,-1339.036419761512,2233.3922848012871,7450.1741030117109
29,0.375,0.125,2717.500581594657,1,-1971.6120409397033,-988.61431516796358,37982.367186524571
407,0.84375,0.09375,3203.1092668114156,1,-447.46050832287523,2578.6734747672572,24612.266771466195
406,0.40625,0.59375,1339.8388091872537,1,1324.8079920753974,170.51399800846301,-121220.45409145603
405,0.40625,0.65625,1338.4798376435549,1,1155.7715303846439,-769.51172688253246,-801722.06603945035
404,0.34375,0.65625,1449.8913943650714,1,-391.33667935787298,-153.7888924354755,-269674.97395505686
403,0.34375,0.59375,1438.6074069970514,1,-5282.6427429696969,-5023.2285743034481,-729531.91825001524
402,0.40625,0.34375,1382.9965588806438,1,-291.06154416622275,-146.38264448433802,455601.94816481124
401,0.34375,0.34375,1383.2962457789306,1,-2747.8287094753459,962.29848291862891,-1918684.859552721
400,0.40625,0.40625,1423.7716330821302,1,4208.5102167870855,5721.4850308135019,-1254838.9483433729
409,0.90625,0.09375,3378.9404002405217,1,-1763.7325097567318,3253.6608201181862,26096.086628871566
408,0.84375,0.15625,3128.8250619686964,1,-3.7291256566046238,1446.6482448665006,25549.233050614366
379,0.28125,0.46875,1861.0517213009457,1,342.78439088202384,-1122.9503850306289,-7816.3745082323258
378,0.03125,0.71875,2982.5035362416083,1,2240.2415209287701,2011.3739905362486,19856.353305355537
371,0.46875,0.40625,1433.6553578201306,1,-2031.3003534786324,4107.7266999489229,-1915177.8856399355
370,0.53125,0.40625,1423.1163703890245,1,-2192.4481293258877,1385.4246546295278,326383.01161313278
373,0.71875,0.90625,2294.5672301699883,1,116.03010012898565,746.67539583914265,-13858.910768706988
372,0.46875,0.34375,1424.1194804460495,1,2068.5654062161034,736.43329744975983,-126686.70909460992
375,0.71875,0.84375,2194.2465311974911,1,3923.3671357118114,534.15070754734813,-93254.309412019167
374,0.78125,0.84375,2451.0074985355322,1,1776.3179501228256,-2020.922182749624,24852.943660126191
377,0.03125,0.78125,3347.3261759247944,1,3493.8575846633398,1134.7073846842707,25325.027451075825
376,0.78125,0.90625,2445.6454134802962,1,998.13850179037536,-1157.6162565379727,1706.8989685815366
393,0.65625,0.34375,1471.1802110581234,1,2697.4061657746934,-935.20486377675411,-254454.20554300107
392,0.59375,0.34375,1406.7419077822694,1,-1772.6057170477306,233.5284468959772,611289.86807275796
88,0.0625,0.1875,2944.8425112560503,1,2573.6456337916702,-1415.1850099831963,19089.363143218656
89,0.0625,0.0625,3408.971218967486,1,4195.2079615644707,1813.3697968445615,28166.096300537167
397,0.40625,0.84375,2528.5567716371397,1,-4210.8533888080547,4679.9246819509999,40881.306658171721
396,0.34375,0.84375,2870.3424067974347,1,-2462.1176375824989,1890.2982198094571,62217.803314455792
395,0.40625,0.90625,2846.0759503186437,1,-2062.6645244826609,1298.2989098490502,31671.138964040711
394,0.59375,0.40625,1357.0573907917594,1,-2013.6535870746222,1171.8490405261255,-456272.7139427822
82,0.9375,0.0625,3461.363319769182,1,-2602.0220924800469,4085.2735260927611,26146.009040795947
83,0.9375,0.1875,3352.8266238670758,1,-2118.5494511485945,2102.3754781373304,29685.253504473738
80,0.75,0.875,2330.3095670951848,1,2197.2427710375714,-473.61728777618021,-20138.344388004589
81,0.9375,0.9375,2795.7506709897693,1,-1895.8256503542934,-3118.001733223055,19972.200969845613
86,0.9375,0.8125,2741.5941454015915,1,-1838.3261102358745,-1259.4093654461219,25145.072465999318
87,0.0625,0.3125,2288.5571090949438,1,-5.6604204011577917,-2028.5712092371646,4243.4043474039072
84,0.9375,0.3125,3207.6727712056277,1,-1507.3254638808285,900.18971615007251,38683.849636929248
85,0.9375,0.6875,2618.6811690818076,1,-115.60220416365443,-496.85653927844942,21531.59831093876
7,0.25,0.5,1879.2154507996574,1,1051.3863700874792,677.89550196359494,-15846.484350548351
245,0.4375,0.0,2664.0243290341764,0,-2447.9132104712303,1930.8654194916307,26501.779159320598
244,0.5,0.0625,2415.129514379923,1,-2504.8056120737947,-613.63360241377461,15422.292097222022
247,0.4375,0.75,1631.2529748651639,1,-71.696648858866922,-1679.9577318604665,-1063160.7653628923
246,0.5625,0.0,2351.8123086644255,0,-1148.1760172576212,-268.94803235000228,7546.6394142184135
241,0.5,0.3125,1494.0497423621205,1,753.70051410079532,-402.38358150324461,208237.71130841514
240,0.4375,0.25,1908.5829247981785,1,-4051.6304441258631,-7293.2850515618884,873304.18602384208
243,0.5,0.1875,1976.7469355977523,1,-4646.0261514123376,-7163.6638794633873,251874.00537527466
242,0.5625,0.25,1691.9271664360306,1,2582.7019140119187,-2124.772420483449,209110.19728259428
249,0.5625,0.75,1545.3703253818626,1,-3935.7796991572445,14225.790434711545,-770727.61885375017
248,0.5,0.8125,2120.6587059734616,1,8277.8921912604019,1914.2505002939654,-222065.95555556097
519,0.84375,0.53125,2478.6357464920179,1,3764.8800163473306,-2874.5340600253662,104389.15022726926
518,0.71875,0.65625,1552.2602433681254,1,4827.4214588566947,6384.4868426096073,-83764.116851061583
511,0.84375,0.21875,3024.0237031818165,1,871.45271894286702,590.86118777917932,24911.341244032395
510,0.78125,0.34375,2400.7151872372087,1,4457.0959856411664,75.845017263495578,139655.9032953791
513,0.90625,0.21875,3241.9906590609799,1,-968.91261171736664,1509.168027597899,30415.874162708598
512,0.84375,0.28125,2911.9784707070285,1,1779.1218803361487,380.0251270094862,34319.858107639477
515,0.71875,0.59375,1378.7738107458413,1,2663.9895126033834,-413.90131035224891,356614.63943019923
514,0.90625,0.28125,3160.7341699561553,1,-533.186108881834,946.06461044904563,35561.148845171163
517,0.78125,0.65625,1875.0828422842344,1,3605.5826266118429,6391.8375219388263,-137990.10294977899
516,0.78125,0.59375,1724.730769903128,1,6492.120178329088,-2627.509629338052,-758332.11392774759
458,0.65625,0.53125,1279.7475654320774,1,-1683.7151783890636,126.52557748819916,390310.98021135951
459,0.59375,0.53125,1308.9666315949132,1,-1490.8717091709416,1531.856343270485,14767.121881380768
450,0.53125,0.53125,1344.4965067930455,1,-2629.4313093738447,-1278.6646080861267,-89682.887044243776
451,0.46875,0.53125,1512.8618892771167,1,-1487.7964338726204,-4110.9290027771667,119248.05238076211
452,0.46875,0.46875,1662.4465097425273,1,-4081.1630986938471,-2329.6823709448731,676092.60866677423
453,0.78125,0.03125,3001.4364234707082,1,372.92935398474634,2891.5856082146734,20804.409072687416
454,0.71875,0.03125,2735.3114962977579,1,949.57615869996584,1710.3808146894166,15629.629215991656
455,0.46875,0.96875,2790.575349572624,1,-1144.726542034769,-905.16252605622651,32860.367883093939
456,0.53125,0.96875,2644.9602096884819,1,-1207.4179598429832,-1118.9521535175277,33699.452714429164
457,0.65625,0.46875,1320.468224659865,1,-1243.4539378455763,-897.21937418745188,87015.642376784032
179,0.0625,0.0,3462.9230761305689,0,4381.302343291859,3667.778171558627,29079.194259818287
178,0.0,0.0625,3411.6734776969993,0,5664.2497552290624,1784.5560165242223,27055.526003472271
177,0.4375,0.125,2491.3939346371449,1,-2561.199924719971,-1357.6543411632474,43118.145790557275
176,0.375,0.0625,2861.7559227834104,1,-1841.4158592313581,1058.6708931416181,35640.673694592893
175,0.3125,0.125,2913.7645948682748,1,-1053.4981279019398,-571.32486166299236,43063.320491633371
174,0.375,0.1875,2438.0495868537728,1,-1327.7198345034876,-4173.6719183363775,53864.353292097119
173,0.125,0.5625,2084.8355500569269,1,-1202.945803203022,1392.2003706816827,6762.9770028569528
172,0.125,0.6875,2689.001275788457,1,-270.55562948147696,2796.0147579371173,16685.303963062757
171,0.0625,0.625,2430.5004892450406,1,-9.7120239633103864,2225.5655507054435,10191.003051067039
170,0.1875,0.625,2131.2038329386255,1,-3883.6964691958328,2646.1439173962358,-23142.278093440327
253,0.5625,0.5,1319.6556343263294,1,-142.81084642776506,961.77839606938596,-130904.02326484451
182,0.25,0.6875,2270.8630026966584,1,-4381.7063375360613,2719.0996671425614,239049.85313735504
183,0.25,0.8125,3065.8014887020609,1,-498.89800995834617,2686.988328521707,33628.58266652911
180,0.0625,1.0,3998.5228228397746,0,4789.3972781525663,-4882.1452946929403,32977.140514677871
181,0.0,0.9375,3968.3201644939986,0,6433.2335474213533,-2909.2248541191452,31927.29002485258
186,0.0,0.6875,2801.8275688156264,0,2134.2187654707527,2208.5208205775143,16687.376670312391
187,0.0625,0.75,3155.7164540988751,1,2227.4598183658022,1752.4989530190817,23370.07630891903
184,0.1875,0.75,2919.8902803580213,1,-593.45400144225948,2324.7068492096619,40926.350601305574
185,0.3125,0.75,2356.0978465570151,1,-461.07213858626795,8504.2015910896916,-27436.263137563779
188,0.0,0.8125,3523.0826112439299,0,4862.2824584371965,487.03159012803167,27228.638797956126
189,0.25,0.4375,1839.8362849557368,1,2110.4212002417112,959.37289165430991,105696.80407615675
11,0.5,0.25,1630.2259115238494,1,-2683.936929489711,-1375.9615130407617,-640218.92776826117
10,0.5,0.0,2453.9303159722085,0,-2273.4715240709556,579.02623918444317,16043.042363705794
13,0.5,0.75,1725.0346103705945,1,551.65521108653627,9876.4474702121752,1529324.5602829207
12,0.5,0.5,1515.0771913243534,1,-7843.8034709384647,-1986.3377145940692,83168.205455674295
15,0.75,0.0,2873.5119580942296,0,714.73741985809124,2872.693225685287,18217.019144339538
14,0.5,1.0,2730.547979199524,0,-1178.8060781634331,-2047.9290685247138,33279.910298761548
17,0.75,0.5,1694.0926251468429,1,9330.4214250258538,1399.1146702172209,-34874.441039524543
16,0.75,0.25,2448.91094520358,1,2863.4860463228711,-2697.0889416102314,22283.831710359795
19,0.75,1.0,2399.066972305749,0,-310.63486707045035,-1037.1551515820709,4888.5807435786364
18,0.75,0.75,2399.0552574662634,1,-756.3455814278592,1320.2913654893562,180966.06619094984
62,0.25,0.875,3378.1398776296842,1,224.22513522256597,160.44969659051725,41842.569623092924
322,0.21875,0.78125,2984.8471045339397,1,-1114.7929062688083,2543.5125641407585,27444.783220603651
323,0.46875,0.78125,1825.5413355487835,1,6751.6018064162299,3582.9395845061058,-1294647.9256136825
320,0.28125,0.71875,2241.766563010804,1,-6349.8277513417434,5546.0597556058628,-113025.16561151421
321,0.21875,0.71875,2605.7030664364611,1,-1930.9930949020788,2587.665876550157,76555.930287412208
326,0.53125,0.78125,1983.436552618102,1,-3317.0088919523746,6083.1091591569148,780879.78094084957
327,0.46875,0.09375,2458.8140631822803,1,-2851.2321817322736,-743.07174254594406,26988.363915134858
324,0.46875,0.71875,1490.0178086882356,1,3444.1382036978216,6466.5233563960301,809964.13063094043
325,0.53125,0.71875,1454.8861031419401,1,-1026.7713930277334,5013.5067286815729,-1907949.2551570053
328,0.53125,0.15625,2059.5291789998419,1,-3653.4225804544994,-3941.0559975487267,-25457.730595395304
329,0.53125,0.09375,2282.7949996709322,1,-2186.0610417112389,-1881.5398880768087,2614.7197463416392
201,0.6875,0.375,1511.7596274972445,1,2837.0071315914824,-1726.2812545270149,-21530.843304903454
200,0.875,0.6875,2446.8558981902215,1,1736.7018960417163,1263.5052833749871,8623.0404653595269
203,0.625,0.4375,1328.5596116389231,1,-2047.4629128149325,993.16553238530457,-14782.122422608902
202,0.625,0.3125,1454.1622656595932,1,-1378.4317934102057,-782.58393822559037,-451224.47575005062
205,0.375,0.9375,3071.8694235629005,1,-1605.4596597314276,-587.14665612709734,36858.836460090155
204,0.5625,0.375,1399.6423520033704,1,-2106.5253516006746,893.27612850299715,-198754.09856190064
207,0.3125,0.875,3154.5955536982356,1,-1172.9505015657855,518.77325625984258,49591.634773387144
206,0.4375,0.875,2586.3217254615906,1,-2134.8049411089146,3561.2763192895422,14361.051866319995
209,0.4375,0.375,1352.4799721590391,1,-601.68984744510067,-2158.9892718961119,309358.06299503823
208,0.375,0.8125,2533.859537059082,1,-4891.3920225699694,2728.2083094570708,79390.020163698646
77,0.75,0.375,2021.446648436068,1,8903.6576864426261,-4220.8175042060775,614836.04049029096
76,0.875,0.25,3105.651495879355,1,348.72781188530161,924.59300392690068,31302.055589887917
75,0.75,0.625,1526.5524443352786,1,1644.8169035077131,3542.8638196054817,-259774.47187718918
74,0.875,0.5,2726.5284767255043,1,1777.1203757036644,-1172.4766352258107,75839.126094119245
73,0.625,1.0,2452.9740315033337,0,-1933.3505608609908,-1417.6943005129172,21197.81532225262
72,0.875,0.0,3339.8478603860353,0,-1251.099153238189,4950.1157595696704,24496.620664446695
71,0.75,0.125,2803.6483741969969,1,1016.2027742813475,714.79711859661199,24430.071869020412
70,0.625,0.0,2410.0497419190665,0,235.77008408971537,105.80948627674742,6620.4684847319386
79,0.875,0.75,2581.4404555680012,1,-437.20602593876885,644.0567271875293,28324.448273937782
78,0.875,1.0,2687.7869460325519,0,-690.05785506551672,-3451.6145379543386,15214.854092723064
2,0.0,0.5,1989.7327441422508,0,-958.48186782184769,959.94308084389331,-390.46537547344894
542,0.03125,0.46875,1954.1213838212548,1,-1144.5640975206577,444.07906280750996,-2376.4526039766101
543,0.03125,0.15625,3096.1434295552635,1,3662.7048575705212,-678.2813990727642,21561.564544280252
540,0.90625,0.96875,2747.8290913774022,1,-1258.8497382067992,-3361.8088519794551,17754.201976714867
541,0.03125,0.53125,2063.4916095978811,1,-747.3329104078266,1398.8849126061423,1595.5218530297298
544,0.03125,0.09375,3330.9000939713064,1,4590.7750996771292,905.64670215790318,26010.779819001957
8,0.25,0.75,2650.2425999126458,1,-3362.8714246376317,3562.7833636800415,3036.6168776623872
68,0.625,0.25,1853.033847590207,1,320.61108993159326,-8809.3897905426184,221517.28314527721
120,0.5625,0.1875,1896.6450725369293,1,1231.6316228306312,-2370.1877401266738,-346490.18827120092
121,0.4375,0.0625,2628.7051375615374,1,-2549.788179540813,387.94273264070159,29113.925040451952
122,0.5625,0.0625,2313.1192963914177,1,-1135.9055518598082,-1333.331598055297,2251.3263737997968
123,0.4375,0.8125,2055.1975468179271,1,-6179.3605256930914,11126.126558493241,25339.338310661689
124,0.4375,0.6875,1381.3544640581856,1,-1023.2266351847903,3427.6118789333877,296825.5397420759
125,0.5625,0.6875,1459.4246518611287,1,-5622.2341206115743,-15151.471425798272,890576.89745187724
126,0.5625,0.8125,2247.9605483059981,1,-270.37167276138501,4776.9285140685279,360408.79008265078
127,0.4375,0.5625,1387.8312006651006,1,4884.6382605189583,162.44884502343498,-21159.747207240307
128,0.5625,0.4375,1379.8144025963504,1,-2086.0141791665228,-768.26323146952484,307644.58450866392
129,0.4375,0.4375,1582.0261179136724,1,4717.5544068521722,8746.3685753006303,1240733.5553173521
414,0.59375,0.90625,2454.7822615229879,1,-2035.3603807520974,62.487625912237874,44393.765291785086
415,0.59375,0.15625,2090.769959585899,1,2470.8489976117744,-2590.2841305413449,-78509.624943221395
416,0.59375,0.09375,2266.7456408157373,1,140.21833939484455,-1872.1054077791209,-8702.6930795789558
417,0.65625,0.09375,2441.5542028128398,1,1481.8340466593543,-310.40173881446395,6227.2793355630401
410,0.90625,0.15625,3318.5358536628255,1,-1434.371573135352,2237.9272279862803,27524.614509652023
411,0.59375,0.84375,2313.5032107344878,1,-3881.2633621091704,2373.1757852229093,160562.01749080708
412,0.65625,0.90625,2306.7482368492279,1,-2286.7140387288223,1151.9713980269453,7299.6558260577949
413,0.65625,0.84375,2079.3540011673449,1,-3445.4841469961057,3474.9735290732951,-50735.652719748286
498,0.90625,0.84375,2727.6043878902328,1,-1374.708937782236,-1707.0404534367904,25633.869175664448
418,0.65625,0.15625,2342.3402062537784,1,2122.633182111776,-576.63339767587502,32026.449585076225
419,0.71875,0.21875,2417.3958540199515,1,2247.3273981777452,-2757.6392185667291,30842.496330196052
499,0.96875,0.09375,3468.197101726721,1,-3335.1712115033774,3622.296021704577,27004.520254234023
319,0.28125,0.78125,2736.1875469254633,1,-1303.6055293613231,4827.3987213570927,21170.919614148224
318,0.03125,0.96875,3996.2408615040781,1,5621.1260625608229,-3885.860800398304,32457.971893046273
313,0.40625,0.15625,2489.8449837417925,1,-2458.5338415689494,-2133.8628696415631,31969.423455911172
312,0.09375,0.59375,2247.5761855893629,1,-800.59302334805591,1916.8258184718934,7152.1733475534811
311,0.15625,0.59375,2117.1429973324148,1,-2199.606812589263,1327.1519631123072,3821.5601927149719
310,0.09375,0.65625,2559.2726305992605,1,-158.08814539241689,2436.2781273899509,12775.937745280502
317,0.03125,0.03125,3447.6455912848328,1,5046.7720926900874,2707.7001469302049,28100.272187942577
316,0.34375,0.15625,2686.1709995676929,1,-1595.824266677482,-2136.7698326444811,44750.983950813803
315,0.34375,0.09375,2900.8308491097378,1,-1441.1278958964547,292.94856713678325,38745.283411341567
314,0.40625,0.09375,2682.4883701433118,1,-2234.6263189197343,-182.34628674863049,36463.777928031675
496,0.84375,0.90625,2620.0152509448285,1,-29.873487399608866,-2219.2167552278761,16969.346197551087
497,0.90625,0.90625,2746.5969220679567,1,-1296.8821078690746,-2582.1587165474725,20797.117919559809
3,0.0,0.75,3176.7284217885026,0,3573.7727044423577,1628.9745694616663,22590.690378213378
368,0.53125,0.90625,2547.782801455658,1,-145.25102026669833,797.94765336592661,42167.96619588021
369,0.53125,0.34375,1456.7008260857397,1,-2413.871556056245,-752.20479960287685,-452213.44860088063
366,0.46875,0.84375,2265.5342018920314,1,-354.20437877669275,5637.3276361102462,-40205.717195555677
367,0.53125,0.84375,2349.4199194979878,1,3886.2434185480647,2511.0045574940373,59111.058245797758
364,0.15625,0.46875,1853.9508926524138,1,-1334.7833212713215,1378.7895394724781,-32820.855726180002
365,0.46875,0.90625,2636.1499768443791,1,-759.90576978508307,1985.9754911198245,25097.479038623209
362,0.09375,0.46875,1920.1132988220993,1,-1423.966372314218,568.01286379532212,-7526.0215465506199
363,0.15625,0.53125,1956.2597174565312,1,-1102.4191891939204,837.25057011073488,15325.213814794572
360,0.34375,0.03125,2996.8684763058832,1,-1321.0787842524437,2378.3781622997089,36120.334785532148
361,0.09375,0.53125,2029.6573710903615,1,-1034.7107168069131,1399.9386632134645,752.96065636478886
380,0.28125,0.53125,1888.8684909289525,1,1465.7163326066855,-316.72613793283801,554439.18292613875
381,0.21875,0.53125,1884.20378515926,1,-689.8612408458506,-1685.0571590051795,51524.373006869588
382,0.21875,0.46875,1829.9121215559114,1,965.70720235487454,1134.1930236756671,-21748.367820649426
383,0.84375,0.40625,2655.7167716111626,1,4041.7869256727531,-866.47097733124633,34924.52056139976
384,0.90625,0.40625,2987.2431537344496,1,473.88780207294411,57.490234076573856,48780.251734930964
385,0.84375,0.34375,2798.2931599272561,1,2169.1609393823032,-508.18778177080549,43793.383320028908
386,0.90625,0.34375,3074.1706364314882,1,-45.138393580296771,393.07684149291794,41056.68308374683
387,0.84375,0.59375,2239.0835520279375,1,5444.9060326930667,-3097.6442705089398,7488.1598540158939
388,0.90625,0.59375,2598.148814140523,1,1719.9094713066795,-2044.0574871886465,31412.443103270984
389,0.84375,0.65625,2242.1580744145599,1,4123.6732751467598,2056.145413576367,-25382.379947598176
60,0.375,1.0,3132.7318531529509,0,-1280.818641638494,-2912.0171909959167,36397.5953649484
61,0.375,0.75,2047.0141588028284,1,-7344.2189991804853,6817.504462256039,545794.95287836285
258,0.4375,1.0,2903.9518619422347,0,-1294.5680970341782,-2158.9091245139794,33675.39351662773
63,0.5,0.875,2444.8818527483409,1,1121.7854389853362,3524.4241894970842,21542.69657118637
64,0.625,0.75,1499.7526584290722,1,2834.401220270358,5910.60737426987,-234407.70158648153
65,0.5,0.625,1334.0698484452494,1,5830.7408862517223,4258.4394492539805,-744796.64508941455
66,0.625,0.5,1292.5724692068875,1,-1462.0701159755301,87.862478554400113,-210400.05764917508
67,0.5,0.375,1419.7333286815697,1,2524.1998753921939,-1465.2868493931808,331994.21777938638
252,0.5,0.5625,1349.7725676110622,1,-5134.6214886259422,-6060.3509590041986,11474.988790667539
69,0.5,0.125,2285.7904617662198,1,-3408.8153645941597,-1585.6189796346557,20299.092732308152
250,0.5,0.6875,1385.6808065725261,1,4994.0026684273644,-2109.2529013829367,-1400381.2366945958
251,0.4375,0.5,1651.139917643228,1,1539.7777410079807,-6988.8003909251447,57931.911787530196
256,0.75,0.0625,2862.393513570787,1,812.03461428958519,1833.8574120576395,19759.414205180587
257,0.6875,0.0,2608.9786056873477,0,930.94941080028536,1423.3644818791427,12046.556208263568
254,0.5,0.4375,1518.092715539758,1,-3427.1034487255233,3714.9072229087128,129633.80965062972
255,0.8125,0.0,3131.5395492255998,0,-93.422967001492239,4059.7230157890017,22235.107322341712
508,0.78125,0.40625,2143.1692249462881,1,6536.2416117418961,-5417.8391722205488,-43488.220245558026
509,0.71875,0.34375,1845.2785231127548,1,6931.1628140214643,-1137.3869090446349,-568532.41054872959
506,0.28125,0.96875,3482.8744614587472,1,-87.158950869524389,-2978.09377462356,39638.9832451849
507,0.71875,0.40625,1602.4253142278503,1,4947.2904918372678,-5186.9634055542838,-493360.29178865213
504,0.21875,0.03125,3311.1504407569664,1,1153.750459093108,3033.3971858162304,36386.838515531963
505,0.21875,0.96875,3685.2574950611911,1,1161.2251234103687,-3419.5680246027569,37994.837848924835
502,0.03125,0.28125,2449.9450899979497,1,921.26782630404728,-2041.9518100224427,8034.0105684153241
503,0.28125,0.03125,3181.4411451541359,1,-150.67123059922301,2857.5399791267864,37617.818125310048
500,0.96875,0.15625,3415.1026776596677,1,-3164.6487404126096,2639.7670740390772,28844.332816168404
501,0.03125,0.21875,2782.3085220742068,1,2344.8090215311036,-1731.9964546303181,15109.231579527714
469,0.71875,0.46875,1471.2741271790401,1,3192.9787538706319,543.11168477452156,338429.42075576721
468,0.78125,0.53125,1976.5014386334681,1,8119.7606930653801,-2522.8819752034033,766325.89270895696
465,0.71875,0.71875,2076.8782108947876,1,4979.5761670016582,8605.5453654096127,328908.33863944444
464,0.71875,0.78125,2233.485475135335,1,4274.8152163784116,-4230.487056117111,203137.04817719478
467,0.71875,0.53125,1420.9075634263718,1,4894.5316288890526,-1242.180301208346,-454679.89105156797
466,0.78125,0.71875,2296.6198147098585,1,178.29792372775771,4521.768569078904,105177.37759914767
461,0.78125,0.96875,2458.6009213381499,1,79.392010794163397,-1386.2936908778336,5683.2489579747944
460,0.59375,0.46875,1325.7300235227176,1,-2481.2633234675041,-1332.8395636628102,282931.58856777567
463,0.78125,0.78125,2472.8191344908082,1,278.38155635407105,-770.65017892871936,86641.500349215697
462,0.71875,0.96875,2363.1488199962018,1,-717.38563590288993,-395.06002102501935,4093.9125291824403
168,1.0,0.6875,2669.2804227862098,0,-1921.2420230213775,-933.61618978628599,24692.516563945232
169,0.9375,0.75,2673.2994317038501,1,-1192.3051258545274,-437.29982370976427,23841.698413058235
164,0.9375,0.5,2930.9909790222332,1,-858.6887500914188,-1298.2894758949685,52357.828830552964
165,1.0,0.4375,3115.2772597876028,0,-4011.3079762762786,-318.61649340339068,48657.954022440776
166,1.0,0.5625,2839.4869518626942,0,-2730.9258875550454,-1806.1177493048308,40129.236456050457
167,1.0,0.8125,2762.0875644006351,0,-3112.2224645309989,-1395.4486239476525,23906.410874554062
160,1.0,0.0625,3500.2571572931915,0,-4212.8693323455782,4270.4833819872565,26580.256888707419
161,0.9375,0.25,3281.5882258765141,1,-1805.3279566742572,1459.4386392229535,33575.921814720889
162,1.0,0.3125,3267.7924730816744,0,-3955.3770525195036,1071.1185392736031,39058.783309399514
163,1.0,0.1875,3399.093268363772,0,-4017.1766864822971,2300.0557234994676,30400.26267276716
9,0.25,1.0,3609.5489595440586,0,551.41372130252148,-4411.846269458546,38816.91054705486
357,0.09375,0.78125,3294.7114163467722,1,2103.5695673478258,1333.5129188421051,27340.536109228131
356,0.15625,0.71875,2811.0043179634481,1,-231.43942182408549,2884.0848378540045,26955.864610456003
355,0.15625,0.78125,3177.8689429003889,1,691.62046345894453,1641.2881260431991,32748.824286750365
354,0.03125,0.59375,2294.6651244206605,1,-26.001858823124575,2018.771118740661,7317.5010761649155
353,0.03125,0.65625,2614.7158760947095,1,986.20541556809962,2276.2476171028675,13518.40003526926
352,0.40625,0.46875,1662.7180431820873,1,-1207.0413561172577,3547.7518914596185,-1296616.758412776
351,0.40625,0.53125,1510.195270336694,1,-3494.2431738344371,-9487.0147321901804,-973110.32711223024
350,0.34375,0.53125,1765.0397320178731,1,-2525.2040946810098,-6064.2334691805891,-567304.68191843154
359,0.40625,0.03125,2771.2500358427669,1,-2198.5243040814375,1619.0262714792766,31233.298653466187
358,0.09375,0.71875,2928.7719937019615,1,993.75646784275,2288.8988461079739,20958.388370016633
216,0.4375,0.625,1328.8577212505418,1,-645.14056811243188,-4485.7710296049218,314678.54714095773
217,0.9375,0.125,3416.9544025153491,1,-2413.5252059379309,2956.1408715515163,27367.388552231499
214,0.3125,0.625,1500.7227986816572,1,-4032.4077514627788,588.73577891922707,-296994.06184895453
215,0.375,0.5625,1438.1175695761453,1,-4547.8233467482387,-6415.9948643274956,-525857.71622742503
212,0.375,0.4375,1657.416108010005,1,-9859.3043168347303,3468.5726946754703,-668192.13332635991
213,0.375,0.6875,1501.2776358253939,1,-455.63051434021975,6867.1062186413155,-317266.94477471744
210,0.3125,0.375,1648.4247353080998,1,-2988.0407733657444,15126.836964032218,102976.96282732459
211,0.375,0.3125,1448.2678799747823,1,3444.7022141070725,-6991.8682394294783,91953.409432845074
218,0.875,0.1875,3197.1425407372817,1,-351.11391338162349,1465.9685500604282,27100.265741751839
219,0.875,0.0625,3328.3305382851026,1,-1170.8727539994277,3558.8283013168889,24925.398682307779
289,0.96875,0.96875,2812.9239658346178,1,-2517.9694894043541,-3703.538814270647,19807.217560588353
288,0.25,0.9375,3556.9054378102842,1,462.05768901628215,-2107.433080657639,39776.367939782263
4,0.0,1.0,4013.7766736483054,0,6635.3777196310884,-4900.1124567922334,32457.971893046091
281,0.0,0.1875,2949.2231422099399,0,3577.2457522393411,-1270.5535561747208,18335.398061903979
280,0.0625,0.25,2608.4163700939789,1,1227.6982557064898,-2133.2529334717219,11440.54403901668
283,0.25,0.0625,3224.5155750242961,1,455.34004340562524,1930.547614979306,38305.095452782683
282,0.0,0.3125,2297.8103861658301,0,476.87695832738751,-1902.4503216404451,4880.4728132691898
285,0.1875,0.0,3374.5779479774774,0,1824.2724495115201,4088.5107321559335,34846.807389684065
284,0.3125,0.0,3112.3877545929508,0,-752.33458622162163,3769.5770428659721,36869.076455421098
287,0.3125,1.0,3384.0355198543207,0,-598.39208618683074,-3821.2094703571947,38971.877412460082
286,0.1875,1.0,3788.3164127837317,0,1846.9431942906313,-4691.8440007090203,36738.004399261277
263,0.8125,0.5,2333.56450320969,1,5742.7877038925653,2108.6409976350037,210377.75604563669
262,0.75,0.5625,1573.6899486964141,1,6839.5124412873893,-4145.0128434672579,-61786.564006168715
261,0.75,0.4375,1704.4219486039251,1,6178.8056296996128,-1891.7711792525374,-543417.33197162906
260,0.5625,1.0,2588.596098976931,0,-1575.5571657926507,-2068.3556702957435,30947.434152688096
267,0.8125,0.25,2813.5116463764271,1,2377.8636141943371,-344.00227137896815,16663.94996845334
266,0.75,0.3125,2221.6515241577117,1,6459.4352617432787,-1196.4400242663846,-150564.482574928
265,0.75,0.1875,2674.9312598673728,1,1529.1944056940274,-921.08731985570614,27157.569096785803
264,0.6875,0.5,1310.2954736828556,1,201.40959336642416,-2109.5336319376297,-209633.66058681044
269,0.75,0.9375,2381.3229606955579,1,180.19004156789671,-425.7921369284266,-593.71257824205975
268,0.6875,0.25,2098.4830236521743,1,3312.786308102121,-5465.1834145890161,27750.163416085743
59,0.25,0.375,1756.7764822601989,1,-36.622028095108277,3246.9506449891305,11266.903134450939
58,0.375,0.25,1993.974215190098,1,304.54862508042925,-7074.0135215247246,-310973.26599232963
55,0.125,1.0,3918.7154099739928,0,3230.2368600203577,-4821.0565962188311,34488.740042775622
54,0.25,0.125,3067.3308982428644,1,243.85828456421612,-85.257781168061982,43119.422856080455
57,0.25,0.625,1822.5055126332954,1,-4380.0160667674945,7157.8568680837498,-305995.34714101756
56,0.375,0.5,1785.0449795394447,1,-5349.5237854623347,-2039.3870555074989,1571017.8691360941
51,0.0,0.625,2449.3388620667083,0,805.28276543927211,2211.6569283402359,10417.950555717087
50,0.125,0.75,3072.5821444143166,1,964.79874362827979,2105.6187452627778,27000.903344112812
53,0.375,0.0,2902.1210046283063,0,-1812.2530273872401,3050.9593443460385,33676.816719499177
52,0.125,0.5,1928.1314192258121,1,-1152.2105907220325,1255.5765381568767,-6067.1757003928196
537,0.90625,0.71875,2582.7094764958661,1,19.839342367597645,300.6730475752193,20580.196365823569
536,0.84375,0.71875,2434.6123242164717,1,555.73819814579042,2395.3078743066208,23133.181693171733
535,0.84375,0.78125,2582.8221572476987,1,-590.22431865153089,-103.92513532764922,42450.816097531162
259,0.5,0.9375,2674.7561739579173,1,-751.84128433824242,218.68021271386783,33456.316458006637
533,0.59375,0.28125,1600.893182463929,1,-873.8359159252185,-6208.9459332703118,-316612.33413381292
532,0.59375,0.21875,1913.3812965045747,1,2951.7127694904088,-1626.0418459858288,243391.08841817264
531,0.65625,0.21875,2148.7712753923929,1,1516.0129074157614,-3789.5809564214601,91912.758917156258
530,0.71875,0.15625,2609.7961807413235,1,1396.908950421885,-387.61389657473643,29931.979647448134
539,0.84375,0.96875,2614.8497465108871,1,-224.17599154261978,-2584.2482972275407,12675.506208731174
538,0.90625,0.78125,2671.9916220177474,1,-1126.0604159828656,-520.73692929834021,27133.598939224732
115,0.8125,0.0625,3119.4814497219982,1,-17.30633410038903,2775.9710281855823,23006.095618887841
114,0.8125,0.8125,2563.326744455781,1,151.60528505161736,-1478.7734084975591,45904.92057751675
117,0.5625,0.3125,1486.3297604199199,1,-1789.1502686022036,-2593.1398424483864,-128634.22773819006
116,0.6875,0.0625,2594.041998779946,1,1200.64204606155,690.8647460442005,12495.527306182928
111,0.8125,0.6875,2213.7880917357061,1,1738.2926877486775,5051.7874654725556,-8765.4809013769118
110,0.1875,0.6875,2533.8193005315702,1,-1239.5785166602227,4018.0088999228024,23210.900533357435
113,0.6875,0.8125,1994.2107809732195,1,5971.7691894616055,199.18749040428796,-370585.88468509755
112,0.6875,0.6875,1570.7426359481283,1,7683.9759327623906,10571.188059358254,-355298.1225439086
119,0.4375,0.1875,2270.9150679667259,1,-3392.1895330097605,-1657.9761940753272,-7087.1724455342237
118,0.4375,0.3125,1493.6795363244808,1,-1274.5667889702363,-2006.898954667146,-428897.44923231803
429,0.34375,0.71875,1896.8687974454363,1,-1843.669832103807,10258.916499299605,116421.7828603712
428,0.34375,0.78125,2495.022681820421,1,-1923.5940179480292,4357.1212337006191,168300.86298861619
534,0.65625,0.28125,1725.3334787224121,1,2829.188126424317,-6398.1923605183538,-477274.78943378758
421,0.78125,0.28125,2541.1706064280502,1,4323.1041054850793,-1386.3385607578882,-15246.510590767361
420,0.71875,0.28125,2107.140374756902,1,3868.6240339567826,-3671.7753150475537,50868.230156618432
423,0.59375,0.03125,2354.7983807502442,1,-367.56964586451619,-569.20164233616902,4777.4537689284016
422,0.78125,0.21875,2726.6972333749768,1,1904.1838495165371,-934.95745564428501,22671.111112908857
425,0.40625,0.96875,2991.9104776673335,1,-1411.1920086666059,-1323.3830315935238,34490.419150161528
424,0.65625,0.03125,2493.1183901875479,1,777.27660733965001,374.88464784012757,8463.4832005354765
427,0.40625,0.78125,2022.9383833255922,1,-8952.412882615663,6368.0099074822456,46160.10769215606
426,0.34375,0.96875,3240.1729551070162,1,-1083.1265836641628,-2221.7674605642401,38304.771579735243
308,0.96875,0.71875,2668.2015325330667,1,-1437.8145814431807,-668.07434153416989,23473.078115383632
309,0.15625,0.65625,2421.8018650714002,1,-1745.8908674776656,3068.1511851276969,6051.0251264978942
300,0.15625,0.84375,3493.7270227436984,1,1548.5015071787395,275.63203600669073,32787.477890595394
301,0.09375,0.90625,3832.0260492410052,1,3609.5217054011282,-1835.2248757812058,32527.051372172522
302,0.96875,0.03125,3494.2686320995899,1,-3429.0336405032904,4900.6213333027172,26155.993523180819
303,0.96875,0.21875,3350.1126263300484,1,-2970.4318956791417,1895.4348680970054,31956.192529365922
304,0.96875,0.28125,3281.9751324896238,1,-2803.0616035502026,1293.7729889504208,36370.471721637885
305,0.96875,0.53125,2895.995710402437,1,-1857.67668664444,-1640.4276554417077,45463.356642187144
306,0.96875,0.46875,3036.5803413781987,1,-2405.8848934052571,-782.18493679684718,50014.319025180928
307,0.96875,0.78125,2724.8395123399318,1,-2177.6979075237614,-974.32898194917027,24179.920231800985
229,0.6875,0.125,2533.2061491123895,1,1675.7442569942152,79.635412815757817,21961.856510182235
228,0.6875,0.875,2176.7461216633374,1,-746.62605403450277,2807.5425232030871,-37637.304268604159
227,0.625,0.8125,2001.2354523202466,1,-8759.9709780239118,7475.9488160851679,164900.63160227161
226,0.625,0.9375,2425.0619637858772,1,-2204.4187702923978,-145.12600759671898,23522.262940587036
225,0.5625,0.875,2473.1303969101587,1,-224.86093891062018,247.59665505994505,76558.701806067475
224,0.625,0.5625,1297.6867757779537,1,-647.55854435607921,-234.13882028717143,38707.183505703841
223,0.5625,0.625,1498.8633338616348,1,-6654.5536431283099,11427.196475319361,528038.76636792265
222,0.625,0.6875,1247.7504285539303,1,424.24286343050574,1834.666110293331,-272210.62698424648
221,0.6875,0.625,1297.7166453761802,1,1188.7962071870675,-1133.4110764420943,-221034.43590369876
220,0.8125,0.125,3061.282900180282,1,260.07222789092236,1561.9049521952595,24572.022544518128
391,0.65625,0.40625,1362.3231937005924,1,-658.31911165120766,-820.68216256586197,6142.2038038267201
390,0.90625,0.65625,2528.3291291250275,1,1525.8105469093521,-467.26349167812214,16161.163750040971
151,0.125,0.0625,3381.2986615727514,1,2982.9713965772221,1900.1992270696062,31304.728468655438
150,0.125,0.4375,1874.3557185345585,1,-1946.8486333810761,-22.904138447854532,-17290.164754832658
153,0.1875,0.125,3158.4040296693975,1,1622.760451173488,-27.343916997617107,37262.648399939768
152,0.125,0.1875,2915.8105591191897,1,1863.6580943974209,-1846.3216907642063,22695.54591048068
155,0.0625,0.875,3775.173730562733,1,4104.5988677917594,-1008.0437224968897,30925.228311427243
154,0.0625,0.125,3228.8678147654787,1,3608.1791541688935,23.52797798956686,25035.324790357285
157,0.125,0.8125,3417.4707797257743,1,1860.7383946768193,813.50946034723631,30880.460464665906
156,0.125,0.9375,3865.8003252267481,1,3077.8201056110352,-2713.7918241241264,34049.870846752987
159,0.9375,0.0,3471.1500023975709,0,-2663.6215190494113,5520.049478510693,25741.714640039099
158,0.1875,0.875,3555.7299179533056,1,1309.5742307017465,-348.32943693112838,35418.247169896364
399,0.34375,0.40625,1737.6411980931666,1,-6316.0732222445258,3788.390971203406,2234879.7292671129
398,0.34375,0.90625,3117.9671745503647,1,-1603.6768201778807,1.2043870786181954,42969.016146423121
48,0.125,0.0,3433.95293366853,0,3087.8319128502726,3877.9305607582842,31682.446297765076
49,0.0,0.875,3797.2410101779728,0,5834.733787506465,-1073.6402208738255,30264.429150747597
46,0.125,0.25,2559.0121373258362,1,393.57718397302983,-2778.6987809819152,9226.2209650034165
47,0.0,0.125,3231.5368346208134,0,4870.883080643669,67.800988871782323,23786.172181641101
44,1.0,0.875,2805.0033029821666,0,-3267.4635140823639,-2287.5562799553354,22581.583969912877
45,0.0,0.375,2059.5699181233067,0,-652.47998802910558,-1206.3046321755141,-316.90547840612487
42,1.0,0.375,3200.0062006312519,0,-4009.8589741430619,473.15058886463078,44524.341958430858
43,1.0,0.625,2713.5063220124944,0,-1922.7183559983566,-1541.41124320993,30353.53564121031
40,0.875,0.875,2695.1705688186798,1,-713.12136517919976,-2150.495709163582,23268.688873992363
41,1.0,0.125,3458.6351248219089,0,-4122.5941093917309,3150.5618366117374,27924.426535201212
5,0.25,0.0,3271.0461736707061,0,513.21729215213281,4102.6162423509286,37002.328320421002
489,0.03125,0.40625,1989.0304127381369,1,-1011.3672094682216,-696.94295027655471,-2360.7460149353246
488,0.96875,0.90625,2807.336127818458,1,-2576.3290068792276,-2731.9610315208565,21530.2664225185
487,0.96875,0.84375,2778.6773962084417,1,-2547.0099698899649,-1804.3862214996097,23632.901517307142
486,0.09375,0.28125,2418.6980664787293,1,156.33954243739285,-2342.7028240692835,7006.0154936938343
485,0.15625,0.28125,2330.727500176421,1,-940.27562362734511,-3189.2454996957708,-4838.4649767321034
484,0.15625,0.21875,2711.2487240736946,1,982.15427572014914,-2941.2428995903379,19124.414828622073
483,0.09375,0.21875,2759.7316182047389,1,1518.2694266266608,-2098.3597704851068,15612.918514429857
482,0.03125,0.90625,3885.1348176477541,1,5250.1343055811085,-1955.0694825893488,31396.608156658742
481,0.03125,0.84375,3660.4523855667398,1,4528.0737968631802,-240.27016430019074,29132.250144836435
480,0.15625,0.03125,3390.1815147135867,1,2435.0027391063118,2965.2624055196538,33306.776263836167
472,0.21875,0.90625,3568.2932317045265,1,956.40192427850286,-1190.5290870448041,38421.313310593127
473,0.21875,0.84375,3327.6932248186408,1,373.13947866620316,997.56448467219229,35769.245549108884
470,0.78125,0.46875,1996.9217793578148,1,9513.5273045852027,2112.6806336608156,-188902.59826483269
471,0.28125,0.84375,3126.2683026510258,1,-485.2646709169739,1586.8850671273267,50129.382278243516
476,0.59375,0.59375,1287.0045689580234,1,-3303.1451166340007,2157.3159047692911,-713176.7474137207
477,0.59375,0.65625,1385.0227762442751,1,-6748.1048963262838,-1723.6282089196582,-1211479.1922574705
474,0.28125,0.90625,3367.6364876056505,1,-292.81940362155808,-770.04676369911886,43050.33735442617
475,0.65625,0.59375,1292.6931846662976,1,-2323.3497971661386,-100.94182247376891,213146.39313611097
478,0.65625,0.65625,1273.3587345673507,1,857.87709138600155,273.13004065886844,-326260.52592175436
479,0.09375,0.03125,3432.683355400698,1,3676.7812270678351,2811.4579397102088,30058.116331693993
344,54,1,2,0.0,5
344,175,1,2,0.0,5
344,239,1,2,0.0,5
344,104,1,2,0.0,5
346,182,1,2,0.0,5
346,57,1,2,0.0,5
346,109,1,2,0.0,5
346,214,1,2,0.0,5
347,182,1,2,0.0,5
347,57,1,2,0.0,5
347,110,1,2,0.0,5
347,170,1,2,0.0,5
340,55,1,2,0.0,5
340,180,1,2,0.0,5
340,156,1,2,0.0,5
340,96,1,2,0.0,5
341,54,1,2,0.0,5
341,153,1,2,0.0,5
341,283,1,2,0.0,5
341,94,1,2,0.0,5
342,102,1,2,0.0,5
342,54,1,2,0.0,5
342,153,1,2,0.0,5
342,239,1,2,0.0,5
343,54,1,2,0.0,5
343,175,1,2,0.0,5
343,95,1,2,0.0,5
343,283,1,2,0.0,5
348,57,1,2,0.0,5
348,170,1,2,0.0,5
348,100,1,2,0.0,5
348,190,1,2,0.0,5
349,99,1,2,0.0,5
349,191,1,2,0.0,5
349,56,1,2,0.0,5
349,212,1,2,0.0,5
298,91,1,2,0.0,5
298,27,1,2,0.0,5
298,155,1,2,0.0,5
298,157,1,2,0.0,5
299,158,1,2,0.0,5
299,27,1,2,0.0,5
299,106,1,2,0.0,5
299,156,1,2,0.0,5
296,102,1,2,0.0,5
296,26,1,2,0.0,5
296,152,1,2,0.0,5
296,153,1,2,0.0,5
297,151,1,2,0.0,5
297,26,1,2,0.0,5
297,94,1,2,0.0,5
297,153,1,2,0.0,5
294,26,1,2,0.0,5
294,152,1,2,0.0,5
294,88,1,2,0.0,5
294,154,1,2,0.0,5
295,151,1,2,0.0,5
295,26,1,2,0.0,5
295,89,1,2,0.0,5
295,154,1,2,0.0,5
292,25,1,2,0.0,5
292,87,1,2,0.0,5
292,148,1,2,0.0,5
292,149,1,2,0.0,5
293,150,1,2,0.0,5
293,25,1,2,0.0,5
293,97,1,2,0.0,5
293,147,1,2,0.0,5
290,25,1,2,0.0,5
290,92,1,2,0.0,5
290,149,1,2,0.0,5
290,150,1,2,0.0,5
291,25,1,2,0.0,5
291,101,1,2,0.0,5
291,148,1,2,0.0,5
291,147,1,2,0.0,5
199,38,1,1,1000000000000,5
199,142,1,1,1000000000000,5
199,132,1,1,1000000000000,5
199,74,1,1,1000000000000,5
198,38,1,1,1000000000000,5
198,142,1,1,1000000000000,5
198,75,1,1,1000000000000,5
198,111,1,1,1000000000000,5
195,39,1,1,1000000000000,5
195,135,1,1,1000000000000,5
195,76,1,1,1000000000000,5
195,84,1,1,1000000000000,5
194,39,1,1,1000000000000,5
194,141,1,1,1000000000000,5
194,77,1,1,1000000000000,5
194,135,1,1,1000000000000,5
197,38,1,1,1000000000000,5
197,43,1,1,1000000000000,5
197,132,1,1,1000000000000,5
197,85,1,1,1000000000000,5
196,39,1,1,1000000000000,5
196,141,1,1,1000000000000,5
196,131,1,1,1000000000000,5
196,74,1,1,1000000000000,5
191,56,1,1,1000000000000,5
191,99,1,1,1000000000000,5
191,98,1,1,1000000000000,5
191,7,1,1,1000000000000,5
190,57,1,1,1000000000000,5
190,98,1,1,1000000000000,5
190,7,1,1,1000000000000,5
190,100,1,1,1000000000000,5
193,39,1,1,1000000000000,5
193,42,1,1,1000000000000,5
193,131,1,1,1000000000000,5
193,84,1,1,1000000000000,5
192,52,1,1,1000000000000,5
192,7,1,1,1000000000000,5
192,100,1,1,1000000000000,5
192,97,1,1,1000000000000,5
270,19,2,1,1000000000000,5
270,73,2,1,1000000000000,5
270,140,1,1,1000000000000,5
271,19,2,1,1000000000000,5
271,139,1,1,1000000000000,5
271,78,2,1,1000000000000,5
272,18,1,1,1000000000000,5
272,75,1,1,1000000000000,5
272,111,1,1,1000000000000,5
272,112,1,1,1000000000000,5
273,18,1,1,1000000000000,5
273,64,1,1,1000000000000,5
273,113,1,1,1000000000000,5
273,112,1,1,1000000000000,5
274,18,1,1,1000000000000,5
274,114,1,1,1000000000000,5
274,113,1,1,1000000000000,5
274,80,1,1,1000000000000,5
275,18,1,1,1000000000000,5
275,114,1,1,1000000000000,5
275,111,1,1,1000000000000,5
275,79,1,1,1000000000000,5
276,44,1,1,1000000000000,5
276,40,1,1,1000000000000,5
276,81,1,1,1000000000000,5
276,86,1,1,1000000000000,5
277,40,1,1,1000000000000,5
277,114,1,1,1000000000000,5
277,80,1,1,1000000000000,5
277,139,1,1,1000000000000,5
278,40,1,1,1000000000000,5
278,114,1,1,1000000000000,5
278,86,1,1,1000000000000,5
278,79,1,1,1000000000000,5
279,81,1,1,1000000000000,5
279,40,1,1,1000000000000,5
279,139,1,1,1000000000000,5
279,78,1,1,1000000000000,5
524,226,1,2,0.0,5
524,260,1,2,0.0,5
524,73,1,2,0.0,5
524,134,1,2,0.0,5
525,115,1,2,0.0,5
525,219,1,2,0.0,5
525,72,1,2,0.0,5
525,255,1,2,0.0,5
526,82,1,2,0.0,5
526,159,1,2,0.0,5
526,72,1,2,0.0,5
526,219,1,2,0.0,5
527,115,1,2,0.0,5
527,256,1,2,0.0,5
527,71,1,2,0.0,5
527,220,1,2,0.0,5
520,263,1,2,0.0,5
520,74,1,2,0.0,5
520,196,1,2,0.0,5
520,141,1,2,0.0,5
521,164,1,2,0.0,5
521,132,1,2,0.0,5
521,74,1,2,0.0,5
521,199,1,2,0.0,5
522,164,1,2,0.0,5
522,131,1,2,0.0,5
522,74,1,2,0.0,5
522,196,1,2,0.0,5
523,270,1,2,0.0,5
523,226,1,2,0.0,5
523,73,1,2,0.0,5
523,140,1,2,0.0,5
528,116,1,2,0.0,5
528,256,1,2,0.0,5
528,229,1,2,0.0,5
528,71,1,2,0.0,5
529,137,1,2,0.0,5
529,265,1,2,0.0,5
529,71,1,2,0.0,5
529,220,1,2,0.0,5
449,128,1,2,0.0,5
449,253,1,2,0.0,5
449,12,1,2,0.0,5
449,254,1,2,0.0,5
448,245,1,2,0.0,5
448,10,1,2,0.0,5
448,244,1,2,0.0,5
448,121,1,2,0.0,5
443,11,1,2,0.0,5
443,120,1,2,0.0,5
443,243,1,2,0.0,5
443,242,1,2,0.0,5
442,237,1,2,0.0,5
442,239,1,2,0.0,5
442,104,1,2,0.0,5
442,6,1,2,0.0,5
441,103,1,2,0.0,5
441,236,1,2,0.0,5
441,237,1,2,0.0,5
441,6,1,2,0.0,5
440,102,1,2,0.0,5
440,238,1,2,0.0,5
440,239,1,2,0.0,5
440,6,1,2,0.0,5
447,10,1,2,0.0,5
447,122,1,2,0.0,5
447,246,1,2,0.0,5
447,244,1,2,0.0,5
446,11,1,2,0.0,5
446,241,1,2,0.0,5
446,118,1,2,0.0,5
446,240,1,2,0.0,5
445,11,1,2,0.0,5
445,119,1,2,0.0,5
445,240,1,2,0.0,5
445,243,1,2,0.0,5
444,11,1,2,0.0,5
444,117,1,2,0.0,5
444,241,1,2,0.0,5
444,242,1,2,0.0,5
438,216,1,2,0.0,5
438,252,1,2,0.0,5
438,65,1,2,0.0,5
438,127,1,2,0.0,5
439,236,1,2,0.0,5
439,101,1,2,0.0,5
439,238,1,2,0.0,5
439,6,1,2,0.0,5
436,216,1,2,0.0,5
436,250,1,2,0.0,5
436,124,1,2,0.0,5
436,65,1,2,0.0,5
437,250,1,2,0.0,5
437,223,1,2,0.0,5
437,65,1,2,0.0,5
437,125,1,2,0.0,5
434,273,1,2,0.0,5
434,64,1,2,0.0,5
434,222,1,2,0.0,5
434,112,1,2,0.0,5
435,252,1,2,0.0,5
435,130,1,2,0.0,5
435,223,1,2,0.0,5
435,65,1,2,0.0,5
432,249,1,2,0.0,5
432,64,1,2,0.0,5
432,125,1,2,0.0,5
432,222,1,2,0.0,5
433,227,1,2,0.0,5
433,249,1,2,0.0,5
433,64,1,2,0.0,5
433,126,1,2,0.0,5
430,61,1,2,0.0,5
430,247,1,2,0.0,5
430,124,1,2,0.0,5
430,213,1,2,0.0,5
431,227,1,2,0.0,5
431,273,1,2,0.0,5
431,64,1,2,0.0,5
431,113,1,2,0.0,5
339,55,1,2,0.0,5
339,156,1,2,0.0,5
339,106,1,2,0.0,5
339,286,1,2,0.0,5
338,174,1,2,0.0,5
338,237,1,2,0.0,5
338,58,1,2,0.0,5
338,104,1,2,0.0,5
335,103,1,2,0.0,5
335,237,1,2,0.0,5
335,58,1,2,0.0,5
335,211,1,2,0.0,5
334,147,1,2,0.0,5
334,189,1,2,0.0,5
334,59,1,2,0.0,5
334,97,1,2,0.0,5
337,240,1,2,0.0,5
337,211,1,2,0.0,5
337,58,1,2,0.0,5
337,118,1,2,0.0,5
336,174,1,2,0.0,5
336,119,1,2,0.0,5
336,58,1,2,0.0,5
336,240,1,2,0.0,5
331,147,1,2,0.0,5
331,236,1,2,0.0,5
331,101,1,2,0.0,5
331,59,1,2,0.0,5
330,177,1,2,0.0,5
330,69,1,2,0.0,5
330,119,1,2,0.0,5
330,243,1,2,0.0,5
333,103,1,2,0.0,5
333,236,1,2,0.0,5
333,59,1,2,0.0,5
333,210,1,2,0.0,5
332,99,1,2,0.0,5
332,189,1,2,0.0,5
332,59,1,2,0.0,5
332,210,1,2,0.0,5
345,98,1,2,0.0,5
345,57,1,2,0.0,5
345,214,1,2,0.0,5
345,190,1,2,0.0,5
238,6,1,1,1000000000000,5
238,46,1,1,1000000000000,5
238,102,1,1,1000000000000,5
238,101,1,1,1000000000000,5
239,54,1,1,1000000000000,5
239,6,1,1,1000000000000,5
239,102,1,1,1000000000000,5
239,104,1,1,1000000000000,5
234,93,1,1,1000000000000,5
234,2,2,1,1000000000000,5
234,51,2,1,1000000000000,5
235,52,1,1,1000000000000,5
235,2,1,1,1000000000000,5
235,93,1,1,1000000000000,5
235,92,1,1,1000000000000,5
236,59,1,1,1000000000000,5
236,6,1,1,1000000000000,5
236,103,1,1,1000000000000,5
236,101,1,1,1000000000000,5
237,6,1,1,1000000000000,5
237,103,1,1,1000000000000,5
237,104,1,1,1000000000000,5
237,58,1,1,1000000000000,5
230,34,1,1,1000000000000,5
230,122,1,1,1000000000000,5
230,116,1,1,1000000000000,5
230,70,1,1,1000000000000,5
231,34,1,1,1000000000000,5
231,120,1,1,1000000000000,5
231,68,1,1,1000000000000,5
231,138,1,1,1000000000000,5
232,34,1,1,1000000000000,5
232,120,1,1,1000000000000,5
232,122,1,1,1000000000000,5
232,69,1,1,1000000000000,5
233,2,2,1,1000000000000,5
233,92,1,1,1000000000000,5
233,45,2,1,1000000000000,5
146,24,2,1,1000000000000,5
146,81,1,1,1000000000000,5
146,78,2,1,1000000000000,5
147,25,1,1,1000000000000,5
147,59,1,1,1000000000000,5
147,101,1,1,1000000000000,5
147,97,1,1,1000000000000,5
145,24,2,1,1000000000000,5
145,44,2,1,1000000000000,5
145,81,1,1,1000000000000,5
148,25,1,1,1000000000000,5
148,46,1,1,1000000000000,5
148,101,1,1,1000000000000,5
148,87,1,1,1000000000000,5
149,25,1,1,1000000000000,5
149,45,1,1,1000000000000,5
149,92,1,1,1000000000000,5
149,87,1,1,1000000000000,5
494,197,1,2,0.0,5
494,168,1,2,0.0,5
494,43,1,2,0.0,5
494,85,1,2,0.0,5
495,278,1,2,0.0,5
495,114,1,2,0.0,5
495,40,1,2,0.0,5
495,277,1,2,0.0,5
490,282,1,2,0.0,5
490,45,1,2,0.0,5
490,87,1,2,0.0,5
490,149,1,2,0.0,5
491,165,1,2,0.0,5
491,131,1,2,0.0,5
491,42,1,2,0.0,5
491,193,1,2,0.0,5
492,162,1,2,0.0,5
492,42,1,2,0.0,5
492,193,1,2,0.0,5
492,84,1,2,0.0,5
493,132,1,2,0.0,5
493,197,1,2,0.0,5
493,166,1,2,0.0,5
493,43,1,2,0.0,5
407,115,1,2,0.0,5
407,220,1,2,0.0,5
407,37,1,2,0.0,5
407,219,1,2,0.0,5
406,216,1,2,0.0,5
406,30,1,2,0.0,5
406,215,1,2,0.0,5
406,127,1,2,0.0,5
405,216,1,2,0.0,5
405,30,1,2,0.0,5
405,124,1,2,0.0,5
405,213,1,2,0.0,5
404,214,1,2,0.0,5
404,30,1,2,0.0,5
404,213,1,2,0.0,5
404,109,1,2,0.0,5
403,215,1,2,0.0,5
403,98,1,2,0.0,5
403,214,1,2,0.0,5
403,30,1,2,0.0,5
402,209,1,2,0.0,5
402,31,1,2,0.0,5
402,118,1,2,0.0,5
402,211,1,2,0.0,5
401,103,1,2,0.0,5
401,31,1,2,0.0,5
401,210,1,2,0.0,5
401,211,1,2,0.0,5
400,209,1,2,0.0,5
400,129,1,2,0.0,5
400,31,1,2,0.0,5
400,212,1,2,0.0,5
409,82,1,2,0.0,5
409,217,1,2,0.0,5
409,37,1,2,0.0,5
409,219,1,2,0.0,5
408,137,1,2,0.0,5
408,37,1,2,0.0,5
408,218,1,2,0.0,5
408,220,1,2,0.0,5
379,99,1,2,0.0,5
379,189,1,2,0.0,5
379,191,1,2,0.0,5
379,7,1,2,0.0,5
378,90,1,2,0.0,5
378,3,1,2,0.0,5
378,186,1,2,0.0,5
378,187,1,2,0.0,5
371,209,1,2,0.0,5
371,129,1,2,0.0,5
371,254,1,2,0.0,5
371,67,1,2,0.0,5
370,128,1,2,0.0,5
370,204,1,2,0.0,5
370,254,1,2,0.0,5
370,67,1,2,0.0,5
373,80,1,2,0.0,5
373,269,1,2,0.0,5
373,140,1,2,0.0,5
373,228,1,2,0.0,5
372,209,1,2,0.0,5
372,241,1,2,0.0,5
372,118,1,2,0.0,5
372,67,1,2,0.0,5
375,80,1,2,0.0,5
375,274,1,2,0.0,5
375,113,1,2,0.0,5
375,228,1,2,0.0,5
374,114,1,2,0.0,5
374,80,1,2,0.0,5
374,274,1,2,0.0,5
374,277,1,2,0.0,5
377,91,1,2,0.0,5
377,3,1,2,0.0,5
377,188,1,2,0.0,5
377,187,1,2,0.0,5
376,80,1,2,0.0,5
376,269,1,2,0.0,5
376,139,1,2,0.0,5
376,277,1,2,0.0,5
393,33,1,2,0.0,5
393,201,1,2,0.0,5
393,202,1,2,0.0,5
393,136,1,2,0.0,5
392,33,1,2,0.0,5
392,117,1,2,0.0,5
392,202,1,2,0.0,5
392,204,1,2,0.0,5
397,32,1,2,0.0,5
397,208,1,2,0.0,5
397,123,1,2,0.0,5
397,206,1,2,0.0,5
396,32,1,2,0.0,5
396,108,1,2,0.0,5
396,207,1,2,0.0,5
396,208,1,2,0.0,5
395,133,1,2,0.0,5
395,32,1,2,0.0,5
395,205,1,2,0.0,5
395,206,1,2,0.0,5
394,33,1,2,0.0,5
394,128,1,2,0.0,5
394,203,1,2,0.0,5
394,204,1,2,0.0,5
245,10,2,1,1000000000000,5
245,53,2,1,1000000000000,5
245,121,1,1,1000000000000,5
244,10,1,1,1000000000000,5
244,121,1,1,1000000000000,5
244,122,1,1,1000000000000,5
244,69,1,1,1000000000000,5
247,13,1,1,1000000000000,5
247,61,1,1,1000000000000,5
247,123,1,1,1000000000000,5
247,124,1,1,1000000000000,5
246,10,2,1,1000000000000,5
246,122,1,1,1000000000000,5
246,70,2,1,1000000000000,5
241,11,1,1,1000000000000,5
241,67,1,1,1000000000000,5
241,117,1,1,1000000000000,5
241,118,1,1,1000000000000,5
240,11,1,1,1000000000000,5
240,58,1,1,1000000000000,5
240,119,1,1,1000000000000,5
240,118,1,1,1000000000000,5
243,11,1,1,1000000000000,5
243,120,1,1,1000000000000,5
243,69,1,1,1000000000000,5
243,119,1,1,1000000000000,5
242,11,1,1,1000000000000,5
242,120,1,1,1000000000000,5
242,117,1,1,1000000000000,5
242,68,1,1,1000000000000,5
249,13,1,1,1000000000000,5
249,125,1,1,1000000000000,5
249,126,1,1,1000000000000,5
249,64,1,1,1000000000000,5
248,13,1,1,1000000000000,5
248,63,1,1,1000000000000,5
248,126,1,1,1000000000000,5
248,123,1,1,1000000000000,5
519,263,1,2,0.0,5
519,199,1,2,0.0,5
519,74,1,2,0.0,5
519,142,1,2,0.0,5
518,75,1,2,0.0,5
518,272,1,2,0.0,5
518,221,1,2,0.0,5
518,112,1,2,0.0,5
511,267,1,2,0.0,5
511,76,1,2,0.0,5
511,137,1,2,0.0,5
511,218,1,2,0.0,5
510,77,1,2,0.0,5
510,194,1,2,0.0,5
510,266,1,2,0.0,5
510,135,1,2,0.0,5
513,76,1,2,0.0,5
513,161,1,2,0.0,5
513,218,1,2,0.0,5
513,83,1,2,0.0,5
512,195,1,2,0.0,5
512,76,1,2,0.0,5
512,267,1,2,0.0,5
512,135,1,2,0.0,5
515,262,1,2,0.0,5
515,75,1,2,0.0,5
515,144,1,2,0.0,5
515,221,1,2,0.0,5
514,195,1,2,0.0,5
514,76,1,2,0.0,5
514,161,1,2,0.0,5
514,84,1,2,0.0,5
517,75,1,2,0.0,5
517,111,1,2,0.0,5
517,198,1,2,0.0,5
517,272,1,2,0.0,5
516,262,1,2,0.0,5
516,75,1,2,0.0,5
516,142,1,2,0.0,5
516,198,1,2,0.0,5
458,144,1,2,0.0,5
458,224,1,2,0.0,5
458,66,1,2,0.0,5
458,264,1,2,0.0,5
459,253,1,2,0.0,5
459,224,1,2,0.0,5
459,130,1,2,0.0,5
459,66,1,2,0.0,5
450,130,1,2,0.0,5
450,252,1,2,0.0,5
450,12,1,2,0.0,5
450,253,1,2,0.0,5
451,252,1,2,0.0,5
451,251,1,2,0.0,5
451,12,1,2,0.0,5
451,127,1,2,0.0,5
452,251,1,2,0.0,5
452,129,1,2,0.0,5
452,12,1,2,0.0,5
452,254,1,2,0.0,5
453,115,1,2,0.0,5
453,256,1,2,0.0,5
453,15,1,2,0.0,5
453,255,1,2,0.0,5
454,256,1,2,0.0,5
454,116,1,2,0.0,5
454,15,1,2,0.0,5
454,257,1,2,0.0,5
455,133,1,2,0.0,5
455,258,1,2,0.0,5
455,259,1,2,0.0,5
455,14,1,2,0.0,5
456,260,1,2,0.0,5
456,259,1,2,0.0,5
456,14,1,2,0.0,5
456,134,1,2,0.0,5
457,203,1,2,0.0,5
457,143,1,2,0.0,5
457,66,1,2,0.0,5
457,264,1,2,0.0,5
179,0,2,1,1000000000000,5
179,89,1,1,1000000000000,5
179,48,2,1,1000000000000,5
178,0,2,1,1000000000000,5
178,89,1,1,1000000000000,5
178,47,2,1,1000000000000,5
177,29,1,1,1000000000000,5
177,121,1,1,1000000000000,5
177,69,1,1,1000000000000,5
177,119,1,1,1000000000000,5
176,29,1,1,1000000000000,5
176,121,1,1,1000000000000,5
176,53,1,1,1000000000000,5
176,95,1,1,1000000000000,5
175,54,1,1,1000000000000,5
175,29,1,1,1000000000000,5
175,95,1,1,1000000000000,5
175,104,1,1,1000000000000,5
174,58,1,1,1000000000000,5
174,29,1,1,1000000000000,5
174,119,1,1,1000000000000,5
174,104,1,1,1000000000000,5
173,28,1,1,1000000000000,5
173,52,1,1,1000000000000,5
173,93,1,1,1000000000000,5
173,100,1,1,1000000000000,5
172,28,1,1,1000000000000,5
172,50,1,1,1000000000000,5
172,110,1,1,1000000000000,5
172,90,1,1,1000000000000,5
171,51,1,1,1000000000000,5
171,28,1,1,1000000000000,5
171,90,1,1,1000000000000,5
171,93,1,1,1000000000000,5
170,57,1,1,1000000000000,5
170,28,1,1,1000000000000,5
170,110,1,1,1000000000000,5
170,100,1,1,1000000000000,5
253,12,1,1,1000000000000,5
253,130,1,1,1000000000000,5
253,66,1,1,1000000000000,5
253,128,1,1,1000000000000,5
182,109,1,1,1000000000000,5
182,57,1,1,1000000000000,5
182,110,1,1,1000000000000,5
182,8,1,1,1000000000000,5
183,108,1,1,1000000000000,5
183,62,1,1,1000000000000,5
183,8,1,1,1000000000000,5
183,107,1,1,1000000000000,5
180,55,2,1,1000000000000,5
180,4,2,1,1000000000000,5
180,96,1,1,1000000000000,5
181,49,2,1,1000000000000,5
181,4,2,1,1000000000000,5
181,96,1,1,1000000000000,5
186,90,1,1,1000000000000,5
186,3,2,1,1000000000000,5
186,51,2,1,1000000000000,5
187,50,1,1,1000000000000,5
187,3,1,1,1000000000000,5
187,91,1,1,1000000000000,5
187,90,1,1,1000000000000,5
184,50,1,1,1000000000000,5
184,110,1,1,1000000000000,5
184,8,1,1,1000000000000,5
184,107,1,1,1000000000000,5
185,61,1,1,1000000000000,5
185,108,1,1,1000000000000,5
185,109,1,1,1000000000000,5
185,8,1,1,1000000000000,5
188,91,1,1,1000000000000,5
188,3,2,1,1000000000000,5
188,49,2,1,1000000000000,5
189,59,1,1,1000000000000,5
189,99,1,1,1000000000000,5
189,7,1,1,1000000000000,5
189,97,1,1,1000000000000,5
322,8,1,2,0.0,5
322,107,1,2,0.0,5
322,184,1,2,0.0,5
322,183,1,2,0.0,5
323,13,1,2,0.0,5
323,123,1,2,0.0,5
323,247,1,2,0.0,5
323,248,1,2,0.0,5
320,182,1,2,0.0,5
320,8,1,2,0.0,5
320,109,1,2,0.0,5
320,185,1,2,0.0,5
321,182,1,2,0.0,5
321,8,1,2,0.0,5
321,110,1,2,0.0,5
321,184,1,2,0.0,5
326,13,1,2,0.0,5
326,249,1,2,0.0,5
326,248,1,2,0.0,5
326,126,1,2,0.0,5
327,177,1,2,0.0,5
327,69,1,2,0.0,5
327,244,1,2,0.0,5
327,121,1,2,0.0,5
324,250,1,2,0.0,5
324,13,1,2,0.0,5
324,124,1,2,0.0,5
324,247,1,2,0.0,5
325,249,1,2,0.0,5
325,13,1,2,0.0,5
325,250,1,2,0.0,5
325,125,1,2,0.0,5
328,120,1,2,0.0,5
328,69,1,2,0.0,5
328,232,1,2,0.0,5
328,243,1,2,0.0,5
329,69,1,2,0.0,5
329,122,1,2,0.0,5
329,232,1,2,0.0,5
329,244,1,2,0.0,5
201,143,1,1,1000000000000,5
201,33,1,1,1000000000000,5
201,77,1,1,1000000000000,5
201,136,1,1,1000000000000,5
200,38,1,1,1000000000000,5
200,111,1,1,1000000000000,5
200,79,1,1,1000000000000,5
200,85,1,1,1000000000000,5
203,143,1,1,1000000000000,5
203,33,1,1,1000000000000,5
203,66,1,1,1000000000000,5
203,128,1,1,1000000000000,5
202,33,1,1,1000000000000,5
202,117,1,1,1000000000000,5
202,136,1,1,1000000000000,5
202,68,1,1,1000000000000,5
205,133,1,1,1000000000000,5
205,32,1,1,1000000000000,5
205,60,1,1,1000000000000,5
205,105,1,1,1000000000000,5
204,33,1,1,1000000000000,5
204,67,1,1,1000000000000,5
204,117,1,1,1000000000000,5
204,128,1,1,1000000000000,5
207,32,1,1,1000000000000,5
207,108,1,1,1000000000000,5
207,62,1,1,1000000000000,5
207,105,1,1,1000000000000,5
206,63,1,1,1000000000000,5
206,32,1,1,1000000000000,5
206,133,1,1,1000000000000,5
206,123,1,1,1000000000000,5
209,31,1,1,1000000000000,5
209,67,1,1,1000000000000,5
209,129,1,1,1000000000000,5
209,118,1,1,1000000000000,5
208,32,1,1,1000000000000,5
208,61,1,1,1000000000000,5
208,108,1,1,1000000000000,5
208,123,1,1,1000000000000,5
542,235,1,2,0.0,5
542,92,1,2,0.0,5
542,2,1,2,0.0,5
542,233,1,2,0.0,5
543,281,1,2,0.0,5
543,47,1,2,0.0,5
543,88,1,2,0.0,5
543,154,1,2,0.0,5
540,146,1,2,0.0,5
540,279,1,2,0.0,5
540,81,1,2,0.0,5
540,78,1,2,0.0,5
541,234,1,2,0.0,5
541,235,1,2,0.0,5
541,93,1,2,0.0,5
541,2,1,2,0.0,5
544,47,1,2,0.0,5
544,89,1,2,0.0,5
544,154,1,2,0.0,5
544,178,1,2,0.0,5
414,226,1,2,0.0,5
414,225,1,2,0.0,5
414,35,1,2,0.0,5
414,134,1,2,0.0,5
415,120,1,2,0.0,5
415,231,1,2,0.0,5
415,232,1,2,0.0,5
415,34,1,2,0.0,5
416,122,1,2,0.0,5
416,230,1,2,0.0,5
416,232,1,2,0.0,5
416,34,1,2,0.0,5
417,116,1,2,0.0,5
417,230,1,2,0.0,5
417,229,1,2,0.0,5
417,34,1,2,0.0,5
410,83,1,2,0.0,5
410,37,1,2,0.0,5
410,218,1,2,0.0,5
410,217,1,2,0.0,5
411,227,1,2,0.0,5
411,225,1,2,0.0,5
411,126,1,2,0.0,5
411,35,1,2,0.0,5
412,226,1,2,0.0,5
412,140,1,2,0.0,5
412,35,1,2,0.0,5
412,228,1,2,0.0,5
413,227,1,2,0.0,5
413,113,1,2,0.0,5
413,35,1,2,0.0,5
413,228,1,2,0.0,5
498,278,1,2,0.0,5
498,86,1,2,0.0,5
498,276,1,2,0.0,5
498,40,1,2,0.0,5
418,138,1,2,0.0,5
418,231,1,2,0.0,5
418,229,1,2,0.0,5
418,34,1,2,0.0,5
419,268,1,2,0.0,5
419,138,1,2,0.0,5
419,265,1,2,0.0,5
419,16,1,2,0.0,5
499,82,1,2,0.0,5
499,217,1,2,0.0,5
499,160,1,2,0.0,5
499,41,1,2,0.0,5
319,8,1,2,0.0,5
319,108,1,2,0.0,5
319,185,1,2,0.0,5
319,183,1,2,0.0,5
318,180,1,2,0.0,5
318,181,1,2,0.0,5
318,4,1,2,0.0,5
318,96,1,2,0.0,5
313,177,1,2,0.0,5
313,174,1,2,0.0,5
313,119,1,2,0.0,5
313,29,1,2,0.0,5
312,173,1,2,0.0,5
312,93,1,2,0.0,5
312,28,1,2,0.0,5
312,171,1,2,0.0,5
311,173,1,2,0.0,5
311,100,1,2,0.0,5
311,28,1,2,0.0,5
311,170,1,2,0.0,5
310,90,1,2,0.0,5
310,28,1,2,0.0,5
310,172,1,2,0.0,5
310,171,1,2,0.0,5
317,0,1,2,0.0,5
317,89,1,2,0.0,5
317,179,1,2,0.0,5
317,178,1,2,0.0,5
316,175,1,2,0.0,5
316,174,1,2,0.0,5
316,29,1,2,0.0,5
316,104,1,2,0.0,5
315,176,1,2,0.0,5
315,175,1,2,0.0,5
315,95,1,2,0.0,5
315,29,1,2,0.0,5
314,177,1,2,0.0,5
314,121,1,2,0.0,5
314,29,1,2,0.0,5
314,176,1,2,0.0,5
496,279,1,2,0.0,5
496,139,1,2,0.0,5
496,40,1,2,0.0,5
496,277,1,2,0.0,5
497,279,1,2,0.0,5
497,81,1,2,0.0,5
497,276,1,2,0.0,5
497,40,1,2,0.0,5
368,259,1,2,0.0,5
368,225,1,2,0.0,5
368,63,1,2,0.0,5
368,134,1,2,0.0,5
369,117,1,2,0.0,5
369,241,1,2,0.0,5
369,204,1,2,0.0,5
369,67,1,2,0.0,5
366,123,1,2,0.0,5
366,63,1,2,0.0,5
366,248,1,2,0.0,5
366,206,1,2,0.0,5
367,225,1,2,0.0,5
367,63,1,2,0.0,5
367,248,1,2,0.0,5
367,126,1,2,0.0,5
364,150,1,2,0.0,5
364,192,1,2,0.0,5
364,97,1,2,0.0,5
364,52,1,2,0.0,5
365,133,1,2,0.0,5
365,259,1,2,0.0,5
365,63,1,2,0.0,5
365,206,1,2,0.0,5
362,235,1,2,0.0,5
362,150,1,2,0.0,5
362,92,1,2,0.0,5
362,52,1,2,0.0,5
363,100,1,2,0.0,5
363,192,1,2,0.0,5
363,173,1,2,0.0,5
363,52,1,2,0.0,5
360,176,1,2,0.0,5
360,95,1,2,0.0,5
360,284,1,2,0.0,5
360,53,1,2,0.0,5
361,235,1,2,0.0,5
361,93,1,2,0.0,5
361,173,1,2,0.0,5
361,52,1,2,0.0,5
380,98,1,2,0.0,5
380,191,1,2,0.0,5
380,190,1,2,0.0,5
380,7,1,2,0.0,5
381,100,1,2,0.0,5
381,190,1,2,0.0,5
381,7,1,2,0.0,5
381,192,1,2,0.0,5
382,189,1,2,0.0,5
382,97,1,2,0.0,5
382,7,1,2,0.0,5
382,192,1,2,0.0,5
383,194,1,2,0.0,5
383,39,1,2,0.0,5
383,196,1,2,0.0,5
383,141,1,2,0.0,5
384,39,1,2,0.0,5
384,196,1,2,0.0,5
384,131,1,2,0.0,5
384,193,1,2,0.0,5
385,195,1,2,0.0,5
385,194,1,2,0.0,5
385,39,1,2,0.0,5
385,135,1,2,0.0,5
386,195,1,2,0.0,5
386,39,1,2,0.0,5
386,193,1,2,0.0,5
386,84,1,2,0.0,5
387,199,1,2,0.0,5
387,38,1,2,0.0,5
387,142,1,2,0.0,5
387,198,1,2,0.0,5
388,132,1,2,0.0,5
388,197,1,2,0.0,5
388,38,1,2,0.0,5
388,199,1,2,0.0,5
389,200,1,2,0.0,5
389,38,1,2,0.0,5
389,111,1,2,0.0,5
389,198,1,2,0.0,5
258,60,2,1,1000000000000,5
258,133,1,1,1000000000000,5
258,14,2,1,1000000000000,5
252,12,1,1,1000000000000,5
252,130,1,1,1000000000000,5
252,65,1,1,1000000000000,5
252,127,1,1,1000000000000,5
250,13,1,1,1000000000000,5
250,124,1,1,1000000000000,5
250,65,1,1,1000000000000,5
250,125,1,1,1000000000000,5
251,12,1,1,1000000000000,5
251,56,1,1,1000000000000,5
251,127,1,1,1000000000000,5
251,129,1,1,1000000000000,5
256,15,1,1,1000000000000,5
256,115,1,1,1000000000000,5
256,116,1,1,1000000000000,5
256,71,1,1,1000000000000,5
257,116,1,1,1000000000000,5
257,15,2,1,1000000000000,5
257,70,2,1,1000000000000,5
254,12,1,1,1000000000000,5
254,67,1,1,1000000000000,5
254,128,1,1,1000000000000,5
254,129,1,1,1000000000000,5
255,115,1,1,1000000000000,5
255,15,2,1,1000000000000,5
255,72,2,1,1000000000000,5
508,77,1,2,0.0,5
508,194,1,2,0.0,5
508,261,1,2,0.0,5
508,141,1,2,0.0,5
509,77,1,2,0.0,5
509,201,1,2,0.0,5
509,136,1,2,0.0,5
509,266,1,2,0.0,5
506,9,1,2,0.0,5
506,288,1,2,0.0,5
506,287,1,2,0.0,5
506,105,1,2,0.0,5
507,77,1,2,0.0,5
507,201,1,2,0.0,5
507,261,1,2,0.0,5
507,143,1,2,0.0,5
504,285,1,2,0.0,5
504,283,1,2,0.0,5
504,5,1,2,0.0,5
504,94,1,2,0.0,5
505,9,1,2,0.0,5
505,288,1,2,0.0,5
505,106,1,2,0.0,5
505,286,1,2,0.0,5
502,1,1,2,0.0,5
502,280,1,2,0.0,5
502,282,1,2,0.0,5
502,87,1,2,0.0,5
503,95,1,2,0.0,5
503,283,1,2,0.0,5
503,5,1,2,0.0,5
503,284,1,2,0.0,5
500,83,1,2,0.0,5
500,163,1,2,0.0,5
500,217,1,2,0.0,5
500,41,1,2,0.0,5
501,1,1,2,0.0,5
501,281,1,2,0.0,5
501,88,1,2,0.0,5
501,280,1,2,0.0,5
469,261,1,2,0.0,5
469,143,1,2,0.0,5
469,17,1,2,0.0,5
469,264,1,2,0.0,5
468,263,1,2,0.0,5
468,262,1,2,0.0,5
468,142,1,2,0.0,5
468,17,1,2,0.0,5
465,18,1,2,0.0,5
465,272,1,2,0.0,5
465,273,1,2,0.0,5
465,112,1,2,0.0,5
464,18,1,2,0.0,5
464,273,1,2,0.0,5
464,274,1,2,0.0,5
464,113,1,2,0.0,5
467,262,1,2,0.0,5
467,144,1,2,0.0,5
467,17,1,2,0.0,5
467,264,1,2,0.0,5
466,18,1,2,0.0,5
466,272,1,2,0.0,5
466,111,1,2,0.0,5
466,275,1,2,0.0,5
461,19,1,2,0.0,5
461,271,1,2,0.0,5
461,139,1,2,0.0,5
461,269,1,2,0.0,5
460,128,1,2,0.0,5
460,253,1,2,0.0,5
460,203,1,2,0.0,5
460,66,1,2,0.0,5
463,18,1,2,0.0,5
463,274,1,2,0.0,5
463,275,1,2,0.0,5
463,114,1,2,0.0,5
462,19,1,2,0.0,5
462,270,1,2,0.0,5
462,269,1,2,0.0,5
462,140,1,2,0.0,5
168,23,2,1,1000000000000,5
168,43,2,1,1000000000000,5
168,85,1,1,1000000000000,5
169,23,1,1,1000000000000,5
169,86,1,1,1000000000000,5
169,79,1,1,1000000000000,5
169,85,1,1,1000000000000,5
164,22,1,1,1000000000000,5
164,132,1,1,1000000000000,5
164,131,1,1,1000000000000,5
164,74,1,1,1000000000000,5
165,131,1,1,1000000000000,5
165,42,2,1,1000000000000,5
165,22,2,1,1000000000000,5
166,132,1,1,1000000000000,5
166,43,2,1,1000000000000,5
166,22,2,1,1000000000000,5
167,44,2,1,1000000000000,5
167,86,1,1,1000000000000,5
167,23,2,1,1000000000000,5
160,82,1,1,1000000000000,5
160,20,2,1,1000000000000,5
160,41,2,1,1000000000000,5
161,21,1,1,1000000000000,5
161,76,1,1,1000000000000,5
161,83,1,1,1000000000000,5
161,84,1,1,1000000000000,5
162,42,2,1,1000000000000,5
162,21,2,1,1000000000000,5
162,84,1,1,1000000000000,5
163,83,1,1,1000000000000,5
163,21,2,1,1000000000000,5
163,41,2,1,1000000000000,5
357,91,1,2,0.0,5
357,50,1,2,0.0,5
357,157,1,2,0.0,5
357,187,1,2,0.0,5
356,172,1,2,0.0,5
356,50,1,2,0.0,5
356,184,1,2,0.0,5
356,110,1,2,0.0,5
355,184,1,2,0.0,5
355,50,1,2,0.0,5
355,157,1,2,0.0,5
355,107,1,2,0.0,5
354,234,1,2,0.0,5
354,93,1,2,0.0,5
354,51,1,2,0.0,5
354,171,1,2,0.0,5
353,90,1,2,0.0,5
353,51,1,2,0.0,5
353,171,1,2,0.0,5
353,186,1,2,0.0,5
352,251,1,2,0.0,5
352,129,1,2,0.0,5
352,56,1,2,0.0,5
352,212,1,2,0.0,5
351,215,1,2,0.0,5
351,251,1,2,0.0,5
351,56,1,2,0.0,5
351,127,1,2,0.0,5
350,215,1,2,0.0,5
350,98,1,2,0.0,5
350,56,1,2,0.0,5
350,191,1,2,0.0,5
359,245,1,2,0.0,5
359,121,1,2,0.0,5
359,53,1,2,0.0,5
359,176,1,2,0.0,5
358,90,1,2,0.0,5
358,50,1,2,0.0,5
358,187,1,2,0.0,5
358,172,1,2,0.0,5
216,30,1,1,1000000000000,5
216,124,1,1,1000000000000,5
216,65,1,1,1000000000000,5
216,127,1,1,1000000000000,5
217,37,1,1,1000000000000,5
217,41,1,1,1000000000000,5
217,82,1,1,1000000000000,5
217,83,1,1,1000000000000,5
214,57,1,1,1000000000000,5
214,30,1,1,1000000000000,5
214,98,1,1,1000000000000,5
214,109,1,1,1000000000000,5
215,56,1,1,1000000000000,5
215,30,1,1,1000000000000,5
215,98,1,1,1000000000000,5
215,127,1,1,1000000000000,5
212,31,1,1,1000000000000,5
212,56,1,1,1000000000000,5
212,99,1,1,1000000000000,5
212,129,1,1,1000000000000,5
213,30,1,1,1000000000000,5
213,61,1,1,1000000000000,5
213,109,1,1,1000000000000,5
213,124,1,1,1000000000000,5
210,59,1,1,1000000000000,5
210,31,1,1,1000000000000,5
210,99,1,1,1000000000000,5
210,103,1,1,1000000000000,5
211,58,1,1,1000000000000,5
211,31,1,1,1000000000000,5
211,118,1,1,1000000000000,5
211,103,1,1,1000000000000,5
218,37,1,1,1000000000000,5
218,76,1,1,1000000000000,5
218,83,1,1,1000000000000,5
218,137,1,1,1000000000000,5
219,37,1,1,1000000000000,5
219,115,1,1,1000000000000,5
219,72,1,1,1000000000000,5
219,82,1,1,1000000000000,5
289,24,1,2,0.0,5
289,146,1,2,0.0,5
289,81,1,2,0.0,5
289,145,1,2,0.0,5
288,62,1,1,1000000000000,5
288,9,1,1,1000000000000,5
288,106,1,1,1000000000000,5
288,105,1,1,1000000000000,5
281,1,2,1,1000000000000,5
281,47,2,1,1000000000000,5
281,88,1,1,1000000000000,5
280,46,1,1,1000000000000,5
280,1,1,1,1000000000000,5
280,88,1,1,1000000000000,5
280,87,1,1,1000000000000,5
283,54,1,1,1000000000000,5
283,5,1,1,1000000000000,5
283,95,1,1,1000000000000,5
283,94,1,1,1000000000000,5
282,1,2,1,1000000000000,5
282,45,2,1,1000000000000,5
282,87,1,1,1000000000000,5
285,5,2,1,1000000000000,5
285,94,1,1,1000000000000,5
285,48,2,1,1000000000000,5
284,5,2,1,1000000000000,5
284,95,1,1,1000000000000,5
284,53,2,1,1000000000000,5
287,9,2,1,1000000000000,5
287,60,2,1,1000000000000,5
287,105,1,1,1000000000000,5
286,9,2,1,1000000000000,5
286,55,2,1,1000000000000,5
286,106,1,1,1000000000000,5
263,142,1,1,1000000000000,5
263,17,1,1,1000000000000,5
263,141,1,1,1000000000000,5
263,74,1,1,1000000000000,5
262,144,1,1,1000000000000,5
262,142,1,1,1000000000000,5
262,17,1,1,1000000000000,5
262,75,1,1,1000000000000,5
261,143,1,1,1000000000000,5
261,17,1,1,1000000000000,5
261,141,1,1,1000000000000,5
261,77,1,1,1000000000000,5
260,73,2,1,1000000000000,5
260,14,2,1,1000000000000,5
260,134,1,1,1000000000000,5
267,16,1,1,1000000000000,5
267,76,1,1,1000000000000,5
267,137,1,1,1000000000000,5
267,135,1,1,1000000000000,5
266,16,1,1,1000000000000,5
266,77,1,1,1000000000000,5
266,136,1,1,1000000000000,5
266,135,1,1,1000000000000,5
265,138,1,1,1000000000000,5
265,16,1,1,1000000000000,5
265,137,1,1,1000000000000,5
265,71,1,1,1000000000000,5
264,144,1,1,1000000000000,5
264,143,1,1,1000000000000,5
264,17,1,1,1000000000000,5
264,66,1,1,1000000000000,5
269,139,1,1,1000000000000,5
269,140,1,1,1000000000000,5
269,19,1,1,1000000000000,5
269,80,1,1,1000000000000,5
268,16,1,1,1000000000000,5
268,136,1,1,1000000000000,5
268,68,1,1,1000000000000,5
268,138,1,1,1000000000000,5
537,200,1,2,0.0,5
537,169,1,2,0.0,5
537,79,1,2,0.0,5
537,85,1,2,0.0,5
536,200,1,2,0.0,5
536,111,1,2,0.0,5
536,275,1,2,0.0,5
536,79,1,2,0.0,5
535,278,1,2,0.0,5
535,114,1,2,0.0,5
535,275,1,2,0.0,5
535,79,1,2,0.0,5
259,14,1,1,1000000000000,5
259,133,1,1,1000000000000,5
259,63,1,1,1000000000000,5
259,134,1,1,1000000000000,5
533,68,1,2,0.0,5
533,117,1,2,0.0,5
533,202,1,2,0.0,5
533,242,1,2,0.0,5
532,68,1,2,0.0,5
532,120,1,2,0.0,5
532,231,1,2,0.0,5
532,242,1,2,0.0,5
531,68,1,2,0.0,5
531,268,1,2,0.0,5
531,138,1,2,0.0,5
531,231,1,2,0.0,5
530,138,1,2,0.0,5
530,229,1,2,0.0,5
530,265,1,2,0.0,5
530,71,1,2,0.0,5
539,279,1,2,0.0,5
539,271,1,2,0.0,5
539,139,1,2,0.0,5
539,78,1,2,0.0,5
538,278,1,2,0.0,5
538,86,1,2,0.0,5
538,169,1,2,0.0,5
538,79,1,2,0.0,5
429,61,1,2,0.0,5
429,109,1,2,0.0,5
429,213,1,2,0.0,5
429,185,1,2,0.0,5
428,61,1,2,0.0,5
428,108,1,2,0.0,5
428,185,1,2,0.0,5
428,208,1,2,0.0,5
534,68,1,2,0.0,5
534,268,1,2,0.0,5
534,202,1,2,0.0,5
534,136,1,2,0.0,5
421,267,1,2,0.0,5
421,266,1,2,0.0,5
421,135,1,2,0.0,5
421,16,1,2,0.0,5
420,268,1,2,0.0,5
420,136,1,2,0.0,5
420,266,1,2,0.0,5
420,16,1,2,0.0,5
423,122,1,2,0.0,5
423,246,1,2,0.0,5
423,230,1,2,0.0,5
423,70,1,2,0.0,5
422,267,1,2,0.0,5
422,137,1,2,0.0,5
422,265,1,2,0.0,5
422,16,1,2,0.0,5
425,60,1,2,0.0,5
425,133,1,2,0.0,5
425,258,1,2,0.0,5
425,205,1,2,0.0,5
424,116,1,2,0.0,5
424,230,1,2,0.0,5
424,257,1,2,0.0,5
424,70,1,2,0.0,5
427,61,1,2,0.0,5
427,247,1,2,0.0,5
427,123,1,2,0.0,5
427,208,1,2,0.0,5
426,60,1,2,0.0,5
426,205,1,2,0.0,5
426,287,1,2,0.0,5
426,105,1,2,0.0,5
308,85,1,2,0.0,5
308,168,1,2,0.0,5
308,169,1,2,0.0,5
308,23,1,2,0.0,5
309,170,1,2,0.0,5
309,28,1,2,0.0,5
309,110,1,2,0.0,5
309,172,1,2,0.0,5
300,158,1,2,0.0,5
300,27,1,2,0.0,5
300,107,1,2,0.0,5
300,157,1,2,0.0,5
301,27,1,2,0.0,5
301,155,1,2,0.0,5
301,156,1,2,0.0,5
301,96,1,2,0.0,5
302,82,1,2,0.0,5
302,159,1,2,0.0,5
302,160,1,2,0.0,5
302,20,1,2,0.0,5
303,83,1,2,0.0,5
303,163,1,2,0.0,5
303,21,1,2,0.0,5
303,161,1,2,0.0,5
304,162,1,2,0.0,5
304,21,1,2,0.0,5
304,84,1,2,0.0,5
304,161,1,2,0.0,5
305,164,1,2,0.0,5
305,132,1,2,0.0,5
305,166,1,2,0.0,5
305,22,1,2,0.0,5
306,164,1,2,0.0,5
306,165,1,2,0.0,5
306,131,1,2,0.0,5
306,22,1,2,0.0,5
307,167,1,2,0.0,5
307,86,1,2,0.0,5
307,169,1,2,0.0,5
307,23,1,2,0.0,5
229,34,1,1,1000000000000,5
229,116,1,1,1000000000000,5
229,71,1,1,1000000000000,5
229,138,1,1,1000000000000,5
228,140,1,1,1000000000000,5
228,35,1,1,1000000000000,5
228,113,1,1,1000000000000,5
228,80,1,1,1000000000000,5
227,113,1,1,1000000000000,5
227,35,1,1,1000000000000,5
227,64,1,1,1000000000000,5
227,126,1,1,1000000000000,5
226,140,1,1,1000000000000,5
226,35,1,1,1000000000000,5
226,73,1,1,1000000000000,5
226,134,1,1,1000000000000,5
225,126,1,1,1000000000000,5
225,35,1,1,1000000000000,5
225,63,1,1,1000000000000,5
225,134,1,1,1000000000000,5
224,144,1,1,1000000000000,5
224,36,1,1,1000000000000,5
224,130,1,1,1000000000000,5
224,66,1,1,1000000000000,5
223,36,1,1,1000000000000,5
223,130,1,1,1000000000000,5
223,65,1,1,1000000000000,5
223,125,1,1,1000000000000,5
222,36,1,1,1000000000000,5
222,64,1,1,1000000000000,5
222,125,1,1,1000000000000,5
222,112,1,1,1000000000000,5
221,144,1,1,1000000000000,5
221,36,1,1,1000000000000,5
221,75,1,1,1000000000000,5
221,112,1,1,1000000000000,5
220,37,1,1,1000000000000,5
220,115,1,1,1000000000000,5
220,137,1,1,1000000000000,5
220,71,1,1,1000000000000,5
391,33,1,2,0.0,5
391,201,1,2,0.0,5
391,203,1,2,0.0,5
391,143,1,2,0.0,5
390,200,1,2,0.0,5
390,197,1,2,0.0,5
390,38,1,2,0.0,5
390,85,1,2,0.0,5
151,26,1,1,1000000000000,5
151,48,1,1,1000000000000,5
151,89,1,1,1000000000000,5
151,94,1,1,1000000000000,5
150,25,1,1,1000000000000,5
150,52,1,1,1000000000000,5
150,97,1,1,1000000000000,5
150,92,1,1,1000000000000,5
153,26,1,1,1000000000000,5
153,54,1,1,1000000000000,5
153,102,1,1,1000000000000,5
153,94,1,1,1000000000000,5
152,26,1,1,1000000000000,5
152,46,1,1,1000000000000,5
152,88,1,1,1000000000000,5
152,102,1,1,1000000000000,5
155,27,1,1,1000000000000,5
155,49,1,1,1000000000000,5
155,91,1,1,1000000000000,5
155,96,1,1,1000000000000,5
154,26,1,1,1000000000000,5
154,47,1,1,1000000000000,5
154,88,1,1,1000000000000,5
154,89,1,1,1000000000000,5
157,27,1,1,1000000000000,5
157,50,1,1,1000000000000,5
157,91,1,1,1000000000000,5
157,107,1,1,1000000000000,5
156,27,1,1,1000000000000,5
156,55,1,1,1000000000000,5
156,106,1,1,1000000000000,5
156,96,1,1,1000000000000,5
159,82,1,1,1000000000000,5
159,20,2,1,1000000000000,5
159,72,2,1,1000000000000,5
158,27,1,1,1000000000000,5
158,62,1,1,1000000000000,5
158,106,1,1,1000000000000,5
158,107,1,1,1000000000000,5
399,99,1,2,0.0,5
399,31,1,2,0.0,5
399,212,1,2,0.0,5
399,210,1,2,0.0,5
398,32,1,2,0.0,5
398,205,1,2,0.0,5
398,207,1,2,0.0,5
398,105,1,2,0.0,5
489,92,1,2,0.0,5
489,45,1,2,0.0,5
489,149,1,2,0.0,5
489,233,1,2,0.0,5
488,44,1,2,0.0,5
488,81,1,2,0.0,5
488,276,1,2,0.0,5
488,145,1,2,0.0,5
487,44,1,2,0.0,5
487,167,1,2,0.0,5
487,86,1,2,0.0,5
487,276,1,2,0.0,5
486,46,1,2,0.0,5
486,280,1,2,0.0,5
486,87,1,2,0.0,5
486,148,1,2,0.0,5
485,46,1,2,0.0,5
485,101,1,2,0.0,5
485,238,1,2,0.0,5
485,148,1,2,0.0,5
484,46,1,2,0.0,5
484,102,1,2,0.0,5
484,152,1,2,0.0,5
484,238,1,2,0.0,5
483,46,1,2,0.0,5
483,280,1,2,0.0,5
483,88,1,2,0.0,5
483,152,1,2,0.0,5
482,181,1,2,0.0,5
482,96,1,2,0.0,5
482,155,1,2,0.0,5
482,49,1,2,0.0,5
481,91,1,2,0.0,5
481,188,1,2,0.0,5
481,155,1,2,0.0,5
481,49,1,2,0.0,5
480,151,1,2,0.0,5
480,285,1,2,0.0,5
480,94,1,2,0.0,5
480,48,1,2,0.0,5
472,158,1,2,0.0,5
472,62,1,2,0.0,5
472,106,1,2,0.0,5
472,288,1,2,0.0,5
473,183,1,2,0.0,5
473,62,1,2,0.0,5
473,107,1,2,0.0,5
473,158,1,2,0.0,5
470,263,1,2,0.0,5
470,261,1,2,0.0,5
470,17,1,2,0.0,5
470,141,1,2,0.0,5
471,183,1,2,0.0,5
471,62,1,2,0.0,5
471,108,1,2,0.0,5
471,207,1,2,0.0,5
476,224,1,2,0.0,5
476,130,1,2,0.0,5
476,223,1,2,0.0,5
476,36,1,2,0.0,5
477,223,1,2,0.0,5
477,36,1,2,0.0,5
477,222,1,2,0.0,5
477,125,1,2,0.0,5
474,288,1,2,0.0,5
474,62,1,2,0.0,5
474,207,1,2,0.0,5
474,105,1,2,0.0,5
475,144,1,2,0.0,5
475,224,1,2,0.0,5
475,36,1,2,0.0,5
475,221,1,2,0.0,5
478,221,1,2,0.0,5
478,36,1,2,0.0,5
478,222,1,2,0.0,5
478,112,1,2,0.0,5
479,151,1,2,0.0,5
479,89,1,2,0.0,5
479,179,1,2,0.0,5
479,48,1,2,0.0,5
