2
25
9.107317556880205e-05
0,-3.0,-3.0,4.399557405911779,0,3.332926556070187,5.6591524385106275,-73.61941861466983
1,-3.0,-1.5,-0.04650202509477571,0,2.9403544512093767,-2.226070414076319,38.12501636330512
2,-3.0,0.0,-3.3101610474885623,0,-4.193228194943534,3.3843858138102454,40.50078359672094
3,-3.0,1.5,-0.3965193956514657,0,5.288237091464589,-3.566780065475516,10.59606508712003
4,-3.0,3.0,-1.7365981737580263,0,3.309881659907732,-1.3534071954143578,1.3317109984089301
5,-1.5,-3.0,-0.5370592512496902,0,-4.020359844959921,3.5124134589574543,33.55280971080679
6,-1.5,-1.5,0.24456580964640412,1,-1.4077410283766105,-2.8961632926739944,55.55832591564489
7,-1.5,0.0,-1.7698154925752358,1,1.7528117069098579,-1.5720027629632376,-82.87286294230204
8,-1.5,1.5,0.6415243974503061,1,3.099526796298511,1.3514916395118701,-10.395113144678428
9,-1.5,3.0,-0.019146383492984906,0,-0.018259381908679317,2.2097512849063503,-9.228204865009845
10,0.0,-3.0,-5.88489502376306,0,3.3743057353291865,-6.332637271511762,5.564450201879174
11,0.0,-1.5,-3.255574601475704,1,-2.970849432750127,3.0804781612477488,-63.571922129875695
12,0.0,0.0,1.8497076828940358,1,3.511224075691237,4.973127513421276,0.017101742920469606
13,0.0,1.5,5.3428102910957405,1,2.0290529220515157,-0.33320782355953976,77.144801726462
14,0.0,3.0,5.389007573995918,0,4.362957943946122,-9.619342519094142,-5.566972217963795
15,1.5,-3.0,-0.2059287323189673,0,-0.05893377622315214,4.430223060899013,13.42346814854283
16,1.5,-1.5,-0.788625738340215,1,2.443423184641285,1.5693500178177129,3.5938502883883636
17,1.5,0.0,2.3195875302724156,1,-0.6572217329914432,0.9802242388023151,52.71597371321873
18,1.5,1.5,2.0938434689532532,1,-6.84078891688312,-4.5406685237173035,-19.33821218087846
19,1.5,3.0,1.2947142738286566,0,-7.653288717398463,-0.95921861509139,-54.6375716741731
20,3.0,-3.0,0.5380699524841259,0,-2.5337788776872183,4.081548378005132,3.1646086994402935
21,3.0,-1.5,0.8213354055634694,0,0.3191520084367433,-1.594902292476767,-5.932524872807057
22,3.0,0.0,2.0190752261469376,0,-5.631227997600541,1.8250837258546422,-17.855656059209796
23,3.0,1.5,-0.7976816919808702,0,-2.474646787723145,-2.99026637745774,-35.20453810614059
24,3.0,3.0,-7.1127048141755544,0,2.6964705574895613,0.9274374217676788,42.93403061485007
1,0,2,2,0.0,0
2,1,2,2,0.0,0
3,2,2,2,0.0,0
4,3,2,2,0.0,0
5,0,2,2,0.0,0
6,1,1,2,0.0,0
6,5,1,2,0.0,0
6,0,1,1,2.418455069184353,0
7,6,1,2,0.0,0
7,1,1,1,1.470986668287111,0
7,2,1,2,0.0,0
8,7,1,2,0.0,0
8,2,1,1,1.4349520036017966,0
8,3,1,2,0.0,0
9,8,1,2,0.0,0
9,3,1,1,1.1854641565589827,0
9,4,2,2,0.0,0
10,5,2,2,0.0,0
11,6,1,2,0.0,0
11,5,1,1,1.9674553954047578,0
11,10,1,2,0.0,0
12,6,1,1,3.6041175842775797,0
12,7,1,2,0.0,0
12,11,1,2,0.0,0
13,7,1,1,1.8900066718132367,0
13,8,1,2,0.0,0
13,12,1,2,0.0,0
14,8,1,1,1.9423659864673113,0
14,13,1,2,0.0,0
14,9,2,2,0.0,0
15,10,2,2,0.0,0
16,11,1,2,0.0,0
16,10,1,1,2.211769881224358,0
16,15,1,2,0.0,0
17,11,1,1,1.635070099729336,0
17,12,1,2,0.0,0
17,16,1,2,0.0,0
18,12,1,1,2.5642303946406,0
18,13,1,2,0.0,0
18,17,1,2,0.0,0
19,13,1,1,2.128252072187709,0
19,18,1,2,0.0,0
19,14,2,2,0.0,0
20,15,2,2,0.0,0
21,16,1,2,0.0,0
21,20,2,2,0.0,0
21,15,1,1,0.9387893885298577,0
22,16,1,1,1.5741625296487933,0
22,17,1,2,0.0,0
22,21,2,2,0.0,0
23,17,1,1,2.086696186769149,0
23,18,1,2,0.0,0
23,22,2,2,0.0,0
24,18,1,1,2.961318358065907,0
24,23,2,2,0.0,0
24,19,2,2,0.0,0
