2
51
3.59355588249e-05
42,0.5,0.875,1886.8487713393179,1,-347.81802629374221,2131.6164907651,-17291.391827409592
48,0.125,0.5,2008.6263488952927,1,-1661.5413310594463,-10.054782120884365,-7051.8547552173204
43,0.375,0.125,1966.4711238990687,1,-548.63953445340258,-1909.4312002270503,-16941.317135252422
49,0.875,0.125,2092.5988880675586,1,758.39651242875743,-768.97250980015156,-4114.9427036523757
24,1.0,1.0,2100.0,0,0,0,0
25,0.375,0.375,1581.1098810291126,1,-1972.542281809018,-415.09665892120711,-49601.757751325873
26,0.625,0.625,1338.3369170444455,1,634.55949097658038,749.18616360361239,-78228.605889282728
27,0.375,0.875,1950.6038622113019,1,-912.84562802982043,1872.6127140494618,-14541.654826662685
20,1.0,0.0,2100.0,0,0,0,0
21,1.0,0.25,2100.0,0,0,0,0
22,1.0,0.5,2100.0,0,0,0,0
23,1.0,0.75,2100.0,0,0,0,0
46,0.875,1.0,2100.0,0,0,0,0
47,0.125,0.375,2025.339333827927,1,-1747.4030431970905,-83.63358801889089,-12403.6493006908
44,0.5,0.125,1929.9632522584011,1,32.490109562570822,-2057.3593773617167,-15934.832860415518
45,1.0,0.875,2100.0,0,0,0,0
28,0.875,0.375,1955.1816658138612,1,2110.1886513531072,-1014.8178249740159,-12733.320801252774
29,0.375,0.625,1530.3041229567762,1,-2375.2611723702098,-92.7541086280782,-69210.642776674431
40,0.875,0.5,1884.9749985501478,1,2253.2296250220907,-399.633046819274,-16968.518269177679
41,0.625,0.875,1906.9503876121132,1,390.21258322647043,2201.9034229359891,-16131.802102725795
1,0.0,0.25,2100.0,0,0,0,0
0,0.0,0.0,2100.0,0,0,0,0
3,0.0,0.75,2100.0,0,0,0,0
2,0.0,0.5,2100.0,0,0,0,0
5,0.25,0.0,2100.0,0,0,0,0
4,0.0,1.0,2100.0,0,0,0,0
7,0.25,0.5,1769.303111154346,1,-2863.9604778711628,-207.99670735003465,-7226.3184642928991
6,0.25,0.25,1895.4647891602408,1,-2147.9187101074681,-1223.1809234784703,-34729.806960145892
9,0.25,1.0,2100.0,0,0,0,0
8,0.25,0.75,1905.4833826985118,1,-2447.2351765938442,1212.2613591858669,-26231.21886468133
39,0.875,0.625,1905.7893590166098,1,2257.0859300920401,371.05482678249541,-15619.434978271362
38,0.125,0.125,2083.9818184732467,1,-898.74850002838673,-667.56405337137221,-8682.451740036473
11,0.5,0.25,1622.6219315266069,1,-194.20601214995438,-2759.6166120605326,-36727.221696760033
10,0.5,0.0,2100.0,0,0,0,0
13,0.5,0.75,1527.6062382926877,1,-802.38292386940998,2796.6885450443438,-39726.270744753536
12,0.5,0.5,1330.3539977131702,1,-1770.371480726312,-857.05505792626741,-6471.0970470484199
15,0.75,0.0,2100.0,0,0,0,0
14,0.5,1.0,2100.0,0,0,0,0
17,0.75,0.5,1512.3649141961098,1,2983.4099759327482,-834.51443170970231,-39893.614625050301
16,0.75,0.25,1839.3393254336206,1,1954.5395914713081,-2472.4585329544002,-16330.273251177621
19,0.75,1.0,2100.0,0,0,0,0
18,0.75,0.75,1741.7790124806284,1,2191.4648429063022,2192.6813256623304,-34313.047722310956
31,0.375,0.5,1538.0184912608725,1,-2237.6669634311761,-597.48485222046099,2877.1506221802392
30,0.5,0.625,1362.2381912276303,1,-1172.3011372537189,302.60832617232029,-53814.926505049909
37,0.125,0.625,2028.6995005373617,1,-1733.7052004907005,112.40408837543488,-9067.4794164554369
36,0.625,0.125,1966.1213302079063,1,659.65011600657954,-2030.0887931276131,-11825.576282922977
35,0.875,0.875,2056.1129423760804,1,905.29379116731491,905.59791185634879,-8578.2619305777389
34,0.625,0.5,1327.3871326580245,1,315.77122998922533,-884.30609247433188,-60569.139552295375
33,0.5,0.375,1443.9770328963652,1,-906.77778922476875,-1167.808847089583,-46006.304119627712
32,0.625,0.375,1436.955474183284,1,808.09183285782433,-1900.1389198551944,-61555.754913044424
50,0.875,0.25,2019.7006459396473,1,1375.8882018463598,-1153.8369887821264,-8294.6341890206932
42,13,1,2,0.0,2
42,27,1,2,0.0,2
42,14,1,2,0.0,2
42,41,1,2,0.0,2
48,47,1,2,0.0,2
48,2,1,2,0.0,2
48,37,1,2,0.0,2
48,7,1,2,0.0,2
43,11,1,3,70.562846320257734,2
43,10,1,3,36.476775391343807,2
43,5,1,2,0.0,1
43,6,1,2,0.0,1
49,20,1,2,0.0,1
49,15,1,2,0.0,1
49,21,1,3,40.852576085056022,2
49,16,1,3,69.118492942848874,2
25,11,1,3,52.309720198343626,2
25,12,1,1,42.787784393945756,2
25,7,1,3,48.962381928498544,2
25,6,1,2,0.0,1
26,13,1,3,101.81668129431239,2
26,12,1,1,57.072539081235632,2
26,17,1,3,95.693463633079588,2
26,18,1,2,0.0,1
27,9,1,2,0.0,1
27,8,1,2,0.0,1
27,13,1,3,88.107846731485324,2
27,14,1,3,48.992186481101996,2
20,15,2,1,65.927022275559722,1
21,20,2,1,39.225320564161201,1
22,21,2,1,51.043998522204312,1
23,22,2,1,13.766000375495395,1
23,18,1,1,85.290508160642872,1
46,19,2,2,0.0,2
46,24,2,2,0.0,2
46,35,1,2,0.0,2
47,1,1,2,0.0,1
47,2,1,3,31.782529433145509,2
47,7,1,3,53.680156425704517,2
47,6,1,2,0.0,1
44,11,1,2,0.0,2
44,10,1,2,0.0,2
44,43,1,2,0.0,2
44,36,1,2,0.0,2
45,24,2,2,0.0,2
45,35,1,2,0.0,2
45,23,2,2,0.0,2
28,21,1,3,45.669442442364669,2
28,17,1,3,69.884983501670888,2
28,16,1,3,64.571825506666698,2
28,22,1,3,54.66734092101958,2
29,13,1,3,61.002521482251431,2
29,12,1,1,42.016277984251403,2
29,7,1,3,69.490812142610025,2
29,8,1,2,0.0,1
40,39,1,2,0.0,2
40,28,1,2,0.0,2
40,22,1,2,0.0,2
40,17,1,2,0.0,2
41,19,1,2,0.0,1
41,18,1,2,0.0,1
41,13,1,3,64.570430083373182,2
41,14,1,3,33.81021780083929,2
1,0,2,1,46.961539163523675,1
3,2,2,1,17.566204051934371,1
2,1,2,1,17.276094789638236,1
5,0,2,1,46.961539163523675,1
4,3,2,2,0.0,0
7,6,1,1,64.211642104034524,1
6,1,1,1,70.832644399317957,1
6,5,1,1,58.651924176542934,1
9,8,1,3,97.868334278118567,1
9,3,1,1,100.67023034001139,0
9,4,2,2,0.0,0
8,3,1,3,95.93260306592461,1
8,7,1,1,84.486583042534477,1
39,18,1,2,0.0,1
39,22,1,3,36.400700396585208,2
39,17,1,3,69.0987470657643,2
39,23,1,2,0.0,1
38,1,1,2,0.0,1
38,0,1,2,0.0,1
38,5,1,2,0.0,1
38,6,1,2,0.0,1
11,6,1,1,71.284800295044207,1
10,5,2,1,25.729853108345978,1
13,8,1,1,86.33144896368205,1
15,10,2,1,19.449540891509255,1
14,9,2,1,44.089569474277305,1
17,16,1,1,76.418754540732124,1
16,11,1,1,85.865633090120923,1
16,15,1,1,84.272545580157612,1
19,14,2,1,13.095146376250934,1
19,18,1,1,84.545983796477699,1
18,13,1,1,98.14100040216077,1
18,17,1,1,94.740858451515209,1
31,25,1,2,0.0,2
31,12,1,2,0.0,2
31,29,1,2,0.0,2
31,7,1,2,0.0,2
30,13,1,2,0.0,2
30,12,1,2,0.0,2
30,26,1,2,0.0,2
30,29,1,2,0.0,2
37,8,1,2,0.0,1
37,3,1,2,0.0,1
37,2,1,3,32.057874788726409,2
37,7,1,3,63.421274249118596,2
36,11,1,3,63.757560984090794,2
36,10,1,3,34.439937827647796,2
36,15,1,2,0.0,1
36,16,1,2,0.0,1
35,24,1,1,19.756117027808919,2
35,23,1,3,78.808727250785083,2
35,19,1,3,78.988694706724928,2
35,18,1,2,0.0,1
34,32,1,2,0.0,2
34,26,1,2,0.0,2
34,12,1,2,0.0,2
34,17,1,2,0.0,2
33,11,1,2,0.0,2
33,32,1,2,0.0,2
33,12,1,2,0.0,2
33,25,1,2,0.0,2
32,11,1,3,82.506341248413904,2
32,12,1,1,50.466723316616026,2
32,17,1,3,71.443240868359865,2
32,16,1,2,0.0,1
50,49,1,2,0.0,2
50,28,1,2,0.0,2
50,21,1,2,0.0,2
50,16,1,2,0.0,2
