2
170
1e-11
0,0.0,0.0,-9.260251669723242,0,-299.26503438514203,-339.5636423607633,-620.9408735939306
1,0.0,0.5,55.576312916844145,0,12.92987726899708,-197.00795830101026,1616.5286166834742
2,0.5,0.0,3.4458876289643627,0,-49.376628874302504,-236.89707470499033,-3946.1963935244844
3,0.5,0.5,-2.8880788377137088,0,-463.386180706252,-596.5675058579228,-57167.19118035292
4,0.5,1.0,90.82580663162143,0,333.213837732847,274.85910714750963,1141.9533919767891
5,1.0,0.0,12.152281053107602,0,263.3263653803941,-5.224252339266658,-1707.1194605981186
6,1.0,0.5,-4.571123933980738,0,291.7855938440347,2.85871079008611,-460.6756955498503
7,1.0,1.0,-24.71589961535809,0,124.01470632024353,674.4054839875677,-1435.4106210441375
8,0.25,0.25,0.18754929031056045,1,417.0304975459093,-37.341808669677164,-42679.14144325237
9,0.75,0.25,14.720953319152153,1,-165.2958192527505,324.45552918450045,40662.515656520336
10,0.75,0.75,16.065385550521793,1,-133.29358576847778,961.5097040730731,33255.004689914094
11,0.25,0.0,10.20534670809166,0,-164.30946265779352,-130.3727271825314,-710.9981125899875
12,0.0,0.25,3.008273216293126,0,-335.7837821516761,-64.49189150143546,-534.3596007690792
13,0.25,0.5,2.1961472138594593,0,-267.51329231757745,167.17063747459895,-27997.801212433962
14,0.5,0.25,7.623491204903938,1,-49.54461470414249,-232.4312773503935,-21772.39683503149
15,0.75,0.0,51.363495515611795,0,-178.87989263648456,213.38931013049057,-1395.7989866066273
16,0.5,0.75,31.769101765432293,0,22.844325000398662,333.1700697181585,512.8256190993047
17,0.75,0.5,3.096273425832202,1,-183.38304324103618,254.40012833744885,7579.664070535207
18,0.75,1.0,56.597129503328134,0,-18.26892667610001,123.619551731923,1871.236697994624
19,1.0,0.25,5.990167610350153,0,335.3022100733144,-44.01548939855063,-59816.473590908834
20,1.0,0.75,-43.60735175702039,0,452.664578992925,71.18054531692572,-2613.6368652332767
21,0.375,0.125,26.333126275936127,1,-227.66644836287486,-317.93764655280023,59369.92733938608
22,0.125,0.125,-8.1078569371478,1,-216.307375987424,-339.4898432676182,-1261.517720490099
23,0.125,0.375,32.613476023375746,1,10.717924143408705,33.357271064999786,1224.9519912657936
24,0.625,0.125,31.562388682483277,1,223.12359150711956,215.535611579906,-9109.070976853285
25,0.875,0.625,2.8425272551541347,1,-88.23348292628374,-64.90787185980602,24238.674825750888
26,0.625,0.875,69.60854219011455,1,275.2873434951475,427.4121467489274,2142.356384626698
27,0.875,0.875,-10.307900333238107,1,-158.7270733888099,545.1536848549545,-417.84830116574386
28,0.875,0.375,-0.31499495927309257,1,207.1342989453245,-208.89432394597887,-23419.057922899858
29,0.875,0.125,20.219878481474343,1,160.1130272746689,340.1805456590432,-17025.21727290577
30,0.625,0.375,1.2140191290178997,1,191.95453667215403,404.0058320229551,31009.15087541836
31,0.625,0.625,3.00873522833919,1,-90.05943031569099,69.43612482806937,24512.63476959495
32,0.375,0.375,0.7468664598611171,1,242.05608176192385,151.8970273529281,-22733.975667658244
33,0.625,0.25,18.451760201920482,1,-1066.552684296431,81.29079444284638,453445.5092569169
34,0.375,0.25,10.30132034564996,1,-291.94683086317,-501.52886039372527,5739.989173383074
35,0.75,0.125,18.099042962064193,1,-15.856401619111193,-933.5618729553912,45633.61976724378
36,0.6875,0.1875,18.71543200162404,1,353.7411470548998,448.13019018253686,-149453.9296743314
37,0.5,0.125,23.77927156273233,1,244.52120709924637,102.27619273892853,-6195.392878619518
38,0.4375,0.1875,18.90748200299294,1,-208.41526021212852,86.77061275111133,60851.96703345448
39,0.75,0.375,4.053873130940128,1,267.94986417077513,250.4257765962483,147665.60376601838
40,0.6875,0.3125,5.94450989007977,1,-5.015911144302106,881.7082057460308,378646.990507176
41,0.6875,0.25,6.370042885250503,1,435.2273145134995,-1076.1957499093746,-365122.3281026453
42,0.875,0.5,-20.316021542719877,1,351.92155530525747,-53.426460914569084,-11616.771392245768
43,1.0,0.875,-40.819432668042865,0,318.45330512244675,576.0031743524665,-3831.3761224202776
44,0.875,0.75,-29.696114416886815,1,109.3685848984049,329.0026781968939,-18046.50520636636
45,0.875,1.0,4.769366876396065,0,-89.10130213820295,443.3750416035735,-57.00743954639157
46,0.625,0.75,27.133410548885887,1,118.44361023305903,566.0700465418809,-10709.077693558844
47,1.0,0.625,-7.039582170553414,0,-167.1332390243427,94.6103035807162,421.7388191681986
48,1.0,0.375,9.947870314277344,0,-25.510409533154167,-116.19163188870601,19274.015898075864
49,0.75,0.875,54.214131698996106,1,-44.10805202566075,137.34087826476448,3889.202010522917
50,0.625,1.0,86.72050100266009,0,211.02901814741404,154.87680569588787,1781.5155230073417
51,0.75,0.625,2.183404421977438,1,489.8957505542819,108.34704690283104,-2202.183729389373
52,0.5,0.875,68.48922046589328,0,201.18838143550744,459.44483683855697,-498.0117317036725
53,0.5,0.625,-1.8366231304843619,0,192.50823475983225,745.693933758248,-1661.8703208044356
54,0.875,0.25,14.902403252672142,1,142.29573974348162,-331.7804346045626,721.9924868317869
55,0.875,0.0,-1.289068198287669,0,106.92405435409563,-537.106313661647,-4186.31953969153
56,1.0,0.125,21.460852067973146,0,-7.137853932672653,-133.521202674045,16090.178430802946
57,0.8125,0.3125,2.895277343970303,1,193.48369929298593,-175.84392504847224,45815.08817396986
58,0.125,0.25,-11.00902152215475,1,-488.48464530613387,-30.70337717183792,-1566.513073082931
59,0.625,0.0,20.907217571059824,0,237.81928810085955,-186.51172089972238,-565.6525089556413
60,0.25,0.125,8.447904475378262,1,-185.07797670740447,-237.05940934617826,6093.298914131817
61,0.6875,0.0625,41.74388608115208,1,213.1032990420643,-151.19958192999462,5492.137443356004
62,0.0,0.125,-12.414066773550248,0,-367.304178631414,-242.3684143594438,-835.1648412454044
63,0.25,0.375,5.521881489870445,1,-713.299670733767,-165.7051757741552,40088.97798177901
64,0.625,0.5,-0.6475931811533187,1,306.9929175321047,20.78523771833065,8366.951790795938
65,0.125,0.0,-2.1780178421182117,0,-194.56503074425908,-272.6714524046021,233.8599409537117
66,0.8125,0.1875,19.602314388499128,1,687.3982450877445,-31.273373792336074,113686.37706847201
67,0.75,0.1875,15.998771632662354,1,110.7364839734033,113.59541871574301,30470.62786992726
68,0.0,0.375,31.511037427156438,0,-111.64718207833465,-16.793508864913914,798.5991120210973
69,0.71875,0.21875,17.096236634988188,1,-1026.309899123942,-281.9863783869528,-409630.08850186947
70,0.375,0.0,12.00063607633076,0,-167.51818742658773,-157.6414698113145,-5398.02995331856
71,0.5625,0.1875,24.778032774331603,1,-438.4924106579354,-828.8797269434762,116064.25015143362
72,0.625,0.1875,18.546508984539724,1,-93.99176390433733,-1047.5493031615817,-16077.948068629496
73,0.3125,0.1875,17.112566506138165,1,-83.11572873551992,-118.28977972905955,12969.251630975808
74,0.375,0.1875,18.801130920704033,1,-99.85166097634819,-341.10783436206856,-11301.129376779882
75,0.4375,0.0625,10.059184389037238,1,-206.10167526467316,-15.762651769872628,-870.094356090628
76,0.4375,0.125,19.22382017140518,1,-180.4750100704881,-149.33908370815007,-6951.492909415836
77,0.8125,0.4375,-0.630442787220169,1,-221.30294586061706,-245.0277852869752,18382.71009373925
78,0.5,0.375,3.4682438147381998,1,-138.17736006415677,35.28500578135,74741.98591843125
79,0.5625,0.3125,3.8978811409684777,1,-40.7952760323478,-626.2796435429784,-120233.74932662962
80,0.625,0.3125,2.3290116748044154,1,765.1909495100801,-527.7958013500502,-262894.60032524687
81,0.8125,0.5625,0.22208184171077097,1,-54.270263544909106,898.5009106283552,-40058.81661989072
82,0.8125,0.5,-14.778819044848538,1,-149.08186900898679,-23.102801025221318,-34753.56392371032
83,0.75,0.3125,3.783241225720897,1,673.5818890937522,-249.24736388581732,-10754.151533917371
84,0.71875,0.28125,6.790274721881845,1,181.45785684623343,-996.90177368698,-163738.85334613032
85,0.1875,0.3125,6.952839921116802,1,-205.22044431502172,395.5245632445206,-732.9311358226221
86,0.3125,0.0625,16.063951422498956,1,-38.28785883200939,-57.398165042100324,-2510.656980681297
87,0.3125,0.125,18.263104288721138,1,143.94543655541585,-102.0467261484874,-39664.24747102744
88,0.6875,0.5625,2.8904266156599077,1,-92.04571603058868,367.0621552247757,-2525.282062611735
89,0.75,0.5625,3.1511850187399917,1,59.00374244263201,-51.48112465220149,-35172.68942060507
90,0.78125,0.53125,-0.14338172497930546,1,-144.8246550729613,507.4578520092059,122945.47988549915
91,0.9375,0.4375,-3.81445795207199,1,367.5024521757299,-126.6983073414738,-764.7611361062368
92,0.9375,0.5625,-4.616388169266795,1,140.82713518269014,316.1233884704175,-156.5902549934644
93,0.875,0.5625,-5.688525087780466,1,295.3853316546957,460.81960729983234,-6898.375860344765
94,0.875,0.4375,-9.410644209349403,1,76.58742748597832,-97.04147702509252,-4354.470089378151
95,0.6875,0.4375,4.037506011474694,1,-386.94275664786363,293.4089507486152,58621.9130232656
96,0.75,0.4375,3.6687850000019875,1,-94.67299992652882,-157.19395701130892,-153452.5583824402
97,0.78125,0.46875,-3.5017827366353598,1,23.413751211475297,-344.79841541246964,124131.63115146855
98,0.1875,0.1875,-9.508185141275986,1,-190.66804362767743,-501.87634214298015,-4464.401954970954
99,0.25,0.1875,3.1943529747507653,1,80.34246621229966,-477.66496183334976,3263.3442382495045
100,0.0625,0.0625,-8.745256862764144,1,-267.1289052740235,-307.42751324964473,-620.9408735939306
101,0.0625,0.3125,14.341620070093224,1,-234.4546327704191,1.8234972209683138,-19.330392641279825
102,0.1875,0.0625,3.4100404870641805,1,-156.6797605811045,-217.24773635607622,1088.6607555013604
103,0.0625,0.1875,-8.921737420749103,1,-359.56638276686266,-169.28520507569056,-1049.3888088968786
104,0.9375,0.0625,10.026258047157935,1,316.19491797121583,-58.0928049300891,-1707.1194605981186
105,0.8125,0.0625,20.116447422130253,1,-202.40389095450575,-280.2457670749893,-6665.51961878494
106,0.4375,0.0,7.898020186315807,0,-149.7129085836315,-193.1129546626397,-2771.103764756075
107,0.5625,0.6875,16.289134866707304,1,138.81231917846867,256.47266598632865,3163.628093582745
108,0.125,0.5,39.051206505140684,0,-314.80935318228796,-237.53587895984992,2826.034746763532
109,0.1875,0.4375,23.78220109578512,1,-279.3501082761198,-396.9579555002435,4035.540876843593
110,0.0625,0.4375,43.84194219805031,1,-92.18208445515434,-91.89599657685957,1616.5286166834742
111,0.5625,0.0625,12.66169545714074,1,27.307283366527837,-2.6079020680191856,-5005.226663483002
112,0.5,0.0625,10.239069001027195,1,-17.44960085263556,-49.96242397752496,-4004.227572929408
113,0.9375,0.1875,19.277561177700683,1,14.814789258281289,-345.19790703564405,33887.476322204006
114,0.375,0.5,12.684186196005964,0,70.51635179736053,-214.84947528199532,93243.20686647907
115,0.3125,0.4375,-0.5379437578616959,1,137.20056778050488,234.05743750495031,-60031.143301711505
116,0.9375,0.6875,-21.94702313344649,1,32.99959139429262,-128.5731472148523,1000.0678933298627
117,0.65625,0.21875,16.455520535610397,1,291.57716784838016,153.30208075426762,-307657.27724031836
118,0.6875,0.6875,4.092833086919954,1,186.08650224083752,427.5671678580766,-51006.33336031023
119,0.9375,0.3125,8.308454629686715,1,71.86070846992455,110.97452524499364,39312.79293225795
120,0.3125,0.3125,5.098309344326807,1,-230.6881531699122,-506.5433816361356,-21914.065456160602
121,0.6875,0.125,23.58401601537158,1,-520.8309208749184,-665.3883551797443,2431.295278222468
122,0.65625,0.15625,24.997750930667987,1,-326.7697348632319,-676.0005215518303,163613.29518311948
123,0.6875,0.21875,22.795662722631192,1,-251.9952634204124,-750.8239185802809,904354.6486909004
124,0.5,0.1875,20.78709740124051,1,177.26159357097328,-243.1000512015044,-67183.70995855916
125,0.46875,0.15625,19.582596632085057,1,-323.23409907293563,-33.1003144826883,-6464.541113056502
126,0.65625,0.28125,3.5909059101248393,1,-428.793433185381,-88.8179059247786,-209793.73202816513
127,0.5625,0.5625,-9.64115122730716,1,464.1630939713952,433.01925926974104,-6487.368735191617
128,0.5625,0.25,16.748321701740696,1,672.7015817423261,343.5065551401884,7125.857914730593
129,0.59375,0.21875,18.00530810445026,1,586.5866315597693,576.1156868716909,-382761.04765189585
130,0.5625,0.8125,49.165477522970086,1,109.7454192268211,508.1940495836652,-2137.976855384131
131,0.3125,0.25,17.328404109758687,1,-213.97121053247108,-44.588766265107644,117344.95976072749
132,0.34375,0.21875,17.093091840479246,1,-526.06341922245,64.81084262478763,-119032.35962956362
133,0.375,0.0625,18.949015930603643,1,-236.66575127477807,217.33569687386327,-8155.1795339184355
134,0.40625,0.09375,20.91535299896212,1,-366.46767715719835,93.58373579403951,10848.290134990295
135,0.5625,0.125,29.29038255203009,1,-185.52025849836423,488.0519330034284,-8923.392886858095
136,0.59375,0.15625,31.53656595365351,1,-468.3240549458233,14.130164938620123,17266.44402970986
137,0.8125,0.6875,-4.374689817219235,1,-31.056879289164375,-378.6525640224778,-71628.71039322512
138,0.8125,0.625,10.61602003262322,1,216.79658617317037,-23.60464965722518,138745.6575941274
139,0.8125,0.375,2.881256538909513,1,-155.1440185484874,528.2233906221913,-23429.535085255953
140,0.9375,0.8125,-38.40132691798988,1,243.0405807806092,465.8085500970477,-6227.341623796416
141,0.6875,0.9375,71.86853239244432,1,115.5502978231352,198.42273012002346,2421.077654037895
142,0.9375,0.9375,-20.611416710576723,1,23.701935006251347,574.0927126735754,-1435.4106210441375
143,0.8125,0.9375,28.620395306494668,1,-110.02683048026452,303.7414325986532,1321.3957419513526
144,0.8125,0.125,14.774035201413978,1,553.74024482897,-177.7037048176411,-35384.16119601057
145,0.78125,0.15625,11.759950344727283,1,339.7285186804871,91.4816854520887,-197505.9063102094
146,0.78125,0.34375,3.3554923132081624,1,-53.276670516981845,320.6163759270528,-170179.61371246164
147,0.8125,0.8125,10.803502032665273,1,-346.31794932097466,432.12076877351245,4669.963298226221
148,0.40625,0.15625,21.156441543806753,1,-163.91543823506285,-187.87118789843421,-97211.60627693927
149,0.71875,0.15625,16.07681762623592,1,626.1027508749481,532.2609559704066,-177642.525908783
150,0.71875,0.1875,20.45983321957444,1,484.6211559663327,-401.1342309657306,476990.05188686907
151,0.8125,0.25,9.207831857681507,1,-209.95101497554325,-262.16953039071296,-158214.50977237217
152,0.78125,0.28125,11.022341233923791,1,-247.6385034421734,306.7281846417083,122424.13982238044
153,0.78125,0.5,-6.888255589355004,1,-322.14530255634713,472.2757019220179,-240097.98655800355
154,0.6875,0.0,44.17121700848431,0,116.9628188160272,1.6104140860521743,2255.7058477874343
155,0.5625,0.9375,82.27706199301107,1,272.26261524106724,335.8103296392888,1141.9533919767891
156,0.6875,0.8125,50.47949727618149,1,292.16007903231457,437.0708574425488,7144.371347876216
157,0.6875,0.5,4.520303765153933,1,258.1963357911029,51.13493869033622,-90550.74069000049
158,0.71875,0.53125,4.476317592831604,1,13.984729428367052,238.69769462921684,84477.11783215043
159,0.75,0.53125,4.978738782798836,1,270.8025969225864,-36.46066241012463,-109886.6763403381
160,0.765625,0.515625,2.0503782988198562,1,-114.21767182379038,619.1801378196222,235726.1877369429
161,0.71875,0.46875,4.159181905643648,1,-5.211238153306186,154.34602299752927,44550.70154609534
162,0.75,0.46875,1.9831025904823898,1,-137.36673173920548,100.69994251612297,77900.05675960376
163,0.765625,0.484375,-1.8856058443118526,1,-417.16991001444654,-445.17598669898746,-84172.41310651405
164,0.78125,0.21875,16.234740839254954,1,83.63645552397695,-729.332085393458,38927.779612096005
165,0.75,0.21875,13.307833772639487,1,918.8112534936197,-116.77550452578899,19210.86294441898
166,0.71875,0.25,15.404756395461378,1,913.001227201917,132.68466501836295,580506.240856268
167,0.6875,0.375,5.576492705725763,1,-186.3982257749024,-657.9484470888345,-242012.61143141278
168,0.71875,0.34375,4.390308234831965,1,-102.09032247572023,-238.41055376552114,-25834.81701209936
169,0.71875,0.3125,2.2194225304963213,1,-827.0820959853527,208.41222322180082,-175500.2570347736
30,3,1,1,3.6411445840031322,4
32,3,1,1,10.314625672495023,4
32,14,1,1,3.413350622283211,4
34,14,1,3,3.4229024272444897,5
34,32,1,3,4.078646420800199,5
35,15,1,1,8.881203491826666,5
38,14,1,3,3.523561613117342,6
38,34,1,3,2.4919439208855603,6
40,30,1,1,1.7625874624601066,6
41,33,1,1,6.290735828151152,7
41,40,1,1,4.928652083110261,7
42,6,1,1,8.61861388503616,5
43,7,2,1,5.883499434062596,5
43,20,2,1,6.580782459739986,5
43,27,1,1,5.92590186297177,5
44,10,1,1,11.439229154377225,5
44,20,1,1,7.508517915421562,5
44,25,1,1,5.466213053680935,5
44,27,1,1,7.78927396587064,5
45,7,2,1,5.25388400960637,5
45,18,2,1,3.1101055717733854,5
45,27,1,1,6.628145240670181,5
46,10,1,1,8.282687236350878,5
46,16,1,1,3.371547354813856,5
46,26,1,1,4.944694457574786,5
46,31,1,1,6.451297191116082,5
47,6,2,1,5.277481105785528,5
47,20,2,1,2.585144690776951,5
47,25,1,1,10.524135155591766,5
48,6,2,1,3.105746421123425,5
48,19,2,1,3.668443018113332,5
48,28,1,1,3.51694438790769,5
49,10,1,1,6.917420385534469,5
49,18,1,1,6.106409407929167,5
49,26,1,1,5.820564503838214,5
49,27,1,1,4.216513992400385,5
50,4,2,1,4.002901808475151,5
50,18,2,1,4.753064810541048,5
50,26,1,1,3.999172544596714,5
51,10,1,1,13.090495393879737,5
51,31,1,1,4.647935417977286,5
52,4,2,1,2.976980703021789,5
52,16,2,1,1.1741968288962858,5
52,26,1,1,3.6478275580293036,5
53,3,2,1,7.610855995962602,5
53,16,2,1,2.121289936519885,5
53,31,1,1,5.634124369100938,5
54,19,1,1,4.628969955368011,5
54,28,1,1,4.1884038433647985,5
54,29,1,1,5.009946837897416,5
55,5,2,1,3.892656061874943,5
55,15,2,1,10.706535665925271,5
55,29,1,1,10.161046029800131,5
56,5,2,1,4.493419313101403,5
56,19,2,1,4.184430180332342,5
56,29,1,1,6.489318320719842,5
57,28,1,3,4.016370311974923,6
57,54,1,3,4.3807422652740415,6
58,8,1,1,7.193800229224995,5
58,12,1,1,6.895934182978885,5
58,22,1,1,4.597722621695729,5
58,23,1,1,5.513959286042565,5
59,2,2,1,4.262764340860089,5
59,24,1,1,10.492110252303064,5
60,11,1,1,2.681449113853003,5
60,22,1,1,4.6598801976633055,5
61,15,1,3,8.062969858371718,6
61,24,1,3,12.25660257746594,6
61,35,1,3,6.183070785654524,6
61,59,1,3,10.17849120872342,6
62,0,2,1,1.2205444203993474,5
62,12,2,1,4.180050758004638,5
62,22,1,1,2.980968610486603,5
63,8,1,1,8.323758973706907,5
63,13,1,1,8.300311896568443,5
63,23,1,1,6.596054086715133,5
63,32,1,1,4.323865395954118,5
64,3,1,3,6.198826384371594,5
64,30,1,3,3.315082880842865,5
64,31,1,1,6.540495594623723,5
65,0,2,1,1.5680034105354912,5
65,11,2,1,1.3013107571705125,5
65,22,1,1,2.465325544961599,5
66,29,1,3,5.335855928819117,6
66,54,1,3,5.275595511903999,6
67,35,1,1,4.8207312999555985,7
67,66,1,1,4.7837379596757295,7
68,1,2,1,4.586840604849754,5
68,12,2,1,3.1575379935989774,5
68,23,1,1,4.667447066874085,5
69,9,1,1,3.045042291484576,8
69,36,1,1,5.9171919460519184,8
69,41,1,1,8.327569526146425,8
69,67,1,1,2.4165330846376767,8
70,11,2,1,3.986489775549571,5
71,14,1,1,4.209242913156135,6
71,37,1,1,4.549009458179424,6
72,24,1,1,4.530429498186618,7
72,33,1,1,2.4755656368848995,7
72,36,1,1,3.4691466921932474,7
72,71,1,1,4.43375925803653,7
73,21,1,1,3.2709010086072197,6
73,8,1,1,4.327517399232488,6
73,60,1,1,2.038686234661877,6
74,21,1,3,2.746370525114438,7
74,34,1,3,2.0446933617796637,7
74,73,1,3,2.948444012797993,7
74,38,1,3,1.7522253169161488,7
75,2,1,1,2.5160291648327924,6
75,37,1,1,4.714410774503926,6
75,70,1,1,3.3194150010960546,6
76,21,1,1,2.228417737598482,7
76,37,1,3,4.81946800300477,7
76,75,1,3,5.236723272064823,7
76,38,1,1,1.677377579614149,7
77,28,1,1,3.7979671031163442,6
77,39,1,1,2.5537488892667404,6
77,42,1,1,6.3548965374128725,6
78,14,1,3,4.691441849674651,5
78,3,1,2,0.0,4
78,30,1,3,1.9088454486325683,5
78,32,1,2,0.0,4
79,14,1,3,5.670054380652218,6
79,30,1,3,3.0633632673289646,6
79,78,1,2,0.0,5
79,33,1,1,4.752726697317876,6
80,30,1,2,0.0,6
80,33,1,3,5.357382777494673,7
80,40,1,3,3.466286949835025,7
80,79,1,2,0.0,6
81,25,1,1,6.022699632331467,6
81,42,1,1,6.022940096247541,6
81,51,1,1,7.7318913543575585,6
82,42,1,2,0.0,6
82,77,1,3,5.878700527344307,7
82,81,1,3,6.309078000555266,7
83,9,1,1,2.2954578499939737,7
83,39,1,1,0.7807308493953856,7
83,57,1,1,3.956443748555256,7
84,9,1,3,2.7721359065208584,8
84,40,1,3,4.215385431990117,8
84,83,1,3,2.0721426970133527,8
84,41,1,3,5.046516840865203,8
85,8,1,2,0.0,5
85,23,1,2,0.0,5
85,58,1,2,0.0,5
85,63,1,2,0.0,5
86,11,1,2,0.0,5
86,21,1,1,2.7210211958934636,6
86,60,1,3,2.7898069907776155,6
86,70,1,3,3.649626142780124,6
87,21,1,2,0.0,6
87,60,1,2,0.0,6
87,73,1,2,0.0,6
87,86,1,2,0.0,6
88,31,1,2,0.0,5
88,51,1,3,1.2574929165278845,6
88,64,1,3,3.55158913885079,6
89,51,1,2,0.0,6
89,88,1,3,0.848531107244798,7
89,81,1,3,4.612789014819096,7
90,81,1,2,0.0,7
90,89,1,3,3.1289913192672105,8
90,82,1,3,3.275992348043915,8
91,6,1,2,0.0,5
91,28,1,3,3.243323481214564,6
91,42,1,3,6.04120054582726,6
91,48,1,2,0.0,5
92,25,1,3,8.039054167157841,6
92,6,1,2,0.0,5
92,42,1,3,7.32079820054007,6
92,47,1,2,0.0,5
93,25,1,2,0.0,6
93,42,1,2,0.0,6
93,92,1,2,0.0,6
93,81,1,2,0.0,6
94,28,1,2,0.0,6
94,42,1,2,0.0,6
94,77,1,2,0.0,6
94,91,1,2,0.0,6
95,30,1,3,1.5393517070681635,6
95,39,1,1,1.5178741766818549,6
95,64,1,3,1.5659197302661387,6
96,39,1,2,0.0,6
96,95,1,3,1.1481077352809324,7
96,77,1,3,3.0732210747842625,7
97,77,1,2,0.0,7
97,96,1,3,2.4679941913960652,8
97,82,1,3,2.806051971555221,8
98,8,1,3,4.890101958205813,6
98,22,1,2,0.0,5
98,58,1,2,0.0,5
98,60,1,3,4.349976301165386,6
99,8,1,2,0.0,6
99,60,1,2,0.0,6
99,98,1,2,0.0,6
99,73,1,2,0.0,6
100,0,1,2,0.0,5
100,22,1,2,0.0,5
100,62,1,2,0.0,5
100,65,1,2,0.0,5
101,12,1,2,0.0,5
101,23,1,2,0.0,5
101,58,1,2,0.0,5
101,68,1,2,0.0,5
102,11,1,2,0.0,5
102,22,1,2,0.0,5
102,60,1,2,0.0,5
102,65,1,2,0.0,5
103,12,1,2,0.0,5
103,22,1,2,0.0,5
103,58,1,2,0.0,5
103,62,1,2,0.0,5
104,5,1,2,0.0,5
104,29,1,2,0.0,5
104,55,1,2,0.0,5
104,56,1,2,0.0,5
105,15,1,2,0.0,5
105,29,1,3,10.852987187372928,6
105,35,1,3,7.747204272763307,6
105,55,1,2,0.0,5
106,2,2,2,0.0,6
106,70,2,2,0.0,6
106,75,1,2,0.0,6
107,16,1,2,0.0,5
107,31,1,2,0.0,5
107,46,1,2,0.0,5
107,53,1,2,0.0,5
108,13,2,1,3.7839394413363294,5
108,1,2,1,4.8439273533197955,5
108,23,1,1,4.468462931067021,5
109,13,1,2,0.0,5
109,23,1,2,0.0,5
109,108,1,2,0.0,5
109,63,1,2,0.0,5
110,1,1,2,0.0,5
110,23,1,2,0.0,5
110,68,1,2,0.0,5
110,108,1,2,0.0,5
111,2,1,3,3.8637015459256037,6
111,24,1,3,6.541623118342369,6
111,37,1,1,4.486680884299349,6
111,59,1,2,0.0,5
112,2,1,2,0.0,6
112,37,1,2,0.0,6
112,111,1,2,0.0,6
112,75,1,2,0.0,6
113,19,1,2,0.0,5
113,29,1,2,0.0,5
113,54,1,2,0.0,5
113,56,1,2,0.0,5
114,13,2,1,6.379070610239044,5
114,3,2,2,0.0,4
114,32,1,3,10.403758278712484,5
115,13,1,2,0.0,5
115,32,1,2,0.0,5
115,114,1,2,0.0,5
115,63,1,2,0.0,5
116,20,1,2,0.0,5
116,25,1,2,0.0,5
116,44,1,2,0.0,5
116,47,1,2,0.0,5
117,33,1,2,0.0,7
117,36,1,3,5.679509694846053,8
117,41,1,3,7.896311236484204,8
117,72,1,2,0.0,7
118,10,1,2,0.0,5
118,31,1,2,0.0,5
118,46,1,2,0.0,5
118,51,1,2,0.0,5
119,19,1,2,0.0,5
119,28,1,2,0.0,5
119,48,1,2,0.0,5
119,54,1,2,0.0,5
120,8,1,3,9.375851467140716,6
120,32,1,2,0.0,5
120,34,1,3,6.092062451807326,6
120,63,1,2,0.0,5
121,24,1,3,8.287668140731869,7
121,35,1,3,2.787366172388002,7
121,36,1,1,3.1560200933730904,7
121,61,1,2,0.0,6
122,24,1,2,0.0,7
122,36,1,2,0.0,7
122,121,1,2,0.0,7
122,72,1,2,0.0,7
123,36,1,2,0.0,8
123,41,1,2,0.0,8
123,69,1,2,0.0,8
123,117,1,2,0.0,8
124,37,1,3,2.128792074569611,7
124,14,1,2,0.0,6
124,38,1,3,3.625624622194666,7
124,71,1,2,0.0,6
125,37,1,2,0.0,7
125,38,1,2,0.0,7
125,124,1,2,0.0,7
125,76,1,2,0.0,7
126,33,1,2,0.0,7
126,40,1,2,0.0,7
126,41,1,2,0.0,7
126,80,1,2,0.0,7
127,3,1,2,0.0,5
127,31,1,2,0.0,5
127,53,1,2,0.0,5
127,64,1,2,0.0,5
128,33,1,3,3.7158980748558164,7
128,14,1,2,0.0,6
128,71,1,3,4.300716197141698,7
128,79,1,2,0.0,6
129,33,1,2,0.0,7
129,71,1,2,0.0,7
129,128,1,2,0.0,7
129,72,1,2,0.0,7
130,16,1,2,0.0,5
130,26,1,2,0.0,5
130,46,1,2,0.0,5
130,52,1,2,0.0,5
131,34,1,3,5.504378276978356,7
131,8,1,2,0.0,6
131,73,1,3,5.185053869494575,7
131,120,1,2,0.0,6
132,34,1,2,0.0,7
132,73,1,2,0.0,7
132,131,1,2,0.0,7
132,74,1,2,0.0,7
133,21,1,3,2.5932318356826527,7
133,70,1,2,0.0,6
133,75,1,3,3.307208849453831,7
133,86,1,2,0.0,6
134,21,1,2,0.0,7
134,75,1,2,0.0,7
134,133,1,2,0.0,7
134,76,1,2,0.0,7
135,24,1,3,5.9959243753208105,7
135,37,1,2,0.0,6
135,71,1,3,5.189497285469072,7
135,111,1,2,0.0,6
136,24,1,2,0.0,7
136,71,1,2,0.0,7
136,135,1,2,0.0,7
136,72,1,2,0.0,7
137,25,1,3,7.766704304322217,6
137,10,1,2,0.0,5
137,44,1,2,0.0,5
137,51,1,3,14.055364567340227,6
138,25,1,2,0.0,6
138,51,1,2,0.0,6
138,137,1,2,0.0,6
138,81,1,2,0.0,6
139,28,1,2,0.0,6
139,39,1,3,1.4116555383485794,7
139,57,1,3,2.568523448808467,7
139,77,1,2,0.0,6
140,20,1,2,0.0,5
140,27,1,2,0.0,5
140,43,1,2,0.0,5
140,44,1,2,0.0,5
141,18,1,2,0.0,5
141,26,1,2,0.0,5
141,49,1,2,0.0,5
141,50,1,2,0.0,5
142,7,1,2,0.0,5
142,27,1,2,0.0,5
142,43,1,2,0.0,5
142,45,1,2,0.0,5
143,18,1,2,0.0,5
143,27,1,2,0.0,5
143,45,1,2,0.0,5
143,49,1,2,0.0,5
144,35,1,3,5.073722653822638,7
144,29,1,2,0.0,6
144,66,1,3,4.501579712188439,7
144,105,1,2,0.0,6
145,35,1,2,0.0,7
145,66,1,2,0.0,7
145,144,1,2,0.0,7
145,67,1,2,0.0,7
146,39,1,2,0.0,7
146,57,1,2,0.0,7
146,83,1,2,0.0,7
146,139,1,2,0.0,7
147,10,1,2,0.0,5
147,27,1,2,0.0,5
147,44,1,2,0.0,5
147,49,1,2,0.0,5
148,21,1,2,0.0,7
148,38,1,2,0.0,7
148,74,1,2,0.0,7
148,76,1,2,0.0,7
149,36,1,3,3.9784181914576084,8
149,35,1,2,0.0,7
149,67,1,3,4.086421023284551,8
149,121,1,2,0.0,7
150,36,1,2,0.0,8
150,67,1,2,0.0,8
150,149,1,2,0.0,8
150,69,1,2,0.0,8
151,9,1,1,3.26116792523542,7
151,54,1,2,0.0,6
151,57,1,3,4.399668289101695,7
151,66,1,3,3.7447866479442933,7
152,9,1,2,0.0,7
152,57,1,2,0.0,7
152,151,1,2,0.0,7
152,83,1,2,0.0,7
153,17,1,1,2.2283702472509455,9
153,82,1,2,0.0,8
153,90,1,3,2.391384547599749,9
153,97,1,3,2.367618435716722,9
154,15,2,2,0.0,6
154,59,2,2,0.0,6
154,61,1,2,0.0,6
155,4,1,2,0.0,5
155,26,1,2,0.0,5
155,50,1,2,0.0,5
155,52,1,2,0.0,5
156,10,1,2,0.0,5
156,26,1,2,0.0,5
156,46,1,2,0.0,5
156,49,1,2,0.0,5
157,17,1,1,1.046061345703872,7
157,64,1,2,0.0,6
157,88,1,3,1.596695742213937,7
157,95,1,3,1.4836746716696156,7
158,17,1,3,1.4114011269218347,8
158,88,1,2,0.0,7
158,157,1,2,0.0,7
158,89,1,3,1.347084054185327,8
159,17,1,3,1.7914436525314426,9
159,89,1,2,0.0,8
159,158,1,2,0.0,8
159,90,1,3,2.057033909487371,9
160,17,1,2,0.0,9
160,90,1,2,0.0,9
160,159,1,2,0.0,9
160,153,1,2,0.0,9
161,17,1,3,1.598828805620664,8
161,95,1,2,0.0,7
161,96,1,3,1.2918794659245434,8
161,157,1,2,0.0,7
162,17,1,3,1.9167555975591963,9
162,96,1,2,0.0,8
162,161,1,2,0.0,8
162,97,1,3,1.410956221913936,9
163,17,1,2,0.0,9
163,97,1,2,0.0,9
163,162,1,2,0.0,9
163,153,1,2,0.0,9
164,9,1,3,3.3713005580921847,8
164,66,1,2,0.0,7
164,67,1,3,3.2062801360767392,8
164,151,1,2,0.0,7
165,9,1,2,0.0,8
165,67,1,2,0.0,8
165,164,1,2,0.0,8
165,69,1,2,0.0,8
166,9,1,2,0.0,8
166,41,1,2,0.0,8
166,69,1,2,0.0,8
166,84,1,2,0.0,8
167,39,1,3,1.3377861719630129,7
167,30,1,2,0.0,6
167,40,1,3,2.0096236405283587,7
167,95,1,2,0.0,6
168,40,1,3,2.306026991825643,8
168,39,1,2,0.0,7
168,167,1,2,0.0,7
168,83,1,3,1.9122308476485073,8
169,40,1,2,0.0,8
169,83,1,2,0.0,8
169,168,1,2,0.0,8
169,84,1,2,0.0,8
