2
340
1e-11
0,0.0,0.0,-85.19902054169454,0,-313.46413601862014,-654.2286861431386,-1240.4094290459414
1,0.0,0.5,-12.307031975313167,0,-31.51379207340306,192.51643104085096,1340.1670281742956
2,0.5,0.0,51.78634348341639,0,-114.92160459392937,-166.85265844921216,3277.556336194829
3,0.5,0.5,-7.207124243590276,0,780.699330281855,46.862051424606,9704.544639252572
4,0.5,1.0,75.46080391209566,0,220.6591368108041,706.8855491099629,-197.25212882861257
5,1.0,0.0,48.18380545569597,0,225.07846048259236,-158.41057672585504,1031.0782377335297
6,1.0,0.5,26.0705348249607,0,372.12570882768136,344.72777029543016,491.8277843107782
7,1.0,1.0,149.50164900357274,0,7.492606548227124,369.84452638936824,1272.839152040134
8,0.25,0.25,-12.469032584987797,1,949.533548046894,-799.349480194389,53432.975415748704
9,0.75,0.25,13.224395013844498,1,-539.0513353640457,672.1948758809583,-334962.8606930946
10,0.75,0.75,47.4842078289221,1,100.65185262606752,924.7466686686968,26231.109043767054
11,0.25,0.0,11.350910989543184,0,-168.85760361775505,-108.44927734719064,3050.05909797858
12,0.0,0.25,-138.65627406973786,0,-1017.9585023187855,-274.30128669517705,-7200.144854260233
13,0.25,0.5,-18.739525653496305,0,-1939.313774027446,393.21929746340516,-5358.207202618024
14,0.5,0.25,9.01168387461808,1,45.90386158459908,-799.8879048016192,-91582.30332835848
15,0.75,0.0,25.601466742316223,0,-18.026052168537856,-325.3538571752302,-328.3778408641269
16,0.5,0.75,-3.1700256525034636,0,-258.69308295259447,663.2444643996961,-3927.1896325696125
17,0.75,0.5,3.155477131346404,1,-539.6344762098831,248.43968528314753,101430.11863268248
18,0.75,1.0,123.01070531953097,0,244.0879192417743,359.64249696347525,1975.909995368745
19,1.0,0.25,15.394410668301894,0,522.6666990272732,-122.170442391222,-10165.234306140146
20,1.0,0.75,78.33378573913953,0,314.16275955116555,507.0773859108585,61.390128663950776
21,0.375,0.125,26.521789256131935,1,-368.87152429750915,-94.39362632614126,36580.02772878332
22,0.125,0.125,-73.50866807417447,1,-67.28428821262362,-518.3063472352717,-914.8785279246171
23,0.125,0.375,-46.64075639834812,1,-40.16164104114795,919.0155383962484,2617.1845430381027
24,0.625,0.125,32.622545132581656,1,-88.6505130360166,-285.5257744358693,3286.3025813849495
25,0.875,0.625,40.16948411459833,1,317.46859030593095,213.48911797325783,5207.495500613121
26,0.625,0.875,65.37125583629974,1,306.4780999738764,699.7798425831179,63.866178100122404
27,0.875,0.875,117.89302843994335,1,132.10360572950367,550.9234728338295,1372.9222195970783
28,0.875,0.375,-6.029787967695458,1,546.0808979185136,-261.97852115111317,-31416.763171540773
29,0.875,0.125,25.03288124143735,1,310.50948181790943,-335.8517497865534,-887.9800476654473
30,0.625,0.375,0.8255825530679443,1,91.96927062051721,-3.417404051808065,108605.6593960759
31,0.625,0.625,-7.151786979095657,1,72.42917095879776,78.88409804616434,-9031.876073011763
32,0.375,0.375,2.452653490095422,1,-568.5402686770516,-229.20512184629686,233788.29002578632
33,0.625,0.25,15.793591697239249,1,-37.15169462501549,645.8018268084639,-422781.6759666312
34,0.375,0.25,12.666554610047108,1,-516.3256336954787,-491.54642555159455,95290.51560820779
35,0.75,0.125,21.740557426027518,1,142.54077842739767,-356.3840985467726,50162.762598461464
36,0.6875,0.1875,16.234848100925642,1,-317.75723623078403,762.9052317383191,-508936.6096845411
37,0.5,0.125,30.025143955015256,1,-884.0471351565468,-775.2193489932838,-2745.9465976987835
38,0.4375,0.1875,17.393876949168906,1,-509.356579897798,60.04245496518686,23723.50100872947
39,0.75,0.375,4.072037600234402,1,708.0450509668595,550.9127017686154,-104942.82355572775
40,0.6875,0.3125,6.355326553792726,1,10.250406242951335,-955.5316580077598,-131835.5977107099
41,0.6875,0.25,5.739378885717692,1,-416.509261711504,-891.3322069028928,-510751.0899466145
42,0.875,0.5,22.34395649610109,1,360.9747157960982,205.64674682514396,4983.938996270755
43,1.0,0.875,125.8936074065067,0,93.04101721955884,528.3496334811034,918.1773688016654
44,0.875,0.75,62.36995979488143,1,438.57364346379467,746.8036560691537,-1441.7029522498353
45,0.875,1.0,140.97081679037495,0,107.94003734712855,349.6653230769044,1599.1037337075038
46,0.625,0.75,8.862344548174063,1,124.57303052491447,842.3708388261998,-4682.069619910611
47,1.0,0.625,52.289810573177434,0,259.384905432421,288.47812357904405,1626.815682192629
48,1.0,0.375,6.786206819114509,0,550.8024127780026,-139.91303008428315,-1066.7921633742762
49,0.75,0.875,103.66238307438877,1,239.02177583057562,507.59437599023204,3723.778214880363
50,0.625,1.0,89.1325108620509,0,310.68051644693736,578.3676619798636,597.4264274264899
51,0.75,0.625,2.0954404619436056,1,-336.4090977496857,-157.93738851038597,9008.624544079175
52,0.5,0.875,48.66728597179538,0,95.2423322612234,775.3919499419418,-1051.7301614009111
53,0.5,0.625,-6.623381138945181,0,-103.89409364947443,105.7437340828769,-1725.7556012226416
54,0.875,0.25,13.426654075693033,1,267.42745146875933,19.67272936344343,22102.667380952298
55,0.875,0.0,31.11699590490428,0,295.1146003701029,-355.8665195445683,-905.3045913164148
56,1.0,0.125,40.62935441897375,0,149.89914871970424,-154.81887614350669,3013.3142944854767
57,0.8125,0.3125,1.40193914775032,1,744.49256517359,-117.99031143257866,-191253.84257622712
58,0.125,0.25,-118.29539398835006,1,-396.99336366948137,-610.6513264410162,-10418.535242190126
59,0.625,0.0,45.523361900993734,0,-243.44700447945073,-249.13193956679766,1814.1946044429744
60,0.25,0.125,-1.3255989449929926,1,-247.5115135535288,-253.32657618622127,3444.1126741051826
61,0.6875,0.0625,30.178341679276233,1,-107.55661552246126,-373.7320956075925,507.68060022844224
62,0.0,0.125,-104.11684360647949,0,-518.0264825579485,-604.6692227081115,-2736.732092824864
63,0.25,0.375,4.749123835924281,1,-781.5154597381513,1406.1134203106785,176695.4653600861
64,0.625,0.5,-0.6676681558386651,1,52.584517113992725,-18.752352414806527,-12471.389786441454
65,0.125,0.0,-54.798593076568146,0,-78.84401268045778,-444.6887784910584,162.52120989276364
66,0.8125,0.1875,19.61903415655356,1,350.73742353784075,-302.1898257308328,77569.13814325383
67,0.75,0.1875,16.147625296745257,1,-435.0848987760224,290.3420903507582,-300604.03692100034
68,0.0,0.375,-74.22086130598092,0,-550.589669280076,544.0586570510465,-2950.14472680737
69,0.71875,0.21875,15.584560519445402,1,-884.3298040620555,120.24594755665986,-509979.3853570368
70,0.375,0.0,21.164546448796422,0,-405.4705970471419,-535.9616408219722,-2548.8116018170895
71,0.5625,0.1875,19.7146305193713,1,-171.89680354288203,-418.93761948192736,33906.214513558865
72,0.625,0.1875,21.023352892769378,1,415.62431498143053,207.140978380192,-165465.23148613278
73,0.3125,0.1875,18.48545092587934,1,-503.72868177348414,35.43750959067223,-41070.97579927332
74,0.375,0.1875,18.45731885565281,1,-502.7815200232653,-200.05782737617815,-169526.52067567917
75,0.4375,0.0625,29.662131266733667,1,-28.173984286185952,-408.7587504411008,-4164.7810614969685
76,0.4375,0.125,21.751887993100105,1,-252.50319063754176,-123.41742593566879,-106810.8591211946
77,0.8125,0.4375,0.8453904283591288,1,1159.0337128484364,295.30717649969466,86809.59291213145
78,0.5,0.375,3.998278295851673,1,163.2825438081476,-589.6246964274992,238414.53248762523
79,0.5625,0.3125,3.759334351771202,1,-780.4525814405923,188.18839019649073,-69267.65208047791
80,0.625,0.3125,2.4425014514182193,1,-529.9680844095537,-429.1084566769336,-289342.2538269853
81,0.8125,0.5625,8.15864673820575,1,759.2014771096121,383.38732989998203,-26194.252970137473
82,0.8125,0.5,8.836100069442294,1,710.126362901885,-28.866971291395,1921.2732828994147
83,0.75,0.3125,1.9092796811275097,1,511.39831403662487,-838.2742608755689,-131953.14815434438
84,0.71875,0.28125,6.803132377583966,1,15.295457589832628,-292.1279243354687,-210333.0709361727
85,0.1875,0.3125,-84.25100947037848,1,-372.3019917628278,568.5824053067082,-72944.2944378731
86,0.3125,0.0625,19.605944687933714,1,-499.8034910055403,-346.5993539867706,9404.944193162737
87,0.3125,0.125,17.56966470412598,1,-92.8929408145435,-175.48252920927126,-3458.7226246360665
88,0.6875,0.5625,2.967601626844243,1,129.62521804081956,305.5155944420824,-49372.618529937565
89,0.75,0.5625,3.3090053423900203,1,-230.42305220950183,575.8321865749311,119814.85821178404
90,0.78125,0.53125,1.3323182881088094,1,172.50267070240693,-81.52315869110627,37962.12989312187
91,0.9375,0.4375,7.268611861214213,1,478.16539957999987,304.2389725553719,-3480.6884675645947
92,0.9375,0.5625,38.89220350126738,1,337.3518554240492,320.05107189410745,2324.196442656963
93,0.875,0.5625,31.300696350396795,1,535.9298745061684,317.5575625761652,4282.031493546728
94,0.875,0.4375,10.601636474612995,1,171.80985299327236,530.2895870873812,-2376.989625953727
95,0.6875,0.4375,4.135596072240969,1,-152.8063332621318,125.84532353380337,-87871.95093392995
96,0.75,0.4375,3.8771563876515662,1,-335.39675303110715,-218.09377342386233,209159.32411046157
97,0.78125,0.46875,-3.271900261530528,1,239.63685757226213,891.4633497528056,51297.26205049877
98,0.1875,0.1875,-50.01485707830051,1,383.4578399051883,-370.2660132583789,1434.9624332088908
99,0.25,0.1875,4.33512725489839,1,-73.30637574890552,43.49584373628568,17973.358235862124
100,0.0625,0.0625,-82.2311297251035,1,-234.9657131111657,-575.7302632356799,-1240.4094290459414
101,0.0625,0.3125,-118.55903100220114,1,-751.6090298268388,289.9425042999076,-10193.15805619305
102,0.1875,0.0625,-24.319225882298493,1,-52.102780304994745,-334.32053673295667,1924.5850947705956
103,0.0625,0.1875,-118.06948528726907,1,-460.9330530328328,-564.44216249632,-4776.289680584527
104,0.9375,0.0625,39.16004453779756,1,317.8060604509196,-211.5910598480254,1019.6149308080292
105,0.8125,0.0625,22.107309563766997,1,141.57330202224182,-415.57409529132804,-1880.504088306924
106,0.4375,0.0,32.79720326086881,0,-95.43438820606285,-454.35500929836815,-1506.4349421280117
107,0.5625,0.6875,-11.96238710712405,1,-147.181589367966,419.90149914295716,-5457.125388261201
108,0.125,0.5,11.359292585472408,0,10.55479537994682,-229.2805414964455,4994.642652759646
109,0.1875,0.4375,34.38018515859547,1,177.39698973850568,-623.4122406906456,13180.71966959745
110,0.0625,0.4375,-21.510944728431912,1,-49.90322701647128,327.0318245863997,1499.1260607733745
111,0.5625,0.0625,48.00552018680717,1,-286.53004633121714,-393.0279919544607,2982.4177473958052
112,0.5,0.0625,48.41851589288951,1,-188.86887925929003,-318.18911635180467,9375.05034176797
113,0.9375,0.1875,20.787309601630685,1,424.0782208883601,-303.5096025268721,10747.856993582856
114,0.375,0.5,9.16698169614632,0,-965.3600401829402,-807.0329045038029,90453.40537270074
115,0.3125,0.4375,-10.82015485032747,1,187.50051897697742,-534.3751030672566,-141465.08596386007
116,0.9375,0.6875,55.336648550186865,1,416.7481920540811,334.7544291880747,-185.80162462931878
117,0.65625,0.21875,14.006459204563138,1,123.04924415393307,-302.2048940518189,-611165.9285070524
118,0.6875,0.6875,3.7448587235527877,1,425.41142072349425,389.1263301209509,-29077.060000854
119,0.9375,0.3125,9.977299693401314,1,517.3430763108746,-124.54403711361401,14777.217792257192
120,0.3125,0.3125,4.985317802796914,1,-587.0594883431625,-319.4641644177703,-64173.33156423274
121,0.6875,0.125,18.45252986736916,1,-512.4536222216751,-560.1247003666303,-4136.045895255402
122,0.65625,0.15625,23.794272958836334,1,-634.5397984677335,-154.49112008767085,119308.36808562938
123,0.6875,0.21875,21.468900866625336,1,264.7541641936354,-345.6098542517991,595483.2053960894
124,0.5,0.1875,18.56198685148775,1,-293.9082487682817,321.8108029575014,48504.00492421068
125,0.46875,0.15625,20.787454062167114,1,50.05868452280882,-891.5471000516875,918.4838056167497
126,0.65625,0.28125,3.7165993580102707,1,-249.10744129387047,-457.95438710584557,-644811.8802092099
127,0.5625,0.5625,6.55837538782572,1,32.70290157131759,210.5472948592184,4666.784255110956
128,0.5625,0.25,16.875171729523046,1,-812.1364232167169,-659.1232929724109,298440.85953037726
129,0.59375,0.21875,18.986068960650712,1,378.11886303649,-275.4053761566574,-23370.588492738203
130,0.5625,0.8125,26.874547355824323,1,87.80665535281452,768.5276284508395,-2145.627214431036
131,0.3125,0.25,16.231720748732055,1,-764.056697356579,604.2541175087359,-259797.52979224423
132,0.34375,0.21875,16.075352654687645,1,-349.4319911115391,-129.90387598933833,175028.15826167495
133,0.375,0.0625,19.852543819273098,1,-399.028389881091,-418.4156007470475,-11157.80319190892
134,0.40625,0.09375,20.875161840451998,1,-569.8525193221361,-230.076978017006,-9184.52435660929
135,0.5625,0.125,30.80640569118369,1,36.49761288453016,-587.1469738797821,403.4490878654012
136,0.59375,0.15625,25.146540135226953,1,-757.9244889586377,-668.8794272967921,2378.9338747740067
137,0.8125,0.6875,14.017222162225345,1,547.183334395519,724.6792621490232,-39149.54747544514
138,0.8125,0.625,11.666247764937612,1,1036.7967966043643,-38.4413162967685,62771.441735952394
139,0.8125,0.375,2.302277107110891,1,-375.05428814886415,-180.82528255846515,-145260.668302872
140,0.9375,0.8125,99.88561632704,1,224.30996950195936,589.5682416499294,454.57522399751537
141,0.6875,0.9375,100.33630891959908,1,324.26938995422637,528.3030776598403,1497.9839863437023
142,0.9375,0.9375,139.1194362975838,1,81.28289060115355,453.77904912310396,1279.93845243291
143,0.8125,0.9375,127.89369633534244,1,151.69668756289224,437.6069638448322,2018.7243520388506
144,0.8125,0.125,20.260905425128325,1,527.0551678766922,-268.8008886506749,-14005.263375614513
145,0.78125,0.15625,13.553972675235162,1,283.5547897677093,-462.94325845131465,-111981.88013644968
146,0.78125,0.34375,4.34370053445268,1,617.4243859949918,536.9278251697444,226424.8697958881
147,0.8125,0.8125,88.83145189455963,1,53.19502499677536,663.385345705187,2084.6171065433577
148,0.40625,0.15625,21.94348316141212,1,-393.248012248724,-342.175980364029,134104.88713868067
149,0.71875,0.15625,15.785084471745082,1,472.40698051355577,248.30653740076895,-130936.68041559703
150,0.71875,0.1875,20.750156106853794,1,149.1392976463547,-573.4027204322146,624265.3987883822
151,0.8125,0.25,11.580083612127796,1,465.2741039120561,265.7261519954096,-113137.81016281602
152,0.78125,0.28125,11.015688754410576,1,-526.3502028789503,-387.97470577514,88253.05462739397
153,0.78125,0.5,-3.083243338936097,1,661.0583915860994,432.28097927041586,-93616.44964146808
154,0.6875,0.0,33.991424555848674,0,-136.13586540179992,-320.4904963533171,592.0478464249052
155,0.5625,0.9375,70.48099302560209,1,245.697313005563,701.4044221013548,-182.30225974931486
156,0.6875,0.8125,63.45579265794182,1,457.456923390302,674.3474789694617,1919.440125939664
157,0.6875,0.5,4.4869239440345545,1,-52.825356495225236,-27.724193726756035,109983.54998243903
158,0.71875,0.53125,4.441801479121962,1,278.75541165251366,-192.41290612604917,-170068.5801811288
159,0.75,0.53125,4.830883878132015,1,-106.4827669462593,8.873423573042473,96842.84138740758
160,0.765625,0.515625,1.9689982209696846,1,-429.38559280566994,882.1915931197974,35845.68936493022
161,0.71875,0.46875,4.108726662787357,1,112.12662520838428,151.7541316629199,-86671.63530150497
162,0.75,0.46875,1.9256156028246492,1,-0.3654278506148839,-445.0931365703195,-28349.275949110932
163,0.765625,0.484375,-1.864379628284494,1,-184.9313062968841,-281.3677162640322,-92680.30621151211
164,0.78125,0.21875,17.299668284174608,1,-90.18807339042347,-387.7894915335243,2619.601010782604
165,0.75,0.21875,14.506911457240488,1,1294.6895033556661,-610.4580885433837,515218.15625751985
166,0.71875,0.25,15.698976182514949,1,748.6679336470331,-889.2274260748975,1006730.0773017118
167,0.6875,0.375,5.379018822147938,1,-443.6819961153074,-301.82951177872536,45576.937319446886
168,0.71875,0.34375,4.361545552043923,1,-337.78962186716024,344.06930623502114,142737.07780636402
169,0.71875,0.3125,2.459152933103132,1,-66.74580121055621,953.5451362900753,-117200.88971774414
170,0.75,0.6875,8.575908214291402,1,-251.71064415362127,937.2564264693431,28396.211455417626
171,0.78125,0.65625,-0.6043580247525209,1,213.07201982885928,151.45851079639831,-172656.52537562067
172,0.625,0.0625,40.06975091347079,1,-241.5879671795335,-368.65184437697684,1463.8542015742892
173,0.65625,0.09375,32.15713692745582,1,-259.3812474013435,-404.3556821229999,280.44787198306966
174,0.8125,0.75,52.537748050641255,1,140.77173472461817,979.6650070125387,-3068.8810693461432
175,0.875,0.0625,29.777906529896555,1,323.3292989070955,-336.27094542017966,-1456.898295037678
176,0.84375,0.09375,24.80484310098745,1,360.8795447424915,-369.2177558286827,-4557.66145165614
177,0.8125,0.0,25.19191321727143,0,137.05396123624104,-417.1131622068205,-1248.6726521985975
178,0.9375,0.625,47.70078370057992,1,314.0890117498477,276.1202790581713,2243.1765002083484
179,0.4375,0.4375,-9.515347589574548,1,-1162.2755609249532,-502.57071236182304,-270962.0480260821
180,0.375,0.4375,13.309862897249566,1,-550.2401732908309,965.4762377630134,341117.2064781474
181,0.65625,0.03125,38.06493125257249,1,-187.85457241498762,-329.13364514561187,1094.4443131676528
182,0.25,0.3125,-28.40435245497688,1,1229.1084418863547,-601.951875132512,-291806.02277912316
183,0.28125,0.28125,6.972259865899266,1,-16.02952288199371,-668.7497254726827,543972.0925378231
184,0.75,0.0625,24.79046244333802,1,7.539943445280868,-253.92186707570266,-328.4432788413857
185,0.9375,0.5,24.306201707752738,1,363.7580073446661,323.8999159665836,1079.8186889184753
186,0.703125,0.234375,17.429801635678515,1,464.6282794948763,32.99198919120007,-54232.611596447976
187,0.25,0.4375,8.418082607348785,1,-1394.4298356034517,-787.809867760038,10763.222965801366
188,0.6875,0.75,30.3286714005805,1,438.0294456895166,869.0879339733775,-1402.1451127644725
189,0.65625,0.25,14.765681564564483,1,50.99174506724725,-648.1126005478933,967390.1942407284
190,0.671875,0.234375,16.383103234119226,1,-347.9339310900574,68.18749049509199,-195920.79050398504
191,0.875,0.8125,93.17680754212122,1,203.5557594514159,652.3296851678939,617.6028994720291
192,0.875,0.6875,40.822789695579665,1,606.6513235852435,294.98949014153,-3037.6488330706866
193,0.84375,0.65625,26.990596000460677,1,571.1603039494191,11.788165718110472,6447.935232012419
194,0.78125,0.59375,2.197443747436499,1,28.21283100461473,419.26233954748784,-76501.61825104605
195,0.5,0.5625,4.121570825755878,0,320.8055532894727,83.89228005400408,4328.089387062962
196,0.9375,0.75,74.1051284929137,1,356.2772509391767,547.8862242911019,-277.88480605442203
197,0.1875,0.25,-77.35776198275785,1,473.48395947337536,-690.3130665169876,-7123.72295777641
198,0.75,0.8125,80.93946558541532,1,213.4416909849083,575.2927859329424,8489.73612278261
199,0.0625,0.25,-130.2763518472894,1,-673.635937149119,-318.07592395611283,-8147.031958306984
200,0.875,0.9375,133.6870103312665,1,114.4079620830558,449.17173093899225,1567.672189444086
201,0.1875,0.375,-12.068283155306306,1,652.512186887887,1016.142562640489,29887.26878371213
202,1.0,0.8125,102.75603796212789,0,199.20031999475066,558.1033092153384,472.1794863651616
203,0.625,0.5625,0.21611136846666928,1,-209.61977091756162,161.96279265727796,27213.99904613084
204,0.9375,0.125,33.52045982092761,1,320.89246933459333,-200.77489466595418,3473.201542802729
205,0.625,0.6875,-7.782683596449929,1,-4.212484564110133,455.225933477303,-12062.032770509391
206,0.3125,0.5,-29.075688932507113,0,-133.39937856765528,1174.9447791878133,-49458.743439409336
207,0.84375,0.46875,16.71427748144267,1,330.14398513054823,-10.805793487580619,19711.883019273784
208,0.84375,0.53125,17.938062726292642,1,602.106853065025,145.22484297633437,-1808.4666569057358
209,0.8125,0.53125,8.252542526010943,1,508.4650727098125,180.6164848222464,-4363.347273821397
210,0.5625,0.4375,-0.2913596708590645,1,-706.0705499893573,314.5833580393096,-41851.77195153746
211,0.5625,0.5,4.7349827866589775,1,-75.52060872270647,380.5942348867087,-9987.95821090385
212,0.75,0.9375,116.19798008339683,1,242.48113255202998,449.1832483046382,2304.0991371579153
213,0.4375,0.3125,3.43487303321784,1,62.59244471590085,209.13577811028898,50481.120129504045
214,0.375,0.3125,2.9850460564823202,1,-317.540930982151,-127.29237034650728,-269481.42646257876
215,0.34375,0.28125,10.129901483152176,1,-156.1937331617749,-524.0011269590099,250275.13756495016
216,0.84375,0.59375,27.450787227969656,1,591.8083987678343,453.0897326870036,11516.678939993693
217,0.59375,0.09375,39.858222269935354,1,-195.99867367185604,-423.6008324480928,2082.218445227042
218,0.59375,0.125,33.8758890355308,1,-244.01158472278735,-490.5155555840226,2037.72599731285
219,0.9375,0.875,122.41141628696394,1,130.31590799848502,534.9538660867589,1006.4033162072923
220,0.703125,0.203125,20.740879745044392,1,-160.92936112389273,-47.79994398370256,-51743.40951180076
221,1.0,0.9375,141.3878660767451,0,28.658496354183686,453.28526131686954,1187.723356426905
222,0.8125,0.46875,8.45494874974162,1,620.2283477791302,-104.8026208106682,31875.149609262666
223,0.6875,0.875,85.12122587675363,1,350.8685891454761,600.3111097402669,1801.267126315984
224,0.65625,0.1875,23.57601908582637,1,-214.8275170008644,-1198.0200503032754,583273.1013806785
225,0.671875,0.203125,19.850829114906897,1,112.81432893252448,-387.9449109972224,967.3431580557482
226,0.5,0.3125,5.484627763860678,1,-586.1370156074859,1376.6103753465395,-31781.79354077886
227,0.53125,0.28125,4.451517154461197,1,384.86035699411127,-775.396862805863,-89376.30189438471
228,0.5625,0.625,-6.000723966851706,1,-74.5386134123991,151.04046047357377,-2886.9932018461627
229,0.125,0.3125,-101.07631231613463,1,-717.0953418963236,359.6166542718587,-22734.700798304544
230,0.59375,0.28125,12.232100212583177,1,1018.4284259599062,-670.8554645662686,-191128.19456896192
231,0.625,0.28125,15.449126173658305,1,-1130.917629946941,119.46937477017653,1264990.0742309773
232,0.875,0.1875,18.271003044439556,1,-13.400949516985431,-133.202857254668,-51679.825953875334
233,0.84375,0.15625,22.670180713138148,1,-8.700971074208931,-153.80675844771775,24100.901842648047
234,1.0,0.5625,41.597955479882025,0,273.68610977847914,324.2384047171396,1691.7590879543332
235,0.84375,0.21875,16.113442836920388,1,283.1124069510412,-341.98921856093915,30374.962129649055
236,0.9375,1.0,145.2383655260014,0,67.80031157823265,364.33089481395183,1357.9549476533646
237,0.46875,0.09375,37.733827369942844,1,35.90114879676304,-328.54493319559293,28441.34604984979
238,0.4375,0.09375,25.988000050560263,1,-105.67309884545392,-540.0070168444719,-22929.704622362766
239,0.53125,0.15625,19.205776361029727,1,-147.61346214921642,-108.02780303493066,-140441.72343635163
240,0.5625,0.15625,25.67245242490366,1,111.69450963950415,-358.50117096061507,80779.86214349208
241,0.28125,0.21875,12.179245057907737,1,-531.6061037157107,-743.2511674552553,83245.93492517818
242,0.3125,0.21875,14.590045155070676,1,-298.1896618838733,-627.9662551096578,23065.939819024275
243,0.78125,0.09375,22.062774481017325,1,-34.5305517329406,-408.4984387561788,-823.0114624334685
244,0.78125,0.125,19.34780414024626,1,62.550811777226286,-663.6328916064865,-19161.84809400905
245,0.6875,0.28125,6.334450529594491,1,-183.53691661008844,1884.6589149477713,1228748.077082272
246,0.703125,0.265625,3.2786930936528873,1,143.06266160106037,633.248072209413,-1313547.0060459552
247,0.625,0.8125,40.76119253525976,1,265.2509030415749,770.9748628220436,-1211.0976325754652
248,0.0625,0.5,-7.047341680831701,0,-11.157635470216494,81.41033934742012,2333.2654506201725
249,0.75,0.15625,16.417237573547197,1,165.2158715434401,-983.6248893935679,241058.8741981909
250,0.46875,0.125,31.488183319724612,1,8.354753244642321,-601.3563224717483,130775.40230959195
251,0.78125,0.1875,15.215757680432,1,1012.0807870146017,82.79623581302248,110260.00228924939
252,0.6875,1.0,105.91848546076935,0,308.0064058156582,455.143887976046,1392.32609887066
253,0.0625,0.375,-67.28174340601478,1,-319.0693851773545,580.9094441926003,-2256.7480447972357
254,0.1875,0.125,-33.79769250124936,1,37.65223390844691,-331.72658220426496,2443.293988345884
255,0.6875,0.625,2.9107296691361215,1,166.7251187073728,259.6031925303463,55688.07233002535
256,0.9375,0.25,13.43774291849106,1,264.8168739702097,-111.65158400730459,-24413.743998594106
257,0.125,0.1875,-93.0861990980835,1,-103.08794482642938,-565.4146744112132,-3668.685254372595
258,0.0,0.4375,-30.093884699615103,0,-159.6315849175911,370.0050580400363,347.0686057284188
259,0.625,0.15625,24.845184955870664,1,38.131113553862775,-664.8959558275291,-49868.25680918478
260,1.0,0.0625,44.54404324834026,0,205.11913257419866,-173.7787470124374,1520.9055984587662
261,0.53125,0.09375,39.66947932859676,1,-339.1830414156512,-556.6770182088882,2503.7426448325987
262,0.125,0.4375,-0.0033945822067926734,1,85.31336264450093,110.72123952035528,5572.918231542143
263,0.59375,0.1875,19.46578101563238,1,-553.2160025784277,-356.07640897085963,-7668.636994812788
264,0.875,0.3125,7.588399380396953,1,364.2483769990105,-191.66509402187467,-15011.577985572834
265,0.84375,0.28125,11.885277016466688,1,192.39768051125296,-416.5137925238277,78026.06024419694
266,0.8125,0.28125,8.901077286166197,1,192.32073880657904,-367.6153321772928,222578.67702302852
267,0.21875,0.15625,-18.13845538734549,1,70.7480838580418,-192.7451184192391,6323.93183288052
268,0.3125,0.375,2.8368198503992286,1,-515.9939128606069,-397.4662134811908,-45843.728360993075
269,0.53125,0.21875,21.870423602618335,1,-127.70557438300561,167.93467088040617,-12653.51688370345
270,0.5625,0.21875,19.472613898271348,1,-211.31402517505595,392.50940029864955,-166962.61351828984
271,0.5625,0.0,54.028044196285585,0,-263.4896975730726,-182.0473005786395,3604.035589862309
272,0.8125,0.875,112.10574228715328,1,131.76023188783685,539.5343481638089,2300.0104732649124
273,1.0,0.1875,27.45973588006898,0,268.11968194724557,-289.64040485871067,3585.94849387776
274,0.0,0.1875,-123.02839670507123,0,-766.7241501438341,-525.210650064792,-4872.364077063538
275,0.5625,1.0,77.83460861058903,0,259.8225206310467,671.7376249239205,8.892444774811883
276,0.625,0.9375,82.35620051038458,1,305.5328207102192,629.742710712952,494.24358303024985
277,0.3125,0.0,22.841305967599773,0,-471.90021669440455,-191.49426497113853,2944.0479973884717
278,0.6875,0.15625,11.160852876129333,1,-173.17163899251645,-904.3266129562837,-55644.345516702444
279,0.703125,0.171875,14.236066974265297,1,1410.140904866998,276.482347265955,-17813.059207114602
280,0.78125,0.3125,2.4548432190594167,1,182.3123738579122,157.9945721062347,-259168.4379923249
281,0.9375,0.0,41.31457172525127,0,299.0366226732699,-217.45071408511006,541.2508770082933
282,0.53125,0.03125,52.947170023774156,1,-229.2498312641285,-250.76917265877273,4809.765003805229
283,0.84375,0.40625,-0.39833373578681636,1,439.67932148941844,775.6722888252757,-19782.395770714662
284,0.1875,0.5,25.548065266532245,0,-447.41234278937947,-473.82982814527503,6499.468697334132
285,1.0,0.3125,13.621913330120835,0,383.8949948958238,-80.40516718211177,4580.6022787499915
286,0.34375,0.03125,21.331274103469813,1,-511.9038168452658,-378.7117135544345,-339.405650793702
287,0.5625,0.875,52.90074209990952,1,189.61649774993782,746.5016115749471,-828.9483643702848
288,0.4375,0.25,9.237415765619287,1,-610.5863572583238,-649.3580977269008,-89970.01726837427
289,0.46875,0.21875,16.9137559679448,1,-226.33287496033424,-139.91869498921182,192883.14814338603
290,0.46875,0.1875,16.698647266821133,1,-180.35219249600158,337.50484576672056,-252335.48935618973
291,0.9375,0.375,2.5450101373713268,1,668.2200817772051,-87.8169489073521,-3481.842801849394
292,0.65625,0.34375,4.144617257667951,1,257.6536001968368,572.3452214268623,2336.9249158334005
293,0.65625,0.3125,0.8776780815564292,1,282.380703820224,1367.7210265888837,273879.52769145265
294,0.5625,0.75,2.1419888312144533,1,-52.30541321144166,690.758494026955,-4053.002963793115
295,0.78125,0.25,9.387025015220308,1,295.10738642648306,-278.2284055288206,-55042.77236253594
296,0.765625,0.234375,13.311610883142837,1,-62.82738354018581,-1333.1580252488127,-33360.45343792826
297,0.40625,0.03125,23.929892883868003,1,-229.82848795938492,-478.2715360942268,-4758.217552840478
298,0.40625,0.0625,22.770633585981166,1,-288.5098502309177,-395.40755695966027,-7316.331540713914
299,0.34375,0.15625,21.503487661698472,1,-597.3207357974774,-743.3084974424692,98573.50047079143
300,0.90625,0.40625,0.19912658145620635,1,535.9420307966249,196.8106887499045,-10189.071016727123
301,0.0,0.3125,-117.81068093243394,0,-1006.5087897932408,234.54601206940413,-7634.151423363425
302,0.78125,0.5625,-0.2586224565557382,1,108.9733084433942,375.64054692679713,-72775.30109274479
303,0.765625,0.546875,0.9675266417605505,1,-341.2934896884447,105.42786657314248,-216726.38868284196
304,0.8125,1.0,133.30849880001668,0,161.89280031585406,336.6580741734951,1903.1156082884875
305,1.0,0.4375,10.403613238817083,0,528.6923967085526,211.44098355799832,-1884.0853285481721
306,0.78125,0.40625,2.3507105911331645,1,-267.31874951652014,-620.0844583442521,245589.41143096695
307,0.78125,0.4375,-6.074921325781775,1,-119.63032469404854,-418.8210653904286,-635328.1956884203
308,0.5625,0.375,2.197879815138958,1,-126.67926553774193,-577.8931556520013,-268310.2073018985
309,0.59375,0.34375,2.773865321316766,1,72.15812895260403,312.4250465832086,308869.57900771586
310,0.734375,0.234375,14.040269085703546,1,-257.1093063092982,691.0644075539662,-522810.2285378542
311,0.0625,0.125,-96.08513165052706,1,-310.81356357811995,-584.2030418956097,-2417.077432594987
312,0.5,0.9375,67.64661131376315,0,189.21787681978836,725.7219922333004,-403.39670243203835
313,0.25,0.0625,5.3823377302559825,1,-182.60835338047795,-265.4329891161623,3665.801649877626
314,0.28125,0.09375,11.057127476820673,1,-258.73452457252245,-294.2868095036984,3264.03397312737
315,0.71875,0.09375,22.997715720879807,1,117.05508054945733,-420.5877695653451,524.0279319712931
316,0.71875,0.125,17.099152838386466,1,196.29045143623836,-614.5431024246209,-21096.483945104927
317,0.75,0.28125,14.462815093350557,1,842.1540254276135,411.77144215680937,651101.2073365252
318,0.734375,0.265625,13.511836217543628,1,-358.5702761880507,-325.12731044766474,-444246.8261680636
319,0.34375,0.09375,20.652567651957703,1,-373.1773191524171,-127.0981965984206,-28863.84537786267
320,0.4375,0.375,1.14103866202243,1,-1289.0397648808637,-864.7367900497101,-271353.9626147038
321,0.40625,0.40625,2.4982742316217297,1,-786.3290414036939,157.4852019993448,348774.12674043886
322,0.375,0.09375,22.44669122697018,1,-376.484206337107,-93.17883239951809,-20164.44411077553
323,1.0,0.6875,61.57539632792769,0,341.47505476045444,358.1128338752171,329.15064039948555
324,0.84375,0.34375,1.4845582600299259,1,477.06863302957237,-30.810998233784442,151235.8954499828
325,0.8125,0.34375,3.715069082619366,1,170.17820331986204,171.59919957309086,60096.314407056496
326,0.46875,0.03125,42.21344563562246,1,-59.131425853065,-328.0827693481317,1745.3476685844548
327,0.625,0.21875,17.777073838159293,1,-1310.8068494005577,-601.261773756253,678530.1904992616
328,0.125,0.0625,-58.48058265106321,1,-91.81485209909874,-473.8729383915409,-17.04541307679974
329,0.734375,0.203125,15.743293550416231,1,161.73907910501467,-607.9309414218611,-222065.1416554141
330,0.34375,0.40625,-1.672587572762759,1,-993.5183762113986,16.317185466447544,-21114.842721206624
331,0.375,0.40625,1.2991536378023292,1,238.59555974396048,507.02076244031787,-793940.9657501339
332,0.796875,0.515625,4.805344638043899,1,492.7328629030443,389.1372681841811,-9392.37105625307
333,0.78125,0.515625,1.52700299377556,1,165.3233585897213,576.8479459064868,-7300.250359917267
334,0.796875,0.484375,4.097272111657067,1,677.9548393311862,-82.84311753645572,-5630.145161051449
335,0.78125,0.484375,-0.7534109268654814,1,461.7762594159549,51.19364504010188,-35157.40974088322
336,0.6875,0.34375,6.338827254449179,1,623.5834486594864,343.75463497199127,-87734.68651212155
337,0.703125,0.328125,6.135373506746337,1,376.4736604450488,567.34331154251,198440.79674807136
338,0.40625,0.125,23.564770322108888,1,-769.5325794649622,175.63350644160573,13672.382847415003
339,0.765625,0.5,-2.231432449799749,1,-377.1901317052192,487.73769209253965,-324496.8803564143
38,34,1,1,2.3574283430673257,6
52,16,2,1,1.963696026943107,5
53,16,2,1,8.42393602290737,5
61,15,1,1,2.3350475765714793,6
62,0,2,1,6.24765988368603,5
64,30,1,1,2.858736121671503,5
65,0,2,1,7.312793926239621,5
65,11,2,1,2.228045791805885,5
73,60,1,1,5.879138123960843,6
74,21,1,1,1.7880786378675546,7
74,34,1,3,1.0070817623527604,7
74,73,1,1,1.525927906824126,7
74,38,1,3,1.1661338735433726,7
76,38,1,1,3.749940865570421,7
78,3,1,1,8.197022048862324,5
79,78,1,1,0.8552172589786102,6
80,30,1,1,2.2695177586186657,7
80,79,1,1,4.344071125517271,7
82,42,1,1,3.4149219896117584,7
83,39,1,1,1.5763757857231337,7
84,40,1,1,2.8544967401423786,8
84,83,1,1,4.640017158073831,8
85,8,1,1,11.76680654288942,6
85,23,1,1,12.184942967416054,6
85,58,1,1,14.247082760316252,6
85,63,1,1,21.16802627702363,6
86,11,1,1,3.920173164307566,6
87,21,1,1,2.124017913723167,7
87,60,1,3,3.280064294628585,7
87,73,1,3,3.8134669642421652,7
87,86,1,1,2.824732943345671,7
88,31,1,1,4.527713750170584,6
88,51,1,1,2.1617693323844613,6
88,64,1,1,2.6822254715712663,6
89,51,1,3,2.381395913269217,7
89,88,1,3,0.607363911345508,7
90,81,1,1,2.0973827404906737,8
91,6,1,1,2.4800360188161865,6
91,42,1,1,2.7139964100228475,6
91,48,1,1,3.4718148445750567,6
92,25,1,1,1.8020158271286904,6
92,6,1,1,1.2231871557725544,6
92,42,1,1,3.2169282751492045,6
92,47,1,1,1.4757982598220754,6
93,25,1,3,3.402810427279472,7
93,42,1,3,3.351023556497191,7
93,92,1,2,0.0,6
93,81,1,1,3.913919949208125,7
94,28,1,1,4.22773203286506,7
94,42,1,3,3.909150668412205,7
94,77,1,1,4.196605737237592,7
94,91,1,3,3.314640088845275,7
95,30,1,3,1.692811697248125,6
95,39,1,1,1.3849726285695172,6
95,64,1,3,1.714559400241805,6
96,39,1,3,3.26806404310392,7
96,95,1,3,1.022989567739181,7
97,77,1,1,4.536973003398592,8
97,96,1,1,4.4302931694969345,8
98,8,1,1,8.781425936224354,6
98,22,1,1,4.354840040570097,6
98,58,1,1,7.022056539382328,6
99,8,1,3,7.416089720645003,7
99,60,1,3,7.163783111789314,7
99,98,1,3,6.442780993060383,7
99,73,1,3,6.412752055682669,7
100,0,1,2,0.0,5
100,22,1,1,4.326627304819802,6
100,62,1,3,5.605356310432431,6
100,65,1,3,6.529936029327428,6
101,12,1,1,7.510283571144565,6
101,23,1,1,7.711339795553079,6
101,58,1,1,8.759788621771783,6
101,68,1,1,6.19177961499675,6
102,11,1,3,3.498061052718887,6
102,22,1,1,4.27072099554376,6
102,60,1,1,3.2850769086648115,6
102,65,1,3,3.331051276227481,6
103,12,1,1,4.960529270889724,6
103,22,1,1,4.896579956138075,6
103,58,1,1,8.251264911795863,6
103,62,1,1,3.6230813817206933,6
104,5,1,1,1.4322170547020536,6
104,29,1,1,1.7534421345678117,6
104,55,1,1,1.1037935681697146,6
104,56,1,1,1.8747404854285497,6
105,15,1,1,1.7960148772221805,6
105,55,1,1,1.5912503663174158,6
106,2,2,1,1.1728503828963142,7
106,70,2,1,2.039790728156713,7
106,75,1,1,1.9433518866125101,7
107,16,1,3,7.424419045717431,6
107,31,1,1,4.478390132370916,6
107,46,1,1,4.248657790054189,6
107,53,1,3,6.568288797381936,6
109,13,1,1,15.132798218744817,6
109,23,1,1,9.24859563533987,6
109,108,1,1,16.076238275012052,6
109,63,1,1,21.012617479274482,6
110,1,1,1,6.5890919198729065,6
110,23,1,1,7.647009616569528,6
110,68,1,1,5.987631048255961,6
110,108,1,1,8.133088380013131,6
111,59,1,1,1.588512138970274,6
112,2,1,1,2.7573798521283366,7
112,37,1,1,3.2325667212051274,7
112,111,1,1,2.1815562549539362,7
112,75,1,1,3.3342152078668783,7
113,19,1,1,2.6119734510839145,6
113,29,1,1,3.157578308694908,6
113,54,1,1,1.5534506951343408,6
113,56,1,1,1.8835545277766343,6
114,3,2,1,12.569561837038407,5
115,13,1,1,12.173555128712302,6
115,114,1,1,14.811581779652077,6
115,63,1,1,10.137711743908744,6
116,20,1,1,2.8272452094647362,6
116,25,1,1,5.610046874391335,6
116,44,1,1,5.137621814679751,6
116,47,1,1,2.074992108289267,6
117,33,1,1,2.7775784232535097,8
117,72,1,1,3.3961610809900673,8
118,10,1,1,8.406088273297042,6
118,31,1,1,4.1626532567967605,6
118,46,1,1,5.9027010778245,6
118,51,1,1,7.6420606375428,6
119,19,1,1,1.6275649730481194,6
119,28,1,1,3.96217855351417,6
119,48,1,1,2.7262401237827683,6
119,54,1,1,2.2224837239472173,6
120,32,1,1,2.6993853309158435,6
120,63,1,1,21.29707557011779,6
121,24,1,1,3.9661988175181744,7
121,61,1,1,3.190656555970878,7
122,24,1,3,4.038243726190083,8
122,36,1,1,4.625299613028234,8
122,121,1,3,5.594935795100311,8
122,72,1,1,3.1386670949507716,8
123,36,1,1,3.0467667008236483,9
123,41,1,1,4.700790922866127,9
123,69,1,1,3.220384395470864,9
123,117,1,1,3.293829077440609,9
124,37,1,1,5.27149542204058,7
124,14,1,1,6.393972423181882,7
124,71,1,1,4.52769802903636,7
125,37,1,3,4.371940217369566,8
125,38,1,3,3.6739961181633802,8
125,124,1,3,3.546754118056432,8
125,76,1,3,4.979214687697231,8
126,33,1,1,6.652560137507161,8
126,40,1,1,2.2241292963184733,8
126,41,1,1,5.674675344136235,8
126,80,1,1,6.149076644612703,8
127,3,1,1,6.864422494266355,6
127,31,1,1,3.5403925318821488,6
127,53,1,1,4.472794615649753,6
127,64,1,1,4.089596215476608,6
128,33,1,1,1.8380113462061045,7
128,14,1,1,3.9079225366725407,7
128,79,1,1,3.4639387122918,7
129,33,1,3,0.7842384871828231,8
129,71,1,1,1.1945599830701907,8
129,128,1,3,0.7794240346791393,8
129,72,1,1,1.7114654638610558,8
130,16,1,3,2.4875862027711872,6
130,26,1,1,3.174033499848711,6
130,46,1,1,4.38252888002381,6
130,52,1,3,2.6296580789677804,6
131,34,1,1,1.874370246476198,7
131,8,1,1,10.479198997197525,7
131,120,1,1,6.678102560036907,7
132,34,1,2,0.0,7
132,73,1,3,1.3249946687084733,8
132,131,1,3,2.16952245339939,8
132,74,1,2,0.0,7
133,70,1,1,2.15325306770131,7
133,86,1,1,1.5364644952485178,7
134,21,1,1,1.2593447444245418,8
134,75,1,1,1.6773320089516885,8
134,133,1,1,2.2702261135572157,8
134,76,1,1,3.4669658925630857,8
135,37,1,1,3.2292256623869426,7
135,111,1,1,1.9866217146192315,7
136,24,1,1,1.305369919688825,8
136,71,1,1,1.6962838011918364,8
136,135,1,1,2.3097963073481873,8
136,72,1,1,1.5384368652861988,8
137,10,1,1,3.035512492239027,6
137,44,1,1,8.951002230991406,6
138,25,1,1,2.847345256987094,7
138,51,1,1,7.904258599370548,7
138,137,1,1,5.235695465106132,7
138,81,1,1,5.244550428381787,7
139,28,1,1,3.789771037403013,7
139,39,1,1,0.9097999309253982,7
139,77,1,1,4.0242248064624935,7
140,20,1,1,2.123193373123196,6
140,27,1,1,1.9370485832353252,6
140,43,1,1,1.2965512409164663,6
140,44,1,1,3.229306070715801,6
141,18,1,1,1.7948255204453776,6
141,26,1,1,2.6918292984015255,6
141,49,1,1,2.1892112145573877,6
141,50,1,1,2.544984673757314,6
142,7,1,1,2.069607883789248,6
142,27,1,1,2.004811200905888,6
142,43,1,1,1.9196612861534386,6
142,45,1,1,2.053107538989659,6
143,18,1,1,1.8681721108717453,6
143,27,1,1,2.20441375568431,6
143,45,1,1,2.1461671714492883,6
143,49,1,1,2.4897481916758624,6
144,29,1,1,1.6931380742365187,7
144,66,1,1,3.039900749414946,7
144,105,1,1,2.1950403758876926,7
145,35,1,1,1.4589409013662142,8
145,66,1,3,2.7629096461962694,8
145,144,1,3,3.158358966028002,8
145,67,1,1,1.770457971123213,8
146,39,1,2,0.0,7
146,57,1,1,2.151490494658376,8
146,83,1,3,2.373208630432702,8
146,139,1,3,1.154689185523094,8
147,10,1,1,3.1701943198156255,6
147,27,1,1,2.0519947789676465,6
147,44,1,1,2.9368850589377207,6
147,49,1,1,3.1215098328728557,6
148,21,1,3,1.5402368855856052,8
148,38,1,2,0.0,7
148,74,1,2,0.0,7
148,76,1,3,1.6048540963661664,8
149,35,1,1,2.5787867766310435,8
149,67,1,1,4.0631072164865705,8
149,121,1,1,4.768153877795138,8
150,36,1,1,2.248450924858832,9
150,67,1,3,3.952028691399656,9
150,149,1,3,4.161470157011282,9
150,69,1,1,1.9697339148835729,9
151,54,1,1,1.845954974340308,7
151,66,1,1,2.954498538802672,7
152,9,1,1,3.145259213030354,8
152,57,1,1,2.448515032618205,8
152,151,1,1,3.176114596472279,8
152,83,1,1,4.297304089247847,8
153,82,1,1,2.051561515896662,9
154,15,2,2,0.0,6
154,59,2,1,0.9487835500954773,7
154,61,1,3,1.5405560039446753,7
155,4,1,1,3.096193223574672,6
155,26,1,1,3.1821485065103716,6
155,50,1,1,3.1505424823897195,6
155,52,1,1,3.1837012295559415,6
156,10,1,1,3.1053279676228263,6
156,26,1,1,2.825263867932053,6
156,46,1,1,2.680925606890434,6
156,49,1,1,3.0317062028910726,6
157,17,1,1,0.9798934352537328,7
157,64,1,2,0.0,6
157,88,1,3,1.369162213133798,7
157,95,1,3,1.472830329908009,7
158,17,1,3,1.3039474560046715,8
158,88,1,2,0.0,7
158,157,1,2,0.0,7
158,89,1,3,1.4237199216303538,8
159,17,1,3,1.8205015771824198,9
159,89,1,3,1.881871058170459,9
159,158,1,2,0.0,8
159,90,1,1,1.6961754739977102,9
160,17,1,3,2.1816827668027066,10
160,90,1,3,1.675299907955651,10
160,159,1,2,0.0,9
160,153,1,1,1.685521776891027,10
161,17,1,3,1.616532089974618,8
161,95,1,2,0.0,7
161,96,1,3,1.313306681240584,8
161,157,1,2,0.0,7
162,17,1,3,1.971527645664992,9
162,96,1,2,0.0,8
162,161,1,2,0.0,8
162,97,1,3,2.2509386297108556,9
163,17,1,3,1.8165237390123108,10
163,97,1,3,2.276301356232947,10
163,162,1,2,0.0,9
163,153,1,1,1.8994245448061922,10
164,66,1,3,3.5786265151567864,8
164,67,1,1,2.181171735462545,8
164,151,1,3,3.6007648148900158,8
165,9,1,1,1.0109056825603986,9
165,67,1,3,1.7804847472304675,9
165,164,1,3,1.8589549387659263,9
165,69,1,1,0.8434836207928875,9
166,9,1,1,1.6334022218939819,9
166,41,1,1,4.0896177068578226,9
166,69,1,1,2.6347522813878435,9
166,84,1,1,4.310422817269845,9
167,39,1,3,1.3799318928854627,7
167,30,1,3,1.1434143333323037,7
167,95,1,2,0.0,6
168,39,1,2,0.0,7
168,167,1,3,1.1124580550392462,8
168,83,1,3,1.8022927138851952,8
169,40,1,3,2.5633538384624943,9
169,83,1,2,0.0,8
169,168,1,3,1.8581944401070272,9
169,84,1,2,0.0,8
170,51,1,3,9.230849991607935,7
170,10,1,2,0.0,6
170,118,1,2,0.0,6
170,137,1,3,6.419897735834139,7
171,51,1,2,0.0,7
171,137,1,2,0.0,7
171,170,1,2,0.0,7
171,138,1,2,0.0,7
172,24,1,1,1.462006354147651,7
172,59,1,3,0.7985578409202475,7
172,61,1,1,1.2015793822353125,7
172,111,1,3,1.8606021111290534,7
173,24,1,2,0.0,7
173,61,1,2,0.0,7
173,172,1,2,0.0,7
173,121,1,2,0.0,7
174,10,1,2,0.0,6
174,44,1,2,0.0,6
174,137,1,2,0.0,6
174,147,1,2,0.0,6
175,29,1,3,1.338173123340605,7
175,55,1,2,0.0,6
175,104,1,2,0.0,6
175,105,1,3,0.8320621297581966,7
176,29,1,2,0.0,7
176,105,1,2,0.0,7
176,175,1,2,0.0,7
176,144,1,2,0.0,7
177,15,2,2,0.0,6
177,55,2,2,0.0,6
177,105,1,2,0.0,6
178,25,1,2,0.0,6
178,47,1,2,0.0,6
178,92,1,2,0.0,6
178,116,1,2,0.0,6
179,3,1,2,0.0,5
179,78,1,3,7.728507839356893,6
179,114,1,3,13.416352635796015,6
180,114,1,2,0.0,6
180,179,1,3,11.278904067467742,7
180,115,1,3,11.432735096053785,7
181,59,1,2,0.0,7
181,61,1,2,0.0,7
181,154,1,2,0.0,7
181,172,1,2,0.0,7
182,8,1,3,11.642749341641158,7
182,63,1,2,0.0,6
182,85,1,2,0.0,6
182,120,1,3,22.12034874238798,7
183,8,1,2,0.0,7
183,120,1,2,0.0,7
183,182,1,2,0.0,7
183,131,1,2,0.0,7
184,15,1,2,0.0,6
184,35,1,1,2.1544650459909,7
184,61,1,3,2.60341673177223,7
184,105,1,3,1.0268881782712989,7
185,6,1,2,0.0,6
185,42,1,2,0.0,6
185,91,1,2,0.0,6
185,92,1,2,0.0,6
186,41,1,2,0.0,9
186,69,1,2,0.0,9
186,123,1,2,0.0,9
186,166,1,2,0.0,9
187,13,1,2,0.0,6
187,63,1,2,0.0,6
187,109,1,2,0.0,6
187,115,1,2,0.0,6
188,10,1,2,0.0,6
188,46,1,2,0.0,6
188,118,1,2,0.0,6
188,156,1,2,0.0,6
189,41,1,3,4.756388480892401,9
189,33,1,2,0.0,8
189,117,1,3,3.715281869113999,9
189,126,1,2,0.0,8
190,41,1,2,0.0,9
190,117,1,2,0.0,9
190,189,1,2,0.0,9
190,123,1,2,0.0,9
191,27,1,2,0.0,6
191,44,1,2,0.0,6
191,140,1,2,0.0,6
191,147,1,2,0.0,6
192,25,1,3,5.496416161866653,7
192,44,1,2,0.0,6
192,116,1,2,0.0,6
192,137,1,3,7.801122164509411,7
193,25,1,2,0.0,7
193,137,1,2,0.0,7
193,192,1,2,0.0,7
193,138,1,2,0.0,7
194,51,1,2,0.0,7
194,81,1,3,4.106078438142156,8
194,89,1,3,3.400132152452828,8
194,138,1,2,0.0,7
195,3,2,2,0.0,6
195,53,2,2,0.0,6
195,127,1,2,0.0,6
196,20,1,2,0.0,6
196,44,1,2,0.0,6
196,116,1,2,0.0,6
196,140,1,2,0.0,6
197,8,1,2,0.0,6
197,58,1,2,0.0,6
197,85,1,2,0.0,6
197,98,1,2,0.0,6
198,10,1,2,0.0,6
198,49,1,2,0.0,6
198,147,1,2,0.0,6
198,156,1,2,0.0,6
199,12,1,2,0.0,6
199,58,1,2,0.0,6
199,101,1,2,0.0,6
199,103,1,2,0.0,6
200,27,1,2,0.0,6
200,45,1,2,0.0,6
200,142,1,2,0.0,6
200,143,1,2,0.0,6
201,23,1,2,0.0,6
201,63,1,2,0.0,6
201,85,1,2,0.0,6
201,109,1,2,0.0,6
202,20,2,2,0.0,6
202,43,2,2,0.0,6
202,140,1,2,0.0,6
203,31,1,2,0.0,6
203,64,1,2,0.0,6
203,88,1,2,0.0,6
203,127,1,2,0.0,6
204,29,1,2,0.0,6
204,56,1,2,0.0,6
204,104,1,2,0.0,6
204,113,1,2,0.0,6
205,31,1,2,0.0,6
205,46,1,2,0.0,6
205,107,1,2,0.0,6
205,118,1,2,0.0,6
206,13,2,2,0.0,6
206,114,2,2,0.0,6
206,115,1,2,0.0,6
207,42,1,2,0.0,7
207,77,1,3,3.3550848923449115,8
207,82,1,3,3.2687562958731906,8
207,94,1,2,0.0,7
208,81,1,3,2.3976785195924917,8
208,42,1,2,0.0,7
208,82,1,3,2.038947931142857,8
208,93,1,2,0.0,7
209,81,1,2,0.0,8
209,82,1,3,1.3766482117123655,9
209,208,1,2,0.0,8
209,90,1,3,0.719142072658412,9
210,3,1,3,6.676776659331253,6
210,30,1,3,2.627111009040515,6
210,64,1,3,4.594400282321367,6
210,78,1,3,4.796629292743249,6
211,3,1,2,0.0,6
211,64,1,2,0.0,6
211,210,1,2,0.0,6
211,127,1,2,0.0,6
212,18,1,2,0.0,6
212,49,1,2,0.0,6
212,141,1,2,0.0,6
212,143,1,2,0.0,6
213,32,1,1,2.2258580534991292,6
213,14,1,1,2.661222133339544,6
213,34,1,1,2.744113900378206,6
213,78,1,1,1.9797809460544846,6
214,34,1,3,2.5239263936751337,7
214,32,1,2,0.0,6
214,213,1,2,0.0,6
214,120,1,3,3.0356734916859867,7
215,34,1,2,0.0,7
215,120,1,2,0.0,7
215,214,1,2,0.0,7
215,131,1,2,0.0,7
216,25,1,2,0.0,7
216,81,1,2,0.0,7
216,93,1,2,0.0,7
216,138,1,2,0.0,7
217,24,1,3,1.50462604131565,8
217,111,1,2,0.0,7
217,135,1,3,2.3381057582297626,8
217,172,1,2,0.0,7
218,24,1,2,0.0,8
218,135,1,2,0.0,8
218,217,1,2,0.0,8
218,136,1,2,0.0,8
219,27,1,2,0.0,6
219,43,1,2,0.0,6
219,140,1,2,0.0,6
219,142,1,2,0.0,6
220,36,1,2,0.0,9
220,69,1,2,0.0,9
220,123,1,2,0.0,9
220,150,1,2,0.0,9
221,7,2,2,0.0,6
221,43,2,2,0.0,6
221,142,1,2,0.0,6
222,77,1,2,0.0,8
222,82,1,3,1.6363033150887463,9
222,97,1,3,2.111689684029831,9
222,207,1,2,0.0,8
223,26,1,2,0.0,6
223,49,1,2,0.0,6
223,141,1,2,0.0,6
223,156,1,2,0.0,6
224,36,1,3,3.251753677690987,9
224,72,1,2,0.0,8
224,117,1,3,3.3799498681930547,9
224,122,1,2,0.0,8
225,36,1,2,0.0,9
225,117,1,2,0.0,9
225,224,1,2,0.0,9
225,123,1,2,0.0,9
226,14,1,3,3.35692467674986,7
226,78,1,2,0.0,6
226,79,1,3,2.781744742931224,7
226,213,1,2,0.0,6
227,14,1,2,0.0,7
227,79,1,2,0.0,7
227,226,1,2,0.0,7
227,128,1,2,0.0,7
228,31,1,2,0.0,6
228,53,1,2,0.0,6
228,107,1,2,0.0,6
228,127,1,2,0.0,6
229,23,1,2,0.0,6
229,58,1,2,0.0,6
229,85,1,2,0.0,6
229,101,1,2,0.0,6
230,33,1,3,4.275606206136544,8
230,79,1,2,0.0,7
230,80,1,3,5.121100913886937,8
230,128,1,2,0.0,7
231,33,1,2,0.0,8
231,80,1,2,0.0,8
231,230,1,2,0.0,8
231,126,1,2,0.0,8
232,29,1,3,2.5864119384051087,7
232,54,1,3,1.2494168501440635,7
232,66,1,1,1.4372028295477193,7
232,113,1,2,0.0,6
233,29,1,2,0.0,7
233,66,1,2,0.0,7
233,232,1,2,0.0,7
233,144,1,2,0.0,7
234,6,2,2,0.0,6
234,47,2,2,0.0,6
234,92,1,2,0.0,6
235,54,1,2,0.0,7
235,66,1,2,0.0,7
235,151,1,2,0.0,7
235,232,1,2,0.0,7
236,7,2,2,0.0,6
236,45,2,2,0.0,6
236,142,1,2,0.0,6
237,75,1,3,3.497448247678116,8
237,37,1,3,4.045299025333308,8
237,76,1,1,2.7585724460716023,8
237,112,1,2,0.0,7
238,75,1,2,0.0,8
238,76,1,2,0.0,8
238,237,1,2,0.0,8
238,134,1,2,0.0,8
239,71,1,3,3.956533209202348,8
239,37,1,2,0.0,7
239,124,1,2,0.0,7
239,135,1,3,3.936351205338988,8
240,71,1,2,0.0,8
240,135,1,2,0.0,8
240,239,1,2,0.0,8
240,136,1,2,0.0,8
241,73,1,3,4.351224361876511,8
241,8,1,2,0.0,7
241,99,1,2,0.0,7
241,131,1,3,7.778725450788446,8
242,73,1,2,0.0,8
242,131,1,2,0.0,8
242,241,1,2,0.0,8
242,132,1,2,0.0,8
243,35,1,3,1.1398840236278294,8
243,105,1,2,0.0,7
243,144,1,3,1.8969154092075176,8
243,184,1,2,0.0,7
244,35,1,2,0.0,8
244,144,1,2,0.0,8
244,243,1,2,0.0,8
244,145,1,2,0.0,8
245,41,1,3,5.259166627622007,9
245,40,1,2,0.0,8
245,84,1,3,3.819670812169476,9
245,126,1,2,0.0,8
246,41,1,2,0.0,9
246,84,1,2,0.0,9
246,245,1,2,0.0,9
246,166,1,2,0.0,9
247,26,1,2,0.0,6
247,46,1,2,0.0,6
247,130,1,2,0.0,6
247,156,1,2,0.0,6
248,1,2,2,0.0,6
248,108,2,2,0.0,6
248,110,1,2,0.0,6
249,35,1,2,0.0,8
249,67,1,2,0.0,8
249,145,1,2,0.0,8
249,149,1,2,0.0,8
250,37,1,2,0.0,8
250,76,1,2,0.0,8
250,125,1,2,0.0,8
250,237,1,2,0.0,8
251,66,1,2,0.0,8
251,67,1,2,0.0,8
251,145,1,2,0.0,8
251,164,1,2,0.0,8
252,18,2,2,0.0,6
252,50,2,2,0.0,6
252,141,1,2,0.0,6
253,23,1,2,0.0,6
253,68,1,2,0.0,6
253,101,1,2,0.0,6
253,110,1,2,0.0,6
254,22,1,2,0.0,6
254,60,1,3,4.0847102088167455,7
254,98,1,3,4.0381722223479715,7
254,102,1,2,0.0,6
255,31,1,2,0.0,6
255,51,1,2,0.0,6
255,88,1,2,0.0,6
255,118,1,2,0.0,6
256,19,1,2,0.0,6
256,54,1,2,0.0,6
256,113,1,2,0.0,6
256,119,1,2,0.0,6
257,22,1,2,0.0,6
257,58,1,2,0.0,6
257,98,1,2,0.0,6
257,103,1,2,0.0,6
258,1,2,2,0.0,6
258,68,2,2,0.0,6
258,110,1,2,0.0,6
259,24,1,2,0.0,8
259,72,1,2,0.0,8
259,122,1,2,0.0,8
259,136,1,2,0.0,8
260,5,2,2,0.0,6
260,56,2,2,0.0,6
260,104,1,2,0.0,6
261,37,1,2,0.0,7
261,111,1,2,0.0,7
261,112,1,2,0.0,7
261,135,1,2,0.0,7
262,23,1,2,0.0,6
262,108,1,2,0.0,6
262,109,1,2,0.0,6
262,110,1,2,0.0,6
263,71,1,2,0.0,8
263,72,1,2,0.0,8
263,129,1,2,0.0,8
263,136,1,2,0.0,8
264,54,1,3,2.8253329376023597,7
264,28,1,3,3.272877942636725,7
264,57,1,1,3.589052852825695,7
264,119,1,2,0.0,6
265,57,1,3,2.5640118708497233,8
265,54,1,2,0.0,7
265,264,1,2,0.0,7
265,151,1,3,2.113824989414322,8
266,57,1,2,0.0,8
266,151,1,2,0.0,8
266,265,1,2,0.0,8
266,152,1,2,0.0,8
267,60,1,2,0.0,7
267,98,1,2,0.0,7
267,99,1,2,0.0,7
267,254,1,2,0.0,7
268,32,1,3,2.2932215190785454,7
268,63,1,2,0.0,6
268,115,1,3,7.231706098845489,7
268,120,1,2,0.0,6
269,71,1,3,3.3709189948387555,8
269,14,1,2,0.0,7
269,124,1,2,0.0,7
269,128,1,3,3.5522800934115564,8
270,71,1,2,0.0,8
270,128,1,2,0.0,8
270,269,1,2,0.0,8
270,129,1,2,0.0,8
271,2,2,1,1.8761800646611222,7
271,59,2,2,0.0,6
271,111,1,3,2.1001853376717796,7
272,27,1,2,0.0,6
272,49,1,2,0.0,6
272,143,1,2,0.0,6
272,147,1,2,0.0,6
273,19,2,2,0.0,6
273,56,2,2,0.0,6
273,113,1,2,0.0,6
274,12,2,2,0.0,6
274,62,2,2,0.0,6
274,103,1,2,0.0,6
275,4,2,2,0.0,6
275,50,2,2,0.0,6
275,155,1,2,0.0,6
276,26,1,2,0.0,6
276,50,1,2,0.0,6
276,141,1,2,0.0,6
276,155,1,2,0.0,6
277,11,2,2,0.0,6
277,70,2,1,0.5898861328791908,7
277,86,1,3,3.005724310198079,7
278,36,1,3,4.5479882172206345,9
278,121,1,2,0.0,8
278,122,1,2,0.0,8
278,149,1,3,4.46303861874206,9
279,36,1,2,0.0,9
279,149,1,2,0.0,9
279,278,1,2,0.0,9
279,150,1,2,0.0,9
280,57,1,2,0.0,8
280,83,1,2,0.0,8
280,146,1,2,0.0,8
280,152,1,2,0.0,8
281,5,2,2,0.0,6
281,55,2,2,0.0,6
281,104,1,2,0.0,6
282,2,1,2,0.0,7
282,111,1,2,0.0,7
282,112,1,2,0.0,7
282,271,1,2,0.0,7
283,28,1,2,0.0,7
283,77,1,2,0.0,7
283,94,1,2,0.0,7
283,139,1,2,0.0,7
284,13,2,2,0.0,6
284,108,2,2,0.0,6
284,109,1,2,0.0,6
285,19,2,2,0.0,6
285,48,2,2,0.0,6
285,119,1,2,0.0,6
286,70,1,2,0.0,7
286,86,1,2,0.0,7
286,133,1,2,0.0,7
286,277,1,2,0.0,7
287,26,1,2,0.0,6
287,52,1,2,0.0,6
287,130,1,2,0.0,6
287,155,1,2,0.0,6
288,14,1,3,3.1640895820767247,7
288,34,1,2,0.0,6
288,38,1,3,3.5048668789056876,7
288,213,1,2,0.0,6
289,38,1,3,3.199993993083781,8
289,14,1,2,0.0,7
289,288,1,2,0.0,7
289,124,1,3,4.585286417475317,8
290,38,1,2,0.0,8
290,124,1,2,0.0,8
290,289,1,2,0.0,8
290,125,1,2,0.0,8
291,28,1,3,4.2692914915736155,7
291,48,1,2,0.0,6
291,91,1,3,3.591897417292222,7
291,119,1,2,0.0,6
292,40,1,1,2.3609722351228895,8
292,30,1,2,0.0,7
292,80,1,3,2.9211087095671395,8
292,167,1,3,0.8262329459575566,8
293,40,1,2,0.0,8
293,80,1,2,0.0,8
293,292,1,2,0.0,8
293,126,1,2,0.0,8
294,16,1,2,0.0,6
294,46,1,2,0.0,6
294,107,1,2,0.0,6
294,130,1,2,0.0,6
295,9,1,3,2.018824708503131,9
295,151,1,2,0.0,8
295,152,1,2,0.0,8
295,164,1,3,2.4261336594135927,9
296,9,1,2,0.0,9
296,164,1,2,0.0,9
296,295,1,2,0.0,9
296,165,1,2,0.0,9
297,70,1,2,0.0,7
297,75,1,3,1.5219062802160963,8
297,106,1,2,0.0,7
297,133,1,3,1.8148963579904356,8
298,75,1,2,0.0,8
298,133,1,2,0.0,8
298,134,1,2,0.0,8
298,297,1,2,0.0,8
299,21,1,2,0.0,7
299,73,1,2,0.0,7
299,74,1,2,0.0,7
299,87,1,2,0.0,7
300,28,1,2,0.0,7
300,91,1,2,0.0,7
300,94,1,2,0.0,7
300,291,1,2,0.0,7
301,12,2,2,0.0,6
301,68,2,2,0.0,6
301,101,1,2,0.0,6
302,89,1,3,2.5917911333300667,9
302,81,1,2,0.0,8
302,90,1,3,2.5671196033299895,9
302,194,1,2,0.0,8
303,89,1,2,0.0,9
303,90,1,2,0.0,9
303,302,1,2,0.0,9
303,159,1,2,0.0,9
304,18,2,2,0.0,6
304,45,2,2,0.0,6
304,143,1,2,0.0,6
305,6,2,2,0.0,6
305,48,2,2,0.0,6
305,91,1,2,0.0,6
306,77,1,3,5.417865080798342,8
306,39,1,2,0.0,7
306,96,1,3,5.655524799160847,8
306,139,1,2,0.0,7
307,77,1,2,0.0,8
307,96,1,2,0.0,8
307,306,1,2,0.0,8
307,97,1,2,0.0,8
308,30,1,3,0.6140215552063985,7
308,78,1,2,0.0,6
308,79,1,3,0.4608856187568737,7
308,210,1,2,0.0,6
309,30,1,2,0.0,7
309,79,1,2,0.0,7
309,308,1,2,0.0,7
309,80,1,2,0.0,7
310,9,1,2,0.0,9
310,69,1,2,0.0,9
310,165,1,2,0.0,9
310,166,1,2,0.0,9
311,22,1,2,0.0,6
311,62,1,2,0.0,6
311,100,1,2,0.0,6
311,103,1,2,0.0,6
312,4,2,2,0.0,6
312,52,2,2,0.0,6
312,155,1,2,0.0,6
313,60,1,3,3.104886701346046,7
313,11,1,2,0.0,6
313,86,1,3,3.236680078360482,7
313,102,1,2,0.0,6
314,60,1,2,0.0,7
314,86,1,2,0.0,7
314,313,1,2,0.0,7
314,87,1,2,0.0,7
315,35,1,3,2.862747342498497,8
315,61,1,2,0.0,7
315,121,1,3,2.573797203611503,8
315,184,1,2,0.0,7
316,35,1,2,0.0,8
316,121,1,2,0.0,8
316,315,1,2,0.0,8
316,149,1,2,0.0,8
317,9,1,3,3.1573687012505243,9
317,83,1,2,0.0,8
317,84,1,3,4.022211285602079,9
317,152,1,2,0.0,8
318,9,1,2,0.0,9
318,84,1,2,0.0,9
318,317,1,2,0.0,9
318,166,1,2,0.0,9
319,21,1,3,1.859153235314975,8
319,86,1,2,0.0,7
319,87,1,2,0.0,7
319,133,1,3,1.53410701044011,8
320,32,1,3,2.7340699923442737,7
320,78,1,2,0.0,6
320,179,1,3,5.441413324078257,7
320,213,1,2,0.0,6
321,32,1,3,3.5661957722863944,8
321,179,1,2,0.0,7
321,320,1,2,0.0,7
321,180,1,3,6.974831030912788,8
322,21,1,2,0.0,8
322,133,1,2,0.0,8
322,134,1,2,0.0,8
322,319,1,2,0.0,8
323,20,2,2,0.0,6
323,47,2,2,0.0,6
323,116,1,2,0.0,6
324,57,1,3,3.3960028663539354,8
324,28,1,2,0.0,7
324,139,1,3,2.3599998645597187,8
324,264,1,2,0.0,7
325,57,1,2,0.0,8
325,139,1,2,0.0,8
325,324,1,2,0.0,8
325,146,1,2,0.0,8
326,2,1,2,0.0,7
326,75,1,2,0.0,7
326,106,1,2,0.0,7
326,112,1,2,0.0,7
327,33,1,2,0.0,8
327,72,1,2,0.0,8
327,117,1,2,0.0,8
327,129,1,2,0.0,8
328,22,1,2,0.0,6
328,65,1,2,0.0,6
328,100,1,2,0.0,6
328,102,1,2,0.0,6
329,67,1,2,0.0,9
329,69,1,2,0.0,9
329,150,1,2,0.0,9
329,165,1,2,0.0,9
330,32,1,3,3.2769179793416043,8
330,115,1,2,0.0,7
330,180,1,3,6.532888085297424,8
330,268,1,2,0.0,7
331,32,1,2,0.0,8
331,180,1,2,0.0,8
331,330,1,2,0.0,8
331,321,1,2,0.0,8
332,90,1,3,1.1585350269907833,10
332,82,1,2,0.0,9
332,153,1,3,2.1893691077584605,10
332,209,1,2,0.0,9
333,90,1,2,0.0,10
333,153,1,2,0.0,10
333,332,1,2,0.0,10
333,160,1,2,0.0,10
334,97,1,3,1.541853092848613,10
334,82,1,2,0.0,9
334,153,1,3,1.7130483918279358,10
334,222,1,2,0.0,9
335,97,1,2,0.0,10
335,153,1,2,0.0,10
335,334,1,2,0.0,10
335,163,1,2,0.0,10
336,40,1,3,1.4358784459747156,9
336,167,1,2,0.0,8
336,168,1,3,1.1585466532731334,9
336,292,1,2,0.0,8
337,40,1,2,0.0,9
337,168,1,2,0.0,9
337,336,1,2,0.0,9
337,169,1,2,0.0,9
338,21,1,2,0.0,8
338,76,1,2,0.0,8
338,134,1,2,0.0,8
338,148,1,2,0.0,8
339,17,1,2,0.0,10
339,153,1,2,0.0,10
339,160,1,2,0.0,10
339,163,1,2,0.0,10
