dimension: 2
Boundary type: 2
Model problem: <function coast at 0x00000236FEF18B80>
Number of data points: 48905
Smoothing parameter: 1e-11
Dataset: 12, subset:False
Number of uniform refine: 2
Refine each sweep: 1
Max refine sweeps: 9
Error indicator: 1
Indicator parameters: []
Auxiliary alpha: []
Run GCV: True
GCV parameters: [True, 6, 1e-06, 0.0001]
Extra info: [0, False, 0, 0.0, 0, [], 1.0]
Results stored at: result/result_12_2_1_22_11_05_22_47/Uniformly refine 2 iterations
Solve TPSFEM
#nodes: 21
data ratio: 1.0
build time: 0.39939930000000023
alpha: 1e-11
time: 0.5216453075408936
Indicate error
indicator: 1000000000000, 12000000000000, 3464101615137.754
time: 0.0009975433349609375
Edges with full data: 12, 0, 0.0
Measure error
two h error: 66.72722222185588
max error: 121.73853463496117
RMSE: 2.3720699537411662
time: 0.9833717346191406

=== Iteration 1 ===
Refine grid
time: 0.010970354080200195
Solve TPSFEM
#nodes: 33
data ratio: 1.0
build time: 0.4509219999999994
alpha: 1e-11
time: 0.47074127197265625
Indicate error
indicator: 1000000000000, 32000000000000, 5656854249492.381
time: 0.0019943714141845703
Edges with full data: 32, 0, 0.0
Measure error
two h error: 79.62016350493829
max error: 225.9590225694719
RMSE: 2.247603024142858
time: 1.0701401233673096

== error ==
one norm = [30.244995589850106, 34.442019101249734]
two norm = [43.267603807522924, 57.881797834549666]
max norm = [121.73853463496117, 225.9590225694719]
one norm(h) = [65.88731549625763, 61.86124084193912]
two norm(h) = [66.72722222185588, 79.62016350493829]
L2 norm = [25.888469939075204, 35.06406494573438]
energy norm = [149.4949467360634, 276.5950717781959]
fit = [0.0, 0.0]
smoothness = [0.0, 0.0]
RMSE = [2.3720699537411662, 2.247603024142858]
MAE = [1.7837940707160793, 1.6626083338955868]
MSPE = [1.230422217682204, 1.1639339993421471]
MAPE = [0.5664375693282345, 0.5364363430263436]
RMSPE = [0.08017596122941256, 0.07596897917726977]
MAX = [12.063469533646838, 12.566019079540549]
MIN = [-18.822737623542622, -19.12457938738564]
ME = [7.348516369924613e-16, -5.199162732982164e-15]
minimiser = [0.0, 0.0]
nodes = [21, 33]
Max h = [0.3535533905932738, 0.25]
Min h = [0.25, 0.1767766952966369]
triangles = [24, 48]

=== Iteration 2 ===
Refine grid
time: 0.06684327125549316
Solve TPSFEM
#nodes: 65
data ratio: 1.0
build time: 0.47281329999999944
alpha: 1e-11
time: 0.5205984115600586
Indicate error
indicator: 1000000000000, 48000000000000, 6928203230275.512
time: 0.003989458084106445
Edges with full data: 48, 0, 0.0
Measure error
two h error: 48.24068879724614
max error: 114.86127425970294
RMSE: 2.2101407836625775
time: 1.2536814212799072

== error ==
one norm = [30.244995589850106, 34.442019101249734, 27.195947846728494]
two norm = [43.267603807522924, 57.881797834549666, 37.665696409549646]
max norm = [121.73853463496117, 225.9590225694719, 114.86127425970294]
one norm(h) = [65.88731549625763, 61.86124084193912, 42.66136215713405]
two norm(h) = [66.72722222185588, 79.62016350493829, 48.24068879724614]
L2 norm = [25.888469939075204, 35.06406494573438, 26.01248723856081]
energy norm = [149.4949467360634, 276.5950717781959, 227.26578565030465]
fit = [0.0, 0.0, 0.0]
smoothness = [0.0, 0.0, 0.0]
RMSE = [2.3720699537411662, 2.247603024142858, 2.2101407836625775]
MAE = [1.7837940707160793, 1.6626083338955868, 1.6260308077031036]
MSPE = [1.230422217682204, 1.1639339993421471, 1.1940404306134051]
MAPE = [0.5664375693282345, 0.5364363430263436, 0.536437897021258]
RMSPE = [0.08017596122941256, 0.07596897917726977, 0.07470275549968498]
MAX = [12.063469533646838, 12.566019079540549, 11.695768025593456]
MIN = [-18.822737623542622, -19.12457938738564, -16.61944651824262]
ME = [7.348516369924613e-16, -5.199162732982164e-15, -4.168091197931858e-15]
minimiser = [0.0, 0.0, 0.0]
nodes = [21, 33, 65]
Max h = [0.3535533905932738, 0.25, 0.1767766952966369]
Min h = [0.25, 0.1767766952966369, 0.125]
triangles = [24, 48, 96]

=== Iteration 3 ===
Refine grid
time: 0.037897348403930664
Solve TPSFEM
#nodes: 113
data ratio: 1.0
build time: 0.5506910999999999
alpha: 1e-11
time: 0.6851677894592285
Indicate error
indicator: 1000000000000, 112000000000000, 10583005244258.355
time: 0.00698089599609375
Edges with full data: 112, 0, 0.0
Measure error
two h error: 33.74090393485765
max error: 83.4707634790935
RMSE: 2.114139555127522
time: 1.6156837940216064

== error ==
one norm = [30.244995589850106, 34.442019101249734, 27.195947846728494, 20.274288098324018]
two norm = [43.267603807522924, 57.881797834549666, 37.665696409549646, 27.91767686700571]
max norm = [121.73853463496117, 225.9590225694719, 114.86127425970294, 83.4707634790935]
one norm(h) = [65.88731549625763, 61.86124084193912, 42.66136215713405, 28.838195068805685]
two norm(h) = [66.72722222185588, 79.62016350493829, 48.24068879724614, 33.74090393485765]
L2 norm = [25.888469939075204, 35.06406494573438, 26.01248723856081, 21.83191725779268]
energy norm = [149.4949467360634, 276.5950717781959, 227.26578565030465, 187.63708625195883]
fit = [0.0, 0.0, 0.0, 0.0]
smoothness = [0.0, 0.0, 0.0, 0.0]
RMSE = [2.3720699537411662, 2.247603024142858, 2.2101407836625775, 2.114139555127522]
MAE = [1.7837940707160793, 1.6626083338955868, 1.6260308077031036, 1.5236146944500764]
MSPE = [1.230422217682204, 1.1639339993421471, 1.1940404306134051, 1.1366863834804846]
MAPE = [0.5664375693282345, 0.5364363430263436, 0.536437897021258, 0.5085649687437332]
RMSPE = [0.08017596122941256, 0.07596897917726977, 0.07470275549968498, 0.07145791410499362]
MAX = [12.063469533646838, 12.566019079540549, 11.695768025593456, 8.3077459791403]
MIN = [-18.822737623542622, -19.12457938738564, -16.61944651824262, -16.029990058967414]
ME = [7.348516369924613e-16, -5.199162732982164e-15, -4.168091197931858e-15, -2.3173819927151822e-17]
minimiser = [0.0, 0.0, 0.0, 0.0]
nodes = [21, 33, 65, 113]
Max h = [0.3535533905932738, 0.25, 0.1767766952966369, 0.125]
Min h = [0.25, 0.1767766952966369, 0.125, 0.08838834764831845]
triangles = [24, 48, 96, 192]

=== Iteration 4 ===
Refine grid
time: 0.16256499290466309
Solve TPSFEM
#nodes: 225
data ratio: 1.0
build time: 0.7242470000000001
alpha: 1e-11
time: 1.145906925201416
Indicate error
indicator: 1000000000000, 192000000000000, 13856406460551.016
time: 0.01296544075012207
Edges with full data: 192, 0, 0.0
Measure error
two h error: 51.48714348846579
max error: 122.01158292740675
RMSE: 1.74714947538693
time: 2.323809862136841

== error ==
one norm = [30.244995589850106, 34.442019101249734, 27.195947846728494, 20.274288098324018, 31.314592045057527]
two norm = [43.267603807522924, 57.881797834549666, 37.665696409549646, 27.91767686700571, 44.60050286037072]
max norm = [121.73853463496117, 225.9590225694719, 114.86127425970294, 83.4707634790935, 122.01158292740675]
one norm(h) = [65.88731549625763, 61.86124084193912, 42.66136215713405, 28.838195068805685, 41.447088741081416]
two norm(h) = [66.72722222185588, 79.62016350493829, 48.24068879724614, 33.74090393485765, 51.48714348846579]
L2 norm = [25.888469939075204, 35.06406494573438, 26.01248723856081, 21.83191725779268, 36.264496663159235]
energy norm = [149.4949467360634, 276.5950717781959, 227.26578565030465, 187.63708625195883, 266.51622177523757]
fit = [0.0, 0.0, 0.0, 0.0, 0.0]
smoothness = [0.0, 0.0, 0.0, 0.0, 0.0]
RMSE = [2.3720699537411662, 2.247603024142858, 2.2101407836625775, 2.114139555127522, 1.74714947538693]
MAE = [1.7837940707160793, 1.6626083338955868, 1.6260308077031036, 1.5236146944500764, 1.1936180382894843]
MSPE = [1.230422217682204, 1.1639339993421471, 1.1940404306134051, 1.1366863834804846, 0.6994455815527977]
MAPE = [0.5664375693282345, 0.5364363430263436, 0.536437897021258, 0.5085649687437332, 0.39443127043626697]
RMSPE = [0.08017596122941256, 0.07596897917726977, 0.07470275549968498, 0.07145791410499362, 0.0590536499059319]
MAX = [12.063469533646838, 12.566019079540549, 11.695768025593456, 8.3077459791403, 7.247394681695021]
MIN = [-18.822737623542622, -19.12457938738564, -16.61944651824262, -16.029990058967414, -13.703859221920531]
ME = [7.348516369924613e-16, -5.199162732982164e-15, -4.168091197931858e-15, -2.3173819927151822e-17, -8.496764618274279e-17]
minimiser = [0.0, 0.0, 0.0, 0.0, 0.0]
nodes = [21, 33, 65, 113, 225]
Max h = [0.3535533905932738, 0.25, 0.1767766952966369, 0.125, 0.08838834764831845]
Min h = [0.25, 0.1767766952966369, 0.125, 0.08838834764831845, 0.0625]
triangles = [24, 48, 96, 192, 384]

=== Iteration 5 ===
Refine grid
time: 0.21042323112487793
Solve TPSFEM
#nodes: 417
data ratio: 1.0
build time: 1.0347861999999992
alpha: 1e-11
time: 2.6050384044647217
Indicate error
indicator: 1000000000000, 416000000000000, 20396078054371.19
time: 0.02592945098876953
Edges with full data: 416, 0, 0.0
Measure error
two h error: 61.58862982444415
max error: 172.85184724572386
RMSE: 1.5142244858492664
time: 3.9026057720184326

== error ==
one norm = [30.244995589850106, 34.442019101249734, 27.195947846728494, 20.274288098324018, 31.314592045057527, 36.54306632251772]
two norm = [43.267603807522924, 57.881797834549666, 37.665696409549646, 27.91767686700571, 44.60050286037072, 54.35344737692046]
max norm = [121.73853463496117, 225.9590225694719, 114.86127425970294, 83.4707634790935, 122.01158292740675, 172.85184724572386]
one norm(h) = [65.88731549625763, 61.86124084193912, 42.66136215713405, 28.838195068805685, 41.447088741081416, 46.50304325211534]
two norm(h) = [66.72722222185588, 79.62016350493829, 48.24068879724614, 33.74090393485765, 51.48714348846579, 61.58862982444415]
L2 norm = [25.888469939075204, 35.06406494573438, 26.01248723856081, 21.83191725779268, 36.264496663159235, 45.047168378739215]
energy norm = [149.4949467360634, 276.5950717781959, 227.26578565030465, 187.63708625195883, 266.51622177523757, 286.2517055726945]
fit = [0.0, 0.0, 0.0, 0.0, 0.0, 0.0]
smoothness = [0.0, 0.0, 0.0, 0.0, 0.0, 0.0]
RMSE = [2.3720699537411662, 2.247603024142858, 2.2101407836625775, 2.114139555127522, 1.74714947538693, 1.5142244858492664]
MAE = [1.7837940707160793, 1.6626083338955868, 1.6260308077031036, 1.5236146944500764, 1.1936180382894843, 1.0192651982264622]
MSPE = [1.230422217682204, 1.1639339993421471, 1.1940404306134051, 1.1366863834804846, 0.6994455815527977, 0.5702644160605861]
MAPE = [0.5664375693282345, 0.5364363430263436, 0.536437897021258, 0.5085649687437332, 0.39443127043626697, 0.3444378874622615]
RMSPE = [0.08017596122941256, 0.07596897917726977, 0.07470275549968498, 0.07145791410499362, 0.0590536499059319, 0.051180785574473864]
MAX = [12.063469533646838, 12.566019079540549, 11.695768025593456, 8.3077459791403, 7.247394681695021, 6.5941001115967985]
MIN = [-18.822737623542622, -19.12457938738564, -16.61944651824262, -16.029990058967414, -13.703859221920531, -12.951868360733247]
ME = [7.348516369924613e-16, -5.199162732982164e-15, -4.168091197931858e-15, -2.3173819927151822e-17, -8.496764618274279e-17, -1.0351578277490592e-15]
minimiser = [0.0, 0.0, 0.0, 0.0, 0.0, 0.0]
nodes = [21, 33, 65, 113, 225, 417]
Max h = [0.3535533905932738, 0.25, 0.1767766952966369, 0.125, 0.08838834764831845, 0.0625]
Min h = [0.25, 0.1767766952966369, 0.125, 0.08838834764831845, 0.0625, 0.04419417382415922]
triangles = [24, 48, 96, 192, 384, 768]

=== Iteration 6 ===
Refine grid
time: 0.5236306190490723
Solve TPSFEM
#nodes: 833
data ratio: 1.0
build time: 1.5750601999999994
alpha: 1e-11
time: 7.280541896820068
Indicate error
indicator: 1000000000000, 768000000000000, 27712812921101.953
time: 0.0388946533203125
Edges with full data: 768, 0, 0.0
Measure error
two h error: 72.04562465146893
max error: 162.13504035516988
RMSE: 1.2956041515017986
time: 6.494677305221558

== error ==
one norm = [30.244995589850106, 34.442019101249734, 27.195947846728494, 20.274288098324018, 31.314592045057527, 36.54306632251772, 46.563026446450564]
two norm = [43.267603807522924, 57.881797834549666, 37.665696409549646, 27.91767686700571, 44.60050286037072, 54.35344737692046, 65.14369656254198]
max norm = [121.73853463496117, 225.9590225694719, 114.86127425970294, 83.4707634790935, 122.01158292740675, 172.85184724572386, 162.13504035516988]
one norm(h) = [65.88731549625763, 61.86124084193912, 42.66136215713405, 28.838195068805685, 41.447088741081416, 46.50304325211534, 56.892504181277516]
two norm(h) = [66.72722222185588, 79.62016350493829, 48.24068879724614, 33.74090393485765, 51.48714348846579, 61.58862982444415, 72.04562465146893]
L2 norm = [25.888469939075204, 35.06406494573438, 26.01248723856081, 21.83191725779268, 36.264496663159235, 45.047168378739215, 54.2337057280459]
energy norm = [149.4949467360634, 276.5950717781959, 227.26578565030465, 187.63708625195883, 266.51622177523757, 286.2517055726945, 318.7996570673754]
fit = [0.0, 0.0, 0.0, 0.0, 0.0, 0.0, 0.0]
smoothness = [0.0, 0.0, 0.0, 0.0, 0.0, 0.0, 0.0]
RMSE = [2.3720699537411662, 2.247603024142858, 2.2101407836625775, 2.114139555127522, 1.74714947538693, 1.5142244858492664, 1.2956041515017986]
MAE = [1.7837940707160793, 1.6626083338955868, 1.6260308077031036, 1.5236146944500764, 1.1936180382894843, 1.0192651982264622, 0.8095352421502305]
MSPE = [1.230422217682204, 1.1639339993421471, 1.1940404306134051, 1.1366863834804846, 0.6994455815527977, 0.5702644160605861, 0.4114595190004908]
MAPE = [0.5664375693282345, 0.5364363430263436, 0.536437897021258, 0.5085649687437332, 0.39443127043626697, 0.3444378874622615, 0.28070046340509675]
RMSPE = [0.08017596122941256, 0.07596897917726977, 0.07470275549968498, 0.07145791410499362, 0.0590536499059319, 0.051180785574473864, 0.04379141856910472]
MAX = [12.063469533646838, 12.566019079540549, 11.695768025593456, 8.3077459791403, 7.247394681695021, 6.5941001115967985, 6.406389418835022]
MIN = [-18.822737623542622, -19.12457938738564, -16.61944651824262, -16.029990058967414, -13.703859221920531, -12.951868360733247, -12.883687729919842]
ME = [7.348516369924613e-16, -5.199162732982164e-15, -4.168091197931858e-15, -2.3173819927151822e-17, -8.496764618274279e-17, -1.0351578277490592e-15, -3.70617667126479e-16]
minimiser = [0.0, 0.0, 0.0, 0.0, 0.0, 0.0, 0.0]
nodes = [21, 33, 65, 113, 225, 417, 833]
Max h = [0.3535533905932738, 0.25, 0.1767766952966369, 0.125, 0.08838834764831845, 0.0625, 0.04419417382415922]
Min h = [0.25, 0.1767766952966369, 0.125, 0.08838834764831845, 0.0625, 0.04419417382415922, 0.03125]
triangles = [24, 48, 96, 192, 384, 768, 1536]

=== Iteration 7 ===
Refine grid
time: 0.6283483505249023
Solve TPSFEM
#nodes: 1601
data ratio: 1.0
build time: 2.855778200000003
alpha: 1e-11
time: 25.973580598831177
Indicate error
indicator: 1000000000000, 1600000000000000, 39999999999999.95
time: 0.09574556350708008
Edges with full data: 1600, 0, 0.0
Measure error
two h error: 43.3803636974781
max error: 100.2664452945795
RMSE: 1.1392545999333985
time: 12.343011617660522

== error ==
one norm = [30.244995589850106, 34.442019101249734, 27.195947846728494, 20.274288098324018, 31.314592045057527, 36.54306632251772, 46.563026446450564, 29.65566531683085]
two norm = [43.267603807522924, 57.881797834549666, 37.665696409549646, 27.91767686700571, 44.60050286037072, 54.35344737692046, 65.14369656254198, 39.568903025163436]
max norm = [121.73853463496117, 225.9590225694719, 114.86127425970294, 83.4707634790935, 122.01158292740675, 172.85184724572386, 162.13504035516988, 100.2664452945795]
one norm(h) = [65.88731549625763, 61.86124084193912, 42.66136215713405, 28.838195068805685, 41.447088741081416, 46.50304325211534, 56.892504181277516, 35.51005170227416]
two norm(h) = [66.72722222185588, 79.62016350493829, 48.24068879724614, 33.74090393485765, 51.48714348846579, 61.58862982444415, 72.04562465146893, 43.3803636974781]
L2 norm = [25.888469939075204, 35.06406494573438, 26.01248723856081, 21.83191725779268, 36.264496663159235, 45.047168378739215, 54.2337057280459, 33.63273440095002]
energy norm = [149.4949467360634, 276.5950717781959, 227.26578565030465, 187.63708625195883, 266.51622177523757, 286.2517055726945, 318.7996570673754, 205.49315196697543]
fit = [0.0, 0.0, 0.0, 0.0, 0.0, 0.0, 0.0, 0.0]
smoothness = [0.0, 0.0, 0.0, 0.0, 0.0, 0.0, 0.0, 0.0]
RMSE = [2.3720699537411662, 2.247603024142858, 2.2101407836625775, 2.114139555127522, 1.74714947538693, 1.5142244858492664, 1.2956041515017986, 1.1392545999333985]
MAE = [1.7837940707160793, 1.6626083338955868, 1.6260308077031036, 1.5236146944500764, 1.1936180382894843, 1.0192651982264622, 0.8095352421502305, 0.6604914939748591]
MSPE = [1.230422217682204, 1.1639339993421471, 1.1940404306134051, 1.1366863834804846, 0.6994455815527977, 0.5702644160605861, 0.4114595190004908, 0.3138710944149889]
MAPE = [0.5664375693282345, 0.5364363430263436, 0.536437897021258, 0.5085649687437332, 0.39443127043626697, 0.3444378874622615, 0.28070046340509675, 0.2304881743970663]
RMSPE = [0.08017596122941256, 0.07596897917726977, 0.07470275549968498, 0.07145791410499362, 0.0590536499059319, 0.051180785574473864, 0.04379141856910472, 0.03850680393747677]
MAX = [12.063469533646838, 12.566019079540549, 11.695768025593456, 8.3077459791403, 7.247394681695021, 6.5941001115967985, 6.406389418835022, 6.5605433065322]
MIN = [-18.822737623542622, -19.12457938738564, -16.61944651824262, -16.029990058967414, -13.703859221920531, -12.951868360733247, -12.883687729919842, -12.31441405058604]
ME = [7.348516369924613e-16, -5.199162732982164e-15, -4.168091197931858e-15, -2.3173819927151822e-17, -8.496764618274279e-17, -1.0351578277490592e-15, -3.70617667126479e-16, -3.0151391726534053e-16]
minimiser = [0.0, 0.0, 0.0, 0.0, 0.0, 0.0, 0.0, 0.0]
nodes = [21, 33, 65, 113, 225, 417, 833, 1601]
Max h = [0.3535533905932738, 0.25, 0.1767766952966369, 0.125, 0.08838834764831845, 0.0625, 0.04419417382415922, 0.03125]
Min h = [0.25, 0.1767766952966369, 0.125, 0.08838834764831845, 0.0625, 0.04419417382415922, 0.03125, 0.02209708691207961]
triangles = [24, 48, 96, 192, 384, 768, 1536, 3072]

=== Iteration 8 ===
Refine grid
time: 1.696448802947998
Solve TPSFEM
#nodes: 3201
data ratio: 1.0
build time: 5.070607999999993
alpha: 1e-11
time: 99.02598071098328
Indicate error
indicator: 1000000000000, 3072000000000000, 55425625842205.086
time: 0.14561104774475098
Edges with full data: 3072, 0, 0.0
Measure error
two h error: 41.55068534026605
max error: 95.86015333989991
RMSE: 1.0303502525355623
time: 23.577991008758545

== error ==
one norm = [30.244995589850106, 34.442019101249734, 27.195947846728494, 20.274288098324018, 31.314592045057527, 36.54306632251772, 46.563026446450564, 29.65566531683085, 29.492231321444574]
two norm = [43.267603807522924, 57.881797834549666, 37.665696409549646, 27.91767686700571, 44.60050286037072, 54.35344737692046, 65.14369656254198, 39.568903025163436, 38.37002505320243]
max norm = [121.73853463496117, 225.9590225694719, 114.86127425970294, 83.4707634790935, 122.01158292740675, 172.85184724572386, 162.13504035516988, 100.2664452945795, 95.86015333989991]
one norm(h) = [65.88731549625763, 61.86124084193912, 42.66136215713405, 28.838195068805685, 41.447088741081416, 46.50304325211534, 56.892504181277516, 35.51005170227416, 34.58111666151107]
two norm(h) = [66.72722222185588, 79.62016350493829, 48.24068879724614, 33.74090393485765, 51.48714348846579, 61.58862982444415, 72.04562465146893, 43.3803636974781, 41.55068534026605]
L2 norm = [25.888469939075204, 35.06406494573438, 26.01248723856081, 21.83191725779268, 36.264496663159235, 45.047168378739215, 54.2337057280459, 33.63273440095002, 32.56557183647045]
energy norm = [149.4949467360634, 276.5950717781959, 227.26578565030465, 187.63708625195883, 266.51622177523757, 286.2517055726945, 318.7996570673754, 205.49315196697543, 213.3001778686579]
fit = [0.0, 0.0, 0.0, 0.0, 0.0, 0.0, 0.0, 0.0, 0.0]
smoothness = [0.0, 0.0, 0.0, 0.0, 0.0, 0.0, 0.0, 0.0, 0.0]
RMSE = [2.3720699537411662, 2.247603024142858, 2.2101407836625775, 2.114139555127522, 1.74714947538693, 1.5142244858492664, 1.2956041515017986, 1.1392545999333985, 1.0303502525355623]
MAE = [1.7837940707160793, 1.6626083338955868, 1.6260308077031036, 1.5236146944500764, 1.1936180382894843, 1.0192651982264622, 0.8095352421502305, 0.6604914939748591, 0.5619901841346002]
MSPE = [1.230422217682204, 1.1639339993421471, 1.1940404306134051, 1.1366863834804846, 0.6994455815527977, 0.5702644160605861, 0.4114595190004908, 0.3138710944149889, 0.25138722861727947]
MAPE = [0.5664375693282345, 0.5364363430263436, 0.536437897021258, 0.5085649687437332, 0.39443127043626697, 0.3444378874622615, 0.28070046340509675, 0.2304881743970663, 0.19550623876317405]
RMSPE = [0.08017596122941256, 0.07596897917726977, 0.07470275549968498, 0.07145791410499362, 0.0590536499059319, 0.051180785574473864, 0.04379141856910472, 0.03850680393747677, 0.03482583714266868]
MAX = [12.063469533646838, 12.566019079540549, 11.695768025593456, 8.3077459791403, 7.247394681695021, 6.5941001115967985, 6.406389418835022, 6.5605433065322, 6.335681940002346]
MIN = [-18.822737623542622, -19.12457938738564, -16.61944651824262, -16.029990058967414, -13.703859221920531, -12.951868360733247, -12.883687729919842, -12.31441405058604, -12.23924558904622]
ME = [7.348516369924613e-16, -5.199162732982164e-15, -4.168091197931858e-15, -2.3173819927151822e-17, -8.496764618274279e-17, -1.0351578277490592e-15, -3.70617667126479e-16, -3.0151391726534053e-16, 2.0825563722934947e-16]
minimiser = [0.0, 0.0, 0.0, 0.0, 0.0, 0.0, 0.0, 0.0, 0.0]
nodes = [21, 33, 65, 113, 225, 417, 833, 1601, 3201]
Max h = [0.3535533905932738, 0.25, 0.1767766952966369, 0.125, 0.08838834764831845, 0.0625, 0.04419417382415922, 0.03125, 0.02209708691207961]
Min h = [0.25, 0.1767766952966369, 0.125, 0.08838834764831845, 0.0625, 0.04419417382415922, 0.03125, 0.02209708691207961, 0.015625]
triangles = [24, 48, 96, 192, 384, 768, 1536, 3072, 6144]

=== Iteration 9 ===
Refine grid
time: 2.864344358444214
Solve TPSFEM
#nodes: 6273
data ratio: 1.0
build time: 9.317917399999999
alpha: 1e-11
time: 411.525187253952
Edges with full data: 6272, 0, 0.0
Measure error
two h error: 26.456246780963006
max error: 71.3702803948911
RMSE: 0.9363651687776545
time: 45.0845627784729

== error ==
one norm = [30.244995589850106, 34.442019101249734, 27.195947846728494, 20.274288098324018, 31.314592045057527, 36.54306632251772, 46.563026446450564, 29.65566531683085, 29.492231321444574, 18.584845452190745]
two norm = [43.267603807522924, 57.881797834549666, 37.665696409549646, 27.91767686700571, 44.60050286037072, 54.35344737692046, 65.14369656254198, 39.568903025163436, 38.37002505320243, 24.526552461698053]
max norm = [121.73853463496117, 225.9590225694719, 114.86127425970294, 83.4707634790935, 122.01158292740675, 172.85184724572386, 162.13504035516988, 100.2664452945795, 95.86015333989991, 71.3702803948911]
one norm(h) = [65.88731549625763, 61.86124084193912, 42.66136215713405, 28.838195068805685, 41.447088741081416, 46.50304325211534, 56.892504181277516, 35.51005170227416, 34.58111666151107, 21.564526294481276]
two norm(h) = [66.72722222185588, 79.62016350493829, 48.24068879724614, 33.74090393485765, 51.48714348846579, 61.58862982444415, 72.04562465146893, 43.3803636974781, 41.55068534026605, 26.456246780963006]
L2 norm = [25.888469939075204, 35.06406494573438, 26.01248723856081, 21.83191725779268, 36.264496663159235, 45.047168378739215, 54.2337057280459, 33.63273440095002, 32.56557183647045, 21.044702224346793]
energy norm = [149.4949467360634, 276.5950717781959, 227.26578565030465, 187.63708625195883, 266.51622177523757, 286.2517055726945, 318.7996570673754, 205.49315196697543, 213.3001778686579, 185.90975483322734]
fit = [0.0, 0.0, 0.0, 0.0, 0.0, 0.0, 0.0, 0.0, 0.0, 0.0]
smoothness = [0.0, 0.0, 0.0, 0.0, 0.0, 0.0, 0.0, 0.0, 0.0, 0.0]
RMSE = [2.3720699537411662, 2.247603024142858, 2.2101407836625775, 2.114139555127522, 1.74714947538693, 1.5142244858492664, 1.2956041515017986, 1.1392545999333985, 1.0303502525355623, 0.9363651687776545]
MAE = [1.7837940707160793, 1.6626083338955868, 1.6260308077031036, 1.5236146944500764, 1.1936180382894843, 1.0192651982264622, 0.8095352421502305, 0.6604914939748591, 0.5619901841346002, 0.4880421944328922]
MSPE = [1.230422217682204, 1.1639339993421471, 1.1940404306134051, 1.1366863834804846, 0.6994455815527977, 0.5702644160605861, 0.4114595190004908, 0.3138710944149889, 0.25138722861727947, 0.20122542091355863]
MAPE = [0.5664375693282345, 0.5364363430263436, 0.536437897021258, 0.5085649687437332, 0.39443127043626697, 0.3444378874622615, 0.28070046340509675, 0.2304881743970663, 0.19550623876317405, 0.16933978588201806]
RMSPE = [0.08017596122941256, 0.07596897917726977, 0.07470275549968498, 0.07145791410499362, 0.0590536499059319, 0.051180785574473864, 0.04379141856910472, 0.03850680393747677, 0.03482583714266868, 0.0316491414387191]
MAX = [12.063469533646838, 12.566019079540549, 11.695768025593456, 8.3077459791403, 7.247394681695021, 6.5941001115967985, 6.406389418835022, 6.5605433065322, 6.335681940002346, 6.582278326264194]
MIN = [-18.822737623542622, -19.12457938738564, -16.61944651824262, -16.029990058967414, -13.703859221920531, -12.951868360733247, -12.883687729919842, -12.31441405058604, -12.23924558904622, -12.341926794572032]
ME = [7.348516369924613e-16, -5.199162732982164e-15, -4.168091197931858e-15, -2.3173819927151822e-17, -8.496764618274279e-17, -1.0351578277490592e-15, -3.70617667126479e-16, -3.0151391726534053e-16, 2.0825563722934947e-16, -7.774852908161203e-17]
minimiser = [0.0, 0.0, 0.0, 0.0, 0.0, 0.0, 0.0, 0.0, 0.0, 0.0]
nodes = [21, 33, 65, 113, 225, 417, 833, 1601, 3201, 6273]
Max h = [0.3535533905932738, 0.25, 0.1767766952966369, 0.125, 0.08838834764831845, 0.0625, 0.04419417382415922, 0.03125, 0.02209708691207961, 0.015625]
Min h = [0.25, 0.1767766952966369, 0.125, 0.08838834764831845, 0.0625, 0.04419417382415922, 0.03125, 0.02209708691207961, 0.015625, 0.011048543456039806]
triangles = [24, 48, 96, 192, 384, 768, 1536, 3072, 6144, 12288]

alpha_list = [1e-11, 1e-11, 1e-11, 1e-11, 1e-11, 1e-11, 1e-11, 1e-11, 1e-11, 1e-11]

rmse_list = [2.3720699537411662, 2.247603024142858, 2.2101407836625775, 2.114139555127522, 1.74714947538693, 1.5142244858492664, 1.2956041515017986, 1.1392545999333985, 1.0303502525355623, 0.9363651687776545]
node_list = [21, 33, 65, 113, 225, 417, 833, 1601, 3201, 6273]
