2
42
1e-11
0,0.0,0.0,-82.13131877350348,0,-16.791616028559556,41.62024235324983,-1514.2194842719396
1,0.0,0.5,-14.106500418726633,0,248.24401056068677,27.183188183228097,532.3890596575233
2,0.5,0.0,46.29738953911696,0,456.73106165666184,691.3504491273081,-24619.289394244388
3,0.5,0.5,0.9226973713715171,0,307.68490494421656,51.45692349876276,-46056.12664729618
4,0.5,1.0,-175.03200012396817,0,-288.49332163818116,-255.81659695461778,-4392.911381381535
5,1.0,0.0,87.28534495670951,0,-998.6546168459645,402.1279244720619,35379.136452891966
6,1.0,0.5,-102.55973156527672,0,452.2499349180926,-938.253192747126,-143061.17045606542
7,1.0,1.0,99.02493709348151,0,-113.61157759945061,-1124.6665930673832,1311.243545686482
8,0.25,0.25,12.629755027440792,1,283.3748396772626,112.0084841126892,3165.3992486058646
9,0.75,0.25,12.008100522102364,1,13.715123841514208,720.2272547365694,-5304.700168124668
10,0.75,0.75,3.4857577504969273,1,482.1681665179448,-1163.9085104459703,-25126.714772012674
11,0.25,0.0,2.6271801771753553,0,630.5310049724625,437.0965238250768,-7217.142489114455
12,0.0,0.25,-27.10533833060334,0,268.0726331374419,247.59010526089094,-490.91521230720815
13,0.25,0.5,-0.8607061675876228,0,61.23218878723059,-97.12985099219546,-1077.3168573261023
14,0.5,0.25,8.97095619963599,1,154.36237937081947,50.96360920465086,-15260.576696149465
15,0.75,0.0,32.64957579672558,0,-48.26439798688604,-94.00026020057575,-17275.71835928485
16,0.5,0.75,-70.54021042967685,0,218.0040820130105,-602.3565844297725,13488.814545715595
17,0.75,0.5,3.7332332306866314,1,-187.88951426586524,141.11250171882753,16768.89457181277
18,0.75,1.0,-113.3950243981432,0,393.1303552841028,292.50344057921444,-1540.8339178475262
19,1.0,0.25,16.203088061856047,0,-198.40227565498458,283.11454780560234,-74675.44799101473
20,1.0,0.75,60.875508337642565,0,-798.184603718325,593.8633786106159,30601.27932691965
21,0.125,0.125,-34.251305544288726,1,269.97787644038675,328.3897348221961,-1514.2194842719396
22,0.375,0.125,27.18441770505406,1,-82.42606038947233,131.10745986890228,35802.560124170515
23,0.125,0.375,-6.192473394365682,1,236.54975703992065,38.877441703994585,532.3890596575233
24,0.625,0.125,42.99488557370895,1,170.86758352998365,431.205243438387,60632.3424634032
25,0.625,0.875,-122.5979219654833,1,-171.33363627030448,-372.97628232249446,-4392.911381381535
26,0.375,0.375,0.13410636143611535,1,-159.54802349048174,-79.01063662476854,24917.75036973494
27,0.875,0.875,28.748913110919368,1,601.0846638967591,-409.9703515711727,1311.243545686482
28,0.625,0.375,1.4812111882307923,1,-402.0237410283911,-85.4699547230003,34858.3643266866
29,0.625,0.625,2.120572593955328,1,457.17411710837564,-209.57671065218025,31370.540472812725
30,0.875,0.625,-9.407845499825921,1,-1097.310576313558,1030.7747988586666,59891.31510815282
31,0.875,0.375,-3.1157438576262666,1,-651.8061411730026,-603.8337384634551,167812.41746846715
32,0.875,0.125,26.34241482660014,1,33.95745526378893,-630.4841476376927,35379.136452891966
33,0.625,0.25,11.472936227312221,1,534.5162351082946,13.648941568788393,-73447.01346232412
34,0.375,0.25,10.667571332477875,1,-142.9964656325026,-59.61620580166834,-40810.13054359771
35,0.75,0.375,4.790887244484279,1,499.1284516815389,-261.19419859361204,-144913.9921187368
36,0.6875,0.3125,3.3056305653420526,1,-419.39163094386214,270.82949073786097,115096.67908113005
37,0.5,0.375,3.006832818902122,1,149.3047684284626,-229.54068362540306,8716.13507446204
38,0.5625,0.3125,4.006875415736601,1,-57.85700366536016,626.369694562625,20194.619985569803
39,0.75,0.125,18.19144232580789,1,-922.8000619670152,566.5227004346765,-82557.17617671729
40,0.6875,0.1875,26.49624424078866,1,-441.11531464712124,-359.78589122113516,136904.7376474288
41,0.6875,0.25,7.653931104782652,1,276.8389850803291,47.64631058938,-119418.86093807373
11,0,2,1,6.37136942389073,3
11,2,2,1,9.428603047630405,3
11,8,1,1,17.49063643713157,3
12,0,2,1,6.645496653794574,3
12,1,2,1,6.42332894414298,3
12,8,1,1,13.301304849909931,3
13,1,2,1,3.8001221498940025,3
13,3,2,1,3.927228991456595,3
13,8,1,1,11.78935635832674,3
14,2,1,1,14.125664003877198,3
15,2,2,1,9.939173189739796,3
15,5,2,1,9.645366637560144,3
16,3,2,1,16.36119404568801,3
16,4,2,1,18.333919610946204,3
16,10,1,1,29.42753013119294,3
17,3,1,1,19.61996421305436,3
17,6,1,1,40.015106410004336,3
17,10,1,1,34.00244343696995,3
18,4,2,1,23.864188102492434,3
18,7,2,1,17.9498831186891,3
18,10,1,1,31.592497393015876,3
19,5,2,1,10.679682332196208,3
19,6,2,1,22.806814949681986,3
19,9,1,1,21.09269239884275,3
20,6,2,1,29.65992302202409,3
20,7,2,1,23.660317356750475,3
20,10,1,1,52.60996943576082,3
21,0,1,2,0.0,3
21,8,1,2,0.0,3
21,11,1,2,0.0,3
21,12,1,2,0.0,3
22,2,1,2,0.0,3
22,8,1,3,13.125597042354656,4
22,11,1,2,0.0,3
22,14,1,3,7.894468103721408,4
23,1,1,2,0.0,3
23,8,1,2,0.0,3
23,12,1,2,0.0,3
23,13,1,2,0.0,3
24,2,1,2,0.0,3
24,14,1,3,13.953172309313391,4
24,15,1,3,18.277607845992993,4
25,4,1,2,0.0,3
25,10,1,2,0.0,3
25,16,1,2,0.0,3
25,18,1,2,0.0,3
26,3,1,3,6.925576898794994,4
26,8,1,3,10.325497361361982,4
26,13,1,2,0.0,3
26,14,1,1,6.644397150003073,4
27,7,1,2,0.0,3
27,10,1,2,0.0,3
27,18,1,2,0.0,3
27,20,1,2,0.0,3
28,3,1,3,10.312379434130019,4
28,17,1,3,12.798805820329845,4
29,3,1,2,0.0,3
29,10,1,2,0.0,3
29,16,1,2,0.0,3
29,17,1,2,0.0,3
30,6,1,2,0.0,3
30,10,1,2,0.0,3
30,17,1,2,0.0,3
30,20,1,2,0.0,3
31,6,1,2,0.0,3
31,9,1,3,17.568010191728344,4
31,17,1,3,22.69112776541203,4
31,19,1,2,0.0,3
32,5,1,2,0.0,3
32,9,1,3,14.268802296517181,4
32,15,1,3,21.365214138045353,4
32,19,1,2,0.0,3
33,14,1,3,6.772346187612893,5
33,24,1,3,9.72100775318654,5
33,28,1,1,7.479131011170112,5
34,8,1,2,0.0,4
34,14,1,2,0.0,4
34,22,1,2,0.0,4
34,26,1,2,0.0,4
35,9,1,3,6.2395450825426995,5
35,17,1,2,0.0,4
35,28,1,3,5.599832809421689,5
35,31,1,2,0.0,4
36,9,1,3,4.2546862418530775,6
36,28,1,2,0.0,5
36,35,1,2,0.0,5
36,33,1,3,6.692213484371067,6
37,14,1,3,5.444985673020392,5
37,3,1,2,0.0,4
37,26,1,2,0.0,4
37,28,1,3,3.0148722641508288,5
38,14,1,2,0.0,5
38,28,1,2,0.0,5
38,37,1,2,0.0,5
38,33,1,2,0.0,5
39,9,1,3,7.958719319195741,5
39,15,1,2,0.0,4
39,24,1,3,11.8221889710412,5
39,32,1,2,0.0,4
40,9,1,3,3.9364005044752917,6
40,24,1,2,0.0,5
40,39,1,2,0.0,5
40,33,1,3,5.348006254254756,6
41,9,1,2,0.0,6
41,33,1,2,0.0,6
41,40,1,2,0.0,6
41,36,1,2,0.0,6
