2
201
7.491800131092071e-06
0,-3.0,-3.0,6.671280296717442e-05,0,0.00035161743287840503,0.0002449666126989516,-0.002448383684487133
1,-3.0,-1.5,-0.0004517936594085691,0,0.0022012735684054582,-0.007289627357433732,0.01919914299375331
2,-3.0,0.0,-0.03650620461319553,0,-0.15048225396045758,-0.004358393257198546,0.6755081168354933
3,-3.0,1.5,-0.003078234252739986,0,-0.011128576809185383,0.012504304228097809,0.08470687867285104
4,-3.0,3.0,3.2235359612692725e-05,0,0.00020201409923379017,-0.00013173207295268121,-0.0015953911589060587
5,-1.5,-3.0,0.004156270134668858,0,-0.016183396703082168,0.005225146198447868,0.14955860542336155
6,-1.5,-1.5,0.30711342656449914,1,0.5355404006407061,0.3249888693990272,-2.6824313173013152
7,-1.5,0.0,-3.0217423666487386,1,-3.65613996793981,-1.5696895236683759,-27.101141899841846
8,-1.5,1.5,0.453381438970658,1,1.491671914307581,0.6870446824932669,-3.038742080634508
9,-1.5,3.0,0.03117594407517078,0,0.09447574000340615,-0.1343765537440565,-0.7205011881082802
10,0.0,-3.0,-0.24495404057434964,0,-0.09793022701475564,-1.0798083702274504,3.496330795065959
11,0.0,-1.5,-5.89579855374242,1,-5.8019150530328805,5.4105664913963984,-60.00744526853636
12,0.0,0.0,0.93517194168237,1,-6.3938237010726935,-3.3538009787017664,-0.9909910199830535
13,0.0,1.5,8.227293966430526,1,-0.655070055133479,2.9427578542138466,59.29022893444843
14,0.0,3.0,0.2998710282262347,0,-0.0002474197957718618,-1.2994171380174038,-4.264518961620992
15,1.5,-3.0,-0.029759997706673206,0,0.09914051884845694,-0.12877611194540697,0.714309390782367
16,1.5,-1.5,-0.38028419197403895,1,1.6997873112442128,0.8261610217190488,2.291328331429566
17,1.5,0.0,3.4728726116174737,1,-5.574017443692174,-0.5204254335876968,27.61060845154457
18,1.5,1.5,1.048203132930209,1,-3.4962317250039554,-1.0587862528161456,-12.202480283241874
19,1.5,3.0,0.032007637185764756,0,-0.09517111644602555,-0.13936628540729493,-0.7464554909243769
20,3.0,-3.0,-5.864187872589529e-06,0,7.241823200028785e-05,-2.775161503699628e-05,0.0006414725143290975
21,3.0,-1.5,0.0035995207860981112,0,-0.016701555103971723,0.011784354927506725,-0.09657486666173837
22,3.0,0.0,0.03312494992430832,0,-0.16501023148445276,-0.0010895983142996362,-0.6812391883637858
23,3.0,1.5,0.0044245231361738965,0,-0.023057712625814554,-0.009986814877037828,-0.13095313960217736
24,3.0,3.0,4.1029727458267584e-05,0,-0.00024209655426406685,-0.00018449728009417208,-0.0020858507438777383
25,-0.75,-0.75,3.2807410523038083,1,4.6360089184684,-1.0856047580137584,45.106272444885334
26,0.75,0.75,1.6583528918397898,1,3.3334474118909174,2.5155941731024436,-22.818792096766774
27,-0.75,0.75,-0.31043789533854765,1,5.308686868889071,5.326250545198323,-25.141500072491333
28,-0.75,2.25,2.016884070138614,1,3.26590891109555,-5.389278222619137,-12.2370854978893
29,0.75,2.25,2.00278963999449,1,-3.7954339207062655,-5.48169567154216,-14.38423253201092
30,-0.75,-2.25,-0.8874892038624032,1,-3.261952942624105,-2.5392827440501224,4.908346172646331
31,-0.75,-1.5,-0.5829482597079838,1,-6.010113933176145,5.6580434108009845,-6.938548699095372
32,0.75,-0.75,0.27653114879141905,1,4.082045687611937,5.792387371608042,5.893449972026818
33,0.0,-0.75,1.7037485436780881,1,-8.469663355935015,6.029181727814897,33.81941512804415
34,-0.75,0.0,0.02110257469371225,1,8.614462474707707,-5.211510704065129,-7.921460552871645
35,-0.375,-0.375,3.6629822482005134,1,-1.2525775103727086,-4.736162627387356,39.85975219059382
36,0.0,0.75,1.367288712259288,1,-2.841301397850079,7.731785181613901,-35.985742918309754
37,-2.25,0.75,-0.31865289881314823,1,-2.261439550143123,0.19988484041369817,2.4638368263397887
38,-1.5,0.75,-2.042297478032863,1,-2.696070987759424,3.5392345414576476,-12.629489973244189
39,-2.25,-0.75,-0.26472000031117643,1,-1.826551926885419,-0.5481419961207415,0.5752251542515885
40,-1.5,-0.75,-0.35463636820642486,1,1.5602233866385664,-4.502568483133151,-9.867719942526929
41,-1.125,-1.125,1.5250489885475085,1,2.6067214338375604,1.6708690917176412,17.362113306357426
42,-0.75,1.5,4.478823752937558,1,7.59667013345577,1.9260503639377287,22.25874799837458
43,2.25,-0.75,0.27319382595379516,1,-3.010157934006675,0.27808550229198475,-14.769035958619973
44,0.75,-2.25,-2.005564629541535,1,3.003532430360931,-5.5426778975343405,4.531520487765077
45,0.75,-1.5,-4.427742242562767,1,6.975475032658673,1.6612231675413847,-32.257017723542816
46,0.75,0.0,1.8457727278965024,1,7.810893489505147,-0.7087219916888317,2.7582996191859834
47,0.375,0.375,-0.37065610749860145,1,0.8141376902924846,0.049032118988949394,-39.92895481435853
48,0.75,1.5,4.739942151462972,1,-7.384247991816731,1.1481069343914996,18.256875495066186
49,0.0,2.25,3.7927959862666154,1,-0.3954254276125024,-9.929524352294424,-10.56535705766354
50,0.375,1.125,4.3827361981380815,1,-3.487171957108012,11.641120394457934,5.530552316933764
51,0.375,-1.125,-3.6243580149941,1,-0.6184284145446377,10.696879468870659,-26.617766548158908
52,2.25,-2.25,0.011005649967906282,1,-0.1778171759739087,-0.44233556042583044,-4.829751428015084
53,1.5,-2.25,-0.21614948626486838,1,0.7043763086983812,-1.1189863121171928,2.957752905306618
54,0.0,-2.25,-3.1592227014599557,1,-1.2968487209528337,-8.176277779751427,1.2885035335457022
55,-0.375,-1.875,-3.933978315130559,1,-6.834516619854636,-3.493489575911341,-24.90716441078739
56,1.125,-1.875,-1.9210296018955009,1,4.876260421936647,-2.8872373401661533,2.707682144849947
57,0.375,-0.375,0.33804436773829893,1,-1.4141293685262795,-1.130253399639406,-31.355172057978056
58,0.375,-0.75,-0.2794630199109788,1,-2.6239754419062153,5.292557330425622,6.765132415728484
59,-0.375,-1.125,0.5401440630890965,1,-7.569029472211919,12.470218909630916,17.189398221681138
60,1.5,-0.75,2.0321190475353963,1,-2.7815283798573875,4.111413888796924,1.5395274874136566
61,1.125,-1.125,-0.4605068949297555,1,3.8379498142781716,5.617795056147975,2.917752385243654
62,0.0,-0.375,1.9374893042754358,1,-7.461969607564673,-2.4304888369874935,9.588304035488868
63,2.25,0.75,0.2321175195967785,1,-2.5537504637038246,-0.4653693725982163,-12.808183147113766
64,1.5,0.75,2.1289590933002813,1,-3.487256160195367,-3.376971200822361,-8.579701953302827
65,1.125,1.125,2.4492214486055657,1,-3.6667048209856,1.2794345970655114,-2.096842051023312
66,-0.375,1.125,4.5617686141961205,1,3.5737228228751783,10.870514490905476,17.039973522902514
67,-0.375,0.375,0.6786517660260225,1,0.4592647944012448,-2.4275065616593685,14.46928331670048
68,0.0,0.375,0.29509973261080386,1,-3.690375595152855,-0.5937085567622802,-14.298352293597178
69,0.75,-3.0,-0.16872380398959722,0,0.2506501367233651,-0.7314733136845315,2.6706553980191043
70,-2.25,2.25,-0.017795962999931074,1,-0.7330170149612332,-0.3373391487547142,-3.9616041537075453
71,-1.5,2.25,0.30766076607499854,1,0.9809104647603168,-1.1950608004673384,-10.52807915126717
72,-1.125,1.875,1.8599848319243955,1,4.5946225529339975,-2.774612689053343,-1.3668301582521702
73,-0.375,1.875,6.20404295808723,1,4.47989995751195,-8.115300633825152,24.93787621572874
74,-0.375,1.5,7.1760799500078924,1,5.431758421247685,2.3870038917550045,46.48423308736436
75,0.375,-1.875,-5.722865867631612,1,2.6272254292288855,-7.127917352338136,-32.81903189481318
76,0.375,-1.5,-6.397973190009331,1,2.0349521872744036,3.134225226818154,-58.99419514366916
77,-0.375,-0.75,3.4692282537378265,1,-3.7536581859617786,3.882018983271904,59.26132504186562
78,-1.125,1.125,0.411030775826005,1,3.5009206032717746,5.743277771555048,-12.364073423740473
79,-1.125,1.5,1.8653191168264716,1,5.26772314118255,1.9998887574755004,4.765496717920775
80,-0.75,3.0,0.17064056293934143,0,0.25706411042363086,-0.7390615694256603,-2.8068198717997523
81,1.125,-2.625,-0.3471719630144482,1,0.9041087989798087,-1.7522187649369236,5.163210579578549
82,-0.375,0.0,1.7743604726843811,1,0.3059334887800976,-4.514720977911632,27.119366627932322
83,-0.1875,-0.1875,2.2901731757619768,1,-4.612825048229687,-4.1231633649053965,18.28109007364584
84,0.75,3.0,0.17105905365815754,0,-0.2555455256342121,-0.7415713595675817,-2.821095538091738
85,2.25,2.25,-0.10575452445675673,1,0.5372743009592827,0.3157496171625742,-0.4858937429300149
86,1.5,2.25,0.3070053711717353,1,-1.3253551883808847,-0.8469302440236427,-10.388966048415668
87,1.125,1.875,2.0716180940029116,1,-5.405573207494346,-3.3323060952723838,-3.572583257118417
88,0.375,1.875,6.12950189042296,1,-5.2941376433937055,-8.245687498415998,23.55686700448881
89,0.375,1.5,7.129446899799025,1,-6.031727407725954,2.6387010524282446,44.61148266005718
90,-0.75,-1.125,1.8068368455009367,1,-1.5082715188902,7.031159246032877,26.48264096418756
91,1.125,-1.5,-1.8992400596820385,1,5.557326272374928,1.5516695062808976,-8.417826238454447
92,-1.125,-0.375,-0.7067023068996305,1,6.436342613135438,-7.457536620236372,-27.12733110996002
93,-0.75,-0.375,1.96518467941616,1,6.858991546299919,-6.257931319270228,16.07998282642788
94,-0.5625,-0.5625,3.620463611039549,1,2.232386431993032,-2.735654086612809,43.8857890976824
95,-0.375,0.75,1.4195542080978145,1,1.566277043750488,5.38216813503881,-14.281985552369987
96,0.375,0.75,1.0541919622063172,1,-0.4962118700164546,6.902080496437719,-40.32676457456235
97,-2.25,0.0,-0.6918710949350325,1,-3.5177935067866026,0.00022846890639649785,7.681691466238447
98,-1.875,-0.375,-1.3282821282571868,1,-3.3395297780083104,-2.3389080211217816,-5.335638124161017
99,-1.125,-0.75,1.094239669918089,1,5.414851839932801,-3.9573178900225665,11.053914113855528
100,-0.375,-1.5,-3.276373232816642,1,-8.824341246952773,6.85779168649102,-32.85303187275005
101,-0.75,-3.0,-0.07521944362893038,0,-0.21956324696447943,-0.3582940078504715,1.7222495408497938
102,-0.375,-2.625,-0.7771075016455693,1,-1.4120476342156372,-3.0019300020155257,4.851730063813253
103,-2.25,-2.25,0.006797434875602378,1,-0.017989883876954466,-0.2278081953239626,-6.620066740453824
104,-1.5,-2.25,0.052179111457071665,1,-0.26196057203148676,-0.5183453685392956,3.610978671815864
105,-1.125,-1.875,-0.2920181050139791,1,-2.6793081854379883,-0.18239622763368935,2.2868951925424326
106,-0.75,-1.875,-1.5554811435247724,1,-5.8956757855372794,-0.538450010253836,-10.935618843389381
107,0.375,-2.625,-1.1095947718662806,1,0.6400697429828206,-4.02706886630574,6.574681974242603
108,0.375,-2.25,-3.0355883600481803,1,1.4068461351116366,-7.841432164992111,2.5860862130868854
109,-1.125,-1.5,0.3215847736100387,1,-1.586481680550428,2.325482982951622,6.2008102337189355
110,-0.375,2.625,1.1846548684526896,1,0.8761696507155889,-3.7203531211547514,-11.630770264787035
111,-0.375,2.25,3.2153976634512804,1,2.2803198403663485,-8.054325331868014,-9.278339823747915
112,-0.375,-2.25,-2.170410869425237,1,-3.394457702993077,-5.324647321715811,-0.879582636056176
113,0.375,2.625,1.1813934279086975,1,-1.2486731034929384,-3.6171328966189003,-12.427873331103282
114,0.375,2.25,3.2382281702512117,1,-2.8027573823747085,-7.943033240205125,-11.021500541650939
115,-0.5625,-1.3125,-0.29792412779932104,1,-6.587176965528595,9.271514431141377,-1.4243007031843575
116,2.25,0.0,0.7112302056907439,1,-4.593974495716042,-0.05464642483292141,-22.206689469115616
117,-1.125,0.375,-2.9163598747506616,1,2.469116088944677,1.0830121793465834,-39.76932872416819
118,-2.25,1.5,-0.07432740190078,1,-0.832151052013465,0.026234849668981965,1.2327721712719104
119,-1.875,1.125,-0.38887199164437675,1,-1.4730614523836383,1.647018620605708,0.14733852361118355
120,0.0,2.625,1.4113893133364188,1,-0.21695354586878862,-4.444705686520041,-11.217627741716168
121,-1.5,1.125,-0.4579953198667389,1,-0.18511660399566582,3.20385477567197,-4.559987508699981
122,2.25,-1.5,0.08108601021645173,1,-1.1916693730714734,-0.4192734088007722,-2.7574362902929823
123,1.875,-1.125,0.4064914523137521,1,-1.7826297415515238,0.8926728533324861,-1.4042278155656895
124,0.0,-2.625,-1.1650837528763665,1,-0.48784696259918425,-4.140265856497545,5.307130233299267
125,0.375,0.0,0.194807754933831,1,0.12912859450130346,-1.5043195010763528,-41.985586953690905
126,1.125,0.375,2.9669882771044738,1,1.9231867144500174,-2.776913972476042,37.49470078549827
127,1.125,0.75,2.315092527078629,1,0.1619409204917924,-1.8985114843409032,1.1374683631407396
128,0.75,0.375,1.389696785180891,1,5.889905564030165,-1.0295365341418936,-11.363640481490949
129,-2.25,-1.5,0.01539126782721711,1,-0.3853074084837792,0.020653816144215575,-0.1722895108432578
130,-1.875,-1.125,0.046633037393651516,1,0.041397631006820874,-1.1236080466199714,-3.0210052930229843
131,-1.5,-1.125,0.4030550986150661,1,1.6840739016726025,-1.073432454619951,3.8419637859963798
132,-1.3125,-1.3125,0.6900194744011395,1,1.1600164993904432,1.088316156361088,5.030038554414432
133,0.75,-1.875,-3.9011990346074574,1,5.774022918775374,-4.982827180962538,-17.97718350145883
134,0.5625,-1.6875,-5.51073873254847,1,5.117265400997096,-2.4798884508190397,-40.16431295216588
135,0.0,-1.875,-5.6439978958435715,1,-3.429766450130777,-6.107263668935557,-41.398588096270416
136,-0.1875,-1.6875,-5.112738010661704,1,-7.076982657992918,0.29703860153962086,-44.63700301690199
137,0.1875,-1.6875,-6.472562499606034,1,-0.9924883728162727,-1.872347644844815,-57.60986172428384
138,-0.75,1.875,3.9239920508156074,1,6.069391045162779,-4.9095789024151895,10.875748701285554
139,0.1875,-2.0625,-4.570781450916048,1,-0.018805606670172052,-8.533413518656124,-15.966308129454376
140,-0.9375,-0.9375,2.217947683754758,1,3.4619040119130777,1.1072050519316092,26.55936285105517
141,-0.5625,1.6875,5.759508781165342,1,6.586324022930061,-2.6821467840658695,29.298188436372037
142,0.0,1.875,7.020785657175299,1,-0.48828351548767396,-8.682406902766367,37.254688832775315
143,0.1875,1.6875,7.637328180246233,1,-3.640472006503727,-3.4828671394273303,48.49303663708026
144,-0.1875,1.6875,7.681870647923568,1,2.626330217032958,-3.557285870236087,48.60469085104684
145,0.75,1.875,4.043563604066465,1,-6.583672242524273,-4.925836564177658,8.49133836137336
146,0.5625,1.6875,5.816869686947774,1,-6.970635943366831,-2.827743906275685,27.829620021353897
147,0.75,1.125,3.348865168080438,1,-3.2169684911324854,5.904229428118655,-1.285479296727866
148,0.5625,1.3125,5.132136025524381,1,-5.548320192862244,6.249028282582169,21.515880564212026
149,0.0,-1.125,-2.2399599624679105,1,-7.801763871019298,12.836008382012025,-15.725600256558366
150,0.1875,-1.3125,-5.0084020995135985,1,-3.20114685293581,9.217205417391314,-49.56365492570264
151,0.5625,0.9375,2.4199812753642926,1,-0.7996646505894157,7.793734711959423,-20.276531121966624
152,-1.5,-0.375,-1.7499892722095116,1,-0.4307663423497475,-4.5057200982060115,-25.539044821212393
153,-1.875,0.375,-1.725220877414535,1,-4.672459390877359,0.9485303736112601,4.389672321681299
154,-1.125,2.625,0.37663759466102453,1,1.0309858993734258,-1.2632616744000351,-10.295101529328372
155,1.125,2.625,0.37577350637427154,1,-1.1781918587055153,-1.1397144041535932,-9.81561104335019
156,-0.75,0.375,-0.8738913081813973,1,6.400769905524139,-0.9888722782352729,-10.064656748049135
157,-0.5625,0.5625,0.15908040227799958,1,3.9867723810298443,1.1381957070619881,-5.6156106663618806
158,0.0,1.125,5.1624385022429795,1,-1.3700690836432403,12.073773083999814,18.989169579588403
159,-0.1875,1.3125,6.739075577401492,1,2.0173455325792395,8.11551659873866,42.92881818333085
160,-0.1875,1.5,7.733574268962056,1,2.55518471404229,2.5606836290509163,51.817341179808494
161,0.1875,1.3125,6.62534046293781,1,-3.4054394056331994,8.542490857844788,39.48644604744166
162,0.1875,1.5,7.676758867195033,1,-3.662532629286454,2.8009986342279887,50.38233594522726
163,-0.75,1.125,2.4602749845040246,1,6.381843383258495,7.8614532872121945,3.7124459171429396
164,-0.9375,1.3125,2.37368906635311,1,6.211316981250542,4.94010304852782,5.944129095287861
165,0.1875,-0.1875,0.6752312438534029,1,-5.065480896090191,-2.436117397088517,-22.44955032619867
166,-0.5625,0.1875,0.5241212084145609,1,4.875963404065087,-3.516797622755497,12.030638808780555
167,-0.1875,-1.3125,-2.9491907383199236,1,-8.61022858244119,10.80934161694065,-27.71788152754287
168,-0.1875,-1.5,-4.520005277780812,1,-8.002654594414102,6.108045872363156,-43.128590901238404
169,-0.5625,-2.0625,-2.179974959312531,1,-5.1553925498788455,-3.596960331588514,-6.594180386301815
170,0.75,-1.125,-2.4411357277308467,1,4.9214367351874015,7.600230662554982,-14.069004436070419
171,0.9375,-1.3125,-2.424398377533972,1,5.960952405912333,4.56903572174335,-14.142420990214383
172,-0.5625,-1.6875,-2.4874567307787,1,-7.573498300739963,2.1119048531711697,-21.555496772125537
173,-0.5625,-1.5,-1.7290721856536866,1,-7.653696411187724,6.289363533978343,-17.030546308646418
174,1.125,-0.375,3.0969650981526677,1,1.9665755474870446,2.215075008479892,38.936210952001865
175,0.75,-0.375,1.495099044940787,1,5.34794432975138,1.2819332873237363,-6.6756761312827315
176,0.5625,-0.5625,0.3262800282336972,1,1.850692816002558,2.038972510404216,-7.022611926502895
177,-0.5625,-0.9375,2.806264614912069,1,-1.955308138931055,6.5707160245730725,45.35522120902822
178,-0.5625,-0.75,3.5706749644923144,1,0.5110299532199664,1.6349091640648246,51.46215509744682
179,1.5,-1.125,0.47243381225983283,1,0.1083328697530763,2.8385169286236116,0.5273317982608406
180,0.1875,-0.5625,0.8714931222183544,1,-6.206579734326211,1.1266684433485588,3.155191212395498
181,1.125,1.5,2.5998625950480747,1,-5.9400443043972855,-0.5370046168483513,2.1932997645469574
182,1.125,-0.75,1.557098790985476,1,1.6402005897357808,5.559744661469402,19.950806779729735
183,-0.5625,2.0625,3.886857375882977,1,4.289831082105791,-7.512887182660806,2.0490582881269783
184,0.5625,-0.9375,-1.6784608878424265,1,1.753448440003745,8.013779465560413,-5.1803613354693505
185,0.5625,-0.75,-0.3502034041564778,1,1.2519328372451677,5.255639004014675,0.34227983444526056
186,-1.125,0.0,-2.3062739697210324,1,4.065310344304823,-3.683993592599829,-45.216977055382735
187,0.5625,-2.0625,-3.7603177434887827,1,3.465208020057216,-7.278617119224345,-9.829705090821317
188,0.1875,-0.9375,-1.2221195300077774,1,-5.623051346040294,9.835434190607709,-0.8951717745200071
189,0.1875,-0.75,0.31315037013864583,1,-6.153540636931867,5.634247344719751,9.584072026726535
190,-0.5625,1.3125,4.95931552680195,1,6.426414700221628,6.45480603776879,26.536190988912324
191,-0.5625,1.5,5.770023636072604,1,6.888815023979251,2.0645845874654722,32.23924341950536
192,0.5625,-1.3125,-4.610436327806374,1,4.056875921011924,6.499852071683106,-38.292498308731524
193,0.5625,-1.5,-5.454226738354961,1,4.963910532674997,2.2331001076095647,-44.20474615890351
194,-1.5,0.375,-2.809233259991326,1,-3.518857347090776,1.4525110153929557,-19.71428922399319
195,1.875,-1.875,-0.12023682151233328,1,0.007377881596414028,-0.439500458538607,0.16624823538732655
196,1.5,-1.875,-0.5680583002084357,1,1.7425306711982071,-0.925716540209384,2.153186909231573
197,2.25,1.5,0.04311585861568372,1,-0.6487898329799882,0.3270068010735,-2.012956466337026
198,1.875,1.125,0.6076830171611125,1,-2.428459319696344,-0.642422844217174,-7.114873378272943
199,1.5,1.125,1.3932283761012934,1,-3.210721622682627,-1.1100061223794384,-5.95939716062424
200,1.3125,0.9375,2.0364425913110495,1,-2.762868630624896,-1.2861073904550084,-6.1207934596251965
1,0,2,1,0.005455857740476531,1
2,1,2,1,0.26010184839532335,1
3,2,2,1,0.22642820767151034,1
4,3,2,1,0.03401153223330446,1
5,0,2,1,0.023356693677147856,1
9,4,2,1,0.1667647464747576,1
20,15,2,1,0.11436997945055533,1
21,20,2,1,0.03876217493659642,1
22,21,2,1,0.2456770012760663,1
23,22,2,1,0.2657893568792221,1
24,23,2,1,0.10281074637037421,1
24,19,2,1,0.22253339568879665,1
30,5,1,1,0.44227936365482085,2
35,34,1,1,0.5738369452597137,4
35,33,1,1,0.6512027125915513,4
37,2,1,3,0.4189762095992428,2
37,3,1,3,0.1888607701583273,2
38,37,1,1,0.43824194624803003,3
38,27,1,1,0.734424526169558,3
39,1,1,3,0.2181662561997102,2
39,2,1,3,0.33589150152346714,2
40,39,1,1,0.4815307146164114,3
41,40,1,1,0.4193064011653613,4
41,31,1,1,0.7631702799217415,4
43,22,1,3,0.4837083302620791,2
43,21,1,3,0.19774881734667982,2
43,17,1,1,0.6561211897113343,2
46,17,1,1,0.7841266481115788,3
47,12,1,1,0.5640202798570508,4
47,26,1,1,0.5820014776662727,4
47,46,1,1,0.4834003019742207,4
47,36,1,1,0.5413346010460026,4
50,36,1,1,0.49535211721228284,4
52,15,1,3,0.11694991989807872,2
52,21,1,3,0.08820540039746762,2
52,20,1,2,0.0,1
53,15,1,3,0.2760892304295257,3
53,52,1,3,0.15531078524376077,3
53,44,1,1,0.5169191017183147,3
55,54,1,1,0.5648793980032767,4
56,16,1,1,0.3921698197491343,4
56,44,1,3,0.6248763240933776,4
56,45,1,1,0.5086700105089716,4
56,53,1,3,0.5100974391755226,4
57,46,1,1,0.5530623814267525,4
58,57,1,1,0.5503631335078283,5
58,51,1,1,0.4881972792099599,5
59,33,1,1,0.7121458190910018,4
60,17,1,3,0.6784989819478197,3
60,43,1,3,0.5462960083225032,3
61,16,1,1,0.47840406710286293,4
61,32,1,1,0.4174472877474021,4
61,60,1,1,0.3571558427949936,4
62,12,1,1,0.2255781477815689,5
62,33,1,3,0.2990514875076585,5
62,35,1,3,0.3527123880940946,5
62,57,1,1,0.3649711040245799,5
63,17,1,1,0.6529206390323244,2
63,23,1,3,0.25996054566351695,2
63,22,1,3,0.49279832143378727,2
64,17,1,3,0.6037129833459021,3
64,63,1,3,0.44996776454377546,3
65,18,1,1,0.28598930765403957,4
65,26,1,1,0.7887305673628503,4
65,48,1,1,0.6342207147820853,4
66,27,1,1,0.5834913573031258,4
66,36,1,1,0.6892461351784831,4
67,12,1,1,0.5931679843975083,4
67,36,1,1,0.6759811905240883,4
68,12,1,2,0.0,4
68,36,1,2,0.0,4
68,47,1,2,0.0,4
68,67,1,2,0.0,4
69,10,2,1,0.012528314923375002,3
69,15,2,1,0.36836877633601767,3
69,44,1,1,0.5636303422787546,3
70,9,1,3,0.15662425738039726,2
70,3,1,3,0.12247158873655223,2
70,8,1,1,0.5599589615021743,2
70,4,1,2,0.0,1
71,8,1,3,0.6967504668650888,3
71,9,1,3,0.2712751661906896,3
71,70,1,2,0.0,2
71,28,1,1,0.5743321413520165,3
72,8,1,3,0.6006414127931536,4
72,28,1,3,0.6942100776624744,4
72,71,1,2,0.0,3
72,42,1,1,0.5567934808280672,4
73,49,1,1,0.4820360781184075,4
74,66,1,1,0.31466985094813754,5
74,73,1,1,0.3394858037383232,5
76,11,1,1,0.5505187150447125,5
76,75,1,1,0.3701666598905902,5
76,51,1,1,0.3967474363287521,5
77,33,1,2,0.0,4
77,35,1,3,0.7438190260011034,5
77,59,1,3,0.6695044615435592,5
78,8,1,1,0.4732650518374107,4
78,27,1,3,0.6112629758740817,4
78,38,1,3,0.5007498163260574,4
79,8,1,2,0.0,4
79,42,1,3,0.4963616676424999,5
79,78,1,3,0.4264713473285267,5
79,72,1,2,0.0,4
80,9,2,1,0.3542986559366098,3
80,14,2,1,0.08792137795497008,3
80,28,1,1,0.5640246112967962,3
81,15,1,2,0.0,3
81,44,1,2,0.0,3
81,53,1,2,0.0,3
81,69,1,2,0.0,3
82,12,1,3,0.5149610522576601,5
82,34,1,3,0.5737486994049427,5
82,35,1,3,0.7004802181887768,5
82,67,1,3,0.596334259355351,5
83,12,1,2,0.0,5
83,35,1,2,0.0,5
83,82,1,2,0.0,5
83,62,1,2,0.0,5
84,14,2,1,0.09009579910509809,3
84,19,2,1,0.35119572982274894,3
84,29,1,1,0.5704377131981156,3
85,18,1,1,0.560773894135286,2
85,24,1,2,0.0,1
85,23,1,3,0.2024301218296193,2
85,19,1,3,0.22022136766223896,2
86,18,1,3,0.6592791737879006,3
86,19,1,3,0.29224325008718693,3
86,85,1,2,0.0,2
86,29,1,1,0.5378549302956821,3
87,18,1,3,0.46972248586247184,4
87,29,1,3,0.6472482246070556,4
87,86,1,2,0.0,3
87,48,1,1,0.3563989359094314,4
88,29,1,1,0.4479410186217339,4
88,49,1,1,0.46115333437893374,4
89,48,1,1,0.4985131625561852,5
89,88,1,1,0.33457104068984417,5
89,50,1,1,0.32909152480975024,5
90,25,1,1,0.45298838044045736,5
90,31,1,3,0.700604974705668,5
90,41,1,3,0.7008477560916203,5
90,59,1,1,0.40326441304223787,5
91,16,1,2,0.0,4
91,45,1,3,0.453871987303615,5
91,56,1,2,0.0,4
91,61,1,3,0.4166319681006954,5
92,25,1,1,0.454155155207483,4
92,7,1,1,0.4768179894142634,4
92,34,1,1,0.44759519195899844,4
92,40,1,1,0.4444138923914924,4
93,25,1,3,0.3754245790214605,5
93,34,1,2,0.0,4
93,92,1,2,0.0,4
93,35,1,3,0.40135435942514935,5
94,25,1,3,0.40126770662274647,6
94,35,1,2,0.0,5
94,93,1,2,0.0,5
94,77,1,3,0.45908401835428747,6
95,27,1,3,0.6839542305752356,5
95,36,1,2,0.0,4
95,66,1,2,0.0,4
95,67,1,3,0.651873295432887,5
96,26,1,3,0.5042700198204744,5
96,36,1,2,0.0,4
96,47,1,2,0.0,4
96,50,1,3,0.464036053166733,5
97,7,1,1,0.42782908243710976,3
97,2,1,2,0.0,2
97,37,1,3,0.49938585253934337,3
97,39,1,3,0.46229043339450415,3
98,7,1,3,0.5204936177005263,4
98,39,1,2,0.0,3
98,97,1,2,0.0,3
98,40,1,3,0.4994540070313145,4
99,25,1,3,0.5637382974851888,5
99,40,1,2,0.0,4
99,41,1,3,0.41908364356198985,5
99,92,1,2,0.0,4
100,55,1,1,0.35912510548687376,5
100,59,1,1,0.3666026075060008,5
101,10,2,1,0.19767296688288766,3
101,5,2,2,0.0,2
101,30,1,3,0.48686326475849223,3
102,10,1,3,0.27787068484104455,4
102,30,1,3,0.5047641513316485,4
102,101,1,2,0.0,3
102,54,1,1,0.3599031918300312,4
103,6,1,1,0.2315202669198169,2
103,0,1,2,0.0,1
103,1,1,3,0.0757296023507157,2
103,5,1,3,0.19171845597560688,2
104,6,1,3,0.3183171976003112,3
104,5,1,2,0.0,2
104,103,1,2,0.0,2
104,30,1,3,0.4500277887199241,3
105,30,1,3,0.5165493834140394,4
105,6,1,3,0.3369044727423114,4
105,104,1,2,0.0,3
105,31,1,1,0.503858767840214,4
106,30,1,3,0.456481886586407,5
106,31,1,3,0.5281129230614763,5
106,105,1,2,0.0,4
106,55,1,1,0.40891347720968996,5
107,44,1,3,0.5838946148559658,4
107,10,1,3,0.2201703501788396,4
107,54,1,1,0.34067835139385616,4
107,69,1,2,0.0,3
108,44,1,3,0.4059350937262277,5
108,54,1,3,0.32198639590526623,5
108,107,1,2,0.0,4
108,75,1,1,0.24662532920447794,5
109,6,1,3,0.27940983932823027,5
109,31,1,2,0.0,4
109,41,1,3,0.5410506521591976,5
109,105,1,2,0.0,4
110,28,1,3,0.6025702115912787,4
110,14,1,3,0.26789656351072544,4
110,49,1,1,0.3699298789616363,4
110,80,1,2,0.0,3
111,28,1,3,0.419106448827193,5
111,49,1,2,0.0,4
111,110,1,2,0.0,4
111,73,1,3,0.3606209601256185,5
112,30,1,3,0.3526717481453698,5
112,54,1,2,0.0,4
112,55,1,3,0.3384682077845786,5
112,102,1,2,0.0,4
113,29,1,3,0.6313861304840097,4
113,14,1,3,0.2684722504710433,4
113,49,1,1,0.35796344979884975,4
113,84,1,2,0.0,3
114,29,1,2,0.0,4
114,49,1,2,0.0,4
114,113,1,2,0.0,4
114,88,1,2,0.0,4
115,31,1,3,0.3980676006255332,6
115,59,1,2,0.0,5
115,90,1,2,0.0,5
115,100,1,3,0.3625610842202125,6
116,17,1,2,0.0,2
116,22,1,2,0.0,2
116,43,1,2,0.0,2
116,63,1,2,0.0,2
117,7,1,1,0.5571949701399261,4
117,27,1,3,0.750516180891895,4
117,34,1,1,0.4706497248285567,4
117,38,1,3,0.6910219891066081,4
118,8,1,3,0.3697834740693032,3
118,3,1,2,0.0,2
118,37,1,3,0.3264424233194894,3
118,70,1,2,0.0,2
119,8,1,3,0.36791464466984686,4
119,37,1,2,0.0,3
119,118,1,2,0.0,3
119,38,1,3,0.5213885460517722,4
120,14,1,2,0.0,4
120,49,1,2,0.0,4
120,110,1,2,0.0,4
120,113,1,2,0.0,4
121,8,1,2,0.0,4
121,38,1,2,0.0,4
121,78,1,2,0.0,4
121,119,1,2,0.0,4
122,16,1,1,0.34603407723671686,3
122,21,1,2,0.0,2
122,43,1,3,0.32170293591067695,3
122,52,1,3,0.11081743957225301,3
123,16,1,3,0.374463235819421,4
123,43,1,2,0.0,3
123,122,1,2,0.0,3
123,60,1,3,0.5255110974377312,4
124,10,1,2,0.0,4
124,54,1,2,0.0,4
124,102,1,2,0.0,4
124,107,1,2,0.0,4
125,12,1,3,0.4845634752383417,5
125,46,1,2,0.0,4
125,47,1,2,0.0,4
125,57,1,3,0.6525876343737378,5
126,26,1,1,0.4892034026439336,4
126,17,1,2,0.0,3
126,46,1,3,0.5970673471773204,4
126,64,1,3,0.4773847049462323,4
127,26,1,2,0.0,4
127,64,1,3,0.2102785612848422,5
127,126,1,2,0.0,4
127,65,1,3,0.6265952822265297,5
128,26,1,2,0.0,4
128,46,1,2,0.0,4
128,47,1,2,0.0,4
128,126,1,2,0.0,4
129,6,1,3,0.1370388226002996,3
129,1,1,2,0.0,2
129,39,1,3,0.15253961987364956,3
129,103,1,2,0.0,2
130,6,1,3,0.20492327582536893,4
130,39,1,2,0.0,3
130,129,1,2,0.0,3
130,40,1,3,0.3710136747646543,4
131,6,1,3,0.24354463458544887,5
131,40,1,2,0.0,4
131,130,1,2,0.0,4
131,41,1,3,0.3984940225885139,5
132,6,1,2,0.0,5
132,41,1,2,0.0,5
132,131,1,2,0.0,5
132,109,1,2,0.0,5
133,45,1,3,0.4128732570382693,5
133,44,1,3,0.456605259965327,5
133,56,1,2,0.0,4
133,75,1,1,0.2913208403283181,5
134,45,1,3,0.29577870033821174,6
134,75,1,2,0.0,5
134,133,1,2,0.0,5
134,76,1,3,0.28467428673626616,6
135,11,1,1,0.41506346739516464,5
135,54,1,3,0.5465700027318625,5
135,55,1,3,0.6270187531945551,5
135,75,1,1,0.35144861926554516,5
136,11,1,3,0.4087042112496614,6
136,55,1,2,0.0,5
136,135,1,2,0.0,5
136,100,1,3,0.3582587254811237,6
137,11,1,2,0.0,5
137,75,1,2,0.0,5
137,76,1,2,0.0,5
137,135,1,2,0.0,5
138,28,1,3,0.4884149248098486,5
138,42,1,3,0.4461569946322709,5
138,72,1,2,0.0,4
138,73,1,1,0.3161089604913485,5
139,54,1,2,0.0,5
139,75,1,2,0.0,5
139,108,1,2,0.0,5
139,135,1,2,0.0,5
140,25,1,2,0.0,5
140,41,1,2,0.0,5
140,90,1,2,0.0,5
140,99,1,2,0.0,5
141,42,1,3,0.30845638075249654,6
141,73,1,2,0.0,5
141,74,1,3,0.29428985859363554,6
141,138,1,2,0.0,5
142,13,1,1,0.38921557202932006,5
142,49,1,2,0.0,4
142,73,1,3,0.5126038164964108,5
142,88,1,3,0.5157011893560312,5
143,13,1,3,0.3886903409772766,6
143,88,1,2,0.0,5
143,142,1,2,0.0,5
143,89,1,3,0.37902900589794525,6
144,13,1,3,0.3813438370955448,6
144,73,1,2,0.0,5
144,74,1,3,0.366949041278381,6
144,142,1,2,0.0,5
145,48,1,3,0.37856569781147187,5
145,29,1,2,0.0,4
145,87,1,2,0.0,4
145,88,1,3,0.3505206079332483,5
146,48,1,2,0.0,5
146,88,1,2,0.0,5
146,145,1,2,0.0,5
146,89,1,2,0.0,5
147,48,1,3,0.5540565221620931,5
147,26,1,3,0.6138183523216724,5
147,50,1,1,0.33670984309303303,5
147,65,1,2,0.0,4
148,48,1,2,0.0,5
148,50,1,2,0.0,5
148,147,1,2,0.0,5
148,89,1,2,0.0,5
149,11,1,1,0.3215595952068671,5
149,33,1,3,0.4362050005270733,5
149,51,1,1,0.33785289373853594,5
149,59,1,3,0.3889758914209057,5
150,11,1,2,0.0,5
150,51,1,2,0.0,5
150,149,1,2,0.0,5
150,76,1,2,0.0,5
151,26,1,2,0.0,5
151,50,1,2,0.0,5
151,96,1,2,0.0,5
151,147,1,2,0.0,5
152,7,1,2,0.0,4
152,40,1,2,0.0,4
152,92,1,2,0.0,4
152,98,1,2,0.0,4
153,7,1,3,0.3022961446679803,4
153,37,1,2,0.0,3
153,38,1,3,0.28605251979838486,4
153,97,1,2,0.0,3
154,9,1,2,0.0,3
154,28,1,2,0.0,3
154,71,1,2,0.0,3
154,80,1,2,0.0,3
155,19,1,2,0.0,3
155,29,1,2,0.0,3
155,84,1,2,0.0,3
155,86,1,2,0.0,3
156,27,1,3,0.48602936739788954,5
156,34,1,3,0.3012927413160064,5
156,67,1,1,0.40428612925741664,5
156,117,1,2,0.0,4
157,27,1,2,0.0,5
157,67,1,2,0.0,5
157,156,1,2,0.0,5
157,95,1,2,0.0,5
158,13,1,1,0.3262806297646405,5
158,36,1,2,0.0,4
158,50,1,3,0.3720781478881761,5
158,66,1,3,0.41843941086453623,5
159,13,1,3,0.35666828485446167,6
159,66,1,2,0.0,5
159,158,1,2,0.0,5
159,74,1,3,0.3315858507563587,6
160,13,1,2,0.0,6
160,74,1,2,0.0,6
160,144,1,2,0.0,6
160,159,1,2,0.0,6
161,13,1,3,0.33762503991645737,6
161,50,1,2,0.0,5
161,89,1,3,0.3271195917751365,6
161,158,1,2,0.0,5
162,13,1,2,0.0,6
162,89,1,2,0.0,6
162,161,1,2,0.0,6
162,143,1,2,0.0,6
163,42,1,1,0.26797297142471355,5
163,27,1,2,0.0,4
163,66,1,3,0.21335914108495652,5
163,78,1,3,0.4449906312448766,5
164,42,1,2,0.0,5
164,78,1,2,0.0,5
164,163,1,2,0.0,5
164,79,1,2,0.0,5
165,12,1,2,0.0,5
165,57,1,2,0.0,5
165,62,1,2,0.0,5
165,125,1,2,0.0,5
166,34,1,2,0.0,5
166,67,1,2,0.0,5
166,82,1,2,0.0,5
166,156,1,2,0.0,5
167,11,1,3,0.2546219746645509,6
167,59,1,2,0.0,5
167,100,1,3,0.30728236223532457,6
167,149,1,2,0.0,5
168,11,1,2,0.0,6
168,100,1,2,0.0,6
168,167,1,2,0.0,6
168,136,1,2,0.0,6
169,30,1,2,0.0,5
169,55,1,2,0.0,5
169,106,1,2,0.0,5
169,112,1,2,0.0,5
170,45,1,1,0.25890980567290744,5
170,32,1,3,0.3302466962941625,5
170,51,1,1,0.2806720797106029,5
170,61,1,3,0.3428392169159218,5
171,45,1,2,0.0,5
171,61,1,2,0.0,5
171,170,1,2,0.0,5
171,91,1,2,0.0,5
172,31,1,3,0.33208885816127337,6
172,55,1,2,0.0,5
172,100,1,3,0.28853315630509324,6
172,106,1,2,0.0,5
173,31,1,2,0.0,6
173,100,1,2,0.0,6
173,172,1,2,0.0,6
173,115,1,2,0.0,6
174,32,1,1,0.2960971820930587,4
174,17,1,2,0.0,3
174,46,1,3,0.6591793475747444,4
174,60,1,3,0.6456359997124322,4
175,32,1,3,0.22890075623511252,5
175,46,1,2,0.0,4
175,174,1,2,0.0,4
175,57,1,3,0.2921182790258238,5
176,32,1,3,0.1992608540209402,6
176,57,1,2,0.0,5
176,175,1,2,0.0,5
176,58,1,3,0.4566945550338338,6
177,25,1,3,0.3733123420061456,6
177,59,1,2,0.0,5
177,77,1,3,0.38523826698103725,6
177,90,1,2,0.0,5
178,25,1,2,0.0,6
178,77,1,2,0.0,6
178,177,1,2,0.0,6
178,94,1,2,0.0,6
179,16,1,2,0.0,4
179,60,1,2,0.0,4
179,61,1,2,0.0,4
179,123,1,2,0.0,4
180,33,1,3,0.32958770107028434,6
180,57,1,2,0.0,5
180,58,1,3,0.45164853238654895,6
180,62,1,2,0.0,5
181,18,1,2,0.0,4
181,48,1,2,0.0,4
181,65,1,2,0.0,4
181,87,1,2,0.0,4
182,32,1,2,0.0,4
182,60,1,2,0.0,4
182,61,1,2,0.0,4
182,174,1,2,0.0,4
183,28,1,2,0.0,5
183,73,1,2,0.0,5
183,111,1,2,0.0,5
183,138,1,2,0.0,5
184,32,1,3,0.22049283814252893,6
184,51,1,2,0.0,5
184,58,1,3,0.4220263870514343,6
184,170,1,2,0.0,5
185,32,1,2,0.0,6
185,58,1,2,0.0,6
185,184,1,2,0.0,6
185,176,1,2,0.0,6
186,7,1,2,0.0,4
186,34,1,2,0.0,4
186,92,1,2,0.0,4
186,117,1,2,0.0,4
187,44,1,2,0.0,5
187,75,1,2,0.0,5
187,108,1,2,0.0,5
187,133,1,2,0.0,5
188,33,1,3,0.36429381353845,6
188,51,1,2,0.0,5
188,58,1,3,0.4047022538245521,6
188,149,1,2,0.0,5
189,33,1,2,0.0,6
189,58,1,2,0.0,6
189,188,1,2,0.0,6
189,180,1,2,0.0,6
190,42,1,3,0.27859416905394513,6
190,66,1,2,0.0,5
190,74,1,3,0.29653064408392776,6
190,163,1,2,0.0,5
191,42,1,2,0.0,6
191,74,1,2,0.0,6
191,190,1,2,0.0,6
191,141,1,2,0.0,6
192,45,1,3,0.28220798899382205,6
192,51,1,2,0.0,5
192,76,1,3,0.341017213574473,6
192,170,1,2,0.0,5
193,45,1,2,0.0,6
193,76,1,2,0.0,6
193,192,1,2,0.0,6
193,134,1,2,0.0,6
194,7,1,2,0.0,4
194,38,1,2,0.0,4
194,117,1,2,0.0,4
194,153,1,2,0.0,4
195,16,1,3,0.29434399760190494,4
195,52,1,2,0.0,3
195,53,1,3,0.2609338997802869,4
195,122,1,2,0.0,3
196,16,1,2,0.0,4
196,53,1,2,0.0,4
196,195,1,2,0.0,4
196,56,1,2,0.0,4
197,18,1,3,0.28402288754523514,3
197,23,1,2,0.0,2
197,63,1,3,0.2928821605548657,3
197,85,1,2,0.0,2
198,18,1,3,0.16687145982167764,4
198,63,1,2,0.0,3
198,197,1,2,0.0,3
198,64,1,3,0.21844057783778664,4
199,64,1,3,0.15948782429590283,5
199,18,1,2,0.0,4
199,198,1,2,0.0,4
199,65,1,3,0.20548379899339236,5
200,64,1,2,0.0,5
200,65,1,2,0.0,5
200,199,1,2,0.0,5
200,127,1,2,0.0,5
