2
51
9.316456666758959e-05
0,-3.0,-3.0,-1.1991725046839998,0,0.06780374432890889,1.2798981683022272,-1.138022827854308
1,-3.0,-1.5,0.2458091532141366,0,0.7614734852094144,2.7703441855692055,-9.943240749954933
2,-3.0,0.0,-1.949963718317797,0,-3.07942213169649,1.8213237137488743,28.95002834441318
3,-3.0,1.5,0.17219604520947923,0,2.978617404978055,-1.8600859422021312,4.406479121157358
4,-3.0,3.0,-0.9284278890547791,0,0.09524557076260982,1.4075100485060432,-2.165347027981288
5,-1.5,-3.0,0.20061222915730642,0,0.8611803832776689,3.1999257075922376,1.2608360509754717
6,-1.5,-1.5,0.6935622697954242,1,-0.7283164584224254,4.16238918928836,13.159762489031435
7,-1.5,0.0,-1.9945774289551443,1,1.709591558301236,-4.9957126351469965,-52.74021379970488
8,-1.5,1.5,0.06793742895595142,1,0.664315251813089,4.356012955111402,-0.9919745740366677
9,-1.5,3.0,0.1345761832310916,0,0.41081073206648266,1.4761690436948924,-8.639006084214708
10,0.0,-3.0,-2.9442869204263706,0,-1.6551688079144542,-1.4684851371935381,5.0600180540912305
11,0.0,-1.5,-3.165219559979058,1,-3.7272075792316,9.146973438798742,-79.23225632875919
12,0.0,0.0,1.4122162825451134,1,0.7750153522122831,-1.7276472213242655,22.59327650510955
13,0.0,1.5,6.9289770691290125,1,-1.9539770432675718,5.515452121763324,81.06860767762291
14,0.0,3.0,2.1830320402108687,0,-0.2526929895960432,-1.3745394848902872,-8.845366218185276
15,1.5,-3.0,-0.06291840899964081,0,0.5037229838400535,2.850727897644501,10.591247143245061
16,1.5,-1.5,-0.8873794584387842,1,3.2838492826583403,2.181909269169785,12.378191274135064
17,1.5,0.0,2.4829958024969523,1,1.4779507278373467,1.02887492276117,52.91443093402391
18,1.5,1.5,1.435265218435495,1,-5.522289008061917,-1.4601973120762677,-15.678137178228212
19,1.5,3.0,-0.8351264974529,0,0.5412806775140165,1.7986704736861725,-5.372547218352912
20,3.0,-3.0,1.1142822574861448,0,0.19753307804488196,1.2810923727523247,0.43282756288312946
21,3.0,-1.5,0.96067803918834,0,1.42122237221775,-1.8184223521079024,-7.964316306192099
22,3.0,0.0,1.904481172295928,0,-5.006346797569466,0.039844579117462926,-27.271006365288823
23,3.0,1.5,-1.8360255094915274,0,1.7903303778645627,5.013048144007563,0.618430379246032
24,3.0,3.0,0.5990958379871818,0,-1.4483644702469323,0.40053901625351473,5.496920335053439
25,0.75,2.25,3.0062131323627623,1,-5.928771413816127,-6.672179907415584,-6.669656041401379
26,-2.25,-2.25,-0.17108415408979805,1,1.8344016709619013,3.046496094935217,-1.5871665291879355
27,-0.75,2.25,3.2903037842149376,1,5.464652752750966,-6.2033475829776386,-6.117480784255098
28,0.0,2.25,4.999108544602763,1,-0.7159338037459773,-8.33955742265924,0.22830154855014254
29,0.75,-2.25,-3.5980829989363685,1,4.555554503567726,-4.521386681061902,-1.1397091457608282
30,-0.75,-2.25,-1.9883499260278377,1,-5.4094673927988755,-3.3184472166864754,9.750511725343873
31,0.0,-2.25,-4.378983481188005,1,-2.3566913785112105,-5.8236043334460135,-8.243245185447645
32,2.25,2.25,-0.4537869724593207,1,0.5381165886974705,2.387020075197916,4.826062320277615
33,-0.75,0.75,0.2884653590136275,1,7.507740547383484,9.103844302259148,-38.11004164931701
34,-0.75,1.5,3.717757742780208,1,8.049469267898715,5.192525503105435,40.37221903454304
35,0.75,3.0,0.8377018975601511,0,-2.174512341385017,-0.6558101175625363,-8.280336093037647
36,0.375,2.625,2.3587259172784187,1,-2.3249457019657207,-4.625166743805097,-9.642023228734896
37,0.75,0.75,2.6925543787876705,1,0.48250674602523774,1.549571019980365,-38.363490948409535
38,0.0,0.75,2.770430747192759,1,1.6869808193950764,7.265013253951727,-34.10210949740288
39,-0.75,3.0,1.3634315204710385,0,2.191533463530403,-0.2048653750338695,-9.380816113465528
40,-0.375,2.625,2.6000894157949586,1,1.8117359132295137,-4.446867954487637,-10.206269195869087
41,0.0,2.625,2.90034754057331,1,-0.3528264590466132,-4.980085019171047,-7.76658622406856
42,2.25,0.75,0.7431449177054273,1,-5.808143033847276,-1.388553127029847,-14.900491688939471
43,0.75,-3.0,-2.2921205726969487,0,1.749075606832032,-0.4986967437810541,5.922731673739699
44,0.375,-2.625,-3.3109509079821167,1,0.7336975425370852,-3.7708165862363043,5.612864123934327
45,-0.75,-3.0,-1.005799606209261,0,-2.567252324532148,1.1401106146592472,7.197172297153674
46,-0.375,-2.625,-2.3911025464577045,1,-3.407599857593086,-2.759886747792038,7.983992592916935
47,0.0,-2.625,-3.29615496170274,1,-1.7455383900261228,-3.871425177402563,3.3216077497568284
48,-0.75,-0.75,1.245547715489711,1,-1.506428197072442,2.9991225672866006,92.17295312473782
49,-2.25,-0.75,-0.4049816069146598,1,-1.686936748440399,-1.6410584959712842,-0.09018902662376817
50,-1.5,-0.75,0.39948138810253153,1,5.213423923051595,-3.987563361681849,-1.7384260312671511
1,0,2,1,0.37928803324198035,1
2,1,2,1,0.6088706913653525,1
3,2,2,2,0.0,0
4,3,2,2,0.0,0
5,0,2,1,0.5683018855573526,1
6,1,1,1,1.3196583742406807,1
6,5,1,1,1.660201168246183,1
7,2,1,3,1.9690594066281546,1
8,7,1,3,2.9855565263547112,1
8,2,1,1,3.067916011559129,0
8,3,1,2,0.0,0
9,8,1,3,2.4911699280204944,1
9,3,1,1,2.605059146815981,0
9,4,2,2,0.0,0
11,6,1,1,1.5503375844772804,1
12,7,1,1,1.969473208260405,1
12,11,1,3,1.4931305980428424,1
16,11,1,3,2.0685223113797466,1
16,15,1,3,1.9280004824361265,1
17,11,1,1,2.0179802363981754,0
17,12,1,3,1.44395485438517,1
17,16,1,2,0.0,0
18,13,1,1,2.752278788234923,1
18,17,1,1,1.2948761734099379,1
19,18,1,1,1.0639959660125122,1
20,15,2,2,0.0,0
21,16,1,2,0.0,0
21,20,2,2,0.0,0
21,15,1,1,1.7904914152321467,0
22,16,1,1,2.1207239007684144,0
22,17,1,3,1.5747466340085827,1
22,21,2,2,0.0,0
23,18,1,1,0.8769610335539169,1
23,22,2,1,0.6946117563288423,1
24,23,2,1,0.576167215276544,1
24,19,2,1,0.7334832721190838,1
25,13,1,3,2.773438973887568,2
25,19,1,3,0.9012375480299905,2
25,18,1,2,0.0,1
26,0,1,2,0.0,1
26,6,1,2,0.0,1
26,5,1,2,0.0,1
26,1,1,2,0.0,1
27,8,1,3,1.7370634593704557,2
27,13,1,1,2.545229097304021,2
27,9,1,3,1.4402467982106666,2
28,13,1,2,0.0,2
28,25,1,3,1.342189399249056,3
28,27,1,3,1.5041467437891638,3
29,16,1,2,0.0,1
29,11,1,3,2.171803891141532,2
29,15,1,3,1.3253922895262644,2
30,5,1,3,1.2205497059615324,2
30,11,1,3,1.677039757579897,2
30,6,1,2,0.0,1
31,11,1,2,0.0,2
31,29,1,3,1.3285016658453164,3
31,30,1,3,1.0976906232736032,3
32,18,1,2,0.0,1
32,24,1,2,0.0,1
32,23,1,2,0.0,1
32,19,1,2,0.0,1
33,13,1,1,1.7825470044443041,2
33,7,1,2,0.0,1
33,8,1,3,1.4106075417976838,2
33,12,1,3,1.9444189418653652,2
34,8,1,2,0.0,2
34,13,1,2,0.0,2
34,33,1,2,0.0,2
34,27,1,2,0.0,2
35,14,2,1,0.37313195647556213,3
35,19,2,2,0.0,2
35,25,1,3,0.4330289985934409,3
36,14,1,3,0.6270760934249686,4
36,25,1,2,0.0,3
36,35,1,2,0.0,3
36,28,1,3,0.6402148902179007,4
37,12,1,3,1.0011108721357105,2
37,18,1,2,0.0,1
37,17,1,2,0.0,1
37,13,1,3,2.271033417499944,2
38,12,1,2,0.0,2
38,13,1,2,0.0,2
38,37,1,2,0.0,2
38,33,1,2,0.0,2
39,14,2,1,0.35892051314137646,3
39,9,2,2,0.0,2
39,27,1,3,0.6028005686697717,3
40,14,1,3,0.6074998171324667,4
40,27,1,2,0.0,3
40,39,1,2,0.0,3
40,28,1,3,0.7247394255837722,4
41,14,1,2,0.0,4
41,28,1,2,0.0,4
41,40,1,2,0.0,4
41,36,1,2,0.0,4
42,17,1,2,0.0,1
42,23,1,2,0.0,1
42,22,1,2,0.0,1
42,18,1,2,0.0,1
43,10,2,1,0.4572144234378368,3
43,15,2,2,0.0,2
43,29,1,3,0.6567605467458538,3
44,10,1,3,0.7351209523862567,4
44,29,1,2,0.0,3
44,43,1,2,0.0,3
44,31,1,3,0.7806616594705272,4
45,10,2,1,0.2885075342630489,3
45,5,2,2,0.0,2
45,30,1,3,0.5026129662099932,3
46,10,1,3,0.45830765828851106,4
46,30,1,2,0.0,3
46,45,1,2,0.0,3
46,31,1,3,0.5902791654132925,4
47,10,1,2,0.0,4
47,31,1,2,0.0,4
47,46,1,2,0.0,4
47,44,1,2,0.0,4
48,6,1,3,1.1974980627991534,2
48,12,1,2,0.0,1
48,11,1,2,0.0,1
48,7,1,3,1.7300457635486588,2
49,7,1,3,1.2038771555880805,2
49,1,1,2,0.0,1
49,6,1,3,1.2538469813553696,2
49,2,1,2,0.0,1
50,6,1,2,0.0,2
50,7,1,2,0.0,2
50,49,1,2,0.0,2
50,48,1,2,0.0,2
