2
208
8.384811000083063e-06
0,-3.0,-3.0,-0.020499672904464465,0,-1.7311105101649966,-1.9687896278174342,-0.1347066636050753
1,-3.0,-1.5,0.14818283834402174,0,-1.6052500040447855,-1.1413577779374917,1.2748735177286297
2,-3.0,0.0,0.16337499184463355,0,-1.8379673044464637,-0.6540675518967665,3.0762029867495952
3,-3.0,1.5,0.2416681105506106,0,-1.577895136929862,-0.06497260643819001,1.456576285182609
4,-3.0,3.0,0.06795872375267051,0,-1.914681434833165,0.49884142959693545,-0.48031497412683216
5,-1.5,-3.0,0.6266435049065044,0,-0.3336243709163692,-1.6750795197021087,2.5812144264518353
6,-1.5,-1.5,0.363610435854141,1,-0.6564572905405864,-0.6277628709463456,-0.08565244149240905
7,-1.5,0.0,-3.068433663247548,1,-3.85766466063324,-1.832234344143695,-28.141422145787224
8,-1.5,1.5,0.4842317440297027,1,0.6198429157029988,1.848496408844632,-2.7105297935462502
9,-1.5,3.0,-0.2343096056105677,0,-1.474081486742254,1.3033734452276056,-3.6208487014861257
10,0.0,-3.0,-0.52980713522085,0,-0.28008719232005025,-3.5150859663405045,8.185575789510239
11,0.0,-1.5,-5.880654796121676,1,-5.146494165459881,3.8392243374931025,-60.93693340435467
12,0.0,0.0,0.6203574868548122,1,-5.721436676989465,-3.870881867138972,-10.231067992255294
13,0.0,1.5,8.149580200262582,1,0.22283742253217664,3.637949484720889,54.50012903178545
14,0.0,3.0,0.6016854742921083,0,0.2951041824577859,0.6976379869236763,-10.828299596296423
15,1.5,-3.0,0.13579860727216728,0,1.0420209773405738,-1.9861182357320404,2.175636591568519
16,1.5,-1.5,-0.392135731165829,1,3.649905626665262,-0.2128404707233638,3.6834891686706865
17,1.5,0.0,3.660649063048927,1,-3.137758443231657,-0.4125849130168776,31.062281222473853
18,1.5,1.5,0.9634620221087278,1,-1.4998961396369197,-0.7582770141879372,-8.651074361956068
19,1.5,3.0,-0.1390701821350108,0,1.582416150278426,1.0816836824155753,-1.9655408430044867
20,3.0,-3.0,0.02550335307956369,0,1.3399927115037364,-1.9969380554194305,-0.4823737036210531
21,3.0,-1.5,-0.20330507220457905,0,1.7036814624022396,-1.6668024396969237,-0.9060988621657745
22,3.0,0.0,-0.05525099217005619,0,1.8148125144683855,-0.5847384881322534,-2.8518535496552775
23,3.0,1.5,-0.04829507808007142,0,1.5101532031161515,0.5223482824869587,0.7129692703824826
24,3.0,3.0,0.2452765093960177,0,1.3342105504463084,0.2781527471339693,1.6349808450542427
25,0.75,2.25,2.080374434074217,1,-2.796846924619518,-4.6249786648356475,-8.224200225278965
26,-2.25,-2.25,-0.05815270171059307,1,-1.6521750587017126,-1.7729072468781528,-1.1058467971166503
27,-0.75,2.25,1.954971090579406,1,2.158110777698004,-4.470923483211195,-5.480065651065658
28,0.0,2.25,3.8333662047205874,1,0.4084566090571883,-8.408658602138514,-3.3102346359036954
29,0.75,-2.25,-2.012891146398466,1,3.8325062666982657,-7.919468951475138,4.766772752340018
30,-0.75,-2.25,-0.9169605325242391,1,-3.7871562259530713,-4.984347761525199,6.389751827619518
31,0.0,-2.25,-3.216365051593654,1,-1.5062899394750586,-10.895911015878982,0.42295718020058287
32,2.25,2.25,-0.07786884050348991,1,1.7278466505024788,0.6717888471901402,0.5658493414814424
33,-0.75,0.75,-0.1287747565450939,1,4.143379884328709,5.473650519549114,-23.430598267434352
34,-0.75,1.5,4.4504044458089975,1,6.994904120346366,3.217349585536996,22.10076378573624
35,0.75,3.0,-0.06997944457613137,0,0.30204873878941146,1.3909126341666924,-9.29305356770537
36,0.375,2.625,1.0914707390608704,1,-0.4557836695960144,-2.9501063209835876,-9.820290091292723
37,0.75,0.75,1.6440533154236248,1,5.475369183243615,1.824833527578966,-19.687858335374646
38,0.0,0.75,1.4675493496750636,1,-1.7142742932921067,8.198895904481049,-30.639623365112154
39,-0.75,3.0,-0.1315495290581836,0,-0.4147301485882198,1.3379302067116148,-9.56588266821867
40,-0.375,2.625,1.0715402793262783,1,0.661533123281512,-2.9490515749748174,-12.411802176526031
41,0.0,2.625,1.4466628948359943,1,0.308312313963659,-3.6374841578055843,-10.540553058683468
42,2.25,0.75,0.2940819905937166,1,0.4011539558944221,-0.5724512683115607,-1.5097885427469255
43,0.75,-3.0,-0.018954354235946165,0,1.0075870420519117,-2.733694348940552,8.317749484295957
44,0.375,-2.625,-1.1104450417501268,1,1.080292833125903,-6.767749064851941,9.661965720279097
45,-0.75,-3.0,0.05390910351741918,0,-1.5111973522313435,-2.207222723140747,6.022905775796455
46,-0.375,-2.625,-0.7430942596244056,1,-1.691153629898586,-5.562349037005413,7.516496236471428
47,0.0,-2.625,-1.209081952101893,1,-0.5322635607729581,-6.927855602560137,7.781920600645234
48,-0.75,-0.75,3.285850757952811,1,3.954245899075822,-2.1559339393304433,43.60693003472298
49,-2.25,-0.75,-0.29851679899513645,1,-3.230680193898706,-1.8289017430401366,2.6841538968558516
50,-1.5,-0.75,-0.25797651138434574,1,0.6043150845368969,-5.504442971729946,-3.535734599081885
51,-2.25,0.75,-0.3545984571246734,1,-3.7191999321888733,0.25182687898567896,3.5454466931446316
52,-1.5,0.75,-1.9358593691474435,1,-3.7175038411681287,3.694615696893909,-7.105190733695815
53,0.75,1.5,4.625067188442936,1,-5.788814554517117,1.5510828402259147,18.97351641596419
54,0.375,1.875,6.097664671639167,1,-3.7792165999697502,-6.55381048257785,28.100324208928733
55,-2.25,2.25,-0.0038345080987313377,1,-1.8542993545896886,0.4100564916815994,-0.06605997786474103
56,-0.375,1.875,6.08800370582358,1,4.308382774612467,-6.4681658344885475,21.729031866108727
57,0.75,-0.75,0.36966088204776176,1,7.034028910708081,5.106445974701814,10.589236093668527
58,0.75,-1.5,-4.411095900998786,1,9.033607167306181,0.2958035825601548,-32.55224494106219
59,0.375,-1.875,-5.721474698837067,1,3.4658728629703917,-9.242757331784977,-32.96192805011835
60,2.25,-0.75,0.32523183000134204,1,0.04941629583380701,-1.007727579598308,-2.558580039924391
61,0.0,1.875,6.981411224385108,1,0.4332988526470233,-7.0291678237013935,32.67438465665811
62,-0.75,0.0,-0.01881398586416463,1,8.227815448017711,-5.53441865825137,-4.260994059342808
63,-1.125,0.375,-2.9005574729452888,1,1.8122294343803613,1.0376011032105479,-35.7350370605018
64,-0.375,0.375,0.7979780174955082,1,1.047886232536687,-2.5837526058200355,19.22649098350827
65,2.25,-2.25,-0.006226187334880999,1,1.274273149672392,-1.9312184935880845,-0.4152734084057052
66,1.5,-2.25,-0.2106281867192365,1,2.3379669872722997,-2.782394242210597,2.3637705806964586
67,-1.5,2.25,0.298785887219629,1,-0.23357235169491794,-0.2677034484520687,-2.2152199505032013
68,0.375,1.125,4.194595593095008,1,-2.2100157021661997,11.76434761811524,4.269105619083886
69,-0.375,1.125,4.561010194676705,1,3.8731025801018855,11.142863066745047,16.88600322578622
70,-0.75,-1.5,-0.5986538800516333,1,-6.658345982779806,4.07429785754327,-7.407575264874575
71,-0.375,-1.875,-3.8637179042049516,1,-6.95362274743052,-6.030283324467075,-25.111167196350717
72,-1.5,-2.25,0.06830235120502118,1,-1.3455899741119717,-2.1782687292475305,-1.70028342087977
73,-2.25,0.0,-0.7060560326301429,1,-4.5847931017036325,-0.649972117234149,3.7874627584627354
74,-0.375,1.5,7.159934028721068,1,5.317091778911431,3.1221704894649513,45.705288564346354
75,0.0,-0.75,1.5317758685801603,1,-7.9116008744238036,4.964731168009743,28.302256861935625
76,-0.375,-1.125,0.38158430876429017,1,-7.67923731049012,10.78987019082661,16.560666969726114
77,0.375,1.5,7.158696597819942,1,-4.4503461974546745,3.320850311151971,45.01155540008258
78,0.0,1.125,5.163352127968305,1,-0.46959062237697013,12.1563410749558,21.079141718617606
79,2.25,0.0,0.6371257094108673,1,-1.3192318189204273,-0.6081339196098162,-11.031527130799201
80,-2.25,1.5,-0.06502641426779121,1,-2.2756556998697883,0.4351161807757058,-0.06402301435911628
81,-1.125,1.125,0.34957785717057077,1,2.737154803254697,6.459528092885292,-6.987770288255624
82,-0.75,1.125,2.459320253940526,1,5.4082256145434755,8.18082580089878,2.345374110386598
83,-1.875,1.875,0.1511243265851076,1,-1.0857857086073985,0.6219061856980115,-1.8943460326896688
84,-1.125,1.875,1.8987734861785501,1,3.2888248297137217,-0.9427870278712386,-2.391813330681126
85,-0.75,1.875,3.9578277733525793,1,5.276043208697776,-3.305846441861415,10.370722011390697
86,-2.25,-1.5,0.043673404509805315,1,-1.7168101169297756,-1.356924853956735,-1.8078513562070713
87,0.375,-1.125,-3.696510094296034,1,0.5280383444009407,8.945170541861849,-28.448718257553885
88,1.5,0.75,2.1154888207504534,1,-1.3676906887119455,-3.143408026974554,0.9053364318396686
89,-1.875,-1.125,0.023666374270488892,1,-1.390460928621264,-2.2969480131847457,1.8140167730702328
90,1.125,1.125,2.4312464282429427,1,-1.2621067746507093,1.750986875909151,-3.532681837066186
91,-1.125,-0.375,-0.7071595524196445,1,5.843568751153323,-8.024392769036183,-27.157001598119777
92,0.75,0.0,1.4613428306643237,1,9.97202743161557,-1.2810156863956657,0.3510937622956284
93,1.125,0.375,2.9062902375837036,1,4.1941580655218,-2.6334002265407084,47.17687393319679
94,3.0,0.75,0.021127325922681378,0,1.3582859634237536,0.09488322523397671,-0.8156288643428744
95,2.625,0.375,0.06942836959372695,1,0.9977496343216462,-0.1452387354634907,-1.4964516569133037
96,-2.25,-3.0,0.05672117222167572,0,-1.3349354159638218,-2.1732520230084456,-0.6942087789430221
97,-1.875,-2.625,0.18252355526551625,1,-1.0828003742474768,-2.096537375506098,-1.1416586613638182
98,-0.375,-0.375,3.496167640570541,1,-1.3758627842589657,-4.741080913838856,42.08281468053053
99,-0.75,-0.375,2.01810637308286,1,6.849572913102594,-6.733719863570426,14.429054419270281
100,-1.875,0.375,-1.7193838181328711,1,-5.82849638548209,0.9683854242799704,2.987664361299965
101,3.0,-0.75,-0.10897414957176113,0,1.6039041894934885,-1.2654222637662005,-1.5077116361697842
102,2.625,-0.375,0.0150314252830469,1,0.982366923491131,-1.0877845760719502,-1.6058216418030071
103,2.625,0.0,0.08599302420878538,1,0.8745391127509319,-0.6030561177915743,-4.1525704499524
104,0.375,0.375,-0.140732031448455,1,2.488729886546321,-0.741758284257556,-53.416673126094544
105,0.0,0.375,0.19208978015988953,1,-3.829701028905702,-0.8902466780988216,-9.770862194705613
106,1.5,-0.75,2.025520155963172,1,-0.5173875575394709,3.0669112401512257,12.053929972794544
107,1.125,-1.125,-0.49297443563683535,1,6.1670812165347,4.573482211625008,8.506201115132468
108,0.375,-1.5,-6.3934734962100155,1,3.173267439545131,1.407304814609597,-58.126008743765446
109,0.0,-1.875,-5.6479340814181365,1,-3.046978621964894,-8.439032630342963,-41.8910780528666
110,-0.375,-0.75,3.5963497961540862,1,-4.0399683686892915,3.1254277017233405,54.55237919246411
111,1.125,-0.375,3.0626030245792655,1,4.103588150345282,1.7300737439878418,43.86259572187637
112,0.375,0.75,1.0952048888035872,1,0.8725927321765881,6.905722676711595,-43.2171908332038
113,-1.125,-1.125,1.4254839735351266,1,1.358984087182057,0.26901895216090965,21.604116989973036
114,-0.75,0.375,-0.8595857337636564,1,5.808358629771892,-1.4478296318066803,-13.738675859231105
115,0.375,-0.375,0.48183453961308736,1,-0.06600953852886621,-0.39354167974444415,-41.685447363502654
116,0.0,-0.375,1.8953521055406708,1,-7.091734548902205,-2.9613117855672497,14.23529310037188
117,1.125,-1.875,-1.9388743657752143,1,6.469186973164215,-4.457265848486504,4.379974056683311
118,0.75,-1.875,-3.906167871093326,1,7.121546681563985,-6.866848183958205,-17.19563827774367
119,0.375,-0.75,-0.4732668431093017,1,-0.7853371180590448,4.141209099546641,-7.681957048022297
120,1.125,-1.5,-1.875937473010818,1,7.462311936846742,0.1787394643203602,-6.766232796690551
121,0.0,-1.125,-2.2377302496476323,1,-7.319713176235447,11.670740549314932,-11.252589308447726
122,-1.125,1.5,1.8867375873093897,1,4.222567997026504,2.4909331872225393,3.174931813640589
123,-0.375,-1.5,-3.167980281676402,1,-9.181654871504719,5.147799309226688,-35.73934644648279
124,-0.1875,1.6875,7.706249533621294,1,2.952016805841605,-2.6241739457938884,44.79475753901953
125,0.1875,1.6875,7.704140994112814,1,-2.1957562213772475,-2.4437074302609543,44.52358408671841
126,-1.875,-0.375,-1.3313616866932256,1,-4.462172964570434,-3.146614814846877,-8.147347816886148
127,1.5,2.25,0.28039067772259757,1,0.20762077609166124,-0.1798638616736868,-3.1565560992208535
128,1.125,1.875,2.127773538701156,1,-3.51995086763465,-2.225989490285517,-7.451873545583494
129,0.75,1.875,4.075819724882257,1,-5.3851764776022755,-3.715969375662082,7.693878562062238
130,2.25,-1.5,0.08070126430129804,1,1.088302312436777,-1.33920393020828,-0.2249891977119659
131,-1.5,-0.375,-1.70671022894187,1,-1.1899443052257612,-5.421991987840374,-27.472189303892154
132,-0.375,0.75,1.347130598235496,1,1.6968120295282474,5.296014930421542,-18.382268504399562
133,-0.75,-1.125,1.8331556432936136,1,-2.31865482605081,5.341218339979967,27.44771757358673
134,-1.125,-0.75,1.1186518533229037,1,4.271898064207369,-5.143976361251347,10.617776142421217
135,-1.875,1.125,-0.406276026375882,1,-2.513674536728513,1.785237658865871,0.1495795636483206
136,-1.5,1.125,-0.43667579858689454,1,-0.9415873476067345,3.5843026187520994,-4.166113693722241
137,-0.1875,1.3125,6.734656898579464,1,2.4655016340236453,8.424240370222789,41.883298908819896
138,-0.5625,1.6875,5.746931311222677,1,6.104545169949391,-1.4083759094989434,28.896881436001376
139,-0.1875,-1.6875,-5.066492962105987,1,-6.891289966320381,-1.8076520551351076,-48.31716821054775
140,-1.125,-1.875,-0.3170348803686948,1,-3.2787352155237355,-1.7397546351672162,3.8325672985933115
141,-0.75,-1.875,-1.6062221481244883,1,-6.4689298495106735,-2.4388823266848068,-5.606348876378705
142,-1.125,-1.5,0.3899390983875101,1,-2.5374486886462106,1.049310753753271,3.755098881891046
143,1.875,-1.125,0.44827867334674715,1,0.8059715788964328,0.520846570810234,-2.681650367720027
144,0.1875,-1.6875,-6.454095994720087,1,-0.2051444546126729,-3.799595453211548,-57.477528169570135
145,-0.1875,-0.5625,3.0732775643206205,1,-5.950067330173053,-0.31769171169165206,40.52591578102291
146,0.1875,-1.3125,-4.998053305338214,1,-2.41599420644539,7.705635601165471,-47.871319890126074
147,0.1875,1.3125,6.590464456985627,1,-2.184293075273867,8.832102528668338,40.379202215939
148,0.75,1.125,3.4218881839527957,1,-1.3804831952041827,5.57955386620377,-2.2394918551068144
149,0.1875,1.5,7.696726426082609,1,-2.300148480888761,3.401554690300988,48.02067445560588
150,-1.5,0.375,-2.792899914369254,1,-4.130119017045409,1.596915890901654,-19.738752935887803
151,1.875,-1.875,-0.11766646000136187,1,2.0166628538785125,-1.7069795639762058,2.3786476960181675
152,-0.5625,-0.5625,3.5937956139463902,1,1.9501095619794357,-3.277068005744507,43.634145270054844
153,0.75,-1.125,-2.4310705036438702,1,7.192676896907597,6.29936251798983,-15.173099325557411
154,0.5625,-1.6875,-5.4882615192190505,1,6.344511874957018,-4.234760019595946,-40.64701502328037
155,0.5625,-0.9375,-1.5655932518353985,1,3.7668295294711527,7.090985554253118,-9.951257833924828
156,0.5625,1.6875,5.814248917056024,1,-5.643066124122046,-1.7590292487203878,29.181747472053328
157,0.5625,-1.3125,-4.593522205653961,1,5.5889190672696465,4.972167178344676,-38.99408186751721
158,-0.5625,1.3125,4.953964703632846,1,6.078494461231318,7.111609837894771,25.758049059819033
159,1.875,-0.375,1.7515563339384972,1,-2.885920401022047,0.7248901809447047,-13.62642361247859
160,1.5,-0.375,2.9990413805160014,1,-2.4059014170605635,1.8713335395692026,13.174920540085612
161,2.25,1.5,0.06375477150560126,1,1.120067144490191,0.09557957955867295,-3.126591217324798
162,-1.125,0.75,-1.56383206471135,1,0.9151090956954563,4.831909257519325,-25.863188746886703
163,-0.9375,0.5625,-1.59670010990094,1,3.5514716310554024,2.476644154390137,-27.14785651192596
164,-1.125,0.0,-2.304834660623349,1,3.766149572118188,-3.919557771616589,-40.1720187721208
165,-1.3125,0.1875,-3.0628859604615832,1,-1.0402711795285786,-0.578699234763295,-33.07661954156338
166,-0.1875,0.5625,0.8623610796558132,1,-1.3444240781414445,1.5915166274597712,-11.726886873566954
167,0.5625,1.3125,5.093179925205279,1,-4.032438701373578,6.523890060563391,23.271197860334297
168,0.5625,1.5,5.86993517853451,1,-5.385510753493702,2.5015508284883334,31.063339516069888
169,-0.5625,1.5,5.78395205660115,1,6.4925795822754075,3.0597327567272936,31.620474196443368
170,1.875,0.375,1.6973743456854449,1,-2.8076327951832405,-2.140729399888037,-13.10692958959401
171,1.5,0.375,2.945897642592146,1,-2.6635998254884727,-3.0249351663123627,14.643906909270502
172,0.1875,-0.9375,-1.2073949370743184,1,-4.925729104030331,8.552213686019638,-0.6271488370121184
173,0.375,-0.9375,-1.749647773574245,1,-0.49973879013108174,7.506875364319242,-10.022533374765846
174,-0.375,0.0,1.731530733654272,1,0.5864462785692579,-5.168626159616336,32.242321347301285
175,-0.5625,-0.1875,2.08941066865375,1,4.574447271168655,-5.9902511146292845,22.66817115386038
176,-0.1875,-1.3125,-2.941748234876408,1,-8.313273267866325,9.420259702188918,-27.42432573467033
177,-0.1875,-1.5,-4.455901736818453,1,-7.776890364004575,4.476358487128984,-46.36270654330704
178,-1.125,2.625,0.1803096420509547,1,-0.27887704193481566,-0.6959385001852588,-6.3185965957460715
179,0.1875,0.5625,0.29967581271948546,1,-1.4241534633606079,3.2014459222478817,-40.3157080159274
180,1.5,-1.125,0.5090174399549824,1,2.1767723573000906,2.2486761630946464,2.602630668013632
181,0.75,-0.375,1.467163127437911,1,8.1038177413972,0.7128070138736156,-3.0649876404080394
182,0.5625,-0.5625,0.4674063237856211,1,4.235424386969515,1.3987697169487763,-14.375560433260091
183,-0.9375,1.6875,3.1764474394696247,1,5.440715778229959,0.09465003015254439,7.442992323175661
184,0.1875,-0.5625,0.8894913547984067,1,-5.610667627827457,0.5011781976300869,0.35702245947382516
185,0.1875,-0.75,0.24640375822842792,1,-5.370587023428252,4.555210714309121,6.325778706233152
186,0.375,-0.5625,0.3051794760839776,1,-0.7868440820604305,0.8805992974158845,-16.05394223901163
187,-0.1875,-0.9375,1.1442127738590346,1,-7.582370223220639,8.849357377361176,30.58024623431789
188,-0.5625,0.5625,0.28754088108645054,1,3.9344883845380654,0.9119518934288414,-12.156529025655406
189,1.5,-1.875,-0.5591805234299044,1,3.5558891614742865,-2.248628825474973,3.1021036395041603
190,1.125,-2.625,-0.24729855736761513,1,1.7879854725791693,-3.9605077803029576,5.842101546439973
191,0.375,-2.25,-3.04458946979873,1,1.944846420143634,-10.42650291485272,3.78313283436366
192,0.1875,-2.0625,-4.573360045875682,1,0.40638339380775745,-10.986349350051619,-15.619498071789206
193,-0.1875,1.5,7.736637202419092,1,2.876781292630951,3.1855381407505527,49.176983527887266
194,0.5625,-2.0625,-3.746035770160919,1,4.352910709255804,-9.531198594182849,-9.708172137623205
195,1.125,2.625,0.22341064928535337,1,0.21115833672121395,-0.5792439926758306,-7.461886984309734
196,-0.5625,-0.9375,2.7666065831676616,1,-2.5199911741342156,5.121253771485403,45.08821251983743
197,-0.5625,0.9375,2.0947750181822973,1,4.252875815632578,8.343175455831018,-9.360744091481267
198,-0.5625,0.75,0.8690855289253145,1,3.5857691810543186,5.0498823394041,-17.690955538563312
199,-2.25,3.0,-0.03617829951329137,0,-1.8736237113121028,0.8151767008100306,-0.7695855962576252
200,-1.875,2.625,-0.0719708652049593,1,-1.5151574472680827,0.49931472327379767,-1.4837172574737052
201,-1.875,0.0,-1.7838611787803778,1,-5.726647017853617,-0.9255994501699196,-2.807377047469566
202,-0.9375,-0.9375,2.2267358753786533,1,2.423380094789789,-0.3415921331479716,27.275607576266736
203,0.0,1.6875,7.929255988706646,1,0.3488621297186845,-2.4558021846202007,46.22859495623475
204,-0.5625,-1.6875,-2.4917666680112696,1,-8.063085073768622,-0.005976584199042481,-21.4240385237983
205,-1.6875,-0.1875,-2.096913600688618,1,-4.506902339966445,-2.7586298691326934,-15.51025407940417
206,-0.375,2.25,3.281925035817787,1,1.8464268296101187,-6.819264068626153,-9.673067864747253
207,-0.1875,2.0625,5.203036306101899,1,2.019581673034714,-8.234231566979556,7.878729426241295
1,0,2,1,0.19096674260452393,1
2,1,2,1,0.30986939236026273,1
3,2,2,1,0.40405727117514,1
4,3,2,1,0.18432603286538832,1
20,15,2,1,0.15061811845374762,1
21,20,2,1,0.14409771781404107,1
24,23,2,1,0.28023202424050386,1
24,19,2,1,0.2418167047454251,1
26,0,1,3,0.31368348738390006,2
26,6,1,1,0.3878964857941201,2
26,1,1,3,0.3450615622201508,2
28,25,1,1,1.1084537463813886,3
30,5,1,1,0.9833305452880227,2
31,30,1,1,1.019454798998736,3
32,18,1,1,1.0745440794031538,2
32,24,1,2,0.0,1
32,23,1,3,0.37240764460746323,2
32,19,1,3,0.8526953317474557,2
35,14,2,1,0.4756707883058038,3
35,19,2,1,0.20505595678281416,3
35,25,1,1,0.8287573438370853,3
36,14,1,3,0.7940188856336458,4
36,25,1,2,0.0,3
36,35,1,2,0.0,3
36,28,1,3,1.039686950673652,4
39,14,2,1,0.5569555104760913,3
39,9,2,1,0.18692511216479651,3
39,27,1,1,0.8637872610566841,3
40,14,1,3,0.9007994242488963,4
40,27,1,3,0.8400204857280777,4
40,39,1,2,0.0,3
40,28,1,1,0.7860234435307669,4
41,14,1,2,0.0,4
41,28,1,2,0.0,4
41,40,1,2,0.0,4
41,36,1,2,0.0,4
42,23,1,1,0.6417368654223001,2
42,18,1,1,1.0469709880156848,2
43,10,2,1,0.46318742812365876,3
43,15,2,1,0.19242312376797227,3
43,29,1,1,0.8150991138647063,3
44,10,1,3,0.7857074433137712,4
44,29,1,3,0.8437520607261515,4
44,43,1,2,0.0,3
44,31,1,1,0.6509816105071244,4
45,10,2,1,0.39126215822636884,3
45,5,2,2,0.0,2
45,30,1,3,0.7676649016810708,3
46,10,1,3,0.622008570521298,4
46,30,1,2,0.0,3
46,45,1,2,0.0,3
46,31,1,3,0.7146769390646512,4
47,10,1,2,0.0,4
47,31,1,2,0.0,4
47,46,1,2,0.0,4
47,44,1,2,0.0,4
49,1,1,3,0.49099077404539887,2
49,2,1,3,0.6798641344136342,2
50,6,1,1,0.9207719154648691,3
50,49,1,1,0.713381028953313,3
51,2,1,3,0.8918080598073974,2
51,3,1,3,0.6761578293796474,2
52,51,1,1,0.6624626969440165,3
53,18,1,1,1.2784063540112096,3
54,25,1,3,0.9126478320569174,4
54,28,1,3,1.1171869156405252,4
55,3,1,3,0.433651164533852,2
55,4,1,3,0.24959555738291728,2
56,27,1,1,0.6735469486797079,4
60,21,1,1,0.4731813285275577,2
61,28,1,3,0.8181425522626056,5
61,54,1,3,0.9712512795926904,5
61,56,1,1,0.7420280393595771,5
63,62,1,1,1.1860025195197774,4
63,52,1,1,1.0461760576402588,4
64,12,1,1,1.0658860442839813,4
64,62,1,1,1.2302060288616017,4
65,15,1,3,0.8233868765359559,2
65,21,1,3,0.3388936279223903,2
65,20,1,2,0.0,1
66,15,1,3,0.5956047223715545,3
66,65,1,3,0.6742508004537815,3
66,29,1,1,0.91231038877265,3
67,8,1,1,1.0159120680727622,3
67,9,1,1,0.373069311029801,3
67,27,1,1,0.9497827784869262,3
67,55,1,1,0.403354656516679,3
68,37,1,1,0.9296885613243022,4
68,38,1,1,0.8431516519507194,4
69,38,1,1,1.0424848535495927,4
71,30,1,3,1.1702830240010709,4
71,31,1,3,1.1352941173495283,4
72,5,1,3,0.7883382899455321,3
72,6,1,3,0.7150155207583806,3
72,26,1,3,0.32323181980898136,3
72,30,1,3,0.95273987181776,3
73,2,1,2,0.0,2
73,49,1,3,0.551206755622502,3
73,51,1,3,0.6423506490667485,3
74,56,1,1,1.192651111692609,5
74,69,1,1,0.9481248612980622,5
76,70,1,1,1.0331512376719907,4
77,54,1,1,1.25645924630289,5
77,68,1,1,0.8852130600781944,5
78,13,1,1,1.0833462816264152,5
78,38,1,2,0.0,4
78,68,1,3,0.45343667268243937,5
78,69,1,3,0.840413431179243,5
79,17,1,1,1.038392187572415,3
79,42,1,1,0.68000538592004,3
79,60,1,1,0.6508982405297311,3
80,3,1,2,0.0,2
80,8,1,1,0.6953671770234,3
80,51,1,3,0.5548108865342503,3
80,55,1,3,0.29402551109308395,3
81,33,1,1,0.5686038267631702,4
81,8,1,1,0.8010386800057228,4
81,34,1,1,1.10233402205457,4
81,52,1,1,0.8391646208345791,4
82,33,1,3,0.4904660151354312,5
82,34,1,3,0.8498433367094693,5
82,81,1,2,0.0,4
82,69,1,1,0.3438540595194826,5
83,8,1,2,0.0,3
83,55,1,2,0.0,3
83,67,1,2,0.0,3
83,80,1,2,0.0,3
84,8,1,3,0.996549463997446,4
84,27,1,3,0.828003609585703,4
84,67,1,2,0.0,3
85,27,1,2,0.0,4
85,34,1,1,0.8356997991957438,5
85,56,1,3,0.6106104079531557,5
85,84,1,3,0.5190931077301099,5
86,1,1,2,0.0,2
86,6,1,3,0.31130938436149924,3
86,26,1,2,0.0,2
86,49,1,3,0.2570269085378438,3
88,18,1,3,0.7979995963221121,3
88,37,1,1,1.1259662770000216,3
88,42,1,3,0.9565220878235344,3
89,6,1,2,0.0,3
89,49,1,2,0.0,3
89,50,1,2,0.0,3
89,86,1,2,0.0,3
90,18,1,2,0.0,3
90,37,1,3,1.1180282953026184,4
90,53,1,3,0.9173278488376078,4
90,88,1,2,0.0,3
91,7,1,1,1.2754153329971767,4
91,48,1,1,1.0301477251608042,4
91,50,1,1,0.9779377177439161,4
91,62,1,1,0.5709681416545116,4
92,17,1,1,1.3159821806860583,3
92,12,1,1,1.4951214424124801,3
92,37,1,1,1.0082235453874726,3
93,17,1,3,1.0858547126210283,4
93,37,1,2,0.0,3
93,92,1,2,0.0,3
93,88,1,3,0.8370624840151819,4
94,22,2,1,0.13880954221853029,3
94,23,2,2,0.0,2
94,42,1,3,0.5117812159305954,3
95,22,1,3,0.2221948340473355,4
95,42,1,2,0.0,3
95,94,1,2,0.0,3
95,79,1,3,0.5279998380034987,4
96,5,2,1,0.13972709984391693,3
96,0,2,2,0.0,2
96,26,1,3,0.16196382320180477,3
97,5,1,2,0.0,3
97,26,1,2,0.0,3
97,96,1,2,0.0,3
97,72,1,2,0.0,3
98,12,1,1,1.0845002126745578,4
99,48,1,3,0.8431973618253482,5
99,62,1,3,0.38137157056597315,5
99,98,1,1,0.9135611092586574,5
99,91,1,2,0.0,4
100,7,1,1,0.7144062277694196,4
100,51,1,2,0.0,3
100,52,1,3,0.5238505924705107,4
100,73,1,3,0.38578592734679296,4
101,22,2,1,0.14969572386781257,3
101,21,2,2,0.0,2
101,60,1,3,0.44622160083713447,3
102,22,1,3,0.23634380853742734,4
102,60,1,2,0.0,3
102,101,1,2,0.0,3
102,79,1,3,0.5138560095830221,4
103,22,1,2,0.0,4
103,79,1,2,0.0,4
103,102,1,2,0.0,4
103,95,1,2,0.0,4
104,12,1,3,1.2639609380983425,4
104,37,1,3,1.2626575173357903,4
104,92,1,2,0.0,3
105,12,1,2,0.0,4
105,38,1,1,0.8037668610170025,5
105,104,1,3,0.8509834033561039,5
105,64,1,3,0.7597387446488217,5
106,57,1,1,1.1956178788708907,3
106,60,1,1,0.7619708277389128,3
107,16,1,1,0.7345832977456701,4
107,57,1,3,0.7537704128520322,4
107,106,1,3,0.8319157675679667,4
107,58,1,1,1.0436724947714193,4
108,11,1,1,1.237397367914488,5
108,58,1,1,0.9640967637392105,5
108,59,1,1,1.1544187740509795,5
108,87,1,1,0.9412123015990816,5
109,11,1,1,1.3144458629902767,5
109,31,1,3,0.8075254389475421,5
109,59,1,1,0.7735150877313263,5
109,71,1,3,0.994801624194818,5
110,48,1,1,1.025444926747776,5
110,75,1,1,1.1327009952159597,5
110,76,1,1,0.7919371200609558,5
110,98,1,1,1.0282071428976307,5
111,17,1,3,1.152147686021208,4
111,57,1,3,1.3163038444291453,4
111,92,1,3,0.9656998669643011,4
111,106,1,3,1.2132781082515218,4
112,37,1,2,0.0,4
112,38,1,3,0.8763179905153431,5
112,68,1,2,0.0,4
112,104,1,3,0.9835810213955254,5
113,6,1,3,0.8342223777177035,4
113,50,1,3,0.9584865474093005,4
113,70,1,1,0.9547321676804028,4
114,33,1,1,0.6786079889420837,5
114,62,1,2,0.0,4
114,63,1,3,0.9347338459521208,5
114,64,1,3,0.8996987327983437,5
115,12,1,3,1.3985082410868939,4
115,92,1,3,1.3349724300759684,4
116,12,1,2,0.0,4
116,75,1,1,1.0410211230779796,5
116,115,1,3,0.7585374074628071,5
116,98,1,3,0.7531248455952422,5
117,29,1,3,0.8385513518916783,4
117,16,1,1,0.6882375110852421,4
117,58,1,1,1.2477837854401526,4
117,66,1,3,0.7279431385639059,4
118,29,1,3,0.4980250535470384,5
118,58,1,3,1.071660801971551,5
118,117,1,2,0.0,4
118,59,1,1,0.5786715426709022,5
119,57,1,1,0.7670002980516437,5
120,16,1,2,0.0,4
120,58,1,2,0.0,4
120,107,1,2,0.0,4
120,117,1,2,0.0,4
121,11,1,1,0.848428250296609,5
121,75,1,1,0.749187983307201,5
121,76,1,1,0.3094873182567322,5
121,87,1,1,0.8627835559252419,5
122,8,1,2,0.0,4
122,34,1,3,0.8845295819720803,5
122,81,1,2,0.0,4
122,84,1,3,0.6572338327892768,5
123,70,1,3,0.9612358003603834,5
123,71,1,1,1.103430270521483,5
123,76,1,3,0.9122569717041158,5
124,13,1,1,0.7844726641689475,6
124,56,1,2,0.0,5
124,61,1,3,0.7059957066465423,6
124,74,1,3,1.002253573021545,6
125,13,1,1,0.7977619415653721,6
125,54,1,2,0.0,5
125,61,1,3,0.6983641104638953,6
125,77,1,3,1.0697079284931432,6
126,49,1,2,0.0,3
126,50,1,3,0.6521640516995961,4
126,73,1,3,0.4644886124250322,4
127,18,1,3,1.0520933983115606,3
127,19,1,3,0.5905742743104322,3
127,25,1,1,0.8739382924809915,3
127,32,1,2,0.0,2
128,25,1,3,0.7337315154140398,4
128,18,1,2,0.0,3
128,127,1,2,0.0,3
128,53,1,3,1.1552449435318837,4
129,25,1,2,0.0,4
129,53,1,3,0.9083401491990539,5
129,128,1,2,0.0,4
129,54,1,3,0.5680993279708109,5
130,16,1,1,0.7804034948398679,3
130,21,1,2,0.0,2
130,60,1,3,0.5539911354789966,3
130,65,1,3,0.3244222808304216,3
131,7,1,3,0.9334221284844646,5
131,50,1,2,0.0,4
131,91,1,2,0.0,4
131,126,1,3,0.5111744680694301,5
132,38,1,3,0.9534414086141911,5
132,64,1,1,0.7945818691881629,5
132,69,1,3,0.8922746985251514,5
133,48,1,1,0.8089818391264225,5
133,70,1,2,0.0,4
133,76,1,3,0.9339154054450863,5
133,113,1,3,0.8016321414210119,5
134,48,1,3,0.9047826361681564,5
134,50,1,2,0.0,4
134,91,1,2,0.0,4
134,113,1,3,0.7959410199291594,5
135,8,1,3,0.579427859773292,4
135,51,1,2,0.0,3
135,52,1,3,0.5460854674500213,4
135,80,1,2,0.0,3
136,8,1,2,0.0,4
136,52,1,2,0.0,4
136,135,1,2,0.0,4
136,81,1,2,0.0,4
137,13,1,3,0.8982771485245835,6
137,69,1,2,0.0,5
137,74,1,3,0.826207144195263,6
137,78,1,2,0.0,5
138,34,1,3,0.6916619291841132,6
138,56,1,2,0.0,5
138,74,1,3,0.8918571181264141,6
138,85,1,2,0.0,5
139,11,1,3,1.0244655453069664,6
139,71,1,2,0.0,5
139,109,1,2,0.0,5
139,123,1,3,0.8886132884803448,6
140,30,1,3,0.7769319583038523,4
140,6,1,3,0.6262190698657978,4
140,70,1,1,0.8664177037452789,4
140,72,1,2,0.0,3
141,30,1,2,0.0,4
141,70,1,3,0.7979138013539777,5
141,140,1,2,0.0,4
141,71,1,3,0.7509515370474846,5
142,6,1,2,0.0,4
142,70,1,2,0.0,4
142,113,1,2,0.0,4
142,140,1,2,0.0,4
143,16,1,3,0.6507377445605849,4
143,60,1,2,0.0,3
143,106,1,3,0.6100782683352586,4
143,130,1,2,0.0,3
144,11,1,2,0.0,5
144,59,1,2,0.0,5
144,108,1,2,0.0,5
144,109,1,2,0.0,5
145,75,1,2,0.0,5
145,98,1,2,0.0,5
145,110,1,2,0.0,5
145,116,1,2,0.0,5
146,11,1,2,0.0,5
146,87,1,2,0.0,5
146,108,1,2,0.0,5
146,121,1,2,0.0,5
147,13,1,3,0.8995235324686459,6
147,68,1,2,0.0,5
147,77,1,3,0.807786698898942,6
147,78,1,2,0.0,5
148,37,1,2,0.0,4
148,53,1,3,0.6578570225006953,5
148,68,1,3,0.8006793763858979,5
148,90,1,2,0.0,4
149,13,1,2,0.0,6
149,77,1,2,0.0,6
149,125,1,2,0.0,6
149,147,1,2,0.0,6
150,7,1,3,0.629318004049896,5
150,52,1,2,0.0,4
150,63,1,3,0.8188913263146276,5
150,100,1,2,0.0,4
151,16,1,3,0.6590088670412417,4
151,65,1,2,0.0,3
151,66,1,3,0.4796256208143272,4
151,130,1,2,0.0,3
152,48,1,2,0.0,5
152,98,1,2,0.0,5
152,99,1,2,0.0,5
152,110,1,2,0.0,5
153,57,1,3,0.5277300039702248,5
153,58,1,3,0.8581880582465107,5
153,87,1,1,0.7300326963848027,5
153,107,1,2,0.0,4
154,58,1,2,0.0,5
154,59,1,2,0.0,5
154,108,1,2,0.0,5
154,118,1,2,0.0,5
155,57,1,2,0.0,5
155,87,1,3,0.6156582079089771,6
155,119,1,3,0.5739174684222982,6
155,153,1,2,0.0,5
156,53,1,3,0.5988538821298897,6
156,54,1,2,0.0,5
156,77,1,3,0.9216168554897222,6
156,129,1,2,0.0,5
157,58,1,2,0.0,5
157,87,1,2,0.0,5
157,108,1,2,0.0,5
157,153,1,2,0.0,5
158,34,1,3,0.6155170415546003,6
158,69,1,2,0.0,5
158,74,1,3,0.7673085392532173,6
158,82,1,2,0.0,5
159,17,1,3,0.6933231892011795,4
159,60,1,2,0.0,3
159,79,1,2,0.0,3
159,106,1,3,0.5993145033568978,4
160,17,1,2,0.0,4
160,106,1,2,0.0,4
160,159,1,2,0.0,4
160,111,1,2,0.0,4
161,18,1,2,0.0,2
161,23,1,2,0.0,2
161,32,1,2,0.0,2
161,42,1,2,0.0,2
162,33,1,3,0.49848008459294274,5
162,52,1,2,0.0,4
162,63,1,3,0.7849439049217213,5
162,81,1,2,0.0,4
163,33,1,2,0.0,5
163,63,1,2,0.0,5
163,162,1,2,0.0,5
163,114,1,2,0.0,5
164,7,1,3,0.9946255217847327,5
164,62,1,2,0.0,4
164,63,1,3,0.8405305325168172,5
164,91,1,2,0.0,4
165,7,1,2,0.0,5
165,63,1,2,0.0,5
165,164,1,2,0.0,5
165,150,1,2,0.0,5
166,38,1,2,0.0,5
166,64,1,2,0.0,5
166,105,1,2,0.0,5
166,132,1,2,0.0,5
167,53,1,3,0.4901127118203956,6
167,68,1,2,0.0,5
167,77,1,3,0.714939325716008,6
167,148,1,2,0.0,5
168,53,1,2,0.0,6
168,77,1,2,0.0,6
168,167,1,2,0.0,6
168,156,1,2,0.0,6
169,34,1,2,0.0,6
169,74,1,2,0.0,6
169,138,1,2,0.0,6
169,158,1,2,0.0,6
170,17,1,3,0.7100026648852265,4
170,42,1,2,0.0,3
170,79,1,2,0.0,3
170,88,1,3,0.4392319762130057,4
171,17,1,2,0.0,4
171,88,1,2,0.0,4
171,93,1,2,0.0,4
171,170,1,2,0.0,4
172,87,1,3,0.691791882900292,6
172,75,1,3,0.6567965391111497,6
172,119,1,1,0.48873619582392247,6
172,121,1,2,0.0,5
173,87,1,2,0.0,6
173,119,1,2,0.0,6
173,172,1,2,0.0,6
173,155,1,2,0.0,6
174,62,1,3,1.047835035890204,5
174,12,1,2,0.0,4
174,64,1,2,0.0,4
174,98,1,3,1.0723590532877787,5
175,62,1,2,0.0,5
175,98,1,2,0.0,5
175,174,1,2,0.0,5
175,99,1,2,0.0,5
176,11,1,3,0.7272375136641859,6
176,76,1,2,0.0,5
176,121,1,2,0.0,5
176,123,1,3,0.5907587586207659,6
177,11,1,2,0.0,6
177,123,1,2,0.0,6
177,176,1,2,0.0,6
177,139,1,2,0.0,6
178,9,1,2,0.0,3
178,27,1,2,0.0,3
178,39,1,2,0.0,3
178,67,1,2,0.0,3
179,38,1,2,0.0,5
179,104,1,2,0.0,5
179,105,1,2,0.0,5
179,112,1,2,0.0,5
180,16,1,2,0.0,4
180,106,1,2,0.0,4
180,107,1,2,0.0,4
180,143,1,2,0.0,4
181,57,1,3,0.8134387521001281,5
181,92,1,2,0.0,4
181,111,1,2,0.0,4
181,115,1,3,0.7423567911887414,5
182,57,1,2,0.0,5
182,115,1,3,0.5269559091165018,6
182,181,1,2,0.0,5
182,119,1,3,0.5631261303561869,6
183,34,1,2,0.0,5
183,84,1,2,0.0,5
183,85,1,2,0.0,5
183,122,1,2,0.0,5
184,75,1,3,0.8167881945446344,6
184,115,1,3,0.5510757251582907,6
184,116,1,2,0.0,5
184,119,1,1,0.4792648343741046,6
185,75,1,2,0.0,6
185,119,1,2,0.0,6
185,184,1,2,0.0,6
185,172,1,2,0.0,6
186,115,1,2,0.0,6
186,119,1,2,0.0,6
186,182,1,2,0.0,6
186,184,1,2,0.0,6
187,75,1,2,0.0,5
187,76,1,2,0.0,5
187,110,1,2,0.0,5
187,121,1,2,0.0,5
188,33,1,3,0.5267038135744453,6
188,64,1,2,0.0,5
188,114,1,2,0.0,5
188,132,1,3,0.6156249821406268,6
189,16,1,2,0.0,4
189,66,1,2,0.0,4
189,117,1,2,0.0,4
189,151,1,2,0.0,4
190,15,1,2,0.0,3
190,29,1,2,0.0,3
190,43,1,2,0.0,3
190,66,1,2,0.0,3
191,31,1,3,0.5748239802844469,5
191,29,1,3,0.430139247465762,5
191,44,1,2,0.0,4
191,59,1,1,0.4601775691670944,5
192,31,1,2,0.0,5
192,59,1,2,0.0,5
192,191,1,2,0.0,5
192,109,1,2,0.0,5
193,13,1,2,0.0,6
193,74,1,2,0.0,6
193,124,1,2,0.0,6
193,137,1,2,0.0,6
194,29,1,2,0.0,5
194,59,1,2,0.0,5
194,118,1,2,0.0,5
194,191,1,2,0.0,5
195,19,1,2,0.0,3
195,25,1,2,0.0,3
195,35,1,2,0.0,3
195,127,1,2,0.0,3
196,48,1,2,0.0,5
196,76,1,2,0.0,5
196,110,1,2,0.0,5
196,133,1,2,0.0,5
197,33,1,3,0.3349959970879046,6
197,69,1,2,0.0,5
197,82,1,2,0.0,5
197,132,1,3,0.47125915094317894,6
198,33,1,2,0.0,6
198,132,1,2,0.0,6
198,197,1,2,0.0,6
198,188,1,2,0.0,6
199,9,2,1,0.0715182210627976,3
199,4,2,2,0.0,2
199,55,1,3,0.11352866519544026,3
200,9,1,2,0.0,3
200,55,1,2,0.0,3
200,199,1,2,0.0,3
200,67,1,2,0.0,3
201,7,1,3,0.507316745193968,5
201,73,1,2,0.0,4
201,100,1,2,0.0,4
201,126,1,3,0.28831792361250747,5
202,48,1,2,0.0,5
202,113,1,2,0.0,5
202,133,1,2,0.0,5
202,134,1,2,0.0,5
203,13,1,2,0.0,6
203,61,1,2,0.0,6
203,124,1,2,0.0,6
203,125,1,2,0.0,6
204,70,1,2,0.0,5
204,71,1,2,0.0,5
204,123,1,2,0.0,5
204,141,1,2,0.0,5
205,7,1,2,0.0,5
205,126,1,2,0.0,5
205,131,1,2,0.0,5
205,201,1,2,0.0,5
206,28,1,3,0.5600218008345481,5
206,27,1,2,0.0,4
206,40,1,2,0.0,4
206,56,1,3,0.45517530651436533,5
207,28,1,2,0.0,5
207,56,1,2,0.0,5
207,206,1,2,0.0,5
207,61,1,2,0.0,5
